[
  ////////////////////////////////////////////////////////////////
  //
  //  ExtraAttack
  //
  ////////////////////////////////////////////////////////////////
  {
    "Default": {
      "$type": "ConfigAbility",
      "abilityName": "Avatar_Alhatham_ExtraAttack",
      "abilityMixins": [
        {
          "$type": "ButtonHoldChargeMixin",
          "skillID": 10781,
          "chargeTime": 0.12,
          "secondChargeTime": 0.2,
          "OnBeginUncharged": [
            {
              "$type": "Predicated",
              "target": "Self",
              "targetPredicates": [
                {
                  "$type": "ByTargetGlobalValue",
                  "key": "_ABILITY_Alhatham_ForlornLotus_Level",
                  "value": 1,
                  "compareType": "MoreThanAndEqual"
                }
              ],
              "failActions": [
                {
                  "$type": "SetGlobalValue",
                  "key": "_ABILITY_Alhatham_ForlornLotus_AttackType",
                  "value": 0
                }
              ]
            },
            {
              "$type": "SetAnimatorTrigger",
              "triggerID": "DoSkill"
            },
            {
              "$type": "SetAnimatorInt",
              "intID": "SkillID",
              "value": 99,
              "predicates": [
                {
                  "$type": "ByAny",
                  "predicates": [
                    {
                      "$type": "ByAnimatorInt",
                      "value": 0,
                      "parameter": "ComboCount",
                      "logic": "Equal"
                    },
                    {
                      "$type": "ByAnimatorInt",
                      "value": 4,
                      "parameter": "ComboCount",
                      "logic": "Equal"
                    }
                  ]
                }
              ]
            },
            {
              "$type": "SetAnimatorBool",
              "boolID": "IsCharging",
              "value": false
            }
          ],
          "OnReleaseUncharged": [
            {
              "$type": "Predicated",
              "target": "Self",
              "targetPredicates": [
                {
                  "$type": "ByTargetGlobalValue",
                  "key": "_ABILITY_Alhatham_ForlornLotus_Level",
                  "value": 1,
                  "compareType": "MoreThanAndEqual"
                }
              ],
              "failActions": [
                {
                  "$type": "SetGlobalValue",
                  "key": "_ABILITY_Alhatham_ForlornLotus_AttackType",
                  "value": 0
                }
              ]
            },
            {
              "$type": "SetAnimatorInt",
              "intID": "SkillID",
              "value": 1
            }
          ],
          "OnBeginCharged": [
            {
              "$type": "SetAnimatorBool",
              "boolID": "IsCharging",
              "value": true
            }
          ],
          "OnReleaseCharged": [
            {
              "$type": "Predicated",
              "target": "Self",
              "targetPredicates": [
                {
                  "$type": "ByTargetGlobalValue",
                  "key": "_ABILITY_Alhatham_ForlornLotus_Level",
                  "value": 1,
                  "compareType": "MoreThanAndEqual"
                }
              ],
              "failActions": [
                {
                  "$type": "SetGlobalValue",
                  "key": "_ABILITY_Alhatham_ForlornLotus_AttackType",
                  "value": 0
                }
              ]
            },
            {
              "$type": "SetAnimatorBool",
              "boolID": "IsCharging",
              "value": false
            },
            {
              "$type": "SetAnimatorInt",
              "intID": "SkillID",
              "value": 1
            }
          ],
          "OnBeginSecondCharged": [
            {
              "$type": "Predicated",
              "target": "Self",
              "targetPredicates": [
                {
                  "$type": "ByTargetGlobalValue",
                  "key": "_ABILITY_Alhatham_ForlornLotus_Level",
                  "value": 1,
                  "compareType": "MoreThanAndEqual"
                }
              ],
              "failActions": [
                {
                  "$type": "SetGlobalValue",
                  "key": "_ABILITY_Alhatham_ForlornLotus_AttackType",
                  "value": 0
                }
              ]
            },
            {
              "$type": "SetAnimatorTrigger",
              "triggerID": "DoSkill",
              "predicates": [
                {
                  "$type": "ByLocalAvatarStamina",
                  "stamina": "%ExtraAttack_Sword_Stamina_Cost+%Flexible_Stamina",
                  "logic": "GreaterOrEqual"
                }
              ]
            },
            {
              "$type": "SetAnimatorInt",
              "intID": "SkillID",
              "value": 6,
              "predicates": [
                {
                  "$type": "ByLocalAvatarStamina",
                  "stamina": "%ExtraAttack_Sword_Stamina_Cost+%Flexible_Stamina",
                  "logic": "GreaterOrEqual"
                }
              ]
            },
            {
              "$type": "SetAnimatorBool",
              "boolID": "IsCharging",
              "value": false
            }
          ],
          "OnReleaseSecondCharged": [],
          "chargeStateIDs": [
            "Attack01",
            "Attack02",
            "Attack03",
            "Attack04",
            "Run"
          ]
        },
        {
          "$type": "AttachToStateIDMixin",
          "stateIDs": ["ExtraAttack"],
          "modifierName": "ExtraAttack_StaminaCost"
        }
      ],
      "modifiers": {
        "ExtraAttack_StaminaCost": {
          // "duration": 0.2,
          "onAdded": [
            {
              "$type": "AvatarSkillStart",
              "skillID": 10001,
              "costStaminaRatio": "%ExtraAttack_Sword_Stamina_Cost"
            }
          ]
        }
      },
      "abilitySpecials": {
        "ExtraAttack_Sword_Stamina_Cost": 0,
        "Flexible_Stamina": -2 //故意少判了一点点体力，为了顾及一部分网络延迟
      }
    }
  },
  ////////////////////////////////////////////////////////////////
  //
  //  空中攻击
  //
  ////////////////////////////////////////////////////////////////
  {
    "Default": {
      "$type": "ConfigAbility",
      "abilityName": "Avatar_Alhatham_SkillHoldCharge",
      "abilityMixins": [
        {
          "$type": "SkillButtonHoldChargeMixin", //长短按二择
          "skillID": 10782,
          "beforeStateIDs": ["ElementalArt_BS"],
          "chargeLoopStateIDs": ["ElementalArt_Charge"],
          "chargeLoopDurations": [10],
          "nextLoopTriggerID": "NextLoopTrigger",
          "endHoldTrigger": "EndHoldTrigger"
        },
        {
          "$type": "AttachToStateIDMixin",
          "stateIDs": ["ElementalArt_Charge"],
          "modifierName": "Focus"
        },
        {
          "$type": "AttachToStateIDMixin",
          "stateIDs": ["ElementalArt_BS", "ElementalArt_Charge"],
          "modifierName": "AimingAlertFX"
        },
        {
          "$type": "AttachToStateIDMixin",
          "stateIDs": ["ElementalArt_Charge"],
          "modifierName": "Charge_FX"
        }
      ],
      "modifiers": {
        "Focus": {
          "onAdded": [
            {
              "$type": "AvatarEnterFocus",
              "cameraFollowLower": {
                "x": 0.8,
                "y": 0.2,
                "z": -2.5
              },
              "cameraFollowUpper": {
                "x": 0.5,
                "y": -0.2,
                "z": 0.0
              },
              "cameraFastFocusMode": true,
              "dragButtonName": "Skill2",
              "assistance": {
                "ps4": {
                  "useGyro": false
                },
                "ps5": {
                  "useGyro": false
                },
                "other": {
                  "useGyro": true
                }
              },
              "canMove": false,
              "showCrosshair": false,
              "vcam_fov": 45,
              "focusAnchorVerAngle": 5,
              "focusAnchorHorAngle": 0
            }
          ],
          "onRemoved": [
            {
              "$type": "AvatarExitFocus",
              "keepRotation": true
            }
          ]
        },
        //长按蓄力的瞄准特效
        "Charge_FX": {
          "onAdded": [
            {
              "$type": "SetGlobalValue",
              "key": "_ALHATHAM_THROW_RANGE", //配合Aim_Line特效使用，可调整瞄准特效距离
              "value": 10
            },
            {
              "$type": "AttachEffect",
              "effectPattern": "Eff_Avatar_Male_Sword_Alhatham_ElementalArt_Aim_Line"
            }
          ]
        },
        //长按蓄力时角色自己身上的循环特效
        "AimingAlertFX": {
          "onAdded": [
            {
              "$type": "AttachEffect",
              "effectPattern": "Eff_Avatar_Male_Sword_Alhatham_ElementalArt_AimAlert"
            }
          ]
        }
      }
    }
  },
  {
    "Default": {
      "$type": "ConfigAbility",
      "abilityName": "Avatar_Alhatham_ElementalArt",
      "abilityMixins": [
        {
          "$type": "AttachToStateIDMixin",
          "stateIDs": ["ElementalArt", "ElementalArt_Custom"],
          "modifierName": "UNIQUE_Alhatham_ElementalArt_ForlornLotus_HitMark_Handler"
        },
        {
          "$type": "AttachToStateIDMixin",
          "stateIDs": ["ElementalArt"],
          "modifierName": "UNIQUE_Alhatham_ElementalArt_HandFX"
        },
        {
          "$type": "AttachToNormalizedTimeMixin",
          "stateID": "ElementalArt",
          "modifierName": "ElementalArt_Blink",
          "normalizeStart": 0,
          "normalizeEnd": 0.26
        },
        {
          "$type": "AttachToNormalizedTimeMixin",
          "stateID": "ElementalArt_Custom",
          "modifierName": "ElementalArt_Blink",
          "normalizeStart": 0,
          "normalizeEnd": 0.26
        }
      ],
      "onAbilityStart": [
        {
          "$type": "AvatarSkillStart",
          "skillID": 10782,
          "cdRatio": 1
        },
        {
          "$type": "Predicated",
          "target": "Self",
          "targetPredicates": [
            {
              "$type": "ByHasAttackTarget"
            }
          ],
          "successActions": [
            {
              "$type": "SetGlobalPos",
              "key": "_ABILITY_Alhatham_ElementalArt_RushPos",
              "target": "SelfAttackTarget",
              "setTarget": false,
              "born": {
                "$type": "ConfigBornBySelectedPoint",
                "offset": {
                  "x": 0.0,
                  "y": 0.0,
                  "z": 0.0
                }
              }
            }
          ],
          "failActions": [
            {
              "$type": "SetGlobalPos",
              "key": "_ABILITY_Alhatham_ElementalArt_RushPos",
              "target": "Self",
              "setTarget": true,
              "born": {
                "$type": "ConfigBornBySelf",
                "offset": {
                  "x": 0,
                  "y": 0,
                  "z": 50
                }
              }
            }
          ]
        }
        // {
        // 	"$type":"FixedAvatarRushMove",
        // 	"target":"Target",
        // 	"toPos":
        // 	{
        // 		"$type": "ConfigBornByGlobalValue",
        // 		"positionKey":"_ABILITY_Alhatham_ElementalArt_RushPos",
        // 		"offset":
        // 		{
        // 			"x": 0.0,
        // 			"y": 0.0,
        // 			"z": 0.0,
        // 		},
        // 	},
        // 	"maxRange":15,
        // 	"timeRange":0.18, //曾经0.16
        // 	"animatorStateIDs":["ElementalArt"], //这项是必须写的
        // 	// "isInAir":true,
        // },
      ],
      "modifiers": {
        "UNIQUE_Alhatham_ElementalArt_ForlornLotus_HitMark_Handler": {
          "isUnique": true,
          "onAttackLanded": [
            {
              "$type": "Predicated",
              "target": "Other",
              "targetPredicates": [
                {
                  "$type": "ByEntityTypes",
                  "entityTypes": ["Monster"]
                },
                {
                  "$type": "ByTargetGlobalValue",
                  "key": "_ANIMAL_ENTITY_TYPE",
                  "value": 0,
                  "compareType": "NoneOrEqual"
                },
                {
                  "$type": "ByAttackTags",
                  "attackTags": ["ElementalArt"]
                },
                {
                  "$type": "ByAttackType",
                  "attackType": "Melee"
                }
              ],
              "successActions": [
                {
                  "$type": "AttachModifier",
                  "modifierName": "UNIQUE_Alhatham_ElementalArt_ForlornLotus_HitMark"
                },
                {
                  "$type": "DebugLog",
                  "content": "!!!!!!!!!!!!!successActions!!!!!!!!!!!!!",
                  "doOffStage": true
                }
              ]
            },
            {
              "$type": "DebugLog",
              "content": "!!!!!!!!!!!!!onAttackLanded!!!!!!!!!!!!!",
              "doOffStage": true
            }
          ]
        },
        "UNIQUE_Alhatham_ElementalArt_HandFX": {
          "isUnique": true,
          "stacking": "Unique",
          "onAdded": [
            {
              "$type": "AttachEffect",
              "effectPattern": "Eff_Avatar_Male_Sword_Alhatham_ElementalArt_Hand"
            }
          ]
        },
        "UNIQUE_Alhatham_ElementalArt_ForlornLotus_HitMark": {
          "isUnique": true,
          "stacking": "Unique",
          "onAdded": [
            {
              "$type": "SetGlobalValue",
              "key": "_ABILITY_Alhatham_ForlornLotus_Type",
              "value": 1
              // "target": "OriginOwner"
            },
            {
              "$type": "TriggerAbility",
              "abilityName": "Avatar_Alhatham_ForlornLotus"
              // "target": "OriginOwner"
            }
          ]
        },
        "ElementalArt_Blink": {
          "onAdded": [
            {
              "$type": "FireEffect",
              "effectPattern": "Eff_Avatar_Male_Sword_Alhatham_ElementalArt_HideSpark"
            },
            {
              "$type": "TriggerSetVisible",
              "visible": false
            },
            // {
            //                       "$type": "TriggerSetPassThrough",
            //                       "passThrough": true,
            //                       "doOffStage": true,
            //                   },
            {
              "$type": "EnableHDMesh",
              "enable": false,
              "hdMeshKey": "Default"
            }
          ],
          "onRemoved": [
            {
              "$type": "FireEffect",
              "effectPattern": "Eff_Avatar_Male_Sword_Alhatham_ElementalArt_ShowSpark"
            },
            {
              "$type": "TriggerSetVisible",
              "visible": true,
              "doOffStage": true
            },
            // {
            //                       "$type": "TriggerSetPassThrough",
            //                       "passThrough": false,
            //                       "doOffStage": true,
            //                       "canBeHandledOnRecover": true,
            //                   },
            {
              "$type": "EnableHDMesh",
              "enable": true,
              "hdMeshKey": "Default",
              "canBeHandledOnRecover": true
            },
            {
              "$type": "FireEffect",
              "effectPattern": "Eff_Avatar_Male_Sword_Alhatham_ElementalArt_Attack"
            },
            {
              "$type": "TriggerAttackEvent",
              "targetType": "Enemy",
              "attackEvent": {
                "attackPattern": {
                  "$type": "ConfigAttackCircle",
                  "height": 1.5,
                  "triggerType": "TriggerNoRepeat",
                  "fanAngle": 180.0,
                  "radius": 2.0,
                  "radiusRatio": 0.0,
                  "born": {
                    "$type": "ConfigBornBySelf",
                    "offset": {
                      "x": 0.0,
                      "y": -0.1,
                      "z": 0.8
                    }
                  }
                },
                "attackInfo": {
                  "attackTag": "ElementalArt",
                  "attackProperty": {
                    "damagePercentage": 1,
                    "elementDurability": 25,
                    "strikeType": "Slash",
                    "attackType": "Melee",
                    "bonusCritical": 0,
                    "bonusCriticalHurt": 0,
                    "enBreak": 100
                  },
                  "hitPattern": {
                    "onHitEffectName": "default",
                    "hitImpulseType": "LV3",
                    "reboundRatio": 0,
                    "canBeDefenceHalt": true,
                    "hitHaltTime": 0.02,
                    "hitHaltTimeScale": 0.01,
                    "muteHitText": false
                  },
                  "forceCameraShake": false,
                  "cameraShake": {
                    "shakeType": "CustomVector",
                    "shakeRange": 0.12,
                    "shakeTime": 0.12,
                    "shakeDistance": 30,
                    "shakeDir": {
                      "x": -1,
                      "y": 0,
                      "z": 0
                    }
                  }
                }
              }
            }
          ]
        }
        // "Alhatham_ElementalArt_CreateBullet":
        // {
        // 	"onAdded":
        // 	[
        // 		{
        // 			"$type": "TriggerBullet",
        // 			"bulletID": 41078001,
        // 			"campID": 1001,
        // 			"campTargetType": "Enemy",
        // 			"born":
        // 			{
        // 				"$type": "ConfigBornByAttachPoint",
        // 				"attachPointName": "RootNode",
        // 				"offset":
        // 				{
        // 					"x": 0.0,
        // 					"y": 0.0,
        // 					"z": 0.0,
        // 				},
        // 			},
        // 		},
        // 	],
        // 	"onRemoved":
        // 	[
        // 		{
        // 			"$type": "KillGadget",
        // 			"gadgetInfo":
        // 			{
        // 				"$type": "SelectTargetsByChildren",
        // 				"configID": 41078001,
        // 				"sortType": "Default",
        // 			},
        // 			"doOffStage": true,
        // 		},
        // 	],
        // 	"onKill":
        // 	[
        // 		{
        // 			"$type": "KillGadget",
        // 			"gadgetInfo":
        // 			{
        // 				"$type": "SelectTargetsByChildren",
        // 				"configID": 41078001,
        // 				"sortType": "Default",
        // 			},
        // 			"doOffStage": true,
        // 		},
        // 	],
        // },
      }
    }
  },
  {
    "Default": {
      "$type": "ConfigAbility",
      "abilityName": "Avatar_Alhatham_ElementalArt_Custom",
      "onAbilityStart": [
        {
          "$type": "AvatarSkillStart",
          "skillID": 10782,
          "cdRatio": 1
        },
        {
          "$type": "SetGlobalPos",
          "key": "_ABILITY_Alhatham_ElementalArt_RushPos",
          "target": "Self",
          "setTarget": true,
          "born": {
            "$type": "ConfigBornByAttachPoint",
            "attachPointName": "FocusAnchor",
            "attachPointTargetType": "Self",
            "offset": {
              "x": 0,
              "y": 0,
              "z": 50
            },
            "useRotation": true,
            "direction": {
              "$type": "ConfigDirectionByAttachPoint",
              "attachPointName": "FocusAnchor",
              "attachPointTargetType": "Self",
              "useCorrectDir": true
            }
          }
        },
        // {
        // 	"$type": "SetGlobalDir",
        // 	"key": "_ABILITY_Alhatham_ElementalArt_RushDirPre",
        // 	"target": "Self",
        // 	"setTarget": true,
        // 	"born":
        // 	{
        // 		"$type":"ConfigBornBySelf",
        // 		"offset":
        // 		{
        // 			"x": 0,
        // 			"y": 0,
        // 			"z": 0,
        // 		},
        // 		"direction":
        // 		{
        // 			"$type": "ConfigDirectionByAttachPoint",
        // 			"attachPointName": "FocusAnchor",
        // 			"attachPointTargetType": "Self",
        // 		},
        // 	},
        // },
        {
          "$type": "FixedAvatarRushMove",
          "target": "Self",
          "toPos": {
            "$type": "ConfigBornByGlobalValue",
            "positionKey": "_ABILITY_Alhatham_ElementalArt_RushPos"
          },
          "maxRange": 15,
          "timeRange": 0.18, //曾经0.16
          "animatorStateIDs": ["ElementalArt_Custom"], //这项是必须写的
          "isInAir": true
        }
      ]
    }
  },
  {
    "Default": {
      "$type": "ConfigAbility",
      "abilityName": "Bullet_Alhatham_ElementalArt_Bullet",
      "onAbilityStart": [
        {
          "$type": "Predicated",
          "target": "Other",
          "targetPredicates": [
            {
              "$type": "ByEntityTypes",
              "entityTypes": ["Monster"]
            },
            {
              "$type": "ByTargetGlobalValue",
              "key": "_ANIMAL_ENTITY_TYPE",
              "value": 0,
              "compareType": "NoneOrEqual"
            }
          ],
          "successActions": [
            {
              "$type": "DamageByAttackValue",
              "target": "Target",
              "attackInfo": {
                "canBeModifiedBy": "OriginOwner",
                "attackTag": "ElementalArt",
                "attackProperty": {
                  "damagePercentage": 1,
                  "strikeType": "Slash",
                  "elementDurability": 25,
                  "elementType": "Grass",
                  "overrideByWeapon": false,
                  "attackType": "Melee",
                  "enBreak": 120
                },
                "hitPattern": {
                  "onHitEffectName": "default",
                  "hitImpulseType": "LV6",
                  // "hitLevel": "Air", //hitlevel = 5
                  // "hitImpulseX": 480, //hitlevel = 5
                  // "hitImpulseY": 600, //hitlevel = 5
                  "reboundRatio": 0,
                  "canBeDefenceHalt": false,
                  "hitHaltTime": 0.0,
                  "hitHaltTimeScale": 0.01,
                  "muteHitText": false
                }
              }
            },
            {
              "$type": "FireEffect",
              "effectPattern": "Eff_Avatar_Keqing_ElementalArt_Fly_Attack"
            },
            {
              "$type": "ApplyModifier",
              "modifierName": "UNIQUE_Alhatham_ElementalArt_Bullet_HitMark"
            }
          ]
        }
      ],
      "modifiers": {
        "UNIQUE_Alhatham_ElementalArt_Bullet_HitMark": {
          "isUnique": true,
          "onAdded": [
            {
              "$type": "SetGlobalValue",
              "key": "_ABILITY_Alhatham_ForlornLotus_Type",
              "value": 1,
              "target": "OriginOwner"
            },
            {
              "$type": "TriggerAbility",
              "abilityName": "Avatar_Alhatham_ForlornLotus",
              "target": "OriginOwner"
            }
          ]
        }
      }
    }
  },
  ////////////////////////////////////////////////////////////////
  //
  //  空中攻击
  //
  ////////////////////////////////////////////////////////////////
  {
    "Default": {
      "$type": "ConfigAbility",
      "abilityName": "Avatar_Alhatham_ForlornLotus",
      "abilityMixins": [
        {
          "$type": "AttachToStateIDMixin",
          "stateIDs": [
            "Attack01",
            "Attack02",
            "Attack03",
            "Attack04",
            "Attack05",
            "ExtraAttack",
            "ExtraAttack_AS"
          ],
          "modifierName": "UNIQUE_Avatar_Alhatham_NormalAttack_Mark"
        },
        {
          "$type": "AttachModifierToSelfGlobalValueMixin",
          "globalValueKey": "_ABILITY_Alhatham_ForlornLotus_Level",
          "valueSteps": [-0.5, 0.5, 3.5],
          "removeAppliedModifier": true,
          "defaultGlobalValueOnCreate": 0,
          "modifierNameSteps": [
            "UNIQUE_Avatar_Alhatham_OUT_ForlornLotus_NotInNormalAttack",
            "UNIQUE_Avatar_Alhatham_IN_ForlornLotus"
          ]
        },
        {
          "$type": "AttachModifierToSelfGlobalValueMixin",
          "globalValueKey": "_ABILITY_Alhatham_ForlornLotus_AttackType",
          "valueSteps": [-0.5, 0.5, 1.5],
          "removeAppliedModifier": true,
          "defaultGlobalValueOnCreate": 0,
          "modifierNameSteps": [
            "UNIQUE_Avatar_Alhatham_NormalMode",
            "UNIQUE_Avatar_Alhatham_ForlornLotusMode"
          ]
        },
        {
          "$type": "AttachModifierToSelfGlobalValueMixin",
          "globalValueKey": "_ABILITY_Alhatham_ForlornLotus_Level",
          "valueSteps": [-0.5, 0.5, 1.5, 2.5, 3.5],
          "removeAppliedModifier": true,
          "defaultGlobalValueOnCreate": 0,
          "modifierNameSteps": [
            "Blank",
            "UNIQUE_Avatar_Alhatham_ForlornLotus_LV1",
            "UNIQUE_Avatar_Alhatham_ForlornLotus_LV2",
            "UNIQUE_Avatar_Alhatham_ForlornLotus_LV3"
          ]
        }
      ],
      "onAbilityStart": [
        {
          "$type": "Predicated",
          "target": "Self",
          "targetPredicates": [
            {
              "$type": "ByTargetGlobalValue",
              "key": "_ABILITY_Alhatham_ForlornLotus_Type",
              "value": 1,
              "compareType": "Equal"
            }
          ],
          "successActions": [
            {
              "$type": "AttachModifier",
              "modifierName": "UNIQUE_Alhatham_ForlornLotus_GetLevel",
              "predicates": [
                {
                  "$type": "ByTargetGlobalValue",
                  "key": "_ABILITY_Alhatham_ForlornLotus_Level",
                  "value": 0,
                  "compareType": "NoneOrEqual"
                }
              ],
              "doOffStage": true
            },
            {
              "$type": "AttachModifier",
              "modifierName": "UNIQUE_Alhatham_ForlornLotus_GetLevel",
              "doOffStage": true
            }
          ],
          "doOffStage": true
        },
        {
          "$type": "Predicated",
          "target": "Self",
          "targetPredicates": [
            {
              "$type": "ByTargetGlobalValue",
              "key": "_ABILITY_Alhatham_ForlornLotus_Type",
              "value": 2,
              "compareType": "Equal"
            }
          ],
          "successActions": [
            {
              "$type": "AttachModifier",
              "modifierName": "UNIQUE_Alhatham_ForlornLotus_GetLevel",
              "doOffStage": true
            }
          ],
          "doOffStage": true
        },
        {
          "$type": "Predicated",
          "target": "Self",
          "targetPredicates": [
            {
              "$type": "ByTargetGlobalValue",
              "key": "_ABILITY_Alhatham_ForlornLotus_Type",
              "value": 3,
              "compareType": "Equal"
            }
          ],
          "successActions": [
            {
              "$type": "AttachModifier",
              "modifierName": "UNIQUE_Alhatham_ForlornLotus_GetLevel",
              "doOffStage": true
            },
            {
              "$type": "AttachModifier",
              "modifierName": "UNIQUE_Alhatham_ForlornLotus_GetLevel",
              "doOffStage": true
            }
          ],
          "doOffStage": true
        },
        {
          "$type": "Predicated",
          "target": "Self",
          "targetPredicates": [
            {
              "$type": "ByTargetGlobalValue",
              "key": "_ABILITY_Alhatham_ForlornLotus_Type",
              "value": 4,
              "compareType": "Equal"
            }
          ],
          "successActions": [
            {
              "$type": "AttachModifier",
              "modifierName": "UNIQUE_Alhatham_ForlornLotus_GetLevel",
              "doOffStage": true
            },
            {
              "$type": "AttachModifier",
              "modifierName": "UNIQUE_Alhatham_ForlornLotus_GetLevel",
              "doOffStage": true
            },
            {
              "$type": "AttachModifier",
              "modifierName": "UNIQUE_Alhatham_ForlornLotus_GetLevel",
              "doOffStage": true
            }
          ],
          "doOffStage": true
        }
      ],
      "modifiers": {
        "UNIQUE_Alhatham_ForlornLotus_GetLevel": {
          "duration": 8,
          "isUnique": true,
          "stacking": "MultipleRefresh",
          "stackingOption": {
            "maxModifierNumForMultipleType": 3
          },
          "elementDurability": 8,
          "elementType": "None",
          "modifierMixins": [
            {
              "$type": "AttachActionToModifierMixin",
              "onAdded": [
                {
                  "$type": "AddGlobalValue",
                  "key": "_ABILITY_Alhatham_ForlornLotus_Level",
                  "value": 1,
                  "useLimitRange": true,
                  "maxValue": 3,
                  "minValue": 0,
                  "doOffStage": true
                }
              ],
              "onRemoved": [
                {
                  "$type": "AddGlobalValue",
                  "key": "_ABILITY_Alhatham_ForlornLotus_Level",
                  "value": -1,
                  "useLimitRange": true,
                  "maxValue": 3,
                  "minValue": 0,
                  "doOffStage": true,
                  "canBeHandledOnRecover": true
                }
              ]
            }
          ]
        },
        "UNIQUE_Avatar_Alhatham_NormalAttack_Mark": {
          "isUnique": true,
          "modifierMixins": [
            {
              "$type": "AttachActionToModifierMixin",
              "onAdded": [
                {
                  "$type": "SetGlobalValue",
                  "key": "_ABILITY_Alhatham_NormalAttack_Mark",
                  "value": 1,
                  "doOffStage": true
                }
              ],
              "onRemoved": [
                {
                  "$type": "SetGlobalValue",
                  "key": "_ABILITY_Alhatham_NormalAttack_Mark",
                  "value": 0,
                  "doOffStage": true,
                  "canBeHandledOnRecover": true
                }
              ]
            },
            {
              "$type": "AttachToNormalizedTimeMixin",
              "stateID": "Attack01",
              "modifierName": "Alhatham_ShowRuneWeapon_OnEnter",
              "normalizeStart": 0
            },
            {
              "$type": "AttachToNormalizedTimeMixin",
              "stateID": "Attack02",
              "modifierName": "Alhatham_ShowRuneWeapon_OnEnter",
              "normalizeStart": 0
            },
            {
              "$type": "AttachToNormalizedTimeMixin",
              "stateID": "Attack03",
              "modifierName": "Alhatham_ShowRuneWeapon_OnEnter",
              "normalizeStart": 0
            },
            {
              "$type": "AttachToNormalizedTimeMixin",
              "stateID": "Attack04",
              "modifierName": "Alhatham_ShowRuneWeapon_OnEnter",
              "normalizeStart": 0
            },
            {
              "$type": "AttachToNormalizedTimeMixin",
              "stateID": "Attack05",
              "modifierName": "Alhatham_ShowRuneWeapon_OnEnter",
              "normalizeStart": 0
            },
            {
              "$type": "AttachToNormalizedTimeMixin",
              "stateID": "ExtraAttack",
              "modifierName": "Alhatham_ShowRuneWeapon_OnEnter",
              "normalizeStart": 0
            },
            {
              "$type": "AttachToStateIDMixin",
              "stateIDs": [
                "Attack01",
                "Attack02",
                "Attack03",
                "Attack04",
                "Attack05",
                "ExtraAttack",
                "ExtraAttack_AS"
              ],
              "modifierName": "Alhatham_HideRuneWeapon_OnExit"
            },
            {
              "$type": "AttachToNormalizedTimeMixin",
              "stateID": "Attack01",
              "modifierName": "Alhatham_HideRuneWeapon_OnEnter",
              "normalizeStart": 0.5
            },
            {
              "$type": "AttachToNormalizedTimeMixin",
              "stateID": "Attack02",
              "modifierName": "Alhatham_HideRuneWeapon_OnEnter",
              "normalizeStart": 0.5
            },
            {
              "$type": "AttachToNormalizedTimeMixin",
              "stateID": "Attack03",
              "modifierName": "Alhatham_HideRuneWeapon_OnEnter",
              "normalizeStart": 0.5
            },
            {
              "$type": "AttachToNormalizedTimeMixin",
              "stateID": "Attack04",
              "modifierName": "Alhatham_HideRuneWeapon_OnEnter",
              "normalizeStart": 0.5
            },
            {
              "$type": "AttachToNormalizedTimeMixin",
              "stateID": "Attack05",
              "modifierName": "Alhatham_HideRuneWeapon_OnEnter",
              "normalizeStart": 0.5
            },
            {
              "$type": "AttachToNormalizedTimeMixin",
              "stateID": "ExtraAttack_AS",
              "modifierName": "Alhatham_HideRuneWeapon_OnEnter",
              "normalizeStart": 0.5
            }
          ]
        },
        "Alhatham_ShowRuneWeapon_OnEnter": {
          "stacking": "Unique",
          "onAdded": [
            {
              "$type": "SetGlobalValue",
              "key": "_ABILITY_Alhatham_RuneWeapon_Mark",
              "value": 1,
              "doOffStage": true
            }
          ]
        },
        "Alhatham_HideRuneWeapon_OnEnter": {
          "stacking": "Unique",
          "onAdded": [
            {
              "$type": "SetGlobalValue",
              "key": "_ABILITY_Alhatham_RuneWeapon_Mark",
              "value": 0,
              "doOffStage": true
            }
          ]
        },
        "Alhatham_HideRuneWeapon_OnExit": {
          "stacking": "Unique",
          "onRemoved": [
            {
              "$type": "SetGlobalValue",
              "key": "_ABILITY_Alhatham_RuneWeapon_Mark",
              "value": 0,
              "doOffStage": true
            }
          ]
        },
        "UNIQUE_Avatar_Alhatham_IN_ForlornLotus": {
          "isUnique": true,
          "onAdded": [
            {
              "$type": "SetGlobalValue",
              "key": "_ABILITY_Alhatham_ForlornLotus_AttackType",
              "value": 1,
              "doOffStage": true
            }
          ]
        },
        "UNIQUE_Avatar_Alhatham_OUT_ForlornLotus_NotInNormalAttack": {
          "isUnique": true,
          "onAdded": [
            {
              "$type": "SetGlobalValue",
              "key": "_ABILITY_Alhatham_ForlornLotus_AttackType",
              "value": 0,
              "predicates": [
                {
                  "$type": "ByTargetGlobalValue",
                  "key": "_ABILITY_Alhatham_NormalAttack_Mark",
                  "value": 0,
                  "compareType": "NoneOrEqual"
                }
              ],
              "doOffStage": true
            }
          ]
        },
        "UNIQUE_Avatar_Alhatham_ForlornLotusMode": {
          "isUnique": true,
          "modifierMixins": [
            {
              "$type": "AttachModifierToSelfGlobalValueMixin",
              "globalValueKey": "_ABILITY_Alhatham_RuneWeapon_Mark",
              "valueSteps": [-0.5, 0.5, 1.5],
              "removeAppliedModifier": true,
              "modifierNameSteps": [
                "Blank",
                "UNIQUE_Alhatham_RuneWeapon_Enhanced"
              ]
            },
            {
              "$type": "ReplaceEventPatternMixin",
              "oldPatterns": [
                "Alhatham_Attack01",
                "Alhatham_Attack02",
                "Alhatham_Attack03",
                "Alhatham_Attack04",
                "Alhatham_Attack05",
                "Alhatham_ExtraAttack"
              ],
              "newPatterns": [
                "Alhatham_ForlornLotus_Attack01",
                "Alhatham_ForlornLotus_Attack02",
                "Alhatham_ForlornLotus_Attack03",
                "Alhatham_ForlornLotus_Attack04",
                "Alhatham_ForlornLotus_Attack05",
                "Alhatham_ForlornLotus_ExtraAttack"
              ]
            }
          ],
          "onAttackLanded": [
            {
              "$type": "Predicated",
              "target": "Other",
              //要求对怪造成伤害
              "targetPredicates": [
                {
                  "$type": "ByEntityTypes",
                  "entityTypes": ["Monster"]
                },
                {
                  "$type": "ByTargetGlobalValue",
                  "key": "_ANIMAL_ENTITY_TYPE",
                  "value": 0,
                  "compareType": "NoneOrEqual"
                },
                // {
                //     "$type": "ByHitDamage",
                //     "damage": 0,
                //     "logic": "Greater"
                // },
                {
                  "$type": "ByAttackTags",
                  "attackTags": [
                    "NormalAttack_01",
                    "NormalAttack_02",
                    "NormalAttack_03",
                    "NormalAttack_04",
                    "NormalAttack_05",
                    "NormalAttack_06"
                  ]
                },
                {
                  "$type": "ByAny",
                  "predicates": [
                    {
                      "$type": "ByHitElement",
                      "element": "Fire"
                    },
                    {
                      "$type": "ByHitElement",
                      "element": "Water"
                    },
                    {
                      "$type": "ByHitElement",
                      "element": "Ice"
                    },
                    {
                      "$type": "ByHitElement",
                      "element": "Electric"
                    },
                    {
                      "$type": "ByHitElement",
                      "element": "Wind"
                    },
                    {
                      "$type": "ByHitElement",
                      "element": "Rock"
                    },
                    {
                      "$type": "ByHitElement",
                      "element": "Grass"
                    }
                  ]
                }
              ],
              "successActions": [
                {
                  "$type": "ApplyModifier",
                  "modifierName": "UNIQUE_Avatar_Alhatham_ForlornLotus_Attack"
                }
              ]
            }
          ]
          // "onKill":
          // [
          // 	{
          // 		"$type": "SetGlobalValue",
          // 		"key": "_ABILITY_Alhatham_ForlornLotus_Level",
          // 		"value": 0,
          // 		"doOffStage": true,
          //           },
          // ],
          // "onAvatarOut":
          // [
          // 	{
          // 		"$type": "SetGlobalValue",
          // 		"key": "_ABILITY_Alhatham_ForlornLotus_Level",
          // 		"value": 0,
          // 		"doOffStage": true,
          //           },
          // ],
        },
        "UNIQUE_Avatar_Alhatham_NormalMode": {
          "isUnique": true,
          "modifierMixins": [
            {
              "$type": "AttachModifierToSelfGlobalValueMixin",
              "globalValueKey": "_ABILITY_Alhatham_RuneWeapon_Mark",
              "valueSteps": [-0.5, 0.5, 1.5],
              "removeAppliedModifier": true,
              "modifierNameSteps": ["Blank", "UNIQUE_Alhatham_RuneWeapon"]
            }
          ]
        },
        "UNIQUE_Avatar_Alhatham_ForlornLotus_Attack": {
          "isUnique": true,
          "stacking": "Unique",
          "duration": 1.5,
          "onAdded": [
            {
              "$type": "ApplyModifier",
              "modifierName": "Avatar_Alhatham_ForlornLotus_Attack_LV3",
              "predicates": [
                {
                  "$type": "ByTargetGlobalValue",
                  "key": "_ABILITY_Alhatham_ForlornLotus_Level",
                  "value": 3,
                  "compareType": "Equal"
                }
              ]
            },
            {
              "$type": "ApplyModifier",
              "modifierName": "Avatar_Alhatham_ForlornLotus_Attack_LV2",
              "predicates": [
                {
                  "$type": "ByTargetGlobalValue",
                  "key": "_ABILITY_Alhatham_ForlornLotus_Level",
                  "value": 2,
                  "compareType": "Equal"
                }
              ]
            },
            {
              "$type": "ApplyModifier",
              "modifierName": "Avatar_Alhatham_ForlornLotus_Attack_LV1",
              "predicates": [
                {
                  "$type": "ByTargetGlobalValue",
                  "key": "_ABILITY_Alhatham_ForlornLotus_Level",
                  "value": 1,
                  "compareType": "Equal"
                }
              ]
            },
            {
              "$type": "ModifyAvatarSkillCD",
              "skillSlot": [2],
              "cdDelta": -2
            }
          ]
        },
        "Avatar_Alhatham_ForlornLotus_Attack_LV1": {
          "duration": 1,
          "onAdded": [
            {
              "$type": "FireEffect",
              "effectPattern": "Eff_Avatar_Male_Sword_Alhatham_ForlornLotus_Attack_01"
            },
            {
              "$type": "TriggerAttackEvent",
              "targetType": "Enemy",
              "attackEvent": {
                "attackPattern": {
                  "$type": "ConfigAttackCircle",
                  "triggerType": "TriggerNoRepeat",
                  "height": 2.0,
                  "fanAngle": 360.0,
                  "radius": 3.0,
                  "born": {
                    "$type": "ConfigBornByTarget",
                    "offset": {
                      "x": 0.0,
                      "y": 0.0,
                      "z": 1.0
                    }
                  }
                },
                "attackInfo": {
                  "attackTag": "Alhatham_ForlornLotus_Attack_01",
                  "attackProperty": {
                    "damagePercentage": 1,
                    "overrideByWeapon": true,
                    "strikeType": "Slash",
                    "attackType": "Default",
                    "elementType": "Grass",
                    "elementDurability": 25,
                    "elementRank": 1.0,
                    "enBreak": 100
                  },
                  "hitPattern": {
                    "onHitEffectName": "default",
                    "hitImpulseType": "LV4",
                    "retreatType": "ByAttacker",
                    "reboundRatio": 0,
                    "canBeDefenceHalt": false,
                    "hitHaltTime": 0,
                    "hitHaltTimeScale": 0.1,
                    "muteHitText": false
                  },
                  "forceCameraShake": true,
                  "cameraShake": {
                    "shakeType": "CustomVector",
                    "shakeRange": 0.24,
                    "shakeTime": 0.12,
                    "shakeDistance": 30,
                    "shakeDir": {
                      "x": 0,
                      "y": 1,
                      "z": 0
                    },
                    "extension": {
                      "baseCycle": 0.24,
                      "cycleDamping": 0,
                      "rangeAttenuation": 0.3
                    }
                  }
                }
              }
            }
          ]
        },
        "Avatar_Alhatham_ForlornLotus_Attack_LV2": {
          "duration": 1,
          "onAdded": [
            {
              "$type": "FireEffect",
              "effectPattern": "Eff_Avatar_Male_Sword_Alhatham_ForlornLotus_Attack_02"
            },
            {
              "$type": "TriggerAttackEvent",
              "targetType": "Enemy",
              "attackEvent": {
                "attackPattern": {
                  "$type": "ConfigAttackCircle",
                  "triggerType": "TriggerNoRepeat",
                  "height": 2.0,
                  "fanAngle": 360.0,
                  "radius": 3.0,
                  "born": {
                    "$type": "ConfigBornByTarget",
                    "offset": {
                      "x": 0.0,
                      "y": 0.0,
                      "z": 1.0
                    }
                  }
                },
                "attackInfo": {
                  "attackTag": "Alhatham_ForlornLotus_Attack_02",
                  "attackProperty": {
                    "damagePercentage": 1,
                    "overrideByWeapon": true,
                    "strikeType": "Slash",
                    "attackType": "Default",
                    "elementType": "Grass",
                    "elementDurability": 25,
                    "elementRank": 1.0,
                    "enBreak": 100
                  },
                  "hitPattern": {
                    "onHitEffectName": "default",
                    "hitImpulseType": "LV4",
                    "retreatType": "ByAttacker",
                    "reboundRatio": 0,
                    "canBeDefenceHalt": false,
                    "hitHaltTime": 0,
                    "hitHaltTimeScale": 0.1,
                    "muteHitText": false
                  },
                  "forceCameraShake": true,
                  "cameraShake": {
                    "shakeType": "CustomVector",
                    "shakeRange": 0.24,
                    "shakeTime": 0.12,
                    "shakeDistance": 30,
                    "shakeDir": {
                      "x": 0,
                      "y": 1,
                      "z": 0
                    },
                    "extension": {
                      "baseCycle": 0.24,
                      "cycleDamping": 0,
                      "rangeAttenuation": 0.3
                    }
                  }
                }
              }
            }
          ]
        },
        "Avatar_Alhatham_ForlornLotus_Attack_LV3": {
          "duration": 1,
          "onAdded": [
            {
              "$type": "FireEffect",
              "effectPattern": "Eff_Avatar_Male_Sword_Alhatham_ForlornLotus_Attack_03"
            },
            {
              "$type": "TriggerAttackEvent",
              "targetType": "Enemy",
              "attackEvent": {
                "attackPattern": {
                  "$type": "ConfigAttackCircle",
                  "triggerType": "TriggerNoRepeat",
                  "height": 2.0,
                  "fanAngle": 360.0,
                  "radius": 3.0,
                  "born": {
                    "$type": "ConfigBornByTarget",
                    "offset": {
                      "x": 0.0,
                      "y": 0.0,
                      "z": 1.0
                    }
                  }
                },
                "attackInfo": {
                  "attackTag": "Alhatham_ForlornLotus_Attack_03",
                  "attackProperty": {
                    "damagePercentage": 1,
                    "overrideByWeapon": true,
                    "strikeType": "Slash",
                    "attackType": "Default",
                    "elementType": "Grass",
                    "elementDurability": 25,
                    "elementRank": 1.0,
                    "enBreak": 100
                  },
                  "hitPattern": {
                    "onHitEffectName": "default",
                    "hitImpulseType": "LV4",
                    "retreatType": "ByAttacker",
                    "reboundRatio": 0,
                    "canBeDefenceHalt": false,
                    "hitHaltTime": 0,
                    "hitHaltTimeScale": 0.1,
                    "muteHitText": false
                  },
                  "forceCameraShake": true,
                  "cameraShake": {
                    "shakeType": "CustomVector",
                    "shakeRange": 0.24,
                    "shakeTime": 0.12,
                    "shakeDistance": 30,
                    "shakeDir": {
                      "x": 0,
                      "y": 1,
                      "z": 0
                    },
                    "extension": {
                      "baseCycle": 0.24,
                      "cycleDamping": 0,
                      "rangeAttenuation": 0.3
                    }
                  }
                }
              }
            }
          ]
        },
        "UNIQUE_Avatar_Alhatham_ForlornLotus_LV1": {
          "isUnique": true,
          "onAdded": [
            {
              "$type": "AttachEffect",
              "effectPattern": "Eff_Avatar_Male_Sword_Alhatham_ElementalArt_Prism_LV1"
            }
          ]
        },
        "UNIQUE_Avatar_Alhatham_ForlornLotus_LV2": {
          "isUnique": true,
          "onAdded": [
            {
              "$type": "AttachEffect",
              "effectPattern": "Eff_Avatar_Male_Sword_Alhatham_ElementalArt_Prism_LV1"
            },
            {
              "$type": "AttachEffect",
              "effectPattern": "Eff_Avatar_Male_Sword_Alhatham_ElementalArt_Prism_LV2"
            }
          ]
        },
        "UNIQUE_Avatar_Alhatham_ForlornLotus_LV3": {
          "isUnique": true,
          "onAdded": [
            {
              "$type": "AttachEffect",
              "effectPattern": "Eff_Avatar_Male_Sword_Alhatham_ElementalArt_Prism_LV1"
            },
            {
              "$type": "AttachEffect",
              "effectPattern": "Eff_Avatar_Male_Sword_Alhatham_ElementalArt_Prism_LV2"
            },
            {
              "$type": "AttachEffect",
              "effectPattern": "Eff_Avatar_Male_Sword_Alhatham_ElementalArt_Prism_LV3"
            }
          ]
        },
        "UNIQUE_Alhatham_RuneWeapon": {
          "isUnique": true,
          "onAdded": [
            {
              "$type": "AttachEffect",
              "effectPattern": "Eff_Avatar_Male_Sword_Alhatham_RuneWeapon"
            }
          ],
          "onRemoved": [
            {
              "$type": "FireEffect",
              "effectPattern": "Eff_Avatar_Male_Sword_Alhatham_RuneWeapon_Dissappear",
              "born": {
                "$type": "ConfigBornByAttachPoint",
                "attachPointName": "WeaponL",
                "attachPointTargetType": "Self"
              }
            }
          ]
        },
        "UNIQUE_Alhatham_RuneWeapon_Enhanced": {
          "isUnique": true,
          "onAdded": [
            {
              "$type": "AttachEffect",
              "effectPattern": "Eff_Avatar_Male_Sword_Alhatham_RuneWeapon_Enhanced"
            }
          ],
          "onRemoved": [
            {
              "$type": "FireEffect",
              "effectPattern": "Eff_Avatar_Male_Sword_Alhatham_RuneWeapon_Enhanced_Dissappear",
              "born": {
                "$type": "ConfigBornByAttachPoint",
                "attachPointName": "WeaponL",
                "attachPointTargetType": "Self"
              }
            }
          ]
        },
        "Blank": {}
      },
      "abilitySpecials": {}
    }
  },
  ////////////////////////////////////////////////////////////////
  //
  //  空中攻击
  //
  ////////////////////////////////////////////////////////////////
  {
    "Default": {
      "$type": "ConfigAbility",
      "abilityName": "Avatar_Alhatham_ElementalBurst",
      "abilityMixins": [
        {
          "$type": "AttachToStateIDMixin",
          "stateIDs": ["ElementalBurst"],
          "modifierName": "ElementalBurst_State"
        },
        {
          "$type": "AttachToStateIDMixin", //保证表演完整性
          "stateIDs": ["ElementalBurst", "ElementalBurst_AS"],
          "modifierName": "Alhatham_ElementalBurst_NoEmotion"
        },
        {
          "$type": "AttachToStateIDMixin", //保证表演完整性
          "stateIDs": ["ElementalBurst"],
          "modifierName": "Alhatham_ElementalBurst_Weather"
        }
      ],
      "onAbilityStart": [
        {
          "$type": "AvatarSkillStart",
          "skillID": 10785,
          "cdRatio": 1
        },
        {
          "$type": "RemoveModifier",
          "modifierName": "Alhatham_ElementalBurst_FogFX"
        },
        {
          "$type": "ApplyModifier",
          "modifierName": "Alhatham_ElementalBurst_FogFX"
        },
        {
          "$type": "AvatarEnterCameraShot",
          "cameraMoveCfgPath": "Camera_Alhatham_ElementalBurst",
          "target": "Self",
          "predicates": [
            {
              "$type": "ByAttackNotHitScene",
              "attackPattern": {
                "$type": "ConfigAttackCircle",
                "triggerType": "TriggerNoRepeat",
                "height": 0.4,
                "fanAngle": 30.0,
                "radius": 1.4,
                "born": {
                  "$type": "ConfigBornBySelf",
                  "offset": {
                    "x": 0.0,
                    "y": 1.5,
                    "z": 0.0
                  }
                }
              },
              "checkWaterLayer": true
            },
            {
              "$type": "ByAvatarInWaterDepth",
              "compareType": "LessAndEqual",
              "depth": 0.5
            }
          ]
        },
        {
          "$type": "CreateGadget",
          "gadgetID": 41078011,
          "campID": 1001,
          "campTargetType": "Enemy",
          "born": {
            "$type": "ConfigBornBySelf",
            "offset": {
              "x": 0.0,
              "y": 0.0,
              "z": 0.0
            }
            // "onGround": true,
            // "alongGround": false,
            // "onGroundIgnoreWater": true,
            // "onGroundRaycastUpDist": 3,
          }
        }
      ],
      "modifiers": {
        "ElementalBurst_State": {
          "state": "Invincible",
          "onAdded": [
            {
              "$type": "ClearEndura",
              "target": "Self"
            }
          ],
          "modifierMixins": [
            {
              "$type": "WindZoneMixin",
              "shapeName": "CircleR3",
              "strength": -3,
              "attenuation": 2,
              "born": {
                "$type": "ConfigBornByTarget"
              },
              "targetType": "Enemy",
              "predicates": [
                {
                  "$type": "ByEntityTypes",
                  "entityTypes": ["Monster", "Grass"]
                },
                {
                  "$type": "ByTargetWeight", //WindZoneLevel = 2
                  "logic": "LesserOrEqual", //WindZoneLevel = 2
                  "weight": 250.0 //WindZoneLevel = 2
                }
              ]
            }
          ]
        },
        "Alhatham_ElementalBurst_NoEmotion": {
          "onAdded": [
            {
              "$type": "AttachAbilityStateResistance",
              "resistanceListID": 11002
            },
            {
              "$type": "ControlEmotion",
              "toggleBlink": false,
              "toggleEmoSync": false,
              "toggleEyeKey": false
            },
            {
              "$type": "EnableHeadControl",
              "enable": false,
              "blend": false
            }
          ],
          "onRemoved": [
            {
              "$type": "ControlEmotion",
              "doOffStage": true,
              "toggleBlink": true,
              "toggleEmoSync": true,
              "toggleEyeKey": true
            },
            {
              "$type": "EnableHeadControl",
              "enable": true,
              "doOffStage": true
            }
          ]
        },
        "Alhatham_ElementalBurst_Weather": {
          "modifierMixins": [
            {
              "$type": "TriggerWeatherMixin",
              "type": "Skill",
              "weatherPattern": "Weather_Alhatham_ElementalBurst",
              "transDuration": 0.3
            }
          ]
        },
        "Alhatham_ElementalBurst_FogFX": {
          "duration": 2.0,
          "onAdded": [
            {
              "$type": "DungeonFogEffects",
              "enable": true,
              "muteRemoteAction": true,
              "cameraFogEffectName": "Eff_Avatar_Male_Sword_Alhatham_ElementalBurst_Fog",
              "localOffset": {
                "x": 0,
                "y": 0,
                "z": 0
              }
            }
          ],
          "onRemoved": [
            {
              "$type": "DungeonFogEffects",
              "cameraFogEffectName": "Eff_Avatar_Male_Sword_Alhatham_ElementalBurst_Fog",
              "enable": false,
              "doOffStage": true
            }
          ],
          "onAvatarOut": [
            {
              "$type": "RemoveModifier",
              "modifierName": "Alhatham_ElementalBurst_FogFX",
              "doOffStage": true
            }
          ]
        }
      }
    }
  },
  {
    "Default": {
      "$type": "ConfigAbility",
      "abilityName": "SkillObj_Alhatham_ElementalBurst_Dummy",
      "onAdded": [
        {
          "$type": "ApplyModifier",
          "modifierName": "Alhatham_ElementalBurst_Dummy_Start"
        }
      ],
      "modifiers": {
        "Alhatham_ElementalBurst_Dummy_Start": {
          "duration": 1.5,
          "onAdded": [
            {
              "$type": "CopyGlobalValue",
              "srcTarget": "OriginOwner",
              "dstTarget": "Self",
              "srcKey": "_ABILITY_Alhatham_ForlornLotus_Level",
              "dstKey": "_ABILITY_Alhatham_ForlornLotus_Level"
            },
            {
              "$type": "SetGlobalValueToOverrideMap",
              "globalValueKey": "_ABILITY_Alhatham_ForlornLotus_Level",
              "overrideMapKey": "ForlornLotus_Level"
            },
            {
              "$type": "AttachEffect",
              "effectPattern": "Eff_Avatar_Male_Sword_Alhatham_ElementalBurst_ForlornLotus"
            },
            {
              "$type": "AttachEffect",
              "effectPattern": "Eff_Avatar_Male_Sword_Alhatham_ElementalBurst_Prism_LV0",
              "predicates": [
                {
                  "$type": "ByTargetGlobalValue",
                  "key": "_ABILITY_Alhatham_ForlornLotus_Level",
                  "value": 0,
                  "compareType": "NoneOrEqual"
                }
              ]
            },
            {
              "$type": "AttachEffect",
              "effectPattern": "Eff_Avatar_Male_Sword_Alhatham_ElementalBurst_Prism_LV1",
              "predicates": [
                {
                  "$type": "ByTargetGlobalValue",
                  "key": "_ABILITY_Alhatham_ForlornLotus_Level",
                  "value": 1,
                  "compareType": "Equal"
                }
              ]
            },
            {
              "$type": "AttachEffect",
              "effectPattern": "Eff_Avatar_Male_Sword_Alhatham_ElementalBurst_Prism_LV2",
              "predicates": [
                {
                  "$type": "ByTargetGlobalValue",
                  "key": "_ABILITY_Alhatham_ForlornLotus_Level",
                  "value": 2,
                  "compareType": "Equal"
                }
              ]
            },
            {
              "$type": "AttachEffect",
              "effectPattern": "Eff_Avatar_Male_Sword_Alhatham_ElementalBurst_Prism_LV3",
              "predicates": [
                {
                  "$type": "ByTargetGlobalValue",
                  "key": "_ABILITY_Alhatham_ForlornLotus_Level",
                  "value": 3,
                  "compareType": "Equal"
                }
              ]
            },
            {
              "$type": "AddElementDurability",
              "modifierName": "UNIQUE_Alhatham_ForlornLotus_GetLevel",
              "value": -100,
              "useLimitRange": true,
              "maxValue": 0,
              "minValue": 0,
              "target": "OriginOwner"
            },
            {
              "$type": "AddElementDurability",
              "modifierName": "UNIQUE_Alhatham_ForlornLotus_GetLevel",
              "value": -100,
              "useLimitRange": true,
              "maxValue": 0,
              "minValue": 0,
              "target": "OriginOwner"
            },
            {
              "$type": "AddElementDurability",
              "modifierName": "UNIQUE_Alhatham_ForlornLotus_GetLevel",
              "value": -100,
              "useLimitRange": true,
              "maxValue": 0,
              "minValue": 0,
              "target": "OriginOwner"
            }
          ],
          "onRemoved": [
            {
              "$type": "ApplyModifier",
              "modifierName": "Alhatham_ElementalBurst_Dummy_Attack"
            }
          ]
        },
        "Alhatham_ElementalBurst_Dummy_Attack": {
          "onAdded": [
            {
              "$type": "SetGlobalValue",
              "key": "_ABILITY_Alhatham_ForlornLotus_ATKCount",
              "value": 3,
              "predicates": [
                {
                  "$type": "ByTargetGlobalValue",
                  "key": "_ABILITY_Alhatham_ForlornLotus_Level",
                  "value": 0,
                  "compareType": "NoneOrEqual"
                }
              ]
            },
            {
              "$type": "SetGlobalValue",
              "key": "_ABILITY_Alhatham_ForlornLotus_ATKCount",
              "value": 4,
              "predicates": [
                {
                  "$type": "ByTargetGlobalValue",
                  "key": "_ABILITY_Alhatham_ForlornLotus_Level",
                  "value": 1,
                  "compareType": "Equal"
                }
              ]
            },
            {
              "$type": "SetGlobalValue",
              "key": "_ABILITY_Alhatham_ForlornLotus_ATKCount",
              "value": 5,
              "predicates": [
                {
                  "$type": "ByTargetGlobalValue",
                  "key": "_ABILITY_Alhatham_ForlornLotus_Level",
                  "value": 2,
                  "compareType": "Equal"
                }
              ]
            },
            {
              "$type": "SetGlobalValue",
              "key": "_ABILITY_Alhatham_ForlornLotus_ATKCount",
              "value": 6,
              "predicates": [
                {
                  "$type": "ByTargetGlobalValue",
                  "key": "_ABILITY_Alhatham_ForlornLotus_Level",
                  "value": 3,
                  "compareType": "Equal"
                }
              ]
            },
            {
              "$type": "SetGlobalValueToOverrideMap",
              "globalValueKey": "_ABILITY_Alhatham_ForlornLotus_ATKCount",
              "overrideMapKey": "ForlornLotus_ATKCount"
            },
            {
              "$type": "SetGlobalValue",
              "key": "_ABILITY_Alhatham_ForlornLotus_ATKCount",
              "value": 0
            }
          ],
          "thinkInterval": 0.2,
          "onThinkInterval": [
            {
              "$type": "Predicated",
              "target": "Self",
              "targetPredicates": [
                {
                  "$type": "ByTargetGlobalValue",
                  "key": "_ABILITY_Alhatham_ForlornLotus_ATKCount",
                  "value": "%ForlornLotus_ATKCount",
                  "compareType": "LessAndEqual"
                }
              ],
              "successActions": [
                {
                  "$type": "SetGlobalPos",
                  "target": "Self",
                  "key": "_ABILITY_Alhatham_ForlornLotus_RandomAttackPos",
                  "born": {
                    "$type": "ConfigBornBySelf",
                    "offset": {
                      "x": 0.0,
                      "y": 0.0, //Sad Story
                      "z": 3.0
                    },
                    "bornRandom": {
                      "$type": "BornRandomFromCenter",
                      "minRandomRange": 0.5,
                      "maxRandomRange": 5.5
                    }
                  },
                  "setTarget": true
                },
                {
                  "$type": "FireEffect",
                  "effectPattern": "Eff_Avatar_Boy_Sword_Albedo_AlchemicalBreakOut_Explode",
                  "born": {
                    "$type": "ConfigBornByGlobalValue",
                    "positionKey": "_ABILITY_Alhatham_ForlornLotus_RandomAttackPos"
                  }
                },
                {
                  "$type": "TriggerAttackEvent",
                  "targetType": "Enemy",
                  "attackEvent": {
                    "attackPattern": {
                      "$type": "ConfigAttackSphere",
                      "triggerType": "TriggerNoRepeat",
                      "radius": 3.0,
                      "born": {
                        "$type": "ConfigBornByGlobalValue",
                        "positionKey": "_ABILITY_Alhatham_ForlornLotus_RandomAttackPos"
                      }
                    },
                    "attackInfo": {
                      "canBeModifiedBy": "OriginOwner",
                      "attackTag": "Elemental_Burst",
                      "attenuationTag": "Elemental_Burst",
                      "attackProperty": {
                        "damagePercentage": 1,
                        "elementType": "Grass",
                        "attackType": "Default",
                        "strikeType": "Default",
                        "elementDurability": 25,
                        "enBreak": 30
                      },
                      "hitPattern": {
                        "onHitEffectName": "default",
                        "hitImpulseType": "LV2",
                        "retreatType": "ByHitDirection",
                        "canBeDefenceHalt": false,
                        "hitHaltTime": 0.0,
                        "hitHaltTimeScale": 0.0,
                        "muteHitText": false
                      }
                    }
                  }
                },
                {
                  "$type": "AddGlobalValue",
                  "key": "_ABILITY_Alhatham_ForlornLotus_ATKCount",
                  "value": 1,
                  "useLimitRange": true,
                  "maxValue": 10,
                  "minValue": 0
                }
              ]
            },
            {
              "$type": "Predicated",
              "target": "Self",
              "targetPredicates": [
                {
                  "$type": "ByTargetGlobalValue",
                  "key": "_ABILITY_Alhatham_ForlornLotus_ATKCount",
                  "value": "%ForlornLotus_ATKCount",
                  "compareType": "Equal"
                }
              ],
              "successActions": [
                {
                  "$type": "SetGlobalValue",
                  "key": "_ABILITY_Alhatham_ForlornLotus_Level",
                  "value": "3-%ForlornLotus_Level"
                },
                {
                  "$type": "SetGlobalValueToOverrideMap",
                  "globalValueKey": "_ABILITY_Alhatham_ForlornLotus_Level",
                  "overrideMapKey": "ForlornLotus_Level"
                },
                {
                  "$type": "Predicated",
                  "target": "Self",
                  "targetPredicates": [
                    {
                      "$type": "ByTargetGlobalValue",
                      "key": "_ABILITY_Alhatham_ForlornLotus_Level",
                      "value": 0,
                      "compareType": "MoreThan"
                    }
                  ],
                  "successActions": [
                    {
                      "$type": "SetGlobalValue",
                      "key": "_ABILITY_Alhatham_ForlornLotus_Type",
                      "value": "%ForlornLotus_Level+1",
                      "target": "OriginOwner"
                    },
                    {
                      "$type": "TriggerAbility",
                      "abilityName": "Avatar_Alhatham_ForlornLotus",
                      "target": "OriginOwner"
                    }
                  ]
                }
              ]
            }
          ]
        }
      },
      "abilitySpecials": {
        "ForlornLotus_Level": 0,
        "ForlornLotus_ATKCount": 0
      }
    }
  },
  ////////////////////////////////////////////////////////////////
  //
  //  空中攻击
  //
  ////////////////////////////////////////////////////////////////
  {
    "Default": {
      "$type": "ConfigAbility",
      "abilityName": "Avatar_Alhatham_FallingAnthem",
      "abilityMixins": [
        {
          "$type": "AvatarChangeSkillMixin",
          "priority": "AvatarCommon",
          "jumpSkillID": 5078010,
          "flySkillID": 5078010
        },
        {
          "$type": "AttachToStateIDMixin",
          "stateIDs": ["FallingAnthem_BS"],
          "modifierName": "FallingAnthem_BS_Material"
        },
        {
          "$type": "AttachToStateIDMixin",
          "stateIDs": ["FallingAnthem_BS"],
          "modifierName": "FallingAnthem_Loop_Normal"
        },
        {
          "$type": "AttachToAnimatorStateIDMixin",
          "stateIDs": [
            "FallingAnthem_BS_2",
            "FallingAnthem_Loop",
            "FallingAnthem_Loop_Low"
          ],
          "modifierName": "FallingAnthem_LoopDamage"
        },
        {
          "$type": "AttachToStateIDMixin",
          "stateIDs": ["FallingAnthem_BS"],
          "modifierName": "FallingAnthem_BS_VelocityForce_Initialize"
        },
        {
          "$type": "AttachToStateIDMixin",
          "stateIDs": [
            "FallingAnthem_BS",
            "FallingAnthem_Loop",
            "FallingAnthem_AS_1",
            "FallingAnthem_AS_2"
          ],
          "modifierName": "FallingAnthem_Height_Detect"
        },
        {
          "$type": "AttachToStateIDMixin",
          "stateIDs": [
            "FallingAnthem_BS",
            "FallingAnthem_Loop",
            "FallingAnthem_AS_1",
            "FallingAnthem_AS_2"
          ],
          "modifierName": "FallingAnthem_FallingDamageImmune_01"
        },
        {
          "$type": "AttachToStateIDMixin",
          "stateIDs": ["FallingAnthem_BS", "FallingAnthem_Loop"],
          "modifierName": "Inertia"
        },
        {
          "$type": "AttachToStateIDMixin",
          "stateIDs": [
            "FallingAnthem_BS",
            "FallingAnthem_Loop",
            "FallingAnthem_AS_1",
            "FallingAnthem_AS_2"
          ],
          "modifierName": "FallingAnthem_OverHead_Camera"
        },
        {
          "$type": "AttachToStateIDMixin",
          "stateIDs": ["FallingAnthem_BS"],
          "modifierName": "FallingAnthem_ClearVelocityForce"
        },
        {
          "$type": "AttachToStateIDMixin",
          "stateIDs": ["FallingAnthem_AS_1", "FallingAnthem_AS_2"],
          "modifierName": "FallingAnthem_ClearVelocityForce_AS"
        },
        {
          "$type": "AttachToStateIDMixin",
          "stateIDs": ["FallingAnthem_BS", "FallingAnthem_Loop"],
          "modifierName": "FallingAnthem_AttachWeaponEffect"
        },
        {
          "$type": "AttachToAnimatorStateIDMixin",
          "stateIDs": ["FallingAnthem_BS_2"],
          "modifierName": "FallingAnthem_CameraRadialBlur"
        }
      ],
      "onAdded": [],
      "onAbilityStart": [
        //普通状态第一段
        {
          "$type": "TriggerAttackEvent",
          "targetType": "Enemy",
          "attackEvent": {
            "attackPattern": {
              "$type": "ConfigAttackCircle",
              "triggerType": "TriggerNoRepeat",
              "scale": 1.0,
              "height": 2.0,
              "centerYOffset": 0.0,
              "offsetZ": 0.0,
              "fanAngle": 360.0,
              "radius": 3.0,
              "followRootNodeY": false,
              "followTransformY": false,
              "offsetAngle": 0.0,
              "born": {
                "$type": "ConfigBornByTarget",
                "offset": {
                  "x": 0.0,
                  "y": -0.5,
                  "z": 1.0
                }
              }
            },
            "attackInfo": {
              "attackTag": "FallingAttack",
              "attackProperty": {
                "damagePercentage": "%FallingAnthem_Normal_Rank_1_Damage",
                "overrideByWeapon": true,
                "strikeType": "Blunt",
                "attackType": "Melee",
                "elementType": "None",
                "elementDurability": 25,
                "elementRank": 1.0,
                "enBreak": 100
              },
              "hitPattern": {
                "onHitEffectName": "none",
                "hitImpulseType": "LV4",
                // "hitLevel": "Heavy", //hitlevel = 4
                // "hitImpulseX": 800, //hitlevel = 4
                // "hitImpulseY": 0, //hitlevel = 4
                "retreatType": "ByAttacker",
                "reboundRatio": 0,
                "canBeDefenceHalt": false,
                "hitHaltTime": 0,
                "hitHaltTimeScale": 0.1,
                "muteHitText": false
              },
              "forceCameraShake": true,
              "cameraShake": {
                "shakeType": "CustomVector",
                "shakeRange": 0.24,
                "shakeTime": 0.12,
                "shakeDistance": 30,
                "shakeDir": {
                  "x": 0,
                  "y": 1,
                  "z": 0
                },
                "extension": {
                  "baseCycle": 0.24,
                  "cycleDamping": 0,
                  "rangeAttenuation": 0.3
                }
              }
            }
          },
          "predicates": [
            {
              "$type": "ByTargetGlobalValue",
              "key": "_ABILITY_FallingAnthem_UseCamera",
              "forceByCaster": true,
              "value": 0,
              "compareType": "NoneOrEqual"
            }
          ]
        },
        //普通状态第二段
        {
          "$type": "TriggerAttackEvent",
          "targetType": "Enemy",
          "attackEvent": {
            "attackPattern": {
              "$type": "ConfigAttackCircle",
              "triggerType": "TriggerNoRepeat",
              "scale": 1.0,
              "height": 2.0,
              "centerYOffset": 0.0,
              "offsetZ": 0.0,
              "fanAngle": 360.0,
              "radius": 5.0,
              "followRootNodeY": false,
              "followTransformY": false,
              "offsetAngle": 0.0,
              "born": {
                "$type": "ConfigBornByTarget",
                "offset": {
                  "x": 0.0,
                  "y": -0.5,
                  "z": 1.0
                }
              }
            },
            "attackInfo": {
              "attackTag": "FallingAttack",
              "attackProperty": {
                "damagePercentage": "%FallingAnthem_Normal_Rank_2_Damage",
                "overrideByWeapon": true,
                "strikeType": "Blunt",
                "attackType": "Melee",
                "elementType": "None",
                "elementDurability": 25,
                "elementRank": 1.0,
                "enBreak": 150
              },
              "hitPattern": {
                "onHitEffectName": "none",
                "hitImpulseType": "LV7",
                // "hitLevel": "Air", //hitlevel = 7
                // "hitImpulseX": 0, //hitlevel = 7
                // "hitImpulseY": 800, //hitlevel = 7
                "retreatType": "ByAttacker",
                "reboundRatio": 0,
                "canBeDefenceHalt": false,
                "hitHaltTime": 0,
                "hitHaltTimeScale": 0.1,
                "muteHitText": false
              },
              "forceCameraShake": true,
              "cameraShake": {
                "shakeType": "CustomVector",
                "shakeRange": 0.5,
                "shakeTime": 0.2,
                "shakeDistance": 30,
                "shakeDir": {
                  "x": 0,
                  "y": 1,
                  "z": 1
                },
                "extension": {
                  "baseCycle": 0.4,
                  "cycleDamping": 0,
                  "rangeAttenuation": 0.3
                }
              }
            }
          },
          "predicates": [
            {
              "$type": "ByTargetGlobalValue",
              "key": "_ABILITY_FallingAnthem_UseCamera",
              "forceByCaster": true,
              "value": 1,
              "compareType": "Equal"
            }
          ]
        },
        //普通状态第一段
        {
          "$type": "FireEffect",
          "effectPattern": "Eff_Avatar_Sword_FallAnthem_Strike_01",
          "predicates": [
            {
              "$type": "ByTargetGlobalValue",
              "key": "_ABILITY_FallingAnthem_UseCamera",
              "forceByCaster": true,
              "value": 0,
              "compareType": "NoneOrEqual"
            }
          ]
        },
        //普通状态第二段
        {
          "$type": "FireEffect",
          "effectPattern": "Eff_Avatar_Sword_FallAnthem_Strike_02",
          "predicates": [
            {
              "$type": "ByTargetGlobalValue",
              "key": "_ABILITY_FallingAnthem_UseCamera",
              "forceByCaster": true,
              "value": 1,
              "compareType": "Equal"
            }
          ]
        }
      ],
      "modifiers": {
        "FallingAnthem_AttachWeaponEffect": {
          "onAdded": [
            {
              "$type": "AttachEffect",
              "effectPattern": "Eff_Avatar_Sword_FallAnthem_Self_01"
            }
          ]
        },
        "FallingAnthem_CameraRadialBlur": {
          "duration": 0.23,
          "modifierMixins": [
            {
              "$type": "CameraBlurMixin",
              "cameraRadialBlur": {
                "power": 0.3,
                "fadeTime": 0.15
              }
            }
          ]
        },
        "FallingAnthem_BS_Material": {
          "onAdded": [
            {
              "$type": "FireEffect",
              "effectPattern": "Eff_Avatar_Sword_FallAnthem_BS"
            }
          ]
        },
        "FallingAnthem_BS_VelocityForce_Initialize": {
          "properties": {
            "Actor_AddGravityScale": -2
          },
          "onAdded": [
            {
              "$type": "RemoveVelocityForce",
              "forces": ["RushMoveType"]
            }
          ]
        },
        "FallingAnthem_LoopDamage": {
          "thinkInterval": 0.3,
          "onThinkInterval": [
            {
              "$type": "TriggerAttackEvent",
              "targetType": "Enemy",
              "attackEvent": {
                "attackPattern": {
                  "$type": "ConfigAttackSphere",
                  "triggerType": "TriggerNoRepeat",
                  "radius": 1.0,
                  "born": {
                    "$type": "ConfigBornBySelf",
                    "offset": {
                      "x": 0.0,
                      "y": 0.0,
                      "z": 1
                    }
                  }
                },
                "attackInfo": {
                  "attackTag": "FallingAttack",
                  "attackProperty": {
                    "damagePercentage": "%FallingAnthem_Normal_Loop_Damage",
                    "strikeType": "Slash",
                    "overrideByWeapon": true,
                    "attackType": "Melee",
                    "elementType": "None",
                    "elementDurability": 0,
                    "enBreak": 25
                  },
                  "hitPattern": {
                    "onHitEffectName": "default",
                    "hitImpulseType": "LV2",
                    // "hitLevel": "Light", //hitlevel = 2
                    // "hitImpulseX": 200, //hitlevel = 2
                    // "hitImpulseY": 0, //hitlevel = 2
                    "reboundRatio": 0,
                    "canBeDefenceHalt": false,
                    "hitHaltTime": 0,
                    "hitHaltTimeScale": 0.02,
                    "muteHitText": false
                  }
                }
              }
            }
          ]
        },
        "FallingAnthem_FallingDamageImmune_01": {
          "onAdded": [
            {
              "$type": "ClearGlobalValue",
              "key": "_ABILITY_FallingAttack_Altitude"
            },
            {
              "$type": "AddGlobalValue",
              "key": "_ABILITY_FallingAttack_Altitude",
              "value": "%FallingAnthem_FallingDamageRatio_Lv0",
              "useLimitRange": true,
              "maxValue": "%FallingAnthem_FallingDamageRatio_Lv0",
              "minValue": "%FallingAnthem_FallingDamageRatio_Lv0",
              "predicates": [
                {
                  "$type": "ByTargetAltitude",
                  "value": "%FallingAnthem_Altitude_Lv0",
                  "logic": "LesserOrEqual"
                }
              ]
            }, //==================================================================================
            {
              "$type": "AddGlobalValue",
              "key": "_ABILITY_FallingAttack_Altitude",
              "value": "%FallingAnthem_FallingDamageRatio_Lv1",
              "useLimitRange": true,
              "maxValue": "%FallingAnthem_FallingDamageRatio_Lv1",
              "minValue": "%FallingAnthem_FallingDamageRatio_Lv1",
              "predicates": [
                {
                  "$type": "ByTargetAltitude",
                  "value": "%FallingAnthem_Altitude_Lv1",
                  "logic": "LesserOrEqual"
                },
                {
                  "$type": "ByTargetAltitude",
                  "value": "%FallingAnthem_Altitude_Lv0",
                  "logic": "Greater"
                }
              ]
            }, //==================================================================================
            {
              "$type": "AddGlobalValue",
              "key": "_ABILITY_FallingAttack_Altitude",
              "value": "%FallingAnthem_FallingDamageRatio_Lv2",
              "useLimitRange": true,
              "maxValue": "%FallingAnthem_FallingDamageRatio_Lv2",
              "minValue": "%FallingAnthem_FallingDamageRatio_Lv2",
              "predicates": [
                {
                  "$type": "ByTargetAltitude",
                  "value": "%FallingAnthem_Altitude_Lv2",
                  "logic": "LesserOrEqual"
                },
                {
                  "$type": "ByTargetAltitude",
                  "value": "%FallingAnthem_Altitude_Lv1",
                  "logic": "Greater"
                }
              ]
            }, //==================================================================================
            {
              "$type": "AddGlobalValue",
              "key": "_ABILITY_FallingAttack_Altitude",
              "value": "%FallingAnthem_FallingDamageRatio_Lv3",
              "useLimitRange": true,
              "maxValue": "%FallingAnthem_FallingDamageRatio_Lv3",
              "minValue": "%FallingAnthem_FallingDamageRatio_Lv3",
              "predicates": [
                {
                  "$type": "ByTargetAltitude",
                  "value": "%FallingAnthem_Altitude_Lv3",
                  "logic": "LesserOrEqual"
                },
                {
                  "$type": "ByTargetAltitude",
                  "value": "%FallingAnthem_Altitude_Lv2",
                  "logic": "Greater"
                }
              ]
            }, //==================================================================================
            {
              "$type": "AddGlobalValue",
              "key": "_ABILITY_FallingAttack_Altitude",
              "value": "%FallingAnthem_FallingDamageRatio_Lv4",
              "useLimitRange": true,
              "maxValue": "%FallingAnthem_FallingDamageRatio_Lv4",
              "minValue": "%FallingAnthem_FallingDamageRatio_Lv4",
              "predicates": [
                {
                  "$type": "ByTargetAltitude",
                  "value": "%FallingAnthem_Altitude_Lv3",
                  "logic": "Greater"
                }
              ]
            }, //==================================================================================

            {
              "$type": "AttachModifier",
              "modifierName": "FallingAnthem_FallingDamageImmune_02"
            }
          ]
        },
        "FallingAnthem_FallingDamageImmune_02": {
          "onAdded": [
            {
              "$type": "SetGlobalValueToOverrideMap",
              "globalValueKey": "_ABILITY_FallingAttack_Altitude",
              "overrideMapKey": "FallingAnthem_FallingDamageRatio"
            },
            {
              "$type": "AttachModifier",
              "modifierName": "FallingAnthem_FallingDamageImmune_03"
            }
          ]
        },
        "FallingAnthem_FallingDamageImmune_03": {
          "properties": {
            "Actor_FallingDamageRatio": "%FallingAnthem_FallingDamageRatio"
          }
        },
        "FallingAnthem_Loop_Normal": {
          "modifierMixins": [
            {
              "$type": "AttachModifierToSelfGlobalValueMixin",
              "globalValueKey": "_ABILITY_FallingAnthem_UseCamera",
              "valueSteps": [-1, 0.5, 1.5],
              "removeAppliedModifier": true,
              "modifierNameSteps": [
                "FallingAnthem_Loop_Normal_Rank_1",
                "FallingAnthem_Loop_Normal_Rank_2"
              ]
            }
          ]
        },
        "FallingAnthem_Loop_Normal_Rank_1": {
          "onAdded": [
            {
              "$type": "AttachEffect",
              "effectPattern": "Eff_Avatar_Sword_FallAnthem_Loop_01"
            }
          ]
        },
        "FallingAnthem_Loop_Normal_Rank_2": {
          "onAdded": [
            {
              "$type": "AttachEffect",
              "effectPattern": "Eff_Avatar_Sword_FallAnthem_Loop_02"
            }
          ]
        },
        //水平惯性继承
        "Inertia": {
          "modifierMixins": [
            {
              "$type": "ApplyInertiaVelocityMixin",
              "damping": 0,
              "useXZ": false,
              "useY": false
            }
          ]
        },
        "FallingAnthem_Height_Detect": {
          "onAdded": [
            {
              "$type": "AddGlobalValue",
              "key": "_ABILITY_FallingAnthem_UseCamera",
              "value": 0,
              "useLimitRange": true,
              "maxValue": 0,
              "minValue": 0,
              "predicates": [
                {
                  "$type": "ByTargetAltitude",
                  "value": 2.4,
                  "logic": "LesserOrEqual"
                }
              ]
            },
            {
              "$type": "AddGlobalValue",
              "key": "_ABILITY_FallingAnthem_UseCamera",
              "value": 5,
              "useLimitRange": true,
              "maxValue": 1,
              "minValue": 0,
              "predicates": [
                {
                  "$type": "ByTargetAltitude",
                  "value": 2.4,
                  "logic": "Greater"
                }
              ]
            },
            {
              "$type": "SetAnimatorFloat",
              "floatID": "FallingAnthem_UseCamera",
              "value": 0,
              "predicates": [
                {
                  "$type": "ByTargetAltitude",
                  "value": 2.4,
                  "logic": "LesserOrEqual"
                }
              ]
            },
            {
              "$type": "SetAnimatorFloat",
              "floatID": "FallingAnthem_UseCamera",
              "value": 1,
              "predicates": [
                {
                  "$type": "ByTargetAltitude",
                  "value": 2.4,
                  "logic": "Greater"
                }
              ]
            }
          ],
          "onRemoved": [
            {
              "$type": "SetAnimatorFloat",
              "floatID": "FallingAnthem_UseCamera",
              "value": 0
            },
            {
              "$type": "AddGlobalValue",
              "key": "_ABILITY_FallingAnthem_UseCamera",
              "value": 0,
              "useLimitRange": true,
              "maxValue": 0,
              "minValue": 0
            }
          ]
        },
        "FallingAnthem_OverHead_Camera": {
          "onAdded": [
            {
              "$type": "AvatarCameraParam",
              "lockParam": false,
              "cameraParam": {
                "forceRadius": 4.5,
                "forceRadiusDuration": 0.2,
                "shouldKeepForceRadius": true
              },
              "predicates": [
                {
                  "$type": "ByAnimatorFloat",
                  "parameter": "FallingAnthem_UseCamera",
                  "value": 1,
                  "logic": "Equal"
                }
              ]
            }
          ]
        },
        "FallingAnthem_OverHead_Camera_Remover": {
          "onAdded": [
            {
              "doOffStage": true,
              "$type": "AvatarExitCameraShot"
            }
          ]
        },
        "FallingAnthem_Landed_Camera": {
          "onAdded": [
            {
              "$type": "AvatarCameraParam",
              "lockParam": false,
              "cameraParam": {
                "forceRadius": 6.0,
                "forceRadiusDuration": 0.1,
                "shouldKeepForceRadius": true
              },
              "predicates": [
                {
                  "$type": "ByAnimatorFloat",
                  "parameter": "FallingAnthem_UseCamera",
                  "value": 1,
                  "logic": "Equal"
                }
              ]
            }
          ]
        },
        "FallingAnthem_ClearVelocityForce": {
          "onAdded": [
            {
              "$type": "RemoveVelocityForce",
              "forces": ["RushMoveType", "InertiaType"]
            }
          ]
        },
        "FallingAnthem_ClearVelocityForce_AS": {
          "onAdded": [
            {
              "$type": "RemoveVelocityForce",
              "forces": ["RushMoveType", "InertiaType"]
            }
          ]
        }
      },
      "abilitySpecials": {
        "FallingAnthem_Normal_Loop_Damage": 0,
        "FallingAnthem_Normal_Rank_1_Damage": 0,
        "FallingAnthem_Normal_Rank_2_Damage": 0,

        "FallingAnthem_Altitude_Lv0": 20,
        "FallingAnthem_Altitude_Lv1": 40,
        "FallingAnthem_Altitude_Lv2": 60,
        "FallingAnthem_Altitude_Lv3": 100,
        "FallingAnthem_Altitude_Lv4": 200,

        "FallingAnthem_FallingDamageRatio_Lv0": -1,
        "FallingAnthem_FallingDamageRatio_Lv1": -1,
        "FallingAnthem_FallingDamageRatio_Lv2": -0.9,
        "FallingAnthem_FallingDamageRatio_Lv3": -0.8,
        "FallingAnthem_FallingDamageRatio_Lv4": -0.6,

        "FallingAnthem_FallingDamageRatio": 0
      }
    }
  }
]
