[
  {
    "stageId": 1,
    "PMEOBGEECAJ": 2,
    "KEOEIANJEBA": true,
    "type": "TARGET_TYPE_GATHER",
    "groupIdList": [101, 102, 103],
    "KFFMOLBKDLP": [3, 3, 6],
    "PDDAMFEBHLN": [],
    "EGONMAEGPAC": [101, 102, 103],
    "condID": 5080001,
    "watcherID": 1508001,
    "PBKJMOELHDB": 7269401
  },
  {
    "stageId": 2,
    "PMEOBGEECAJ": 3,
    "KEOEIANJEBA": true,
    "type": "TARGET_TYPE_ELEM",
    "groupIdList": [201, 202, 203],
    "KFFMOLBKDLP": [15, 15, 15],
    "PDDAMFEBHLN": [133001079, 133105077, 133213557],
    "EGONMAEGPAC": [201, 202, 203],
    "condID": 5080002,
    "watcherID": 1508002,
    "PBKJMOELHDB": 7269501
  },
  {
    "stageId": 3,
    "PMEOBGEECAJ": 4,
    "KEOEIANJEBA": true,
    "type": "TARGET_TYPE_MONSTER",
    "groupIdList": [301, 302, 303],
    "KFFMOLBKDLP": [3, 4, 4],
    "PDDAMFEBHLN": [],
    "EGONMAEGPAC": [301, 302, 303],
    "condID": 5080003,
    "HNMNHFCONGK": true,
    "watcherID": 1508003,
    "PBKJMOELHDB": 7269601
  },
  {
    "stageId": 4,
    "PMEOBGEECAJ": 5,
    "type": "TARGET_TYPE_GATHER",
    "groupIdList": [110],
    "KFFMOLBKDLP": [5],
    "PDDAMFEBHLN": [],
    "EGONMAEGPAC": [],
    "condID": 5080004,
    "PBKJMOELHDB": 7269701
  },
  {
    "stageId": 5,
    "PMEOBGEECAJ": 6,
    "type": "TARGET_TYPE_ELEM",
    "groupIdList": [210],
    "KFFMOLBKDLP": [15],
    "PDDAMFEBHLN": [],
    "EGONMAEGPAC": []
  },
  {
    "stageId": 6,
    "PMEOBGEECAJ": 4,
    "type": "TARGET_TYPE_MONSTER",
    "groupIdList": [310],
    "KFFMOLBKDLP": [4],
    "PDDAMFEBHLN": [],
    "EGONMAEGPAC": [],
    "HNMNHFCONGK": true
  }
]
