[
  {
    "id": 1,
    "MNMKGMGHNKD": 50960101,
    "openDay": 1,
    "IKOPHINFIPM": "UI_RaidersNote_Map_1",
    "levelTitleTextMapHash": 2163421574,
    "levelDescTextMapHash": 2471812725,
    "LBDIBCPOAEC": 652300671,
    "watcherID": 1509607
  },
  {
    "id": 2,
    "MNMKGMGHNKD": 50960102,
    "openDay": 2,
    "IKOPHINFIPM": "UI_RaidersNote_Map_2",
    "levelTitleTextMapHash": 491484270,
    "levelDescTextMapHash": 3202686349,
    "LBDIBCPOAEC": 764593287,
    "watcherID": 1509608
  },
  {
    "id": 3,
    "MNMKGMGHNKD": 50960103,
    "openDay": 3,
    "IKOPHINFIPM": "UI_RaidersNote_Map_3",
    "levelTitleTextMapHash": 399323182,
    "levelDescTextMapHash": 3847626909,
    "LBDIBCPOAEC": 243930575,
    "watcherID": 1509609
  },
  {
    "id": 4,
    "MNMKGMGHNKD": 50960104,
    "openDay": 4,
    "IKOPHINFIPM": "UI_RaidersNote_Map_4",
    "levelTitleTextMapHash": 2754859854,
    "levelDescTextMapHash": 1546224957,
    "LBDIBCPOAEC": 3748887671,
    "watcherID": 1509610
  },
  {
    "id": 5,
    "MNMKGMGHNKD": 50960105,
    "openDay": 5,
    "IKOPHINFIPM": "UI_RaidersNote_Map_5",
    "levelTitleTextMapHash": 3253435862,
    "levelDescTextMapHash": 4040918053,
    "LBDIBCPOAEC": 329342359,
    "watcherID": 1509611
  },
  {
    "id": 6,
    "MNMKGMGHNKD": 50960106,
    "openDay": 6,
    "IKOPHINFIPM": "UI_RaidersNote_Map_6",
    "levelTitleTextMapHash": 1368415030,
    "levelDescTextMapHash": 1828581237,
    "LBDIBCPOAEC": 3934597695,
    "watcherID": 1509612
  }
]
