[
  {
    "id": 1,
    "KCAOPGODBOH": 1,
    "openDay": 1,
    "ILBJCPDDJDO": 1,
    "ILGOJMOPONI": 20160107,
    "rewardId": 3057201,
    "GDPMKJLMLDE": [],
    "CBLHEHNPKNI": [12016018],
    "ADCEPKFDICF": "21020501:1,25010701:1,25020201:1,25010201:1,25070101:1,21010201:1,21010101:1,21011002:1,21020202:1,20011201:1,21020101:1,21010701:1,21010502:1,22010101:1,22010301:1,21010402:1,22010404:1,21030401:1,20010901:1,26010101:1,20011103:1,20010702:1,20010604:1,26010201:1",
    "PAMFAJFEHIB": [21020501],
    "BLJIDBHDJBC": 2918837678,
    "HAJBHHMJEMF": 521056292
  },
  {
    "id": 2,
    "KCAOPGODBOH": 2,
    "openDay": 1,
    "ILBJCPDDJDO": 1,
    "ILGOJMOPONI": 20160108,
    "rewardId": 3057202,
    "GDPMKJLMLDE": [],
    "CBLHEHNPKNI": [12016019],
    "ADCEPKFDICF": "21020501:1,25010701:1,25020201:1,25010201:1,25070101:1,21010201:1,21010101:1,21011002:1,21020202:1,20011201:1,21020101:1,21010701:1,21010502:1,22010101:1,22010301:1,21010402:1,22010404:1,21030401:1,20010901:1,26010101:1,20011103:1,20010702:1,20010604:1,26010201:1",
    "PAMFAJFEHIB": [21020501],
    "BLJIDBHDJBC": 3042650958,
    "HAJBHHMJEMF": 3000974676
  },
  {
    "id": 3,
    "KCAOPGODBOH": 3,
    "openDay": 1,
    "ILBJCPDDJDO": 1,
    "ILGOJMOPONI": 20160109,
    "rewardId": 3057203,
    "GDPMKJLMLDE": [],
    "CBLHEHNPKNI": [12016020],
    "ADCEPKFDICF": "21020501:1,25010701:1,25020201:1,25010201:1,25070101:1,21010201:1,21010101:1,21011002:1,21020202:1,20011201:1,21020101:1,21010701:1,21010502:1,22010101:1,22010301:1,21010402:1,22010404:1,21030401:1,20010901:1,26010101:1,20011103:1,20010702:1,20010604:1,26010201:1",
    "PAMFAJFEHIB": [21020501],
    "BLJIDBHDJBC": 3683206294,
    "HAJBHHMJEMF": 1028814060
  },
  {
    "id": 4,
    "KCAOPGODBOH": 4,
    "openDay": 1,
    "ILBJCPDDJDO": 1,
    "ILGOJMOPONI": 20160110,
    "rewardId": 3057204,
    "GDPMKJLMLDE": [],
    "CBLHEHNPKNI": [12016021],
    "ADCEPKFDICF": "21020501:1,25010701:1,25020201:1,25010201:1,25070101:1,21010201:1,21010101:1,21011002:1,21020202:1,20011201:1,21020101:1,21010701:1,21010502:1,22010101:1,22010301:1,21010402:1,22010404:1,21030401:1,20010901:1,26010101:1,20011103:1,20010702:1,20010604:1,26010201:1",
    "PAMFAJFEHIB": [21020501],
    "BLJIDBHDJBC": 3785471078,
    "HAJBHHMJEMF": 1396906172
  },
  {
    "id": 5,
    "KCAOPGODBOH": 5,
    "openDay": 1,
    "ILBJCPDDJDO": 1,
    "ILGOJMOPONI": 20160111,
    "rewardId": 3057205,
    "GDPMKJLMLDE": ["UI_MonsterIcon_Brute_Rock_None"],
    "CBLHEHNPKNI": [12016022],
    "ADCEPKFDICF": "21020501:1,25010701:1,25020201:1,25010201:1,25070101:1,21010201:1,21010101:1,21011002:1,21020202:1,20011201:1,21020101:1,21010701:1,21010502:1,22010101:1,22010301:1,21010402:1,22010404:1,21030401:1,20010901:1,26010101:1,20011103:1,20010702:1,20010604:1,26010201:1",
    "PAMFAJFEHIB": [21020501],
    "BLJIDBHDJBC": 3651510390,
    "HAJBHHMJEMF": 1667172764
  },
  {
    "id": 6,
    "KCAOPGODBOH": 1,
    "openDay": 4,
    "ILBJCPDDJDO": 2,
    "ILGOJMOPONI": 20160112,
    "rewardId": 3057206,
    "GDPMKJLMLDE": [],
    "CBLHEHNPKNI": [12016023],
    "ADCEPKFDICF": "24010301:1,21020101:1,21010301:1,21010402:1,21010701:1,20011201:1,20010604:1,20011304:1,21030103:1,20020101:1,21020501:1,21011002:1,21010502:1,23010501:1,23010301:1,23010101:1,23020101:1,24020301:1,24020201:1",
    "PAMFAJFEHIB": [24010301],
    "BLJIDBHDJBC": 52284174,
    "HAJBHHMJEMF": 4241986740
  },
  {
    "id": 7,
    "KCAOPGODBOH": 2,
    "openDay": 4,
    "ILBJCPDDJDO": 2,
    "ILGOJMOPONI": 20160113,
    "rewardId": 3057207,
    "GDPMKJLMLDE": [],
    "CBLHEHNPKNI": [12016024],
    "ADCEPKFDICF": "24010301:1,21020101:1,21010301:1,21010402:1,21010701:1,20011201:1,20010604:1,20011304:1,21030103:1,20020101:1,21020501:1,21011002:1,21010502:1,23010501:1,23010301:1,23010101:1,23020101:1,24020301:1,24020201:1",
    "PAMFAJFEHIB": [24010301],
    "BLJIDBHDJBC": 3275346254,
    "HAJBHHMJEMF": 2691764940
  },
  {
    "id": 8,
    "KCAOPGODBOH": 3,
    "openDay": 4,
    "ILBJCPDDJDO": 2,
    "ILGOJMOPONI": 20160114,
    "rewardId": 3057208,
    "GDPMKJLMLDE": [],
    "CBLHEHNPKNI": [12016025],
    "ADCEPKFDICF": "24010301:1,21020101:1,21010301:1,21010402:1,21010701:1,20011201:1,20010604:1,20011304:1,21030103:1,20020101:1,21020501:1,21011002:1,21010502:1,23010501:1,23010301:1,23010101:1,23020101:1,24020301:1,24020201:1",
    "PAMFAJFEHIB": [24010301],
    "BLJIDBHDJBC": 3047610790,
    "HAJBHHMJEMF": 4236607708
  },
  {
    "id": 9,
    "KCAOPGODBOH": 4,
    "openDay": 4,
    "ILBJCPDDJDO": 2,
    "ILGOJMOPONI": 20160115,
    "rewardId": 3057209,
    "GDPMKJLMLDE": [],
    "CBLHEHNPKNI": [12016026],
    "ADCEPKFDICF": "24010301:1,21020101:1,21010301:1,21010402:1,21010701:1,20011201:1,20010604:1,20011304:1,21030103:1,20020101:1,21020501:1,21011002:1,21010502:1,23010501:1,23010301:1,23010101:1,23020101:1,24020301:1,24020201:1",
    "PAMFAJFEHIB": [24010301],
    "BLJIDBHDJBC": 888213638,
    "HAJBHHMJEMF": 733728492
  },
  {
    "id": 10,
    "KCAOPGODBOH": 5,
    "openDay": 4,
    "ILBJCPDDJDO": 2,
    "ILGOJMOPONI": 20160116,
    "rewardId": 3057210,
    "GDPMKJLMLDE": ["UI_MonsterIcon_Konungmathr"],
    "CBLHEHNPKNI": [12016027],
    "ADCEPKFDICF": "24010301:1,21020101:1,21010301:1,21010402:1,21010701:1,20011201:1,20010604:1,20011304:1,21030103:1,20020101:1,21020501:1,21011002:1,21010502:1,23010501:1,23010301:1,23010101:1,23020101:1,24020301:1,24020201:1",
    "PAMFAJFEHIB": [24010301],
    "BLJIDBHDJBC": 2067965462,
    "HAJBHHMJEMF": 1785109508
  },
  {
    "id": 11,
    "KCAOPGODBOH": 1,
    "openDay": 7,
    "ILBJCPDDJDO": 3,
    "ILGOJMOPONI": 20160117,
    "rewardId": 3057211,
    "GDPMKJLMLDE": [],
    "CBLHEHNPKNI": [12016028],
    "ADCEPKFDICF": "24010301:1,22010204:1,21010401:1,21020201:1,21030101:1,22010102:1,21010701:1,21010201:1,21010101:1,21020801:1,22010403:1,24010101:1,21020401:1,21030603:1,24020201:1,24010201:1",
    "PAMFAJFEHIB": [24010301],
    "BLJIDBHDJBC": 2973849766,
    "HAJBHHMJEMF": 151210828
  },
  {
    "id": 12,
    "KCAOPGODBOH": 2,
    "openDay": 7,
    "ILBJCPDDJDO": 3,
    "ILGOJMOPONI": 20160118,
    "rewardId": 3057212,
    "GDPMKJLMLDE": [],
    "CBLHEHNPKNI": [12016029],
    "ADCEPKFDICF": "24010301:1,22010204:1,21010401:1,21020201:1,21030101:1,22010102:1,21010701:1,21010201:1,21010101:1,21020801:1,22010403:1,24010101:1,21020401:1,21030603:1,24020201:1,24010201:1",
    "PAMFAJFEHIB": [24010301],
    "BLJIDBHDJBC": 1096171998,
    "HAJBHHMJEMF": 1828626924
  },
  {
    "id": 13,
    "KCAOPGODBOH": 3,
    "openDay": 7,
    "ILBJCPDDJDO": 3,
    "ILGOJMOPONI": 20160119,
    "rewardId": 3057213,
    "GDPMKJLMLDE": [],
    "CBLHEHNPKNI": [12016030],
    "ADCEPKFDICF": "24010301:1,22010204:1,21010401:1,21020201:1,21030101:1,22010102:1,21010701:1,21010201:1,21010101:1,21020801:1,22010403:1,24010101:1,21020401:1,21030603:1,24020201:1,24010201:1",
    "PAMFAJFEHIB": [24010301],
    "BLJIDBHDJBC": 263934862,
    "HAJBHHMJEMF": 71611580
  },
  {
    "id": 14,
    "KCAOPGODBOH": 4,
    "openDay": 7,
    "ILBJCPDDJDO": 3,
    "ILGOJMOPONI": 20160120,
    "rewardId": 3057214,
    "GDPMKJLMLDE": [],
    "CBLHEHNPKNI": [12016031],
    "ADCEPKFDICF": "24010301:1,22010204:1,21010401:1,21020201:1,21030101:1,22010102:1,21010701:1,21010201:1,21010101:1,21020801:1,22010403:1,24010101:1,21020401:1,21030603:1,24020201:1,24010201:1",
    "PAMFAJFEHIB": [24010301],
    "BLJIDBHDJBC": 390079950,
    "HAJBHHMJEMF": 3520913548
  },
  {
    "id": 15,
    "KCAOPGODBOH": 5,
    "openDay": 7,
    "ILBJCPDDJDO": 3,
    "ILGOJMOPONI": 20160121,
    "rewardId": 3057215,
    "GDPMKJLMLDE": ["UI_MonsterIcon_Konungmathr"],
    "CBLHEHNPKNI": [12016032],
    "ADCEPKFDICF": "24010301:1,22010204:1,21010401:1,21020201:1,21030101:1,22010102:1,21010701:1,21010201:1,21010101:1,21020801:1,22010403:1,24010101:1,21020401:1,21030603:1,24020201:1,24010201:1",
    "PAMFAJFEHIB": [24010301],
    "BLJIDBHDJBC": 3428601798,
    "HAJBHHMJEMF": 4133563684
  }
]
