[
  {
    "id": 1,
    "KMBGEFCAJGB": 6396785249723293492,
    "AJLABCOMFDA": true,
    "NHGLGPGFCDO": "ACTIVITY_MARK_ROTATE_TYPE_ENTITY_DIRECTION"
  },
  {
    "id": 2,
    "KMBGEFCAJGB": 15199482171240503830,
    "LBPFIJHIKDH": 1
  },
  {
    "id": 3,
    "KMBGEFCAJGB": 11126019899500155946,
    "LBPFIJHIKDH": 1
  },
  {
    "id": 4,
    "KMBGEFCAJGB": 2011766382239549403,
    "LBPFIJHIKDH": 1
  },
  {
    "id": 5,
    "KMBGEFCAJGB": 8913429140178055256,
    "LBPFIJHIKDH": 1
  },
  {
    "id": 10001,
    "KMBGEFCAJGB": 2464466526843944416,
    "LBPFIJHIKDH": 4
  },
  {
    "id": 10002,
    "KMBGEFCAJGB": 12352732060309411701,
    "LBPFIJHIKDH": 2,
    "AJLABCOMFDA": true
  },
  {
    "id": 10003,
    "KMBGEFCAJGB": 4538965299306575650,
    "LBPFIJHIKDH": 3
  }
]
