[
  {
    "Id": 1,
    "EGJGDGNJDKM": 5040001,
    "KOCIDGIKEPH": 49,
    "AEHMHHICEMK": 1.0,
    "descTextMapHash": 1481078357
  },
  {
    "Id": 2,
    "EGJGDGNJDKM": 5040001,
    "difficulty": "SUMO_DIFFICULTY_MID",
    "KOCIDGIKEPH": 69,
    "AEHMHHICEMK": 2.0,
    "descTextMapHash": 389111645
  },
  {
    "Id": 3,
    "EGJGDGNJDKM": 5040001,
    "difficulty": "SUMO_DIFFICULTY_HARD",
    "KOCIDGIKEPH": 89,
    "AEHMHHICEMK": 4.0,
    "descTextMapHash": 1078682197
  },
  {
    "Id": 4,
    "EGJGDGNJDKM": 5076001,
    "KOCIDGIKEPH": 49,
    "AEHMHHICEMK": 1.0,
    "descTextMapHash": 1089144069
  },
  {
    "Id": 5,
    "EGJGDGNJDKM": 5076001,
    "difficulty": "SUMO_DIFFICULTY_MID",
    "KOCIDGIKEPH": 69,
    "AEHMHHICEMK": 2.0,
    "descTextMapHash": 1390506589
  },
  {
    "Id": 6,
    "EGJGDGNJDKM": 5076001,
    "difficulty": "SUMO_DIFFICULTY_HARD",
    "KOCIDGIKEPH": 89,
    "AEHMHHICEMK": 4.0,
    "descTextMapHash": 3625395845
  },
  {
    "Id": 7,
    "EGJGDGNJDKM": 5094001,
    "KOCIDGIKEPH": 39,
    "AEHMHHICEMK": 1.0,
    "descTextMapHash": 1594931989
  },
  {
    "Id": 8,
    "EGJGDGNJDKM": 5094001,
    "difficulty": "SUMO_DIFFICULTY_MID",
    "KOCIDGIKEPH": 69,
    "AEHMHHICEMK": 2.0,
    "descTextMapHash": 3520637237
  },
  {
    "Id": 9,
    "EGJGDGNJDKM": 5094001,
    "difficulty": "SUMO_DIFFICULTY_HARD",
    "KOCIDGIKEPH": 89,
    "AEHMHHICEMK": 4.0,
    "descTextMapHash": 2465880557
  }
]
