[
  {
    "Id": 1,
    "scheduleId": 5022001,
    "levelId": 1,
    "levelTitleTextMapHash": 2984850657,
    "levelDescTextMapHash": 3022324269,
    "monsterPreviewIdList": [
      30201, 90, 30301, 90, 50302, 90, 50303, 90, 50601, 90, 10102, 80, 10107,
      80, 10202, 80, 10106, 80, 50103, 80, 50106, 80, 50701, 80, 50303, 80,
      50601, 80, 30301, 80, 115, 80, 113, 80, 112, 80
    ],
    "ENMNEADHKDJ": [],
    "openDay": 1,
    "challengeMissionWatcherList": [1, 2, 3, 4, 5],
    "statisticsIdList": [1, 2, 3],
    "HHMLPNMHJGA": 1154283087462170121,
    "dungeonId": 7100,
    "dungeonFactorIdList": [10430, 10431],
    "failTips": [
      "UI_ACTIVITY_MISTTRIAL_FAIL_TIPS_00",
      "UI_ACTIVITY_MISTTRIAL_FAIL_TIPS_01"
    ],
    "CHGJJIJJCJG": [],
    "CBGFHCEMAGO": "",
    "GGHKBAMDLCB": [],
    "BHKNOBPJODE": []
  },
  {
    "Id": 2,
    "scheduleId": 5022001,
    "levelId": 2,
    "levelTitleTextMapHash": 2217002449,
    "levelDescTextMapHash": 1638977717,
    "monsterPreviewIdList": [
      20101, 90, 10202, 90, 60401, 80, 30106, 80, 30105, 80, 30104, 80, 10109,
      80, 10202, 80
    ],
    "ENMNEADHKDJ": [],
    "openDay": 1,
    "challengeMissionWatcherList": [6, 7, 8, 9, 10],
    "statisticsIdList": [4, 5, 6],
    "HHMLPNMHJGA": 2673527372376393285,
    "dungeonId": 7102,
    "dungeonFactorIdList": [10434, 10435],
    "failTips": [
      "UI_ACTIVITY_MISTTRIAL_FAIL_TIPS_00",
      "UI_ACTIVITY_MISTTRIAL_FAIL_TIPS_02"
    ],
    "CHGJJIJJCJG": [],
    "CBGFHCEMAGO": "",
    "GGHKBAMDLCB": [],
    "BHKNOBPJODE": []
  },
  {
    "Id": 3,
    "scheduleId": 5022001,
    "levelId": 3,
    "levelTitleTextMapHash": 601190569,
    "levelDescTextMapHash": 3116976805,
    "monsterPreviewIdList": [
      10205, 90, 10203, 91, 30104, 80, 30102, 80, 30201, 80, 10105, 80, 10109,
      80, 20101, 80, 10201, 80
    ],
    "ENMNEADHKDJ": [],
    "openDay": 3,
    "challengeMissionWatcherList": [11, 12, 13, 14, 15],
    "statisticsIdList": [7, 8, 9],
    "HHMLPNMHJGA": 842523150555123858,
    "dungeonId": 7104,
    "dungeonFactorIdList": [10438, 10439],
    "failTips": [
      "UI_ACTIVITY_MISTTRIAL_FAIL_TIPS_00",
      "UI_ACTIVITY_MISTTRIAL_FAIL_TIPS_03"
    ],
    "CHGJJIJJCJG": [],
    "CBGFHCEMAGO": "",
    "GGHKBAMDLCB": [],
    "BHKNOBPJODE": []
  },
  {
    "Id": 4,
    "scheduleId": 5022001,
    "levelId": 4,
    "levelTitleTextMapHash": 639670097,
    "levelDescTextMapHash": 1620717117,
    "monsterPreviewIdList": [
      40103, 90, 30201, 80, 10202, 80, 60401, 80, 50701, 80, 50303, 80, 50302,
      80
    ],
    "ENMNEADHKDJ": [],
    "openDay": 3,
    "challengeMissionWatcherList": [16, 17, 18, 19, 20],
    "statisticsIdList": [10, 11],
    "HHMLPNMHJGA": 4279746094333652232,
    "dungeonId": 7105,
    "dungeonFactorIdList": [10440, 10441],
    "failTips": [
      "UI_ACTIVITY_MISTTRIAL_FAIL_TIPS_00",
      "UI_ACTIVITY_MISTTRIAL_FAIL_TIPS_04"
    ],
    "CHGJJIJJCJG": [],
    "CBGFHCEMAGO": "",
    "GGHKBAMDLCB": [],
    "BHKNOBPJODE": []
  },
  {
    "Id": 5,
    "scheduleId": 5022001,
    "levelId": 5,
    "levelTitleTextMapHash": 4004505345,
    "levelDescTextMapHash": 1283668853,
    "monsterPreviewIdList": [
      10205, 90, 60301, 90, 20101, 80, 20102, 80, 60401, 80, 10202, 80
    ],
    "ENMNEADHKDJ": [],
    "openDay": 5,
    "challengeMissionWatcherList": [21, 22, 23, 24, 25],
    "statisticsIdList": [12, 13, 14],
    "HHMLPNMHJGA": 15433837874376344480,
    "dungeonId": 7101,
    "dungeonFactorIdList": [10432, 10433],
    "failTips": [
      "UI_ACTIVITY_MISTTRIAL_FAIL_TIPS_00",
      "UI_ACTIVITY_MISTTRIAL_FAIL_TIPS_05"
    ],
    "CHGJJIJJCJG": [],
    "CBGFHCEMAGO": "",
    "GGHKBAMDLCB": [],
    "BHKNOBPJODE": []
  },
  {
    "Id": 6,
    "scheduleId": 5022001,
    "levelId": 6,
    "levelTitleTextMapHash": 3386646953,
    "levelDescTextMapHash": 3422832677,
    "monsterPreviewIdList": [
      40101, 90, 30101, 80, 30102, 80, 30104, 80, 30105, 80, 30106, 80
    ],
    "ENMNEADHKDJ": [],
    "openDay": 5,
    "challengeMissionWatcherList": [26, 27, 28, 29, 30],
    "statisticsIdList": [15, 16, 17],
    "HHMLPNMHJGA": 14403538018200732736,
    "dungeonId": 7103,
    "dungeonFactorIdList": [10436, 10437],
    "failTips": [
      "UI_ACTIVITY_MISTTRIAL_FAIL_TIPS_00",
      "UI_ACTIVITY_MISTTRIAL_FAIL_TIPS_06"
    ],
    "CHGJJIJJCJG": [],
    "CBGFHCEMAGO": "",
    "GGHKBAMDLCB": [],
    "BHKNOBPJODE": []
  },
  {
    "Id": 7,
    "scheduleId": 5054001,
    "levelId": 1,
    "levelTitleTextMapHash": 2883131465,
    "levelDescTextMapHash": 2646481221,
    "monsterPreviewIdList": [10205, 90, 10202, 90],
    "ENMNEADHKDJ": [
      60401, 80, 40201, 80, 40203, 80, 40204, 80, 50102, 80, 50303, 80, 50107,
      80, 30201, 80
    ],
    "openDay": 1,
    "challengeMissionWatcherList": [33, 34],
    "statisticsIdList": [19],
    "HHMLPNMHJGA": 13405999791953023396,
    "dungeonId": 7107,
    "dungeonFactorIdList": [],
    "failTips": [
      "UI_ACTIVITY_MISTTRIAL_FAIL_TIPS_00",
      "UI_ACTIVITY_MISTTRIAL_FAIL_TIPS_08"
    ],
    "CHGJJIJJCJG": [17, 18, 24, 14, 15, 20, 21],
    "CBGFHCEMAGO": "SGV_ABILITY_Mist_Level",
    "GGHKBAMDLCB": [2, 3],
    "BHKNOBPJODE": [10701005, 10701006, 10701007, 10701008]
  },
  {
    "Id": 8,
    "scheduleId": 5054001,
    "levelId": 2,
    "levelTitleTextMapHash": 2946964385,
    "levelDescTextMapHash": 2702548909,
    "monsterPreviewIdList": [20301, 90, 20103, 90],
    "ENMNEADHKDJ": [
      110, 80, 111, 80, 20103, 80, 10301, 80, 30103, 80, 30105, 80, 30106, 80,
      30301, 80, 30201, 80, 502, 80, 508, 80, 504, 80, 506, 80, 507, 80
    ],
    "openDay": 1,
    "challengeMissionWatcherList": [31, 32],
    "statisticsIdList": [18],
    "HHMLPNMHJGA": 15806249469176251554,
    "dungeonId": 7106,
    "dungeonFactorIdList": [],
    "failTips": [
      "UI_ACTIVITY_MISTTRIAL_FAIL_TIPS_00",
      "UI_ACTIVITY_MISTTRIAL_FAIL_TIPS_07"
    ],
    "CHGJJIJJCJG": [11, 12, 13, 14, 15, 16],
    "CBGFHCEMAGO": "SGV_ABILITY_Mist_Level",
    "GGHKBAMDLCB": [1],
    "BHKNOBPJODE": [10701001, 10701002, 10701003, 10701004]
  },
  {
    "Id": 9,
    "scheduleId": 5054001,
    "levelId": 3,
    "levelTitleTextMapHash": 2065458249,
    "levelDescTextMapHash": 3619318909,
    "monsterPreviewIdList": [20102, 90, 20103, 90, 20101, 90],
    "ENMNEADHKDJ": [
      502, 80, 503, 80, 504, 80, 509, 80, 507, 80, 60101, 80, 60103, 80, 60102,
      80, 20103, 80, 112, 80, 108, 80, 110, 80, 105, 80
    ],
    "openDay": 3,
    "challengeMissionWatcherList": [41, 42],
    "statisticsIdList": [23],
    "HHMLPNMHJGA": 18049128977186893253,
    "dungeonId": 7111,
    "dungeonFactorIdList": [],
    "failTips": [
      "UI_ACTIVITY_MISTTRIAL_FAIL_TIPS_00",
      "UI_ACTIVITY_MISTTRIAL_FAIL_TIPS_12"
    ],
    "CHGJJIJJCJG": [32, 33, 15, 14, 21, 19],
    "CBGFHCEMAGO": "SGV_ABILITY_Mist_Level",
    "GGHKBAMDLCB": [8],
    "BHKNOBPJODE": [10701021, 10701022, 10701023, 10701024]
  },
  {
    "Id": 10,
    "scheduleId": 5054001,
    "levelId": 4,
    "levelTitleTextMapHash": 1323773489,
    "levelDescTextMapHash": 619211901,
    "monsterPreviewIdList": [51001, 90, 51002, 90],
    "ENMNEADHKDJ": [
      20102, 80, 10202, 80, 10105, 80, 10112, 80, 30201, 80, 30301, 80, 50102,
      80, 50103, 80, 50104, 80, 50701, 80
    ],
    "openDay": 3,
    "challengeMissionWatcherList": [39, 40],
    "statisticsIdList": [22],
    "HHMLPNMHJGA": 16705773734067068597,
    "dungeonId": 7110,
    "dungeonFactorIdList": [],
    "failTips": [
      "UI_ACTIVITY_MISTTRIAL_FAIL_TIPS_00",
      "UI_ACTIVITY_MISTTRIAL_FAIL_TIPS_11"
    ],
    "CHGJJIJJCJG": [17, 30, 21, 31, 20, 29],
    "CBGFHCEMAGO": "SGV_ABILITY_Mist_Level",
    "GGHKBAMDLCB": [6, 7],
    "BHKNOBPJODE": [10701017, 10701018, 10701019, 10701020]
  },
  {
    "Id": 11,
    "scheduleId": 5054001,
    "levelId": 5,
    "levelTitleTextMapHash": 3106329505,
    "levelDescTextMapHash": 4205946493,
    "monsterPreviewIdList": [40201, 90, 40202, 90, 40203, 90, 40204, 90],
    "ENMNEADHKDJ": [
      20103, 80, 10114, 80, 10202, 80, 10104, 80, 113, 80, 112, 80, 109, 80,
      108, 80, 111, 80, 110, 80, 30105, 80, 30101, 80, 30104, 80, 30201, 80
    ],
    "openDay": 5,
    "challengeMissionWatcherList": [35, 36],
    "statisticsIdList": [20],
    "HHMLPNMHJGA": 5239026899455726848,
    "dungeonId": 7108,
    "dungeonFactorIdList": [],
    "failTips": [
      "UI_ACTIVITY_MISTTRIAL_FAIL_TIPS_00",
      "UI_ACTIVITY_MISTTRIAL_FAIL_TIPS_09"
    ],
    "CHGJJIJJCJG": [11, 22, 23, 15, 24, 25, 26],
    "CBGFHCEMAGO": "SGV_ABILITY_Mist_Level",
    "GGHKBAMDLCB": [4],
    "BHKNOBPJODE": [10701009, 10701010, 10701011, 10701012]
  },
  {
    "Id": 12,
    "scheduleId": 5054001,
    "levelId": 6,
    "levelTitleTextMapHash": 1644123921,
    "levelDescTextMapHash": 1129139237,
    "monsterPreviewIdList": [10208, 90, 10306, 90, 10109, 90],
    "ENMNEADHKDJ": [
      20104, 80, 10306, 80, 10110, 80, 601, 80, 602, 80, 60301, 80, 114, 80,
      106, 80
    ],
    "openDay": 5,
    "challengeMissionWatcherList": [37, 38],
    "statisticsIdList": [21],
    "HHMLPNMHJGA": 1107919358408781320,
    "dungeonId": 7109,
    "dungeonFactorIdList": [],
    "failTips": [
      "UI_ACTIVITY_MISTTRIAL_FAIL_TIPS_00",
      "UI_ACTIVITY_MISTTRIAL_FAIL_TIPS_10"
    ],
    "CHGJJIJJCJG": [27, 28, 19, 24, 13, 20, 29],
    "CBGFHCEMAGO": "SGV_ABILITY_Mist_Level",
    "GGHKBAMDLCB": [5],
    "BHKNOBPJODE": [10701013, 10701014, 10701015, 10701016]
  },
  {
    "Id": 13,
    "scheduleId": 5054001,
    "levelId": 7,
    "levelTitleTextMapHash": 2687835825,
    "levelDescTextMapHash": 35181797,
    "monsterPreviewIdList": [
      10208, 90, 10305, 90, 10202, 90, 10207, 90, 20101, 90, 20103, 90, 10105,
      90, 10109, 90, 10107, 90, 107, 90, 106, 90, 10102, 90, 112, 90, 10103, 90
    ],
    "ENMNEADHKDJ": [
      20501, 80, 20401, 80, 30501, 80, 30201, 80, 20101, 80, 20104, 80
    ],
    "openDay": 5,
    "challengeMissionWatcherList": [43, 44],
    "statisticsIdList": [24],
    "HHMLPNMHJGA": 12227310247251161253,
    "dungeonId": 7112,
    "dungeonFactorIdList": [],
    "failTips": [
      "UI_ACTIVITY_MISTTRIAL_FAIL_TIPS_00",
      "UI_ACTIVITY_MISTTRIAL_FAIL_TIPS_13"
    ],
    "CHGJJIJJCJG": [
      11, 12, 17, 18, 22, 27, 28, 30, 32, 33, 13, 14, 15, 16, 19, 20, 21, 23,
      24, 25, 26, 29, 31
    ],
    "CBGFHCEMAGO": "SGV_ABILITY_Mist_Level",
    "GGHKBAMDLCB": [9],
    "BHKNOBPJODE": [10701025, 10701026, 10701027, 10701028]
  },
  {
    "Id": 14,
    "scheduleId": 5114001,
    "levelId": 1,
    "levelTitleTextMapHash": 1182335409,
    "levelDescTextMapHash": 3960640101,
    "monsterPreviewIdList": [
      54102, 90, 52104, 90, 50103, 90, 52103, 90, 52101, 90, 52105, 90, 50102,
      90, 50601, 90, 50106, 90
    ],
    "ENMNEADHKDJ": [
      52102, 80, 52105, 80, 52103, 80, 52101, 80, 52104, 80, 50801, 80, 50802,
      80, 113, 80, 10102, 80, 108, 80, 10107, 80, 10106, 80, 10202, 80, 61201,
      80, 60907, 80, 60909, 80, 60905, 80, 112, 80, 61204, 80
    ],
    "openDay": 1,
    "challengeMissionWatcherList": [45, 46],
    "statisticsIdList": [25],
    "HHMLPNMHJGA": 16067714606868889935,
    "bgIconHash": 9167560313598412134,
    "dungeonId": 8301,
    "dungeonFactorIdList": [],
    "failTips": ["UI_ACTIVITY_MISTTRIAL_FAIL_TIPS_18"],
    "CHGJJIJJCJG": [34, 35, 36, 39, 37, 38],
    "CBGFHCEMAGO": "SGV_ABILITY_Mist_Level",
    "GGHKBAMDLCB": [10],
    "BHKNOBPJODE": [11801001, 11801002, 11801003, 11801004]
  },
  {
    "Id": 15,
    "scheduleId": 5114001,
    "levelId": 2,
    "levelTitleTextMapHash": 2005295961,
    "levelDescTextMapHash": 3368540581,
    "monsterPreviewIdList": [40402, 90, 40301, 90, 40403, 90],
    "ENMNEADHKDJ": [
      10113, 80, 10303, 80, 10102, 80, 10202, 80, 40101, 80, 40201, 80, 40202,
      80, 30105, 80, 30102, 80, 30201, 80
    ],
    "openDay": 1,
    "challengeMissionWatcherList": [47, 48],
    "statisticsIdList": [26],
    "HHMLPNMHJGA": 12323304483822210260,
    "bgIconHash": 9167560313598412134,
    "dungeonId": 8302,
    "dungeonFactorIdList": [],
    "failTips": ["UI_ACTIVITY_MISTTRIAL_FAIL_TIPS_14"],
    "CHGJJIJJCJG": [41, 42, 40, 44, 37, 43],
    "CBGFHCEMAGO": "SGV_ABILITY_Mist_Level",
    "GGHKBAMDLCB": [11],
    "BHKNOBPJODE": [11801005, 11801006, 11801007, 11801008]
  },
  {
    "Id": 16,
    "scheduleId": 5114001,
    "levelId": 3,
    "levelTitleTextMapHash": 3589574657,
    "levelDescTextMapHash": 2348130533,
    "monsterPreviewIdList": [
      60401, 90, 50802, 90, 50801, 90, 52103, 90, 52105, 90
    ],
    "ENMNEADHKDJ": [
      10106, 80, 113, 80, 10102, 80, 20101, 80, 51002, 80, 52102, 80, 52103, 80,
      53101, 80, 30201, 80
    ],
    "openDay": 3,
    "challengeMissionWatcherList": [49, 50],
    "statisticsIdList": [27],
    "HHMLPNMHJGA": 17170853784729405074,
    "bgIconHash": 9167560313598412134,
    "dungeonId": 8303,
    "dungeonFactorIdList": [],
    "failTips": ["UI_ACTIVITY_MISTTRIAL_FAIL_TIPS_16"],
    "CHGJJIJJCJG": [40, 45, 46, 43, 38, 47],
    "CBGFHCEMAGO": "SGV_ABILITY_Mist_Level",
    "GGHKBAMDLCB": [12, 13],
    "BHKNOBPJODE": [11801009, 11801010, 11801011, 11801012]
  },
  {
    "Id": 17,
    "scheduleId": 5114001,
    "levelId": 4,
    "levelTitleTextMapHash": 3149835049,
    "levelDescTextMapHash": 2711445013,
    "monsterPreviewIdList": [40103, 90, 40204, 90, 40202, 90],
    "ENMNEADHKDJ": [
      10306, 80, 10116, 80, 10102, 80, 113, 80, 10207, 80, 30101, 80, 30105, 80,
      30106, 80, 52103, 80, 52102, 80, 52104, 80, 52105, 80, 52101, 80, 53101,
      80
    ],
    "openDay": 3,
    "challengeMissionWatcherList": [51, 52],
    "statisticsIdList": [28],
    "HHMLPNMHJGA": 4839061422531920712,
    "bgIconHash": 9167560313598412134,
    "dungeonId": 8304,
    "dungeonFactorIdList": [],
    "failTips": ["UI_ACTIVITY_MISTTRIAL_FAIL_TIPS_15"],
    "CHGJJIJJCJG": [49, 53, 48, 51, 52, 50],
    "CBGFHCEMAGO": "SGV_ABILITY_Mist_Level",
    "GGHKBAMDLCB": [14],
    "BHKNOBPJODE": [11801013, 11801014, 11801015, 11801016]
  },
  {
    "Id": 18,
    "scheduleId": 5114001,
    "levelId": 5,
    "levelTitleTextMapHash": 1885649305,
    "levelDescTextMapHash": 449861581,
    "monsterPreviewIdList": [
      53101, 90, 53103, 90, 51002, 90, 52102, 90, 50801, 90, 50802, 90
    ],
    "ENMNEADHKDJ": [
      602, 80, 507, 80, 110, 80, 40403, 80, 40402, 80, 50106, 80, 52105, 80,
      52104, 80, 52103, 80, 50102, 80, 50701, 80, 52102, 80
    ],
    "openDay": 5,
    "challengeMissionWatcherList": [53, 54],
    "statisticsIdList": [29],
    "HHMLPNMHJGA": 9986115909421573232,
    "bgIconHash": 9167560313598412134,
    "dungeonId": 8305,
    "dungeonFactorIdList": [],
    "failTips": ["UI_ACTIVITY_MISTTRIAL_FAIL_TIPS_17"],
    "CHGJJIJJCJG": [54, 40, 46, 37, 43, 55],
    "CBGFHCEMAGO": "SGV_ABILITY_Mist_Level",
    "GGHKBAMDLCB": [15],
    "BHKNOBPJODE": [11801017, 11801018, 11801019, 11801020]
  },
  {
    "Id": 19,
    "scheduleId": 5114001,
    "levelId": 6,
    "levelTitleTextMapHash": 2066993073,
    "levelDescTextMapHash": 2993868613,
    "monsterPreviewIdList": [40302, 90, 10202, 90, 10207, 90],
    "ENMNEADHKDJ": [
      20501, 80, 20401, 80, 40101, 80, 54101, 80, 30201, 80, 52105, 80, 52104,
      80
    ],
    "openDay": 5,
    "challengeMissionWatcherList": [55, 56],
    "statisticsIdList": [30],
    "HHMLPNMHJGA": 13833189844748534996,
    "bgIconHash": 9167560313598412134,
    "dungeonId": 8306,
    "dungeonFactorIdList": [],
    "failTips": ["UI_ACTIVITY_MISTTRIAL_FAIL_TIPS_19"],
    "CHGJJIJJCJG": [56, 57, 58, 59, 61, 60],
    "CBGFHCEMAGO": "SGV_ABILITY_Mist_Level",
    "GGHKBAMDLCB": [16],
    "BHKNOBPJODE": [11801021, 11801022, 11801023, 11801024]
  },
  {
    "Id": 20,
    "scheduleId": 5114001,
    "levelId": 7,
    "levelTitleTextMapHash": 1592851857,
    "levelDescTextMapHash": 116042181,
    "monsterPreviewIdList": [
      60102, 90, 20101, 90, 10202, 90, 113, 90, 10303, 90, 10306, 90, 10107, 90,
      10109, 90, 10116, 90, 10102, 90, 112, 90
    ],
    "ENMNEADHKDJ": [
      61202, 80, 60907, 80, 60905, 80, 112, 80, 60910, 80, 61203, 80, 40203, 80,
      40202, 80, 52102, 80, 52101, 80, 52105, 80, 50801, 80, 50802, 80
    ],
    "openDay": 5,
    "challengeMissionWatcherList": [57, 58],
    "statisticsIdList": [31],
    "HHMLPNMHJGA": 3650240783795471165,
    "bgIconHash": 9167560313598412134,
    "dungeonId": 8307,
    "dungeonFactorIdList": [],
    "failTips": ["UI_ACTIVITY_MISTTRIAL_FAIL_TIPS_20"],
    "CHGJJIJJCJG": [
      56, 57, 34, 49, 53, 41, 54, 42, 40, 45, 48, 35, 46, 58, 59, 36, 39, 61,
      44, 60, 37, 43, 55, 38, 47, 51, 52, 50
    ],
    "CBGFHCEMAGO": "SGV_ABILITY_Mist_Level",
    "GGHKBAMDLCB": [17],
    "BHKNOBPJODE": [11801025, 11801026, 11801027, 11801028]
  }
]
