[
  {
    "ID": 1,
    "LJFJDLBAMOK": 1,
    "EPNNHMDGFKJ": "CARD_TAG_WATER",
    "CCHJCBBBIOC": 1,
    "GHDLEFOLNAE": 1081535283,
    "descTextMapHash": 2670989924,
    "MJAHLAILCOM": 3734451926,
    "OHJEJKBMKJL": 2327761743,
    "descParamList": [[1.0], [], []],
    "ANDJHHEDMKA": [false, false, false],
    "EJJFKECLFNE": "CARD_NUMERICAL_ATTACK",
    "CEHBDJCCCLC": "CARD_NUMERICAL_BASE",
    "DFFFEHOHHAK": 2000.0,
    "costPoints": 300,
    "cardType": "CHESS_CARD_STRENGTHEN",
    "IHJEINCMEAH": 3,
    "LABPPMCAOFM": {
      "BIADMFAIIKE": "CHESS_CARD_TARGET_GADGETS",
      "BPONLNCHNFD": [70350281],
      "OAMBHJKOBJL": "CHESS_CARD_EFFECT_SET_SGV",
      "FKMAPFCGJBH": "SGV_AttackDamageLevel",
      "GNEBNBDLECG": 1
    },
    "JIPAABDEGFK": 100,
    "DPLFAICDLLM": true,
    "FBOMOFFGPCH": true,
    "BBKGKGIIEIA": [
      {
        "BPONLNCHNFD": [],
        "FKMAPFCGJBH": ""
      }
    ]
  },
  {
    "ID": 2,
    "LJFJDLBAMOK": 2,
    "EPNNHMDGFKJ": "CARD_TAG_WATER",
    "CCHJCBBBIOC": 3,
    "GHDLEFOLNAE": 9961715,
    "descTextMapHash": 3532666076,
    "MJAHLAILCOM": 2460972558,
    "OHJEJKBMKJL": 2352608711,
    "descParamList": [[1.0], [50.0], []],
    "ANDJHHEDMKA": [false, false, false],
    "EJJFKECLFNE": "CARD_NUMERICAL_MASTERY",
    "CEHBDJCCCLC": "CARD_NUMERICAL_BASE",
    "DFFFEHOHHAK": 75.0,
    "costPoints": 300,
    "cardType": "CHESS_CARD_STRENGTHEN",
    "IHJEINCMEAH": 3,
    "LABPPMCAOFM": {
      "BIADMFAIIKE": "CHESS_CARD_TARGET_GADGETS",
      "BPONLNCHNFD": [70350281],
      "OAMBHJKOBJL": "CHESS_CARD_EFFECT_SET_SGV",
      "FKMAPFCGJBH": "SGV_ElementMasteryLevel",
      "GNEBNBDLECG": 1
    },
    "JIPAABDEGFK": 100,
    "DPLFAICDLLM": true,
    "FBOMOFFGPCH": true,
    "BBKGKGIIEIA": [
      {
        "BPONLNCHNFD": [],
        "FKMAPFCGJBH": ""
      }
    ]
  },
  {
    "ID": 3,
    "LJFJDLBAMOK": 3,
    "EPNNHMDGFKJ": "CARD_TAG_WATER",
    "CCHJCBBBIOC": 1,
    "GHDLEFOLNAE": 1361301019,
    "descTextMapHash": 2265289844,
    "MJAHLAILCOM": 748170278,
    "OHJEJKBMKJL": 1622540631,
    "descParamList": [[20.0], [], []],
    "ANDJHHEDMKA": [false, false, false],
    "EJJFKECLFNE": "CARD_NUMERICAL_ATTACK_INTERVAL",
    "CEHBDJCCCLC": "CARD_NUMERICAL_PERCENTAGE",
    "DFFFEHOHHAK": -0.20000000298023224,
    "costPoints": 200,
    "cardType": "CHESS_CARD_STRENGTHEN",
    "IHJEINCMEAH": 1,
    "LABPPMCAOFM": {
      "BIADMFAIIKE": "CHESS_CARD_TARGET_GADGETS",
      "BPONLNCHNFD": [70350281],
      "OAMBHJKOBJL": "CHESS_CARD_EFFECT_SET_SGV",
      "FKMAPFCGJBH": "SGV_AttackSpeedLevel",
      "GNEBNBDLECG": 1
    },
    "JIPAABDEGFK": 100,
    "DPLFAICDLLM": true,
    "HHFLHFDGHKI": true,
    "FBOMOFFGPCH": true,
    "BBKGKGIIEIA": [
      {
        "BPONLNCHNFD": [],
        "FKMAPFCGJBH": ""
      }
    ]
  },
  {
    "ID": 4,
    "LJFJDLBAMOK": 4,
    "EPNNHMDGFKJ": "CARD_TAG_FIRE",
    "CCHJCBBBIOC": 1,
    "GHDLEFOLNAE": 152110179,
    "descTextMapHash": 32630404,
    "MJAHLAILCOM": 1876680686,
    "OHJEJKBMKJL": 2668478231,
    "descParamList": [[1.0], [], []],
    "ANDJHHEDMKA": [false, false, false],
    "EJJFKECLFNE": "CARD_NUMERICAL_ATTACK",
    "CEHBDJCCCLC": "CARD_NUMERICAL_BASE",
    "DFFFEHOHHAK": 2000.0,
    "costPoints": 300,
    "cardType": "CHESS_CARD_STRENGTHEN",
    "IHJEINCMEAH": 3,
    "LABPPMCAOFM": {
      "BIADMFAIIKE": "CHESS_CARD_TARGET_GADGETS",
      "BPONLNCHNFD": [70350282],
      "OAMBHJKOBJL": "CHESS_CARD_EFFECT_SET_SGV",
      "FKMAPFCGJBH": "SGV_AttackDamageLevel",
      "GNEBNBDLECG": 1
    },
    "JIPAABDEGFK": 100,
    "DPLFAICDLLM": true,
    "FBOMOFFGPCH": true,
    "BBKGKGIIEIA": [
      {
        "BPONLNCHNFD": [],
        "FKMAPFCGJBH": ""
      }
    ]
  },
  {
    "ID": 5,
    "LJFJDLBAMOK": 5,
    "EPNNHMDGFKJ": "CARD_TAG_FIRE",
    "CCHJCBBBIOC": 3,
    "GHDLEFOLNAE": 3414422811,
    "descTextMapHash": 3649468812,
    "MJAHLAILCOM": 2740326382,
    "OHJEJKBMKJL": 2612290207,
    "descParamList": [[1.0], [], []],
    "ANDJHHEDMKA": [false, false, false],
    "EJJFKECLFNE": "CARD_NUMERICAL_MASTERY",
    "CEHBDJCCCLC": "CARD_NUMERICAL_BASE",
    "DFFFEHOHHAK": 75.0,
    "costPoints": 300,
    "cardType": "CHESS_CARD_STRENGTHEN",
    "IHJEINCMEAH": 3,
    "LABPPMCAOFM": {
      "BIADMFAIIKE": "CHESS_CARD_TARGET_GADGETS",
      "BPONLNCHNFD": [70350282],
      "OAMBHJKOBJL": "CHESS_CARD_EFFECT_SET_SGV",
      "FKMAPFCGJBH": "SGV_ElementMasteryLevel",
      "GNEBNBDLECG": 1
    },
    "JIPAABDEGFK": 100,
    "DPLFAICDLLM": true,
    "FBOMOFFGPCH": true,
    "BBKGKGIIEIA": [
      {
        "BPONLNCHNFD": [],
        "FKMAPFCGJBH": ""
      }
    ]
  },
  {
    "ID": 6,
    "LJFJDLBAMOK": 6,
    "EPNNHMDGFKJ": "CARD_TAG_FIRE",
    "CCHJCBBBIOC": 1,
    "GHDLEFOLNAE": 637325043,
    "descTextMapHash": 68104468,
    "MJAHLAILCOM": 690853430,
    "OHJEJKBMKJL": 677434511,
    "descParamList": [[20.0], [], []],
    "ANDJHHEDMKA": [false, false, false],
    "EJJFKECLFNE": "CARD_NUMERICAL_ATTACK_INTERVAL",
    "CEHBDJCCCLC": "CARD_NUMERICAL_PERCENTAGE",
    "DFFFEHOHHAK": -0.20000000298023224,
    "costPoints": 200,
    "cardType": "CHESS_CARD_STRENGTHEN",
    "IHJEINCMEAH": 1,
    "LABPPMCAOFM": {
      "BIADMFAIIKE": "CHESS_CARD_TARGET_GADGETS",
      "BPONLNCHNFD": [70350282],
      "OAMBHJKOBJL": "CHESS_CARD_EFFECT_SET_SGV",
      "FKMAPFCGJBH": "SGV_AttackSpeedLevel",
      "GNEBNBDLECG": 1
    },
    "JIPAABDEGFK": 100,
    "DPLFAICDLLM": true,
    "HHFLHFDGHKI": true,
    "FBOMOFFGPCH": true,
    "BBKGKGIIEIA": [
      {
        "BPONLNCHNFD": [],
        "FKMAPFCGJBH": ""
      }
    ]
  },
  {
    "ID": 7,
    "LJFJDLBAMOK": 7,
    "EPNNHMDGFKJ": "CARD_TAG_FIRE",
    "CCHJCBBBIOC": 1,
    "GHDLEFOLNAE": 2844986979,
    "descTextMapHash": 658740860,
    "MJAHLAILCOM": 4142289342,
    "OHJEJKBMKJL": 4168959295,
    "descParamList": [[40.0, 80.0], [], []],
    "ANDJHHEDMKA": [false, false, false],
    "EJJFKECLFNE": "CARD_NUMERICAL_ATTACK_RANGE",
    "CEHBDJCCCLC": "CARD_NUMERICAL_BASE",
    "DFFFEHOHHAK": 8.0,
    "costPoints": 200,
    "cardType": "CHESS_CARD_STRENGTHEN",
    "IHJEINCMEAH": 2,
    "LABPPMCAOFM": {
      "BIADMFAIIKE": "CHESS_CARD_TARGET_GADGETS",
      "BPONLNCHNFD": [70350282],
      "OAMBHJKOBJL": "CHESS_CARD_EFFECT_SET_SGV",
      "FKMAPFCGJBH": "SGV_RangeLevel",
      "GNEBNBDLECG": 1
    },
    "JIPAABDEGFK": 100,
    "DPLFAICDLLM": true,
    "HHFLHFDGHKI": true,
    "FBOMOFFGPCH": true,
    "BBKGKGIIEIA": [
      {
        "BPONLNCHNFD": [],
        "FKMAPFCGJBH": ""
      }
    ]
  },
  {
    "ID": 8,
    "LJFJDLBAMOK": 8,
    "EPNNHMDGFKJ": "CARD_TAG_ICE",
    "CCHJCBBBIOC": 1,
    "GHDLEFOLNAE": 1794425763,
    "descTextMapHash": 3644221972,
    "MJAHLAILCOM": 1711853462,
    "OHJEJKBMKJL": 3307091071,
    "descParamList": [[1.0], [], []],
    "ANDJHHEDMKA": [false, false, false],
    "EJJFKECLFNE": "CARD_NUMERICAL_ATTACK",
    "CEHBDJCCCLC": "CARD_NUMERICAL_BASE",
    "DFFFEHOHHAK": 2000.0,
    "costPoints": 300,
    "cardType": "CHESS_CARD_STRENGTHEN",
    "IHJEINCMEAH": 3,
    "LABPPMCAOFM": {
      "BIADMFAIIKE": "CHESS_CARD_TARGET_GADGETS",
      "BPONLNCHNFD": [70350283],
      "OAMBHJKOBJL": "CHESS_CARD_EFFECT_SET_SGV",
      "FKMAPFCGJBH": "SGV_AttackDamageLevel",
      "GNEBNBDLECG": 1
    },
    "JIPAABDEGFK": 100,
    "DPLFAICDLLM": true,
    "FBOMOFFGPCH": true,
    "BBKGKGIIEIA": [
      {
        "BPONLNCHNFD": [],
        "FKMAPFCGJBH": ""
      }
    ]
  },
  {
    "ID": 9,
    "LJFJDLBAMOK": 9,
    "EPNNHMDGFKJ": "CARD_TAG_ICE",
    "CCHJCBBBIOC": 3,
    "GHDLEFOLNAE": 373462603,
    "descTextMapHash": 312352580,
    "MJAHLAILCOM": 2877709830,
    "OHJEJKBMKJL": 3405000479,
    "descParamList": [[1.0], [50.0], []],
    "ANDJHHEDMKA": [false, false, false],
    "EJJFKECLFNE": "CARD_NUMERICAL_MASTERY",
    "CEHBDJCCCLC": "CARD_NUMERICAL_BASE",
    "DFFFEHOHHAK": 75.0,
    "costPoints": 300,
    "cardType": "CHESS_CARD_STRENGTHEN",
    "IHJEINCMEAH": 3,
    "LABPPMCAOFM": {
      "BIADMFAIIKE": "CHESS_CARD_TARGET_GADGETS",
      "BPONLNCHNFD": [70350283],
      "OAMBHJKOBJL": "CHESS_CARD_EFFECT_SET_SGV",
      "FKMAPFCGJBH": "SGV_ElementMasteryLevel",
      "GNEBNBDLECG": 1
    },
    "JIPAABDEGFK": 100,
    "DPLFAICDLLM": true,
    "FBOMOFFGPCH": true,
    "BBKGKGIIEIA": [
      {
        "BPONLNCHNFD": [],
        "FKMAPFCGJBH": ""
      }
    ]
  },
  {
    "ID": 10,
    "LJFJDLBAMOK": 10,
    "EPNNHMDGFKJ": "CARD_TAG_ICE",
    "CCHJCBBBIOC": 1,
    "GHDLEFOLNAE": 3527411347,
    "descTextMapHash": 354636036,
    "MJAHLAILCOM": 2722674838,
    "OHJEJKBMKJL": 3504572551,
    "descParamList": [[20.0], [], []],
    "ANDJHHEDMKA": [false, false, false],
    "EJJFKECLFNE": "CARD_NUMERICAL_ATTACK_INTERVAL",
    "CEHBDJCCCLC": "CARD_NUMERICAL_PERCENTAGE",
    "DFFFEHOHHAK": -0.20000000298023224,
    "costPoints": 200,
    "cardType": "CHESS_CARD_STRENGTHEN",
    "IHJEINCMEAH": 1,
    "LABPPMCAOFM": {
      "BIADMFAIIKE": "CHESS_CARD_TARGET_GADGETS",
      "BPONLNCHNFD": [70350283],
      "OAMBHJKOBJL": "CHESS_CARD_EFFECT_SET_SGV",
      "FKMAPFCGJBH": "SGV_AttackSpeedLevel",
      "GNEBNBDLECG": 1
    },
    "JIPAABDEGFK": 100,
    "DPLFAICDLLM": true,
    "HHFLHFDGHKI": true,
    "FBOMOFFGPCH": true,
    "BBKGKGIIEIA": [
      {
        "BPONLNCHNFD": [],
        "FKMAPFCGJBH": ""
      }
    ]
  },
  {
    "ID": 11,
    "LJFJDLBAMOK": 11,
    "EPNNHMDGFKJ": "CARD_TAG_ICE",
    "CCHJCBBBIOC": 1,
    "GHDLEFOLNAE": 3398425163,
    "descTextMapHash": 2207663188,
    "MJAHLAILCOM": 364950486,
    "OHJEJKBMKJL": 3555777535,
    "descParamList": [[53.0, 106.0], [], []],
    "ANDJHHEDMKA": [false, false, false],
    "EJJFKECLFNE": "CARD_NUMERICAL_ATTACK_RANGE",
    "CEHBDJCCCLC": "CARD_NUMERICAL_BASE",
    "DFFFEHOHHAK": 8.0,
    "costPoints": 200,
    "cardType": "CHESS_CARD_STRENGTHEN",
    "IHJEINCMEAH": 2,
    "LABPPMCAOFM": {
      "BIADMFAIIKE": "CHESS_CARD_TARGET_GADGETS",
      "BPONLNCHNFD": [70350283],
      "OAMBHJKOBJL": "CHESS_CARD_EFFECT_SET_SGV",
      "FKMAPFCGJBH": "SGV_RangeLevel",
      "GNEBNBDLECG": 1
    },
    "JIPAABDEGFK": 100,
    "DPLFAICDLLM": true,
    "HHFLHFDGHKI": true,
    "FBOMOFFGPCH": true,
    "BBKGKGIIEIA": [
      {
        "BPONLNCHNFD": [],
        "FKMAPFCGJBH": ""
      }
    ]
  },
  {
    "ID": 12,
    "LJFJDLBAMOK": 12,
    "EPNNHMDGFKJ": "CARD_TAG_WIND",
    "CCHJCBBBIOC": 1,
    "GHDLEFOLNAE": 3616288771,
    "descTextMapHash": 2981162748,
    "MJAHLAILCOM": 1300208198,
    "OHJEJKBMKJL": 2601098015,
    "descParamList": [[1.0], [], []],
    "ANDJHHEDMKA": [false, false, false],
    "EJJFKECLFNE": "CARD_NUMERICAL_ATTACK",
    "CEHBDJCCCLC": "CARD_NUMERICAL_BASE",
    "DFFFEHOHHAK": 2000.0,
    "costPoints": 300,
    "cardType": "CHESS_CARD_STRENGTHEN",
    "IHJEINCMEAH": 3,
    "LABPPMCAOFM": {
      "BIADMFAIIKE": "CHESS_CARD_TARGET_GADGETS",
      "BPONLNCHNFD": [70350284],
      "OAMBHJKOBJL": "CHESS_CARD_EFFECT_SET_SGV",
      "FKMAPFCGJBH": "SGV_AttackDamageLevel",
      "GNEBNBDLECG": 1
    },
    "JIPAABDEGFK": 100,
    "DPLFAICDLLM": true,
    "FBOMOFFGPCH": true,
    "BBKGKGIIEIA": [
      {
        "BPONLNCHNFD": [],
        "FKMAPFCGJBH": ""
      }
    ]
  },
  {
    "ID": 13,
    "LJFJDLBAMOK": 13,
    "EPNNHMDGFKJ": "CARD_TAG_WIND",
    "CCHJCBBBIOC": 3,
    "GHDLEFOLNAE": 393064875,
    "descTextMapHash": 2631352844,
    "MJAHLAILCOM": 3363130414,
    "OHJEJKBMKJL": 2513358383,
    "descParamList": [[1.0], [], []],
    "ANDJHHEDMKA": [false, false, false],
    "EJJFKECLFNE": "CARD_NUMERICAL_MASTERY",
    "CEHBDJCCCLC": "CARD_NUMERICAL_BASE",
    "DFFFEHOHHAK": 75.0,
    "costPoints": 300,
    "cardType": "CHESS_CARD_STRENGTHEN",
    "IHJEINCMEAH": 3,
    "LABPPMCAOFM": {
      "BIADMFAIIKE": "CHESS_CARD_TARGET_GADGETS",
      "BPONLNCHNFD": [70350284],
      "OAMBHJKOBJL": "CHESS_CARD_EFFECT_SET_SGV",
      "FKMAPFCGJBH": "SGV_ElementMasteryLevel",
      "GNEBNBDLECG": 1
    },
    "JIPAABDEGFK": 100,
    "DPLFAICDLLM": true,
    "FBOMOFFGPCH": true,
    "BBKGKGIIEIA": [
      {
        "BPONLNCHNFD": [],
        "FKMAPFCGJBH": ""
      }
    ]
  },
  {
    "ID": 14,
    "LJFJDLBAMOK": 14,
    "EPNNHMDGFKJ": "CARD_TAG_WIND",
    "CCHJCBBBIOC": 1,
    "GHDLEFOLNAE": 856577819,
    "descTextMapHash": 4170165996,
    "MJAHLAILCOM": 2393057398,
    "OHJEJKBMKJL": 758596007,
    "descParamList": [[20.0], [], []],
    "ANDJHHEDMKA": [false, false, false],
    "EJJFKECLFNE": "CARD_NUMERICAL_ATTACK_INTERVAL",
    "CEHBDJCCCLC": "CARD_NUMERICAL_PERCENTAGE",
    "DFFFEHOHHAK": -0.20000000298023224,
    "costPoints": 200,
    "cardType": "CHESS_CARD_STRENGTHEN",
    "IHJEINCMEAH": 1,
    "LABPPMCAOFM": {
      "BIADMFAIIKE": "CHESS_CARD_TARGET_GADGETS",
      "BPONLNCHNFD": [70350284],
      "OAMBHJKOBJL": "CHESS_CARD_EFFECT_SET_SGV",
      "FKMAPFCGJBH": "SGV_AttackSpeedLevel",
      "GNEBNBDLECG": 1
    },
    "JIPAABDEGFK": 100,
    "DPLFAICDLLM": true,
    "HHFLHFDGHKI": true,
    "FBOMOFFGPCH": true,
    "BBKGKGIIEIA": [
      {
        "BPONLNCHNFD": [],
        "FKMAPFCGJBH": ""
      }
    ]
  },
  {
    "ID": 15,
    "LJFJDLBAMOK": 15,
    "EPNNHMDGFKJ": "CARD_TAG_ELECTRIC",
    "CCHJCBBBIOC": 1,
    "GHDLEFOLNAE": 3820641195,
    "descTextMapHash": 3628155636,
    "MJAHLAILCOM": 1324189478,
    "OHJEJKBMKJL": 1292684407,
    "descParamList": [[1.0], [], []],
    "ANDJHHEDMKA": [false, false, false],
    "EJJFKECLFNE": "CARD_NUMERICAL_ATTACK",
    "CEHBDJCCCLC": "CARD_NUMERICAL_BASE",
    "DFFFEHOHHAK": 2000.0,
    "costPoints": 300,
    "cardType": "CHESS_CARD_STRENGTHEN",
    "IHJEINCMEAH": 3,
    "LABPPMCAOFM": {
      "BIADMFAIIKE": "CHESS_CARD_TARGET_GADGETS",
      "BPONLNCHNFD": [70350285],
      "OAMBHJKOBJL": "CHESS_CARD_EFFECT_SET_SGV",
      "FKMAPFCGJBH": "SGV_AttackDamageLevel",
      "GNEBNBDLECG": 1
    },
    "JIPAABDEGFK": 100,
    "DPLFAICDLLM": true,
    "FBOMOFFGPCH": true,
    "BBKGKGIIEIA": [
      {
        "BPONLNCHNFD": [],
        "FKMAPFCGJBH": ""
      }
    ]
  },
  {
    "ID": 16,
    "LJFJDLBAMOK": 16,
    "EPNNHMDGFKJ": "CARD_TAG_ELECTRIC",
    "CCHJCBBBIOC": 3,
    "GHDLEFOLNAE": 154872027,
    "descTextMapHash": 3896976636,
    "MJAHLAILCOM": 1162189918,
    "OHJEJKBMKJL": 3186862791,
    "descParamList": [[1.0], [50.0], []],
    "ANDJHHEDMKA": [false, false, false],
    "EJJFKECLFNE": "CARD_NUMERICAL_MASTERY",
    "CEHBDJCCCLC": "CARD_NUMERICAL_BASE",
    "DFFFEHOHHAK": 75.0,
    "costPoints": 300,
    "cardType": "CHESS_CARD_STRENGTHEN",
    "IHJEINCMEAH": 3,
    "LABPPMCAOFM": {
      "BIADMFAIIKE": "CHESS_CARD_TARGET_GADGETS",
      "BPONLNCHNFD": [70350285],
      "OAMBHJKOBJL": "CHESS_CARD_EFFECT_SET_SGV",
      "FKMAPFCGJBH": "SGV_ElementMasteryLevel",
      "GNEBNBDLECG": 1
    },
    "JIPAABDEGFK": 100,
    "DPLFAICDLLM": true,
    "FBOMOFFGPCH": true,
    "BBKGKGIIEIA": [
      {
        "BPONLNCHNFD": [],
        "FKMAPFCGJBH": ""
      }
    ]
  },
  {
    "ID": 17,
    "LJFJDLBAMOK": 17,
    "EPNNHMDGFKJ": "CARD_TAG_ELECTRIC",
    "CCHJCBBBIOC": 1,
    "GHDLEFOLNAE": 3276445667,
    "descTextMapHash": 161961668,
    "MJAHLAILCOM": 1333792334,
    "OHJEJKBMKJL": 3309659631,
    "descParamList": [[20.0], [], []],
    "ANDJHHEDMKA": [false, false, false],
    "EJJFKECLFNE": "CARD_NUMERICAL_ATTACK_INTERVAL",
    "CEHBDJCCCLC": "CARD_NUMERICAL_PERCENTAGE",
    "DFFFEHOHHAK": -0.20000000298023224,
    "costPoints": 200,
    "cardType": "CHESS_CARD_STRENGTHEN",
    "IHJEINCMEAH": 1,
    "LABPPMCAOFM": {
      "BIADMFAIIKE": "CHESS_CARD_TARGET_GADGETS",
      "BPONLNCHNFD": [70350285],
      "OAMBHJKOBJL": "CHESS_CARD_EFFECT_SET_SGV",
      "FKMAPFCGJBH": "SGV_AttackSpeedLevel",
      "GNEBNBDLECG": 1
    },
    "JIPAABDEGFK": 100,
    "DPLFAICDLLM": true,
    "HHFLHFDGHKI": true,
    "FBOMOFFGPCH": true,
    "BBKGKGIIEIA": [
      {
        "BPONLNCHNFD": [],
        "FKMAPFCGJBH": ""
      }
    ]
  },
  {
    "ID": 18,
    "LJFJDLBAMOK": 18,
    "EPNNHMDGFKJ": "CARD_TAG_ELECTRIC",
    "CCHJCBBBIOC": 1,
    "GHDLEFOLNAE": 3842649451,
    "descTextMapHash": 3893813932,
    "MJAHLAILCOM": 1247945206,
    "OHJEJKBMKJL": 3779796847,
    "descParamList": [[53.0, 106.0], [], []],
    "ANDJHHEDMKA": [false, false, false],
    "EJJFKECLFNE": "CARD_NUMERICAL_ATTACK_RANGE",
    "CEHBDJCCCLC": "CARD_NUMERICAL_BASE",
    "DFFFEHOHHAK": 8.0,
    "costPoints": 200,
    "cardType": "CHESS_CARD_STRENGTHEN",
    "IHJEINCMEAH": 2,
    "LABPPMCAOFM": {
      "BIADMFAIIKE": "CHESS_CARD_TARGET_GADGETS",
      "BPONLNCHNFD": [70350285],
      "OAMBHJKOBJL": "CHESS_CARD_EFFECT_SET_SGV",
      "FKMAPFCGJBH": "SGV_RangeLevel",
      "GNEBNBDLECG": 1
    },
    "JIPAABDEGFK": 100,
    "DPLFAICDLLM": true,
    "HHFLHFDGHKI": true,
    "FBOMOFFGPCH": true,
    "BBKGKGIIEIA": [
      {
        "BPONLNCHNFD": [],
        "FKMAPFCGJBH": ""
      }
    ]
  },
  {
    "ID": 19,
    "LJFJDLBAMOK": 19,
    "EPNNHMDGFKJ": "CARD_TAG_PHYSICS",
    "CCHJCBBBIOC": 1,
    "GHDLEFOLNAE": 1227811763,
    "descTextMapHash": 1356988284,
    "MJAHLAILCOM": 130889718,
    "OHJEJKBMKJL": 2731974399,
    "descParamList": [[1.0], [], []],
    "ANDJHHEDMKA": [false, false, false],
    "EJJFKECLFNE": "CARD_NUMERICAL_ATTACK",
    "CEHBDJCCCLC": "CARD_NUMERICAL_BASE",
    "DFFFEHOHHAK": 2000.0,
    "costPoints": 300,
    "cardType": "CHESS_CARD_STRENGTHEN",
    "IHJEINCMEAH": 3,
    "LABPPMCAOFM": {
      "BIADMFAIIKE": "CHESS_CARD_TARGET_GADGETS",
      "BPONLNCHNFD": [70350286],
      "OAMBHJKOBJL": "CHESS_CARD_EFFECT_SET_SGV",
      "FKMAPFCGJBH": "SGV_AttackDamageLevel",
      "GNEBNBDLECG": 1
    },
    "JIPAABDEGFK": 100,
    "DPLFAICDLLM": true,
    "FBOMOFFGPCH": true,
    "BBKGKGIIEIA": [
      {
        "BPONLNCHNFD": [],
        "FKMAPFCGJBH": ""
      }
    ]
  },
  {
    "ID": 20,
    "LJFJDLBAMOK": 20,
    "EPNNHMDGFKJ": "CARD_TAG_PHYSICS",
    "CCHJCBBBIOC": 1,
    "GHDLEFOLNAE": 862902427,
    "descTextMapHash": 777764380,
    "MJAHLAILCOM": 3550016846,
    "OHJEJKBMKJL": 1141904647,
    "descParamList": [[20.0], [], []],
    "ANDJHHEDMKA": [false, false, false],
    "EJJFKECLFNE": "CARD_NUMERICAL_ATTACK_INTERVAL",
    "CEHBDJCCCLC": "CARD_NUMERICAL_PERCENTAGE",
    "DFFFEHOHHAK": -0.20000000298023224,
    "costPoints": 200,
    "cardType": "CHESS_CARD_STRENGTHEN",
    "IHJEINCMEAH": 1,
    "LABPPMCAOFM": {
      "BIADMFAIIKE": "CHESS_CARD_TARGET_GADGETS",
      "BPONLNCHNFD": [70350286],
      "OAMBHJKOBJL": "CHESS_CARD_EFFECT_SET_SGV",
      "FKMAPFCGJBH": "SGV_AttackSpeedLevel",
      "GNEBNBDLECG": 1
    },
    "JIPAABDEGFK": 100,
    "DPLFAICDLLM": true,
    "HHFLHFDGHKI": true,
    "FBOMOFFGPCH": true,
    "BBKGKGIIEIA": [
      {
        "BPONLNCHNFD": [],
        "FKMAPFCGJBH": ""
      }
    ]
  },
  {
    "ID": 21,
    "LJFJDLBAMOK": 21,
    "EPNNHMDGFKJ": "CARD_TAG_PHYSICS",
    "CCHJCBBBIOC": 1,
    "GHDLEFOLNAE": 1333660403,
    "descTextMapHash": 3394547972,
    "MJAHLAILCOM": 1438904622,
    "OHJEJKBMKJL": 486008399,
    "descParamList": [[33.0, 66.0], [], []],
    "ANDJHHEDMKA": [false, false, false],
    "EJJFKECLFNE": "CARD_NUMERICAL_ATTACK_RANGE",
    "CEHBDJCCCLC": "CARD_NUMERICAL_BASE",
    "DFFFEHOHHAK": 8.0,
    "costPoints": 200,
    "cardType": "CHESS_CARD_STRENGTHEN",
    "IHJEINCMEAH": 2,
    "LABPPMCAOFM": {
      "BIADMFAIIKE": "CHESS_CARD_TARGET_GADGETS",
      "BPONLNCHNFD": [70350286],
      "OAMBHJKOBJL": "CHESS_CARD_EFFECT_SET_SGV",
      "FKMAPFCGJBH": "SGV_RangeLevel",
      "GNEBNBDLECG": 1
    },
    "JIPAABDEGFK": 100,
    "DPLFAICDLLM": true,
    "HHFLHFDGHKI": true,
    "FBOMOFFGPCH": true,
    "BBKGKGIIEIA": [
      {
        "BPONLNCHNFD": [],
        "FKMAPFCGJBH": ""
      }
    ]
  },
  {
    "ID": 22,
    "LJFJDLBAMOK": 22,
    "EPNNHMDGFKJ": "CARD_TAG_HELP",
    "CCHJCBBBIOC": 3,
    "GHDLEFOLNAE": 3948328107,
    "descTextMapHash": 3967054364,
    "MJAHLAILCOM": 2021090966,
    "OHJEJKBMKJL": 4179083223,
    "descParamList": [[1.0], [], []],
    "ANDJHHEDMKA": [false, false, false],
    "EJJFKECLFNE": "CARD_NUMERICAL_ATTACK",
    "CEHBDJCCCLC": "CARD_NUMERICAL_BASE",
    "DFFFEHOHHAK": 2000.0,
    "costPoints": 300,
    "cardType": "CHESS_CARD_STRENGTHEN",
    "IHJEINCMEAH": 3,
    "LABPPMCAOFM": {
      "BIADMFAIIKE": "CHESS_CARD_TARGET_GADGETS",
      "BPONLNCHNFD": [70350298],
      "OAMBHJKOBJL": "CHESS_CARD_EFFECT_SET_SGV",
      "FKMAPFCGJBH": "SGV_AttackDamageLevel",
      "GNEBNBDLECG": 1
    },
    "JIPAABDEGFK": 100,
    "DPLFAICDLLM": true,
    "FBOMOFFGPCH": true,
    "BBKGKGIIEIA": [
      {
        "BPONLNCHNFD": [],
        "FKMAPFCGJBH": ""
      }
    ]
  },
  {
    "ID": 23,
    "LJFJDLBAMOK": 23,
    "EPNNHMDGFKJ": "CARD_TAG_HELP",
    "CCHJCBBBIOC": 4,
    "GHDLEFOLNAE": 2937406859,
    "descTextMapHash": 3557342652,
    "MJAHLAILCOM": 2321762366,
    "OHJEJKBMKJL": 1626291463,
    "descParamList": [[10.0, 20.0], [], []],
    "ANDJHHEDMKA": [false, false, false],
    "costPoints": 200,
    "cardType": "CHESS_CARD_STRENGTHEN",
    "IHJEINCMEAH": 2,
    "LABPPMCAOFM": {
      "BIADMFAIIKE": "CHESS_CARD_TARGET_GADGETS",
      "BPONLNCHNFD": [70350303],
      "OAMBHJKOBJL": "CHESS_CARD_EFFECT_SET_SGV",
      "FKMAPFCGJBH": "SGV_UpgradeAttackLevel",
      "GNEBNBDLECG": 1
    },
    "JIPAABDEGFK": 100,
    "DPLFAICDLLM": true,
    "HHFLHFDGHKI": true,
    "FBOMOFFGPCH": true,
    "BBKGKGIIEIA": [
      {
        "BPONLNCHNFD": [],
        "FKMAPFCGJBH": ""
      }
    ]
  },
  {
    "ID": 24,
    "LJFJDLBAMOK": 24,
    "EPNNHMDGFKJ": "CARD_TAG_HELP",
    "CCHJCBBBIOC": 4,
    "GHDLEFOLNAE": 473533275,
    "descTextMapHash": 3485857396,
    "MJAHLAILCOM": 888225734,
    "OHJEJKBMKJL": 231067727,
    "descParamList": [[25.0, 50.0], [], []],
    "ANDJHHEDMKA": [false, false, false],
    "costPoints": 200,
    "cardType": "CHESS_CARD_STRENGTHEN",
    "IHJEINCMEAH": 2,
    "LABPPMCAOFM": {
      "BIADMFAIIKE": "CHESS_CARD_TARGET_GADGETS",
      "BPONLNCHNFD": [70350303],
      "OAMBHJKOBJL": "CHESS_CARD_EFFECT_SET_SGV",
      "FKMAPFCGJBH": "SGV_UpgradeMasteryLevel",
      "GNEBNBDLECG": 1
    },
    "JIPAABDEGFK": 100,
    "DPLFAICDLLM": true,
    "HHFLHFDGHKI": true,
    "FBOMOFFGPCH": true,
    "BBKGKGIIEIA": [
      {
        "BPONLNCHNFD": [],
        "FKMAPFCGJBH": ""
      }
    ]
  },
  {
    "ID": 25,
    "LJFJDLBAMOK": 25,
    "EPNNHMDGFKJ": "CARD_TAG_HELP",
    "CCHJCBBBIOC": 4,
    "GHDLEFOLNAE": 2812875195,
    "descTextMapHash": 3354492980,
    "MJAHLAILCOM": 4109989206,
    "OHJEJKBMKJL": 256573207,
    "descParamList": [[10.0, 20.0], [], []],
    "ANDJHHEDMKA": [false, false, false],
    "costPoints": 200,
    "cardType": "CHESS_CARD_STRENGTHEN",
    "IHJEINCMEAH": 2,
    "LABPPMCAOFM": {
      "BIADMFAIIKE": "CHESS_CARD_TARGET_GADGETS",
      "BPONLNCHNFD": [70350294],
      "OAMBHJKOBJL": "CHESS_CARD_EFFECT_SET_SGV",
      "FKMAPFCGJBH": "SGV_AuroKillPointBonus",
      "GNEBNBDLECG": 1
    },
    "JIPAABDEGFK": 100,
    "DPLFAICDLLM": true,
    "HHFLHFDGHKI": true,
    "FBOMOFFGPCH": true,
    "BBKGKGIIEIA": [
      {
        "BPONLNCHNFD": [],
        "FKMAPFCGJBH": ""
      }
    ]
  },
  {
    "ID": 26,
    "LJFJDLBAMOK": 26,
    "EPNNHMDGFKJ": "CARD_TAG_WATER",
    "CCHJCBBBIOC": 1,
    "GHDLEFOLNAE": 2040220339,
    "descTextMapHash": 3698884924,
    "MJAHLAILCOM": 3925958702,
    "OHJEJKBMKJL": 3121725199,
    "descParamList": [[33.0, 66.0], [], []],
    "ANDJHHEDMKA": [false, false, false],
    "EJJFKECLFNE": "CARD_NUMERICAL_ATTACK_RANGE",
    "CEHBDJCCCLC": "CARD_NUMERICAL_BASE",
    "DFFFEHOHHAK": 2.0,
    "costPoints": 500,
    "cardType": "CHESS_CARD_STRENGTHEN",
    "NKMCIINMDLG": "CARD_QUALITY_GOOD",
    "IHJEINCMEAH": 2,
    "LABPPMCAOFM": {
      "BIADMFAIIKE": "CHESS_CARD_TARGET_GADGETS",
      "BPONLNCHNFD": [70350281],
      "OAMBHJKOBJL": "CHESS_CARD_EFFECT_SET_SGV",
      "FKMAPFCGJBH": "SGV_RangeLevel",
      "GNEBNBDLECG": 1
    },
    "JIPAABDEGFK": 100,
    "DPLFAICDLLM": true,
    "HHFLHFDGHKI": true,
    "FBOMOFFGPCH": true,
    "BBKGKGIIEIA": [
      {
        "BPONLNCHNFD": [],
        "FKMAPFCGJBH": ""
      }
    ]
  },
  {
    "ID": 27,
    "LJFJDLBAMOK": 27,
    "EPNNHMDGFKJ": "CARD_TAG_WATER",
    "CCHJCBBBIOC": 2,
    "GHDLEFOLNAE": 4138904683,
    "descTextMapHash": 338766516,
    "MJAHLAILCOM": 3883973166,
    "OHJEJKBMKJL": 102486935,
    "descParamList": [[5.0, 2.5], [15.0, 15.0], []],
    "ANDJHHEDMKA": [false, false, false],
    "costPoints": 500,
    "cardType": "CHESS_CARD_STRENGTHEN",
    "NKMCIINMDLG": "CARD_QUALITY_GOOD",
    "IHJEINCMEAH": 2,
    "LABPPMCAOFM": {
      "BIADMFAIIKE": "CHESS_CARD_TARGET_GADGETS",
      "BPONLNCHNFD": [70350281],
      "OAMBHJKOBJL": "CHESS_CARD_EFFECT_SET_SGV",
      "FKMAPFCGJBH": "SGV_Bubble",
      "GNEBNBDLECG": 1
    },
    "JIPAABDEGFK": 100,
    "DPLFAICDLLM": true,
    "HHFLHFDGHKI": true,
    "FBOMOFFGPCH": true,
    "BBKGKGIIEIA": [
      {
        "BPONLNCHNFD": [],
        "FKMAPFCGJBH": ""
      }
    ]
  },
  {
    "ID": 28,
    "LJFJDLBAMOK": 28,
    "EPNNHMDGFKJ": "CARD_TAG_WATER",
    "CCHJCBBBIOC": 5,
    "GHDLEFOLNAE": 3366157875,
    "descTextMapHash": 3231093604,
    "MJAHLAILCOM": 3056155574,
    "OHJEJKBMKJL": 2741448487,
    "descParamList": [[20.0, 10.0], [], []],
    "ANDJHHEDMKA": [false, false, false],
    "costPoints": 500,
    "cardType": "CHESS_CARD_STRENGTHEN",
    "NKMCIINMDLG": "CARD_QUALITY_GOOD",
    "IHJEINCMEAH": 2,
    "LABPPMCAOFM": {
      "BIADMFAIIKE": "CHESS_CARD_TARGET_GADGETS",
      "BPONLNCHNFD": [70350281],
      "OAMBHJKOBJL": "CHESS_CARD_EFFECT_SET_SGV",
      "FKMAPFCGJBH": "SGV_WaterImpulse",
      "GNEBNBDLECG": 1
    },
    "JIPAABDEGFK": 100,
    "DPLFAICDLLM": true,
    "HHFLHFDGHKI": true,
    "FBOMOFFGPCH": true,
    "BBKGKGIIEIA": [
      {
        "BPONLNCHNFD": [],
        "FKMAPFCGJBH": ""
      }
    ]
  },
  {
    "ID": 29,
    "LJFJDLBAMOK": 29,
    "EPNNHMDGFKJ": "CARD_TAG_WATER",
    "CCHJCBBBIOC": 3,
    "GHDLEFOLNAE": 316300899,
    "descTextMapHash": 1568492836,
    "MJAHLAILCOM": 561013070,
    "OHJEJKBMKJL": 2358577407,
    "descParamList": [[50.0, 100.0], [], []],
    "ANDJHHEDMKA": [false, false, false],
    "costPoints": 500,
    "cardType": "CHESS_CARD_STRENGTHEN",
    "NKMCIINMDLG": "CARD_QUALITY_GOOD",
    "IHJEINCMEAH": 2,
    "LABPPMCAOFM": {
      "BIADMFAIIKE": "CHESS_CARD_TARGET_ALL",
      "BPONLNCHNFD": [],
      "OAMBHJKOBJL": "CHESS_CARD_EFFECT_SET_SGV",
      "FKMAPFCGJBH": "SGV_Evaporate",
      "GNEBNBDLECG": 1
    },
    "JIPAABDEGFK": 100,
    "DPLFAICDLLM": true,
    "HHFLHFDGHKI": true,
    "FBOMOFFGPCH": true,
    "BBKGKGIIEIA": [
      {
        "BPONLNCHNFD": [],
        "FKMAPFCGJBH": ""
      }
    ]
  },
  {
    "ID": 30,
    "LJFJDLBAMOK": 30,
    "EPNNHMDGFKJ": "CARD_TAG_WATER",
    "CCHJCBBBIOC": 6,
    "GHDLEFOLNAE": 793189947,
    "descTextMapHash": 3692824876,
    "MJAHLAILCOM": 3157642950,
    "OHJEJKBMKJL": 3407470039,
    "descParamList": [[50.0, 100.0], [], []],
    "ANDJHHEDMKA": [false, false, false],
    "costPoints": 500,
    "cardType": "CHESS_CARD_STRENGTHEN",
    "NKMCIINMDLG": "CARD_QUALITY_GOOD",
    "IHJEINCMEAH": 2,
    "LABPPMCAOFM": {
      "BIADMFAIIKE": "CHESS_CARD_TARGET_GADGETS",
      "BPONLNCHNFD": [70350281],
      "OAMBHJKOBJL": "CHESS_CARD_EFFECT_SET_SGV",
      "FKMAPFCGJBH": "SGV_Wet",
      "GNEBNBDLECG": 1
    },
    "JIPAABDEGFK": 100,
    "DPLFAICDLLM": true,
    "HHFLHFDGHKI": true,
    "FBOMOFFGPCH": true,
    "BBKGKGIIEIA": [
      {
        "BPONLNCHNFD": [],
        "FKMAPFCGJBH": ""
      }
    ]
  },
  {
    "ID": 31,
    "LJFJDLBAMOK": 31,
    "EPNNHMDGFKJ": "CARD_TAG_FIRE",
    "CCHJCBBBIOC": 1,
    "GHDLEFOLNAE": 87271699,
    "descTextMapHash": 3707338356,
    "MJAHLAILCOM": 679287918,
    "OHJEJKBMKJL": 4280114103,
    "descParamList": [[133.0, 266.0], [], []],
    "ANDJHHEDMKA": [false, false, false],
    "costPoints": 500,
    "cardType": "CHESS_CARD_STRENGTHEN",
    "NKMCIINMDLG": "CARD_QUALITY_GOOD",
    "IHJEINCMEAH": 2,
    "LABPPMCAOFM": {
      "BIADMFAIIKE": "CHESS_CARD_TARGET_GADGETS",
      "BPONLNCHNFD": [70350282],
      "OAMBHJKOBJL": "CHESS_CARD_EFFECT_SET_SGV",
      "FKMAPFCGJBH": "SGV_Aoe",
      "GNEBNBDLECG": 1
    },
    "JIPAABDEGFK": 100,
    "DPLFAICDLLM": true,
    "HHFLHFDGHKI": true,
    "FBOMOFFGPCH": true,
    "BBKGKGIIEIA": [
      {
        "BPONLNCHNFD": [],
        "FKMAPFCGJBH": ""
      }
    ]
  },
  {
    "ID": 32,
    "LJFJDLBAMOK": 32,
    "EPNNHMDGFKJ": "CARD_TAG_FIRE",
    "CCHJCBBBIOC": 2,
    "GHDLEFOLNAE": 763412195,
    "descTextMapHash": 3707235036,
    "MJAHLAILCOM": 1246829550,
    "OHJEJKBMKJL": 3174678055,
    "descParamList": [[], [], []],
    "ANDJHHEDMKA": [false, false, false],
    "costPoints": 500,
    "cardType": "CHESS_CARD_STRENGTHEN",
    "NKMCIINMDLG": "CARD_QUALITY_GOOD",
    "IHJEINCMEAH": 1,
    "LABPPMCAOFM": {
      "BIADMFAIIKE": "CHESS_CARD_TARGET_GADGETS",
      "BPONLNCHNFD": [70350282],
      "OAMBHJKOBJL": "CHESS_CARD_EFFECT_SET_SGV",
      "FKMAPFCGJBH": "SGV_Enbreak",
      "GNEBNBDLECG": 1
    },
    "JIPAABDEGFK": 100,
    "DPLFAICDLLM": true,
    "HHFLHFDGHKI": true,
    "FBOMOFFGPCH": true,
    "BBKGKGIIEIA": [
      {
        "BPONLNCHNFD": [],
        "FKMAPFCGJBH": ""
      }
    ]
  },
  {
    "ID": 33,
    "LJFJDLBAMOK": 33,
    "EPNNHMDGFKJ": "CARD_TAG_FIRE",
    "CCHJCBBBIOC": 5,
    "GHDLEFOLNAE": 2046879299,
    "descTextMapHash": 2437927340,
    "MJAHLAILCOM": 1730731046,
    "OHJEJKBMKJL": 3451302935,
    "descParamList": [[20.0, 10.0], [], []],
    "ANDJHHEDMKA": [false, false, false],
    "costPoints": 500,
    "cardType": "CHESS_CARD_STRENGTHEN",
    "NKMCIINMDLG": "CARD_QUALITY_GOOD",
    "IHJEINCMEAH": 2,
    "LABPPMCAOFM": {
      "BIADMFAIIKE": "CHESS_CARD_TARGET_GADGETS",
      "BPONLNCHNFD": [70350282],
      "OAMBHJKOBJL": "CHESS_CARD_EFFECT_SET_SGV",
      "FKMAPFCGJBH": "SGV_FireImpulse",
      "GNEBNBDLECG": 1
    },
    "JIPAABDEGFK": 100,
    "DPLFAICDLLM": true,
    "HHFLHFDGHKI": true,
    "FBOMOFFGPCH": true,
    "BBKGKGIIEIA": [
      {
        "BPONLNCHNFD": [],
        "FKMAPFCGJBH": ""
      }
    ]
  },
  {
    "ID": 34,
    "LJFJDLBAMOK": 34,
    "EPNNHMDGFKJ": "CARD_TAG_FIRE",
    "CCHJCBBBIOC": 3,
    "GHDLEFOLNAE": 1305470651,
    "descTextMapHash": 2207088092,
    "MJAHLAILCOM": 2729759614,
    "OHJEJKBMKJL": 3872077863,
    "descParamList": [[50.0, 100.0], [], []],
    "ANDJHHEDMKA": [false, false, false],
    "costPoints": 500,
    "cardType": "CHESS_CARD_STRENGTHEN",
    "NKMCIINMDLG": "CARD_QUALITY_GOOD",
    "IHJEINCMEAH": 2,
    "LABPPMCAOFM": {
      "BIADMFAIIKE": "CHESS_CARD_TARGET_ALL",
      "BPONLNCHNFD": [],
      "OAMBHJKOBJL": "CHESS_CARD_EFFECT_SET_SGV",
      "FKMAPFCGJBH": "SGV_Melt",
      "GNEBNBDLECG": 1
    },
    "JIPAABDEGFK": 100,
    "DPLFAICDLLM": true,
    "HHFLHFDGHKI": true,
    "FBOMOFFGPCH": true,
    "BBKGKGIIEIA": [
      {
        "BPONLNCHNFD": [],
        "FKMAPFCGJBH": ""
      }
    ]
  },
  {
    "ID": 35,
    "LJFJDLBAMOK": 35,
    "EPNNHMDGFKJ": "CARD_TAG_FIRE",
    "CCHJCBBBIOC": 6,
    "GHDLEFOLNAE": 172089731,
    "descTextMapHash": 271535172,
    "MJAHLAILCOM": 1105784710,
    "OHJEJKBMKJL": 1705803279,
    "descParamList": [[10.0, 20.0], [3.0, 3.0], []],
    "ANDJHHEDMKA": [false, false, false],
    "costPoints": 500,
    "cardType": "CHESS_CARD_STRENGTHEN",
    "NKMCIINMDLG": "CARD_QUALITY_GOOD",
    "IHJEINCMEAH": 2,
    "LABPPMCAOFM": {
      "BIADMFAIIKE": "CHESS_CARD_TARGET_GADGETS",
      "BPONLNCHNFD": [70350282],
      "OAMBHJKOBJL": "CHESS_CARD_EFFECT_SET_SGV",
      "FKMAPFCGJBH": "SGV_Defensedown",
      "GNEBNBDLECG": 1
    },
    "JIPAABDEGFK": 100,
    "DPLFAICDLLM": true,
    "HHFLHFDGHKI": true,
    "FBOMOFFGPCH": true,
    "BBKGKGIIEIA": [
      {
        "BPONLNCHNFD": [],
        "FKMAPFCGJBH": ""
      }
    ]
  },
  {
    "ID": 36,
    "LJFJDLBAMOK": 36,
    "EPNNHMDGFKJ": "CARD_TAG_ICE",
    "CCHJCBBBIOC": 1,
    "GHDLEFOLNAE": 815684171,
    "descTextMapHash": 2934581076,
    "MJAHLAILCOM": 3305841502,
    "OHJEJKBMKJL": 2789683911,
    "descParamList": [[20.0, 20.0], [1.0, 2.0], []],
    "ANDJHHEDMKA": [false, true, false],
    "costPoints": 500,
    "cardType": "CHESS_CARD_STRENGTHEN",
    "NKMCIINMDLG": "CARD_QUALITY_GOOD",
    "IHJEINCMEAH": 2,
    "LABPPMCAOFM": {
      "BIADMFAIIKE": "CHESS_CARD_TARGET_GADGETS",
      "BPONLNCHNFD": [70350283],
      "OAMBHJKOBJL": "CHESS_CARD_EFFECT_SET_SGV",
      "FKMAPFCGJBH": "SGV_Explosion",
      "GNEBNBDLECG": 1
    },
    "JIPAABDEGFK": 100,
    "DPLFAICDLLM": true,
    "HHFLHFDGHKI": true,
    "FBOMOFFGPCH": true,
    "BBKGKGIIEIA": [
      {
        "BPONLNCHNFD": [],
        "FKMAPFCGJBH": ""
      }
    ]
  },
  {
    "ID": 37,
    "LJFJDLBAMOK": 37,
    "EPNNHMDGFKJ": "CARD_TAG_ICE",
    "CCHJCBBBIOC": 2,
    "GHDLEFOLNAE": 2179149139,
    "descTextMapHash": 2296449620,
    "MJAHLAILCOM": 1030660206,
    "OHJEJKBMKJL": 2092975191,
    "descParamList": [[25.0, 50.0], [5.0, 5.0], []],
    "ANDJHHEDMKA": [false, false, false],
    "costPoints": 500,
    "cardType": "CHESS_CARD_STRENGTHEN",
    "NKMCIINMDLG": "CARD_QUALITY_GOOD",
    "IHJEINCMEAH": 2,
    "LABPPMCAOFM": {
      "BIADMFAIIKE": "CHESS_CARD_TARGET_GADGETS",
      "BPONLNCHNFD": [70350283],
      "OAMBHJKOBJL": "CHESS_CARD_EFFECT_SET_SGV",
      "FKMAPFCGJBH": "SGV_Slowdown",
      "GNEBNBDLECG": 1
    },
    "JIPAABDEGFK": 100,
    "DPLFAICDLLM": true,
    "HHFLHFDGHKI": true,
    "FBOMOFFGPCH": true,
    "BBKGKGIIEIA": [
      {
        "BPONLNCHNFD": [],
        "FKMAPFCGJBH": ""
      }
    ]
  },
  {
    "ID": 38,
    "LJFJDLBAMOK": 38,
    "EPNNHMDGFKJ": "CARD_TAG_ICE",
    "CCHJCBBBIOC": 5,
    "GHDLEFOLNAE": 4227442515,
    "descTextMapHash": 2860970820,
    "MJAHLAILCOM": 3308930470,
    "OHJEJKBMKJL": 2033109327,
    "descParamList": [[20.0, 10.0], [], []],
    "ANDJHHEDMKA": [false, false, false],
    "costPoints": 500,
    "cardType": "CHESS_CARD_STRENGTHEN",
    "NKMCIINMDLG": "CARD_QUALITY_GOOD",
    "IHJEINCMEAH": 2,
    "LABPPMCAOFM": {
      "BIADMFAIIKE": "CHESS_CARD_TARGET_GADGETS",
      "BPONLNCHNFD": [70350283],
      "OAMBHJKOBJL": "CHESS_CARD_EFFECT_SET_SGV",
      "FKMAPFCGJBH": "SGV_IceImpulse",
      "GNEBNBDLECG": 1
    },
    "JIPAABDEGFK": 100,
    "DPLFAICDLLM": true,
    "HHFLHFDGHKI": true,
    "FBOMOFFGPCH": true,
    "BBKGKGIIEIA": [
      {
        "BPONLNCHNFD": [],
        "FKMAPFCGJBH": ""
      }
    ]
  },
  {
    "ID": 39,
    "LJFJDLBAMOK": 39,
    "EPNNHMDGFKJ": "CARD_TAG_ICE",
    "CCHJCBBBIOC": 6,
    "GHDLEFOLNAE": 2419764211,
    "descTextMapHash": 1186065636,
    "MJAHLAILCOM": 1904354782,
    "OHJEJKBMKJL": 2374567767,
    "descParamList": [[25.0, 50.0], [], []],
    "ANDJHHEDMKA": [false, false, false],
    "costPoints": 500,
    "cardType": "CHESS_CARD_STRENGTHEN",
    "NKMCIINMDLG": "CARD_QUALITY_GOOD",
    "IHJEINCMEAH": 2,
    "LABPPMCAOFM": {
      "BIADMFAIIKE": "CHESS_CARD_TARGET_GADGETS",
      "BPONLNCHNFD": [70350283],
      "OAMBHJKOBJL": "CHESS_CARD_EFFECT_SET_SGV",
      "FKMAPFCGJBH": "SGV_Resistancedown",
      "GNEBNBDLECG": 1
    },
    "JIPAABDEGFK": 100,
    "DPLFAICDLLM": true,
    "HHFLHFDGHKI": true,
    "FBOMOFFGPCH": true,
    "BBKGKGIIEIA": [
      {
        "BPONLNCHNFD": [],
        "FKMAPFCGJBH": ""
      }
    ]
  },
  {
    "ID": 40,
    "LJFJDLBAMOK": 40,
    "EPNNHMDGFKJ": "CARD_TAG_WIND",
    "CCHJCBBBIOC": 2,
    "GHDLEFOLNAE": 2561370611,
    "descTextMapHash": 1664141732,
    "MJAHLAILCOM": 1375446110,
    "OHJEJKBMKJL": 3709862079,
    "descParamList": [[1.0, 2.0], [], []],
    "ANDJHHEDMKA": [true, false, false],
    "costPoints": 500,
    "cardType": "CHESS_CARD_STRENGTHEN",
    "NKMCIINMDLG": "CARD_QUALITY_GOOD",
    "IHJEINCMEAH": 2,
    "LABPPMCAOFM": {
      "BIADMFAIIKE": "CHESS_CARD_TARGET_GADGETS",
      "BPONLNCHNFD": [70350284],
      "OAMBHJKOBJL": "CHESS_CARD_EFFECT_SET_SGV",
      "FKMAPFCGJBH": "SGV_TowUnits",
      "GNEBNBDLECG": 1
    },
    "JIPAABDEGFK": 100,
    "DPLFAICDLLM": true,
    "HHFLHFDGHKI": true,
    "FBOMOFFGPCH": true,
    "BBKGKGIIEIA": [
      {
        "BPONLNCHNFD": [],
        "FKMAPFCGJBH": ""
      }
    ]
  },
  {
    "ID": 41,
    "LJFJDLBAMOK": 41,
    "EPNNHMDGFKJ": "CARD_TAG_WIND",
    "CCHJCBBBIOC": 5,
    "GHDLEFOLNAE": 1453557683,
    "descTextMapHash": 3226740740,
    "MJAHLAILCOM": 3606351110,
    "OHJEJKBMKJL": 1227941487,
    "descParamList": [[6.0, 3.0], [], []],
    "ANDJHHEDMKA": [false, false, false],
    "costPoints": 500,
    "cardType": "CHESS_CARD_STRENGTHEN",
    "NKMCIINMDLG": "CARD_QUALITY_GOOD",
    "IHJEINCMEAH": 2,
    "LABPPMCAOFM": {
      "BIADMFAIIKE": "CHESS_CARD_TARGET_GADGETS",
      "BPONLNCHNFD": [70350284],
      "OAMBHJKOBJL": "CHESS_CARD_EFFECT_SET_SGV",
      "FKMAPFCGJBH": "SGV_WindImpulse",
      "GNEBNBDLECG": 1
    },
    "JIPAABDEGFK": 100,
    "DPLFAICDLLM": true,
    "HHFLHFDGHKI": true,
    "FBOMOFFGPCH": true,
    "BBKGKGIIEIA": [
      {
        "BPONLNCHNFD": [],
        "FKMAPFCGJBH": ""
      }
    ]
  },
  {
    "ID": 42,
    "LJFJDLBAMOK": 42,
    "EPNNHMDGFKJ": "CARD_TAG_WIND",
    "CCHJCBBBIOC": 3,
    "GHDLEFOLNAE": 2108257187,
    "descTextMapHash": 1912694172,
    "MJAHLAILCOM": 2661632278,
    "OHJEJKBMKJL": 2161890359,
    "descParamList": [
      [10.0, 10.0],
      [3.0, 6.0],
      [10.0, 10.0]
    ],
    "ANDJHHEDMKA": [false, false, false],
    "costPoints": 500,
    "cardType": "CHESS_CARD_STRENGTHEN",
    "NKMCIINMDLG": "CARD_QUALITY_GOOD",
    "IHJEINCMEAH": 2,
    "LABPPMCAOFM": {
      "BIADMFAIIKE": "CHESS_CARD_TARGET_GADGETS",
      "BPONLNCHNFD": [70350284],
      "OAMBHJKOBJL": "CHESS_CARD_EFFECT_SET_SGV",
      "FKMAPFCGJBH": "SGV_ReduceWindResistance",
      "GNEBNBDLECG": 1
    },
    "JIPAABDEGFK": 100,
    "DPLFAICDLLM": true,
    "HHFLHFDGHKI": true,
    "FBOMOFFGPCH": true,
    "BBKGKGIIEIA": [
      {
        "BPONLNCHNFD": [],
        "FKMAPFCGJBH": ""
      }
    ]
  },
  {
    "ID": 43,
    "LJFJDLBAMOK": 43,
    "EPNNHMDGFKJ": "CARD_TAG_WIND",
    "CCHJCBBBIOC": 6,
    "GHDLEFOLNAE": 432559787,
    "descTextMapHash": 1396607196,
    "MJAHLAILCOM": 3858503078,
    "OHJEJKBMKJL": 3831193751,
    "descParamList": [[50.0, 50.0], [25.0, 50.0], []],
    "ANDJHHEDMKA": [false, false, false],
    "costPoints": 500,
    "cardType": "CHESS_CARD_STRENGTHEN",
    "NKMCIINMDLG": "CARD_QUALITY_GOOD",
    "IHJEINCMEAH": 2,
    "LABPPMCAOFM": {
      "BIADMFAIIKE": "CHESS_CARD_TARGET_GADGETS",
      "BPONLNCHNFD": [70350284],
      "OAMBHJKOBJL": "CHESS_CARD_EFFECT_SET_SGV",
      "FKMAPFCGJBH": "SGV_ExtraDamageByHp",
      "GNEBNBDLECG": 1
    },
    "JIPAABDEGFK": 100,
    "DPLFAICDLLM": true,
    "HHFLHFDGHKI": true,
    "FBOMOFFGPCH": true,
    "BBKGKGIIEIA": [
      {
        "BPONLNCHNFD": [],
        "FKMAPFCGJBH": ""
      }
    ]
  },
  {
    "ID": 44,
    "LJFJDLBAMOK": 44,
    "EPNNHMDGFKJ": "CARD_TAG_ELECTRIC",
    "CCHJCBBBIOC": 1,
    "GHDLEFOLNAE": 1517503707,
    "descTextMapHash": 3409690836,
    "MJAHLAILCOM": 874805142,
    "OHJEJKBMKJL": 2309268583,
    "descParamList": [[1.0, 2.0], [], []],
    "ANDJHHEDMKA": [false, false, false],
    "costPoints": 500,
    "cardType": "CHESS_CARD_STRENGTHEN",
    "NKMCIINMDLG": "CARD_QUALITY_GOOD",
    "IHJEINCMEAH": 2,
    "LABPPMCAOFM": {
      "BIADMFAIIKE": "CHESS_CARD_TARGET_GADGETS",
      "BPONLNCHNFD": [70350285],
      "OAMBHJKOBJL": "CHESS_CARD_EFFECT_SET_SGV",
      "FKMAPFCGJBH": "SGV_ExtraTargets",
      "GNEBNBDLECG": 1
    },
    "JIPAABDEGFK": 100,
    "DPLFAICDLLM": true,
    "HHFLHFDGHKI": true,
    "FBOMOFFGPCH": true,
    "BBKGKGIIEIA": [
      {
        "BPONLNCHNFD": [],
        "FKMAPFCGJBH": ""
      }
    ]
  },
  {
    "ID": 45,
    "LJFJDLBAMOK": 45,
    "EPNNHMDGFKJ": "CARD_TAG_ELECTRIC",
    "CCHJCBBBIOC": 2,
    "GHDLEFOLNAE": 3595106059,
    "descTextMapHash": 692749796,
    "MJAHLAILCOM": 48877718,
    "OHJEJKBMKJL": 455888223,
    "descParamList": [[8.0, 4.0], [0.5, 0.5], []],
    "ANDJHHEDMKA": [false, false, false],
    "costPoints": 500,
    "cardType": "CHESS_CARD_STRENGTHEN",
    "NKMCIINMDLG": "CARD_QUALITY_GOOD",
    "IHJEINCMEAH": 2,
    "LABPPMCAOFM": {
      "BIADMFAIIKE": "CHESS_CARD_TARGET_GADGETS",
      "BPONLNCHNFD": [70350285],
      "OAMBHJKOBJL": "CHESS_CARD_EFFECT_SET_SGV",
      "FKMAPFCGJBH": "SGV_Confine",
      "GNEBNBDLECG": 1
    },
    "JIPAABDEGFK": 100,
    "DPLFAICDLLM": true,
    "HHFLHFDGHKI": true,
    "FBOMOFFGPCH": true,
    "BBKGKGIIEIA": [
      {
        "BPONLNCHNFD": [],
        "FKMAPFCGJBH": ""
      }
    ]
  },
  {
    "ID": 46,
    "LJFJDLBAMOK": 46,
    "EPNNHMDGFKJ": "CARD_TAG_ELECTRIC",
    "CCHJCBBBIOC": 5,
    "GHDLEFOLNAE": 910637627,
    "descTextMapHash": 1186388196,
    "MJAHLAILCOM": 2501007158,
    "OHJEJKBMKJL": 1702648599,
    "descParamList": [[20.0, 10.0], [], []],
    "ANDJHHEDMKA": [false, false, false],
    "costPoints": 500,
    "cardType": "CHESS_CARD_STRENGTHEN",
    "NKMCIINMDLG": "CARD_QUALITY_GOOD",
    "IHJEINCMEAH": 2,
    "LABPPMCAOFM": {
      "BIADMFAIIKE": "CHESS_CARD_TARGET_GADGETS",
      "BPONLNCHNFD": [70350285],
      "OAMBHJKOBJL": "CHESS_CARD_EFFECT_SET_SGV",
      "FKMAPFCGJBH": "SGV_ElectricImpulse",
      "GNEBNBDLECG": 1
    },
    "JIPAABDEGFK": 100,
    "DPLFAICDLLM": true,
    "HHFLHFDGHKI": true,
    "FBOMOFFGPCH": true,
    "BBKGKGIIEIA": [
      {
        "BPONLNCHNFD": [],
        "FKMAPFCGJBH": ""
      }
    ]
  },
  {
    "ID": 47,
    "LJFJDLBAMOK": 47,
    "EPNNHMDGFKJ": "CARD_TAG_ELECTRIC",
    "CCHJCBBBIOC": 3,
    "GHDLEFOLNAE": 1175426131,
    "descTextMapHash": 3958451468,
    "MJAHLAILCOM": 2351970662,
    "OHJEJKBMKJL": 4097565327,
    "descParamList": [[100.0, 200.0], [], []],
    "ANDJHHEDMKA": [false, false, false],
    "costPoints": 500,
    "cardType": "CHESS_CARD_STRENGTHEN",
    "NKMCIINMDLG": "CARD_QUALITY_GOOD",
    "IHJEINCMEAH": 2,
    "LABPPMCAOFM": {
      "BIADMFAIIKE": "CHESS_CARD_TARGET_ALL",
      "BPONLNCHNFD": [],
      "OAMBHJKOBJL": "CHESS_CARD_EFFECT_SET_SGV",
      "FKMAPFCGJBH": "SGV_UpgradeElectricRecation",
      "GNEBNBDLECG": 1
    },
    "JIPAABDEGFK": 100,
    "DPLFAICDLLM": true,
    "HHFLHFDGHKI": true,
    "FBOMOFFGPCH": true,
    "BBKGKGIIEIA": [
      {
        "BPONLNCHNFD": [],
        "FKMAPFCGJBH": ""
      }
    ]
  },
  {
    "ID": 48,
    "LJFJDLBAMOK": 48,
    "EPNNHMDGFKJ": "CARD_TAG_ELECTRIC",
    "CCHJCBBBIOC": 6,
    "GHDLEFOLNAE": 401852491,
    "descTextMapHash": 64861932,
    "MJAHLAILCOM": 2030620718,
    "OHJEJKBMKJL": 737354415,
    "descParamList": [
      [5.0, 10.0],
      [20.0, 20.0],
      [5.0, 5.0]
    ],
    "ANDJHHEDMKA": [false, false, false],
    "costPoints": 500,
    "cardType": "CHESS_CARD_STRENGTHEN",
    "NKMCIINMDLG": "CARD_QUALITY_GOOD",
    "IHJEINCMEAH": 2,
    "LABPPMCAOFM": {
      "BIADMFAIIKE": "CHESS_CARD_TARGET_GADGETS",
      "BPONLNCHNFD": [70350285],
      "OAMBHJKOBJL": "CHESS_CARD_EFFECT_SET_SGV",
      "FKMAPFCGJBH": "SGV_FurySwipe",
      "GNEBNBDLECG": 1
    },
    "JIPAABDEGFK": 100,
    "DPLFAICDLLM": true,
    "HHFLHFDGHKI": true,
    "FBOMOFFGPCH": true,
    "BBKGKGIIEIA": [
      {
        "BPONLNCHNFD": [],
        "FKMAPFCGJBH": ""
      }
    ]
  },
  {
    "ID": 49,
    "LJFJDLBAMOK": 49,
    "EPNNHMDGFKJ": "CARD_TAG_PHYSICS",
    "CCHJCBBBIOC": 1,
    "GHDLEFOLNAE": 1056955963,
    "descTextMapHash": 3650215684,
    "MJAHLAILCOM": 2666729278,
    "OHJEJKBMKJL": 845025095,
    "descParamList": [[25.0, 25.0], [1.0, 2.0], []],
    "ANDJHHEDMKA": [false, false, false],
    "costPoints": 500,
    "cardType": "CHESS_CARD_STRENGTHEN",
    "NKMCIINMDLG": "CARD_QUALITY_GOOD",
    "IHJEINCMEAH": 2,
    "LABPPMCAOFM": {
      "BIADMFAIIKE": "CHESS_CARD_TARGET_GADGETS",
      "BPONLNCHNFD": [70350286],
      "OAMBHJKOBJL": "CHESS_CARD_EFFECT_SET_SGV",
      "FKMAPFCGJBH": "SGV_HitExplosion",
      "GNEBNBDLECG": 1
    },
    "JIPAABDEGFK": 100,
    "DPLFAICDLLM": true,
    "HHFLHFDGHKI": true,
    "FBOMOFFGPCH": true,
    "BBKGKGIIEIA": [
      {
        "BPONLNCHNFD": [],
        "FKMAPFCGJBH": ""
      }
    ]
  },
  {
    "ID": 50,
    "LJFJDLBAMOK": 50,
    "EPNNHMDGFKJ": "CARD_TAG_PHYSICS",
    "CCHJCBBBIOC": 3,
    "GHDLEFOLNAE": 778781699,
    "descTextMapHash": 881438908,
    "MJAHLAILCOM": 887958870,
    "OHJEJKBMKJL": 3348775583,
    "descParamList": [[40.0, 80.0], [], []],
    "ANDJHHEDMKA": [false, false, false],
    "costPoints": 500,
    "cardType": "CHESS_CARD_STRENGTHEN",
    "NKMCIINMDLG": "CARD_QUALITY_GOOD",
    "IHJEINCMEAH": 2,
    "LABPPMCAOFM": {
      "BIADMFAIIKE": "CHESS_CARD_TARGET_ALL",
      "BPONLNCHNFD": [],
      "OAMBHJKOBJL": "CHESS_CARD_EFFECT_SET_SGV",
      "FKMAPFCGJBH": "SGV_ReducePhysicalResistance",
      "GNEBNBDLECG": 1
    },
    "JIPAABDEGFK": 100,
    "DPLFAICDLLM": true,
    "HHFLHFDGHKI": true,
    "FBOMOFFGPCH": true,
    "BBKGKGIIEIA": [
      {
        "BPONLNCHNFD": [],
        "FKMAPFCGJBH": ""
      }
    ]
  },
  {
    "ID": 51,
    "LJFJDLBAMOK": 51,
    "EPNNHMDGFKJ": "CARD_TAG_PHYSICS",
    "CCHJCBBBIOC": 6,
    "GHDLEFOLNAE": 2934780499,
    "descTextMapHash": 3577684460,
    "MJAHLAILCOM": 1381275310,
    "OHJEJKBMKJL": 1422273751,
    "descParamList": [[0.5, 0.5], [5.0, 10.0], []],
    "ANDJHHEDMKA": [false, false, false],
    "costPoints": 500,
    "cardType": "CHESS_CARD_STRENGTHEN",
    "NKMCIINMDLG": "CARD_QUALITY_GOOD",
    "IHJEINCMEAH": 2,
    "LABPPMCAOFM": {
      "BIADMFAIIKE": "CHESS_CARD_TARGET_GADGETS",
      "BPONLNCHNFD": [70350286],
      "OAMBHJKOBJL": "CHESS_CARD_EFFECT_SET_SGV",
      "FKMAPFCGJBH": "SGV_DamageByTime",
      "GNEBNBDLECG": 1
    },
    "JIPAABDEGFK": 100,
    "DPLFAICDLLM": true,
    "HHFLHFDGHKI": true,
    "FBOMOFFGPCH": true,
    "BBKGKGIIEIA": [
      {
        "BPONLNCHNFD": [],
        "FKMAPFCGJBH": ""
      }
    ]
  },
  {
    "ID": 52,
    "LJFJDLBAMOK": 52,
    "EPNNHMDGFKJ": "CARD_TAG_HELP",
    "CCHJCBBBIOC": 4,
    "GHDLEFOLNAE": 859541163,
    "descTextMapHash": 3679696068,
    "MJAHLAILCOM": 1419726886,
    "OHJEJKBMKJL": 3116334399,
    "descParamList": [[50.0, 50.0], [40.0, 80.0], []],
    "ANDJHHEDMKA": [false, false, false],
    "costPoints": 500,
    "cardType": "CHESS_CARD_STRENGTHEN",
    "NKMCIINMDLG": "CARD_QUALITY_GOOD",
    "IHJEINCMEAH": 2,
    "LABPPMCAOFM": {
      "BIADMFAIIKE": "CHESS_CARD_TARGET_GADGETS",
      "BPONLNCHNFD": [70350298],
      "OAMBHJKOBJL": "CHESS_CARD_EFFECT_SET_SGV",
      "FKMAPFCGJBH": "SGV_Mine_Extradamage",
      "GNEBNBDLECG": 1
    },
    "JIPAABDEGFK": 100,
    "DPLFAICDLLM": true,
    "HHFLHFDGHKI": true,
    "FBOMOFFGPCH": true,
    "BBKGKGIIEIA": [
      {
        "BPONLNCHNFD": [],
        "FKMAPFCGJBH": ""
      }
    ]
  },
  {
    "ID": 53,
    "LJFJDLBAMOK": 53,
    "EPNNHMDGFKJ": "CARD_TAG_HELP",
    "CCHJCBBBIOC": 4,
    "GHDLEFOLNAE": 1001657531,
    "descTextMapHash": 3524050212,
    "MJAHLAILCOM": 1074128590,
    "OHJEJKBMKJL": 2609947791,
    "descParamList": [[], [], []],
    "ANDJHHEDMKA": [false, false, false],
    "costPoints": 500,
    "cardType": "CHESS_CARD_STRENGTHEN",
    "NKMCIINMDLG": "CARD_QUALITY_GOOD",
    "IHJEINCMEAH": 1,
    "LABPPMCAOFM": {
      "BIADMFAIIKE": "CHESS_CARD_TARGET_GADGETS",
      "BPONLNCHNFD": [70350298],
      "OAMBHJKOBJL": "CHESS_CARD_EFFECT_SET_SGV",
      "FKMAPFCGJBH": "SGV_Mine_Extraexplosion",
      "GNEBNBDLECG": 1
    },
    "JIPAABDEGFK": 100,
    "DPLFAICDLLM": true,
    "HHFLHFDGHKI": true,
    "FBOMOFFGPCH": true,
    "BBKGKGIIEIA": [
      {
        "BPONLNCHNFD": [],
        "FKMAPFCGJBH": ""
      }
    ]
  },
  {
    "ID": 54,
    "LJFJDLBAMOK": 54,
    "EPNNHMDGFKJ": "CARD_TAG_HELP",
    "CCHJCBBBIOC": 8,
    "GHDLEFOLNAE": 1248799275,
    "descTextMapHash": 4123196012,
    "MJAHLAILCOM": 599923846,
    "OHJEJKBMKJL": 2875267031,
    "descParamList": [[15.0, 7.5], [], []],
    "ANDJHHEDMKA": [false, false, false],
    "costPoints": 500,
    "cardType": "CHESS_CARD_STRENGTHEN",
    "NKMCIINMDLG": "CARD_QUALITY_GOOD",
    "IHJEINCMEAH": 2,
    "LABPPMCAOFM": {
      "BIADMFAIIKE": "CHESS_CARD_TARGET_GADGETS",
      "BPONLNCHNFD": [70350298],
      "OAMBHJKOBJL": "CHESS_CARD_EFFECT_SET_SGV",
      "FKMAPFCGJBH": "SGV_Mine_Reset",
      "GNEBNBDLECG": 1
    },
    "JIPAABDEGFK": 100,
    "DPLFAICDLLM": true,
    "HHFLHFDGHKI": true,
    "FBOMOFFGPCH": true,
    "BBKGKGIIEIA": [
      {
        "BPONLNCHNFD": [],
        "FKMAPFCGJBH": ""
      }
    ]
  },
  {
    "ID": 55,
    "LJFJDLBAMOK": 55,
    "EPNNHMDGFKJ": "CARD_TAG_HELP",
    "CCHJCBBBIOC": 2,
    "GHDLEFOLNAE": 3152876643,
    "descTextMapHash": 2689117156,
    "MJAHLAILCOM": 4076975174,
    "OHJEJKBMKJL": 2404327103,
    "descParamList": [[2.0, 4.0], [], []],
    "ANDJHHEDMKA": [false, false, false],
    "costPoints": 200,
    "cardType": "CHESS_CARD_STRENGTHEN",
    "IHJEINCMEAH": 2,
    "LABPPMCAOFM": {
      "BIADMFAIIKE": "CHESS_CARD_TARGET_GADGETS",
      "BPONLNCHNFD": [70350299],
      "OAMBHJKOBJL": "CHESS_CARD_EFFECT_SET_SGV",
      "FKMAPFCGJBH": "SGV_Trap_Extratime",
      "GNEBNBDLECG": 1
    },
    "JIPAABDEGFK": 100,
    "DPLFAICDLLM": true,
    "HHFLHFDGHKI": true,
    "FBOMOFFGPCH": true,
    "BBKGKGIIEIA": [
      {
        "BPONLNCHNFD": [],
        "FKMAPFCGJBH": ""
      }
    ]
  },
  {
    "ID": 56,
    "LJFJDLBAMOK": 56,
    "EPNNHMDGFKJ": "CARD_TAG_HELP",
    "CCHJCBBBIOC": 3,
    "GHDLEFOLNAE": 3427524307,
    "descTextMapHash": 58489492,
    "MJAHLAILCOM": 3356238422,
    "OHJEJKBMKJL": 3312472567,
    "descParamList": [[50.0, 100.0], [], []],
    "ANDJHHEDMKA": [false, false, false],
    "costPoints": 500,
    "cardType": "CHESS_CARD_STRENGTHEN",
    "NKMCIINMDLG": "CARD_QUALITY_GOOD",
    "IHJEINCMEAH": 2,
    "LABPPMCAOFM": {
      "BIADMFAIIKE": "CHESS_CARD_TARGET_GADGETS",
      "BPONLNCHNFD": [70350299],
      "OAMBHJKOBJL": "CHESS_CARD_EFFECT_SET_SGV",
      "FKMAPFCGJBH": "SGV_Trap_Extradamage",
      "GNEBNBDLECG": 1
    },
    "JIPAABDEGFK": 100,
    "DPLFAICDLLM": true,
    "HHFLHFDGHKI": true,
    "FBOMOFFGPCH": true,
    "BBKGKGIIEIA": [
      {
        "BPONLNCHNFD": [],
        "FKMAPFCGJBH": ""
      }
    ]
  },
  {
    "ID": 57,
    "LJFJDLBAMOK": 57,
    "EPNNHMDGFKJ": "CARD_TAG_HELP",
    "CCHJCBBBIOC": 8,
    "GHDLEFOLNAE": 473926707,
    "descTextMapHash": 246001228,
    "MJAHLAILCOM": 2866882862,
    "OHJEJKBMKJL": 2040089735,
    "descParamList": [[15.0, 7.5], [], []],
    "ANDJHHEDMKA": [false, false, false],
    "costPoints": 500,
    "cardType": "CHESS_CARD_STRENGTHEN",
    "NKMCIINMDLG": "CARD_QUALITY_GOOD",
    "IHJEINCMEAH": 2,
    "LABPPMCAOFM": {
      "BIADMFAIIKE": "CHESS_CARD_TARGET_GADGETS",
      "BPONLNCHNFD": [70350299],
      "OAMBHJKOBJL": "CHESS_CARD_EFFECT_SET_SGV",
      "FKMAPFCGJBH": "SGV_Trap_Reset",
      "GNEBNBDLECG": 1
    },
    "JIPAABDEGFK": 100,
    "DPLFAICDLLM": true,
    "HHFLHFDGHKI": true,
    "FBOMOFFGPCH": true,
    "BBKGKGIIEIA": [
      {
        "BPONLNCHNFD": [],
        "FKMAPFCGJBH": ""
      }
    ]
  },
  {
    "ID": 58,
    "LJFJDLBAMOK": 58,
    "EPNNHMDGFKJ": "CARD_TAG_HELP",
    "CCHJCBBBIOC": 4,
    "GHDLEFOLNAE": 3147657563,
    "descTextMapHash": 2718675772,
    "MJAHLAILCOM": 4180098662,
    "OHJEJKBMKJL": 2126319767,
    "descParamList": [[50.0, 100.0], [], []],
    "ANDJHHEDMKA": [false, false, false],
    "EJJFKECLFNE": "CARD_NUMERICAL_ATTACK_RANGE",
    "CEHBDJCCCLC": "CARD_NUMERICAL_BASE",
    "DFFFEHOHHAK": 3.0,
    "costPoints": 500,
    "cardType": "CHESS_CARD_STRENGTHEN",
    "NKMCIINMDLG": "CARD_QUALITY_GOOD",
    "IHJEINCMEAH": 2,
    "LABPPMCAOFM": {
      "BIADMFAIIKE": "CHESS_CARD_TARGET_GADGETS",
      "BPONLNCHNFD": [70350303],
      "OAMBHJKOBJL": "CHESS_CARD_EFFECT_SET_SGV",
      "FKMAPFCGJBH": "SGV_RangeLevel",
      "GNEBNBDLECG": 1
    },
    "JIPAABDEGFK": 100,
    "DPLFAICDLLM": true,
    "HHFLHFDGHKI": true,
    "FBOMOFFGPCH": true,
    "BBKGKGIIEIA": [
      {
        "BPONLNCHNFD": [],
        "FKMAPFCGJBH": ""
      }
    ]
  },
  {
    "ID": 59,
    "LJFJDLBAMOK": 59,
    "EPNNHMDGFKJ": "CARD_TAG_HELP",
    "CCHJCBBBIOC": 1,
    "GHDLEFOLNAE": 1481153387,
    "descTextMapHash": 2582216900,
    "MJAHLAILCOM": 2901266934,
    "OHJEJKBMKJL": 3461257399,
    "descParamList": [[25.0, 50.0], [], []],
    "ANDJHHEDMKA": [false, false, false],
    "EJJFKECLFNE": "CARD_NUMERICAL_ATTACK_RANGE",
    "CEHBDJCCCLC": "CARD_NUMERICAL_BASE",
    "DFFFEHOHHAK": 2.0,
    "costPoints": 500,
    "cardType": "CHESS_CARD_STRENGTHEN",
    "NKMCIINMDLG": "CARD_QUALITY_GOOD",
    "IHJEINCMEAH": 2,
    "LABPPMCAOFM": {
      "BIADMFAIIKE": "CHESS_CARD_TARGET_GADGETS",
      "BPONLNCHNFD": [70350294],
      "OAMBHJKOBJL": "CHESS_CARD_EFFECT_SET_SGV",
      "FKMAPFCGJBH": "SGV_RangeLevel",
      "GNEBNBDLECG": 1
    },
    "JIPAABDEGFK": 100,
    "DPLFAICDLLM": true,
    "HHFLHFDGHKI": true,
    "FBOMOFFGPCH": true,
    "BBKGKGIIEIA": [
      {
        "BPONLNCHNFD": [],
        "FKMAPFCGJBH": ""
      }
    ]
  },
  {
    "ID": 60,
    "LJFJDLBAMOK": 60,
    "EPNNHMDGFKJ": "CARD_TAG_HELP",
    "CCHJCBBBIOC": 2,
    "GHDLEFOLNAE": 910891291,
    "descTextMapHash": 981496812,
    "MJAHLAILCOM": 1709030318,
    "OHJEJKBMKJL": 3726711511,
    "descParamList": [[20.0, 40.0], [], []],
    "ANDJHHEDMKA": [false, false, false],
    "costPoints": 500,
    "cardType": "CHESS_CARD_STRENGTHEN",
    "NKMCIINMDLG": "CARD_QUALITY_GOOD",
    "IHJEINCMEAH": 2,
    "LABPPMCAOFM": {
      "BIADMFAIIKE": "CHESS_CARD_TARGET_GADGETS",
      "BPONLNCHNFD": [70350294],
      "OAMBHJKOBJL": "CHESS_CARD_EFFECT_SET_SGV",
      "FKMAPFCGJBH": "SGV_SlowLevel",
      "GNEBNBDLECG": 1
    },
    "JIPAABDEGFK": 100,
    "DPLFAICDLLM": true,
    "HHFLHFDGHKI": true,
    "FBOMOFFGPCH": true,
    "BBKGKGIIEIA": [
      {
        "BPONLNCHNFD": [],
        "FKMAPFCGJBH": ""
      }
    ]
  },
  {
    "ID": 61,
    "LJFJDLBAMOK": 61,
    "EPNNHMDGFKJ": "CARD_TAG_HELP",
    "CCHJCBBBIOC": 2,
    "GHDLEFOLNAE": 3017753051,
    "descTextMapHash": 1829306868,
    "MJAHLAILCOM": 3840011182,
    "OHJEJKBMKJL": 1689975311,
    "descParamList": [[30.0, 60.0], [8.0, 8.0], []],
    "ANDJHHEDMKA": [false, false, false],
    "costPoints": 200,
    "cardType": "CHESS_CARD_STRENGTHEN",
    "IHJEINCMEAH": 2,
    "LABPPMCAOFM": {
      "BIADMFAIIKE": "CHESS_CARD_TARGET_GADGETS",
      "BPONLNCHNFD": [70350305],
      "OAMBHJKOBJL": "CHESS_CARD_EFFECT_SET_SGV",
      "FKMAPFCGJBH": "SGV_SpeedDown",
      "GNEBNBDLECG": 1
    },
    "JIPAABDEGFK": 100,
    "DPLFAICDLLM": true,
    "HHFLHFDGHKI": true,
    "FBOMOFFGPCH": true,
    "BBKGKGIIEIA": [
      {
        "BPONLNCHNFD": [],
        "FKMAPFCGJBH": ""
      }
    ]
  },
  {
    "ID": 62,
    "LJFJDLBAMOK": 62,
    "EPNNHMDGFKJ": "CARD_TAG_HELP",
    "CCHJCBBBIOC": 4,
    "GHDLEFOLNAE": 2413474755,
    "descTextMapHash": 1332765060,
    "MJAHLAILCOM": 707131686,
    "OHJEJKBMKJL": 1876503247,
    "descParamList": [[2.0, 4.0], [], []],
    "ANDJHHEDMKA": [false, false, false],
    "costPoints": 500,
    "cardType": "CHESS_CARD_STRENGTHEN",
    "NKMCIINMDLG": "CARD_QUALITY_GOOD",
    "IHJEINCMEAH": 2,
    "LABPPMCAOFM": {
      "BIADMFAIIKE": "CHESS_CARD_TARGET_GADGETS",
      "BPONLNCHNFD": [70350305],
      "OAMBHJKOBJL": "CHESS_CARD_EFFECT_SET_SGV",
      "FKMAPFCGJBH": "SGV_Durability",
      "GNEBNBDLECG": 1
    },
    "JIPAABDEGFK": 100,
    "DPLFAICDLLM": true,
    "HHFLHFDGHKI": true,
    "FBOMOFFGPCH": true,
    "BBKGKGIIEIA": [
      {
        "BPONLNCHNFD": [],
        "FKMAPFCGJBH": ""
      }
    ]
  },
  {
    "ID": 63,
    "LJFJDLBAMOK": 63,
    "EPNNHMDGFKJ": "CARD_TAG_WATER",
    "CCHJCBBBIOC": 1,
    "GHDLEFOLNAE": 1611908091,
    "descTextMapHash": 1666098356,
    "MJAHLAILCOM": 4111772270,
    "OHJEJKBMKJL": 599887623,
    "descParamList": [[125.0, 250.0], [], []],
    "ANDJHHEDMKA": [false, false, false],
    "costPoints": 1500,
    "cardType": "CHESS_CARD_STRENGTHEN",
    "NKMCIINMDLG": "CARD_QUALITY_PERCECT",
    "IHJEINCMEAH": 2,
    "LABPPMCAOFM": {
      "BIADMFAIIKE": "CHESS_CARD_TARGET_GADGETS",
      "BPONLNCHNFD": [70350281],
      "OAMBHJKOBJL": "CHESS_CARD_EFFECT_SET_SGV",
      "FKMAPFCGJBH": "SGV_TargetAOE",
      "GNEBNBDLECG": 1
    },
    "JIPAABDEGFK": 100,
    "HHFLHFDGHKI": true,
    "FBOMOFFGPCH": true,
    "BBKGKGIIEIA": [
      {
        "BPONLNCHNFD": [],
        "FKMAPFCGJBH": ""
      }
    ]
  },
  {
    "ID": 64,
    "LJFJDLBAMOK": 64,
    "EPNNHMDGFKJ": "CARD_TAG_WATER",
    "CCHJCBBBIOC": 7,
    "GHDLEFOLNAE": 2903129587,
    "descTextMapHash": 3163795492,
    "MJAHLAILCOM": 3695550422,
    "OHJEJKBMKJL": 1011373367,
    "descParamList": [
      [12.0, 12.0],
      [4.0, 4.0],
      [75.0, 150.0]
    ],
    "ANDJHHEDMKA": [false, false, false],
    "costPoints": 1500,
    "cardType": "CHESS_CARD_STRENGTHEN",
    "NKMCIINMDLG": "CARD_QUALITY_PERCECT",
    "IHJEINCMEAH": 2,
    "LABPPMCAOFM": {
      "BIADMFAIIKE": "CHESS_CARD_TARGET_GADGETS",
      "BPONLNCHNFD": [70350281],
      "OAMBHJKOBJL": "CHESS_CARD_EFFECT_SET_SGV",
      "FKMAPFCGJBH": "SGV_Dot",
      "GNEBNBDLECG": 1
    },
    "JIPAABDEGFK": 100,
    "HHFLHFDGHKI": true,
    "FBOMOFFGPCH": true,
    "BBKGKGIIEIA": [
      {
        "BPONLNCHNFD": [],
        "FKMAPFCGJBH": ""
      }
    ]
  },
  {
    "ID": 65,
    "LJFJDLBAMOK": 65,
    "EPNNHMDGFKJ": "CARD_TAG_FIRE",
    "CCHJCBBBIOC": 1,
    "GHDLEFOLNAE": 3426342931,
    "descTextMapHash": 4276155644,
    "MJAHLAILCOM": 3634937510,
    "OHJEJKBMKJL": 4083996799,
    "descParamList": [[100.0, 200.0], [], []],
    "ANDJHHEDMKA": [false, false, false],
    "costPoints": 1500,
    "cardType": "CHESS_CARD_STRENGTHEN",
    "NKMCIINMDLG": "CARD_QUALITY_PERCECT",
    "IHJEINCMEAH": 2,
    "LABPPMCAOFM": {
      "BIADMFAIIKE": "CHESS_CARD_TARGET_GADGETS",
      "BPONLNCHNFD": [70350282],
      "OAMBHJKOBJL": "CHESS_CARD_EFFECT_SET_SGV",
      "FKMAPFCGJBH": "SGV_Missile",
      "GNEBNBDLECG": 1
    },
    "JIPAABDEGFK": 100,
    "HHFLHFDGHKI": true,
    "FBOMOFFGPCH": true,
    "BBKGKGIIEIA": [
      {
        "BPONLNCHNFD": [],
        "FKMAPFCGJBH": ""
      }
    ]
  },
  {
    "ID": 66,
    "LJFJDLBAMOK": 66,
    "EPNNHMDGFKJ": "CARD_TAG_FIRE",
    "CCHJCBBBIOC": 7,
    "GHDLEFOLNAE": 416375387,
    "descTextMapHash": 307910300,
    "MJAHLAILCOM": 939786742,
    "OHJEJKBMKJL": 3438113007,
    "descParamList": [[30.0, 60.0], [], []],
    "ANDJHHEDMKA": [false, false, false],
    "costPoints": 1500,
    "cardType": "CHESS_CARD_STRENGTHEN",
    "NKMCIINMDLG": "CARD_QUALITY_PERCECT",
    "IHJEINCMEAH": 2,
    "LABPPMCAOFM": {
      "BIADMFAIIKE": "CHESS_CARD_TARGET_GADGETS",
      "BPONLNCHNFD": [70350282],
      "OAMBHJKOBJL": "CHESS_CARD_EFFECT_SET_SGV",
      "FKMAPFCGJBH": "SGV_FireArea",
      "GNEBNBDLECG": 1
    },
    "JIPAABDEGFK": 100,
    "HHFLHFDGHKI": true,
    "FBOMOFFGPCH": true,
    "BBKGKGIIEIA": [
      {
        "BPONLNCHNFD": [],
        "FKMAPFCGJBH": ""
      }
    ]
  },
  {
    "ID": 67,
    "LJFJDLBAMOK": 67,
    "EPNNHMDGFKJ": "CARD_TAG_ICE",
    "CCHJCBBBIOC": 1,
    "GHDLEFOLNAE": 3257285491,
    "descTextMapHash": 1694021492,
    "MJAHLAILCOM": 4156655558,
    "OHJEJKBMKJL": 2330180855,
    "descParamList": [[125.0, 250.0], [], []],
    "ANDJHHEDMKA": [false, false, false],
    "costPoints": 1500,
    "cardType": "CHESS_CARD_STRENGTHEN",
    "NKMCIINMDLG": "CARD_QUALITY_PERCECT",
    "IHJEINCMEAH": 2,
    "LABPPMCAOFM": {
      "BIADMFAIIKE": "CHESS_CARD_TARGET_GADGETS",
      "BPONLNCHNFD": [70350283],
      "OAMBHJKOBJL": "CHESS_CARD_EFFECT_SET_SGV",
      "FKMAPFCGJBH": "SGV_TDSpecialGrade_Ice",
      "GNEBNBDLECG": 1
    },
    "JIPAABDEGFK": 100,
    "HHFLHFDGHKI": true,
    "FBOMOFFGPCH": true,
    "BBKGKGIIEIA": [
      {
        "BPONLNCHNFD": [],
        "FKMAPFCGJBH": ""
      }
    ]
  },
  {
    "ID": 68,
    "LJFJDLBAMOK": 68,
    "EPNNHMDGFKJ": "CARD_TAG_ICE",
    "CCHJCBBBIOC": 7,
    "GHDLEFOLNAE": 2769074267,
    "descTextMapHash": 1052551508,
    "MJAHLAILCOM": 25184558,
    "OHJEJKBMKJL": 3501929535,
    "descParamList": [
      [10.0, 10.0],
      [5.0, 5.0],
      [50.0, 100.0]
    ],
    "ANDJHHEDMKA": [false, false, false],
    "costPoints": 1500,
    "cardType": "CHESS_CARD_STRENGTHEN",
    "NKMCIINMDLG": "CARD_QUALITY_PERCECT",
    "IHJEINCMEAH": 2,
    "LABPPMCAOFM": {
      "BIADMFAIIKE": "CHESS_CARD_TARGET_GADGETS",
      "BPONLNCHNFD": [70350283],
      "OAMBHJKOBJL": "CHESS_CARD_EFFECT_SET_SGV",
      "FKMAPFCGJBH": "SGV_Ice_Fog",
      "GNEBNBDLECG": 1
    },
    "JIPAABDEGFK": 100,
    "HHFLHFDGHKI": true,
    "FBOMOFFGPCH": true,
    "BBKGKGIIEIA": [
      {
        "BPONLNCHNFD": [],
        "FKMAPFCGJBH": ""
      }
    ]
  },
  {
    "ID": 69,
    "LJFJDLBAMOK": 69,
    "EPNNHMDGFKJ": "CARD_TAG_WIND",
    "CCHJCBBBIOC": 1,
    "GHDLEFOLNAE": 563321723,
    "descTextMapHash": 2099958332,
    "MJAHLAILCOM": 3828461566,
    "OHJEJKBMKJL": 2801175215,
    "descParamList": [[100.0, 200.0], [], []],
    "ANDJHHEDMKA": [false, false, false],
    "EJJFKECLFNE": "CARD_NUMERICAL_ATTACK",
    "CEHBDJCCCLC": "CARD_NUMERICAL_PERCENTAGE",
    "DFFFEHOHHAK": 1.0,
    "costPoints": 1500,
    "cardType": "CHESS_CARD_STRENGTHEN",
    "NKMCIINMDLG": "CARD_QUALITY_PERCECT",
    "IHJEINCMEAH": 2,
    "LABPPMCAOFM": {
      "BIADMFAIIKE": "CHESS_CARD_TARGET_GADGETS",
      "BPONLNCHNFD": [70350284],
      "OAMBHJKOBJL": "CHESS_CARD_EFFECT_SET_SGV",
      "FKMAPFCGJBH": "SGV_ShootBullet",
      "GNEBNBDLECG": 1
    },
    "JIPAABDEGFK": 100,
    "HHFLHFDGHKI": true,
    "FBOMOFFGPCH": true,
    "BBKGKGIIEIA": [
      {
        "BPONLNCHNFD": [],
        "FKMAPFCGJBH": ""
      }
    ]
  },
  {
    "ID": 70,
    "LJFJDLBAMOK": 70,
    "EPNNHMDGFKJ": "CARD_TAG_WIND",
    "CCHJCBBBIOC": 7,
    "GHDLEFOLNAE": 1229848819,
    "descTextMapHash": 3032922180,
    "MJAHLAILCOM": 1085538198,
    "OHJEJKBMKJL": 1140878991,
    "descParamList": [[5.0, 5.0], [225.0, 450.0], []],
    "ANDJHHEDMKA": [false, false, false],
    "costPoints": 1500,
    "cardType": "CHESS_CARD_STRENGTHEN",
    "NKMCIINMDLG": "CARD_QUALITY_PERCECT",
    "IHJEINCMEAH": 2,
    "LABPPMCAOFM": {
      "BIADMFAIIKE": "CHESS_CARD_TARGET_GADGETS",
      "BPONLNCHNFD": [70350284],
      "OAMBHJKOBJL": "CHESS_CARD_EFFECT_SET_SGV",
      "FKMAPFCGJBH": "SGV_CanCharge",
      "GNEBNBDLECG": 1
    },
    "JIPAABDEGFK": 100,
    "HHFLHFDGHKI": true,
    "FBOMOFFGPCH": true,
    "BBKGKGIIEIA": [
      {
        "BPONLNCHNFD": [],
        "FKMAPFCGJBH": ""
      }
    ]
  },
  {
    "ID": 71,
    "LJFJDLBAMOK": 71,
    "EPNNHMDGFKJ": "CARD_TAG_ELECTRIC",
    "CCHJCBBBIOC": 1,
    "GHDLEFOLNAE": 2761395547,
    "descTextMapHash": 2483453364,
    "MJAHLAILCOM": 1665204830,
    "OHJEJKBMKJL": 1953333775,
    "descParamList": [
      [125.0, 250.0],
      [10.0, 10.0],
      [10.0, 10.0]
    ],
    "ANDJHHEDMKA": [false, false, false],
    "costPoints": 1500,
    "cardType": "CHESS_CARD_STRENGTHEN",
    "NKMCIINMDLG": "CARD_QUALITY_PERCECT",
    "IHJEINCMEAH": 2,
    "LABPPMCAOFM": {
      "BIADMFAIIKE": "CHESS_CARD_TARGET_GADGETS",
      "BPONLNCHNFD": [70350285],
      "OAMBHJKOBJL": "CHESS_CARD_EFFECT_SET_SGV",
      "FKMAPFCGJBH": "SGV_ExtraThunder",
      "GNEBNBDLECG": 1
    },
    "JIPAABDEGFK": 100,
    "HHFLHFDGHKI": true,
    "FBOMOFFGPCH": true,
    "BBKGKGIIEIA": [
      {
        "BPONLNCHNFD": [],
        "FKMAPFCGJBH": ""
      }
    ]
  },
  {
    "ID": 72,
    "LJFJDLBAMOK": 72,
    "EPNNHMDGFKJ": "CARD_TAG_ELECTRIC",
    "CCHJCBBBIOC": 7,
    "GHDLEFOLNAE": 2341604331,
    "descTextMapHash": 99576956,
    "MJAHLAILCOM": 2456967926,
    "OHJEJKBMKJL": 1635911335,
    "descParamList": [[100.0, 200.0], [150.0, 300.0], []],
    "ANDJHHEDMKA": [false, false, false],
    "EJJFKECLFNE": "CARD_NUMERICAL_ATTACK",
    "CEHBDJCCCLC": "CARD_NUMERICAL_PERCENTAGE",
    "DFFFEHOHHAK": 1.0,
    "costPoints": 1500,
    "cardType": "CHESS_CARD_STRENGTHEN",
    "NKMCIINMDLG": "CARD_QUALITY_PERCECT",
    "IHJEINCMEAH": 2,
    "LABPPMCAOFM": {
      "BIADMFAIIKE": "CHESS_CARD_TARGET_GADGETS",
      "BPONLNCHNFD": [70350285],
      "OAMBHJKOBJL": "CHESS_CARD_EFFECT_SET_SGV",
      "FKMAPFCGJBH": "SGV_UpgradeNormalAttack",
      "GNEBNBDLECG": 1
    },
    "JIPAABDEGFK": 100,
    "HHFLHFDGHKI": true,
    "FBOMOFFGPCH": true,
    "BBKGKGIIEIA": [
      {
        "BPONLNCHNFD": [],
        "FKMAPFCGJBH": ""
      }
    ]
  },
  {
    "ID": 73,
    "LJFJDLBAMOK": 73,
    "EPNNHMDGFKJ": "CARD_TAG_PHYSICS",
    "CCHJCBBBIOC": 1,
    "GHDLEFOLNAE": 1598317483,
    "descTextMapHash": 4277068964,
    "MJAHLAILCOM": 3716263790,
    "OHJEJKBMKJL": 1027967615,
    "descParamList": [
      [75.0, 150.0],
      [25.0, 50.0],
      [15.0, 15.0]
    ],
    "ANDJHHEDMKA": [false, false, false],
    "costPoints": 1500,
    "cardType": "CHESS_CARD_STRENGTHEN",
    "NKMCIINMDLG": "CARD_QUALITY_PERCECT",
    "IHJEINCMEAH": 2,
    "LABPPMCAOFM": {
      "BIADMFAIIKE": "CHESS_CARD_TARGET_GADGETS",
      "BPONLNCHNFD": [70350286],
      "OAMBHJKOBJL": "CHESS_CARD_EFFECT_SET_SGV",
      "FKMAPFCGJBH": "SGV_WantedSign",
      "GNEBNBDLECG": 1
    },
    "JIPAABDEGFK": 100,
    "HHFLHFDGHKI": true,
    "FBOMOFFGPCH": true,
    "BBKGKGIIEIA": [
      {
        "BPONLNCHNFD": [],
        "FKMAPFCGJBH": ""
      }
    ]
  },
  {
    "ID": 74,
    "LJFJDLBAMOK": 74,
    "EPNNHMDGFKJ": "CARD_TAG_PHYSICS",
    "CCHJCBBBIOC": 7,
    "GHDLEFOLNAE": 1738191955,
    "descTextMapHash": 2483358860,
    "MJAHLAILCOM": 2719281158,
    "OHJEJKBMKJL": 2553176951,
    "descParamList": [[15.0, 30.0], [], []],
    "ANDJHHEDMKA": [false, false, false],
    "costPoints": 1500,
    "cardType": "CHESS_CARD_STRENGTHEN",
    "NKMCIINMDLG": "CARD_QUALITY_PERCECT",
    "IHJEINCMEAH": 2,
    "LABPPMCAOFM": {
      "BIADMFAIIKE": "CHESS_CARD_TARGET_GADGETS",
      "BPONLNCHNFD": [70350286],
      "OAMBHJKOBJL": "CHESS_CARD_EFFECT_SET_SGV",
      "FKMAPFCGJBH": "SGV_EnergyBallAttack",
      "GNEBNBDLECG": 1
    },
    "JIPAABDEGFK": 100,
    "HHFLHFDGHKI": true,
    "FBOMOFFGPCH": true,
    "BBKGKGIIEIA": [
      {
        "BPONLNCHNFD": [],
        "FKMAPFCGJBH": ""
      }
    ]
  },
  {
    "ID": 75,
    "LJFJDLBAMOK": 1,
    "EPNNHMDGFKJ": "CARD_TAG_OTHER",
    "CCHJCBBBIOC": 4,
    "GHDLEFOLNAE": 2206584147,
    "descTextMapHash": 2103043124,
    "MJAHLAILCOM": 22195198,
    "OHJEJKBMKJL": 3281257439,
    "descParamList": [[2.0], [], []],
    "ANDJHHEDMKA": [false, false, false],
    "EJJFKECLFNE": "CARD_NUMERICAL_ATTACK",
    "CEHBDJCCCLC": "CARD_NUMERICAL_BASE",
    "DFFFEHOHHAK": 4000.0,
    "costPoints": 300,
    "cardType": "CHESS_CARD_MECHANISM",
    "IHJEINCMEAH": 2,
    "LABPPMCAOFM": {
      "BIADMFAIIKE": "CHESS_CARD_TARGET_ALL",
      "BPONLNCHNFD": [],
      "OAMBHJKOBJL": "CHESS_CARD_EFFECT_SET_SGV",
      "FKMAPFCGJBH": "SGV_AttackDamageLevel",
      "GNEBNBDLECG": 2,
      "BKLMJNIHHBG": 1
    },
    "JIPAABDEGFK": 100,
    "DPLFAICDLLM": true,
    "FBOMOFFGPCH": true,
    "BBKGKGIIEIA": [
      {
        "BPONLNCHNFD": [],
        "FKMAPFCGJBH": ""
      }
    ]
  },
  {
    "ID": 76,
    "LJFJDLBAMOK": 2,
    "EPNNHMDGFKJ": "CARD_TAG_OTHER",
    "CCHJCBBBIOC": 4,
    "GHDLEFOLNAE": 3412087435,
    "descTextMapHash": 1367418916,
    "MJAHLAILCOM": 3404429982,
    "OHJEJKBMKJL": 462497215,
    "descParamList": [[2.0], [], []],
    "ANDJHHEDMKA": [false, false, false],
    "EJJFKECLFNE": "CARD_NUMERICAL_MASTERY",
    "CEHBDJCCCLC": "CARD_NUMERICAL_BASE",
    "DFFFEHOHHAK": 150.0,
    "costPoints": 300,
    "cardType": "CHESS_CARD_MECHANISM",
    "IHJEINCMEAH": 2,
    "LABPPMCAOFM": {
      "BIADMFAIIKE": "CHESS_CARD_TARGET_ALL",
      "BPONLNCHNFD": [],
      "OAMBHJKOBJL": "CHESS_CARD_EFFECT_SET_SGV",
      "FKMAPFCGJBH": "SGV_ElementMasteryLevel",
      "GNEBNBDLECG": 2,
      "BKLMJNIHHBG": 1
    },
    "JIPAABDEGFK": 100,
    "DPLFAICDLLM": true,
    "FBOMOFFGPCH": true,
    "BBKGKGIIEIA": [
      {
        "BPONLNCHNFD": [],
        "FKMAPFCGJBH": ""
      }
    ]
  },
  {
    "ID": 77,
    "LJFJDLBAMOK": 3,
    "EPNNHMDGFKJ": "CARD_TAG_OTHER",
    "CCHJCBBBIOC": 2,
    "GHDLEFOLNAE": 4207081403,
    "descTextMapHash": 1171077964,
    "MJAHLAILCOM": 3859324918,
    "OHJEJKBMKJL": 3423513135,
    "descParamList": [[5.0], [], []],
    "ANDJHHEDMKA": [false, false, false],
    "costPoints": 200,
    "cardType": "CHESS_CARD_MECHANISM",
    "IHJEINCMEAH": 1,
    "LABPPMCAOFM": {
      "BPONLNCHNFD": [],
      "OAMBHJKOBJL": "CHESS_CARD_EFFECT_SET_HOME_HP",
      "FKMAPFCGJBH": "",
      "GNEBNBDLECG": 5
    },
    "JIPAABDEGFK": 100,
    "DPLFAICDLLM": true,
    "HHFLHFDGHKI": true,
    "BBKGKGIIEIA": [
      {
        "BPONLNCHNFD": [],
        "FKMAPFCGJBH": ""
      }
    ]
  },
  {
    "ID": 78,
    "LJFJDLBAMOK": 4,
    "EPNNHMDGFKJ": "CARD_TAG_OTHER",
    "CCHJCBBBIOC": 8,
    "GHDLEFOLNAE": 3083310363,
    "descTextMapHash": 146720556,
    "MJAHLAILCOM": 3412938278,
    "OHJEJKBMKJL": 3627959039,
    "descParamList": [[400.0], [], []],
    "ANDJHHEDMKA": [false, false, false],
    "cardType": "CHESS_CARD_MECHANISM",
    "IHJEINCMEAH": 2,
    "LABPPMCAOFM": {
      "BPONLNCHNFD": [],
      "OAMBHJKOBJL": "CHESS_CARD_EFFECT_GRANT_POINTS",
      "FKMAPFCGJBH": "",
      "GNEBNBDLECG": 400,
      "BKLMJNIHHBG": 1
    },
    "JIPAABDEGFK": 100,
    "DPLFAICDLLM": true,
    "BBKGKGIIEIA": [
      {
        "BPONLNCHNFD": [],
        "OAMBHJKOBJL": "CHESS_CARD_EFFECT_RANDOM_REMOVE",
        "FKMAPFCGJBH": "",
        "GNEBNBDLECG": 3,
        "IIPKKGHFPAK": 1
      }
    ]
  },
  {
    "ID": 79,
    "LJFJDLBAMOK": 5,
    "EPNNHMDGFKJ": "CARD_TAG_OTHER",
    "CCHJCBBBIOC": 8,
    "GHDLEFOLNAE": 2441862579,
    "descTextMapHash": 1342674044,
    "MJAHLAILCOM": 1775996686,
    "OHJEJKBMKJL": 647147151,
    "descParamList": [[2000.0], [], []],
    "ANDJHHEDMKA": [false, false, false],
    "cardType": "CHESS_CARD_MECHANISM",
    "IHJEINCMEAH": 1,
    "LABPPMCAOFM": {
      "BPONLNCHNFD": [],
      "OAMBHJKOBJL": "CHESS_CARD_EFFECT_GRANT_POINTS",
      "FKMAPFCGJBH": "",
      "GNEBNBDLECG": 2000
    },
    "JIPAABDEGFK": 100,
    "DPLFAICDLLM": true,
    "HHFLHFDGHKI": true,
    "FBOMOFFGPCH": true,
    "BBKGKGIIEIA": [
      {
        "BPONLNCHNFD": [],
        "OAMBHJKOBJL": "CHESS_CARD_EFFECT_MOD_KILL_POINTS",
        "FKMAPFCGJBH": "",
        "GNEBNBDLECG": -1000000,
        "HEPIGAPKEMM": 1,
        "BKLMJNIHHBG": 1
      }
    ]
  },
  {
    "ID": 80,
    "LJFJDLBAMOK": 6,
    "EPNNHMDGFKJ": "CARD_TAG_OTHER",
    "CCHJCBBBIOC": 2,
    "GHDLEFOLNAE": 2152115315,
    "descTextMapHash": 2648898356,
    "MJAHLAILCOM": 1847151926,
    "OHJEJKBMKJL": 1683146751,
    "descParamList": [[500.0], [], []],
    "ANDJHHEDMKA": [false, false, false],
    "costPoints": 500,
    "cardType": "CHESS_CARD_MECHANISM",
    "IHJEINCMEAH": 2,
    "LABPPMCAOFM": {
      "BPONLNCHNFD": [],
      "OAMBHJKOBJL": "CHESS_CARD_EFFECT_POINTS_ON_ROUND_END",
      "FKMAPFCGJBH": "",
      "GNEBNBDLECG": 500
    },
    "JIPAABDEGFK": 100,
    "DPLFAICDLLM": true,
    "FBOMOFFGPCH": true,
    "BBKGKGIIEIA": [
      {
        "BPONLNCHNFD": [],
        "FKMAPFCGJBH": ""
      }
    ]
  },
  {
    "ID": 81,
    "LJFJDLBAMOK": 7,
    "EPNNHMDGFKJ": "CARD_TAG_OTHER",
    "CCHJCBBBIOC": 5,
    "GHDLEFOLNAE": 1690243891,
    "descTextMapHash": 1402495468,
    "MJAHLAILCOM": 473399598,
    "OHJEJKBMKJL": 4233380311,
    "descParamList": [[], [], []],
    "ANDJHHEDMKA": [false, false, false],
    "costPoints": 500,
    "cardType": "CHESS_CARD_MECHANISM",
    "NKMCIINMDLG": "CARD_QUALITY_GOOD",
    "IHJEINCMEAH": 1,
    "LABPPMCAOFM": {
      "BPONLNCHNFD": [],
      "OAMBHJKOBJL": "CHESS_CARD_EFFECT_MOD_QUALITY_PROB",
      "FKMAPFCGJBH": "",
      "GNEBNBDLECG": 4,
      "IIPKKGHFPAK": 12
    },
    "JIPAABDEGFK": 100,
    "DPLFAICDLLM": true,
    "HHFLHFDGHKI": true,
    "FBOMOFFGPCH": true,
    "BBKGKGIIEIA": [
      {
        "BPONLNCHNFD": [],
        "OAMBHJKOBJL": "CHESS_CARD_EFFECT_MOD_CANDIDATE_CARDS",
        "FKMAPFCGJBH": "",
        "GNEBNBDLECG": -2
      }
    ]
  },
  {
    "ID": 82,
    "LJFJDLBAMOK": 8,
    "EPNNHMDGFKJ": "CARD_TAG_OTHER",
    "CCHJCBBBIOC": 5,
    "GHDLEFOLNAE": 2798058763,
    "descTextMapHash": 913125556,
    "MJAHLAILCOM": 879855174,
    "OHJEJKBMKJL": 3085260663,
    "descParamList": [[50.0], [], []],
    "ANDJHHEDMKA": [false, false, false],
    "costPoints": 500,
    "cardType": "CHESS_CARD_MECHANISM",
    "NKMCIINMDLG": "CARD_QUALITY_GOOD",
    "IHJEINCMEAH": 1,
    "LABPPMCAOFM": {
      "BPONLNCHNFD": [],
      "OAMBHJKOBJL": "CHESS_CARD_EFFECT_MOD_REFRESH_COST",
      "FKMAPFCGJBH": "",
      "GNEBNBDLECG": -5000
    },
    "JIPAABDEGFK": 100,
    "DPLFAICDLLM": true,
    "HHFLHFDGHKI": true,
    "FBOMOFFGPCH": true,
    "BBKGKGIIEIA": [
      {
        "BPONLNCHNFD": [],
        "FKMAPFCGJBH": ""
      }
    ]
  },
  {
    "ID": 83,
    "LJFJDLBAMOK": 9,
    "EPNNHMDGFKJ": "CARD_TAG_OTHER",
    "CCHJCBBBIOC": 5,
    "GHDLEFOLNAE": 2641812987,
    "descTextMapHash": 1912409148,
    "MJAHLAILCOM": 2471060318,
    "OHJEJKBMKJL": 1584030343,
    "descParamList": [[5.0], [1.0], [3.0]],
    "ANDJHHEDMKA": [false, true, false],
    "EJJFKECLFNE": "CARD_NUMERICAL_ATTACK",
    "CEHBDJCCCLC": "CARD_NUMERICAL_BASE",
    "DFFFEHOHHAK": 2000.0,
    "costPoints": 500,
    "cardType": "CHESS_CARD_MECHANISM",
    "NKMCIINMDLG": "CARD_QUALITY_GOOD",
    "IHJEINCMEAH": 1,
    "LABPPMCAOFM": {
      "BIADMFAIIKE": "CHESS_CARD_TARGET_ALL",
      "BPONLNCHNFD": [],
      "OAMBHJKOBJL": "CHESS_CARD_EFFECT_CARDS_COUNT_STACK_SGV",
      "FKMAPFCGJBH": "SGV_AttackDamageLevel",
      "GNEBNBDLECG": 1,
      "IIPKKGHFPAK": 5,
      "NAKEEPIEOOJ": 3
    },
    "JIPAABDEGFK": 100,
    "DPLFAICDLLM": true,
    "HHFLHFDGHKI": true,
    "FBOMOFFGPCH": true,
    "BBKGKGIIEIA": [
      {
        "BPONLNCHNFD": [],
        "FKMAPFCGJBH": ""
      }
    ]
  },
  {
    "ID": 84,
    "LJFJDLBAMOK": 10,
    "EPNNHMDGFKJ": "CARD_TAG_OTHER",
    "CCHJCBBBIOC": 5,
    "GHDLEFOLNAE": 1839326563,
    "descTextMapHash": 4248135764,
    "MJAHLAILCOM": 2860245550,
    "OHJEJKBMKJL": 746708063,
    "descParamList": [[5.0], [1.0], [3.0]],
    "ANDJHHEDMKA": [false, true, false],
    "EJJFKECLFNE": "CARD_NUMERICAL_MASTERY",
    "CEHBDJCCCLC": "CARD_NUMERICAL_BASE",
    "DFFFEHOHHAK": 75.0,
    "costPoints": 500,
    "cardType": "CHESS_CARD_MECHANISM",
    "NKMCIINMDLG": "CARD_QUALITY_GOOD",
    "IHJEINCMEAH": 1,
    "LABPPMCAOFM": {
      "BIADMFAIIKE": "CHESS_CARD_TARGET_ALL",
      "BPONLNCHNFD": [],
      "OAMBHJKOBJL": "CHESS_CARD_EFFECT_CARDS_COUNT_STACK_SGV",
      "FKMAPFCGJBH": "SGV_ElementMasteryLevel",
      "GNEBNBDLECG": 1,
      "IIPKKGHFPAK": 5,
      "NAKEEPIEOOJ": 3
    },
    "JIPAABDEGFK": 100,
    "DPLFAICDLLM": true,
    "HHFLHFDGHKI": true,
    "FBOMOFFGPCH": true,
    "BBKGKGIIEIA": [
      {
        "BPONLNCHNFD": [],
        "FKMAPFCGJBH": ""
      }
    ]
  },
  {
    "ID": 85,
    "LJFJDLBAMOK": 11,
    "EPNNHMDGFKJ": "CARD_TAG_OTHER",
    "CCHJCBBBIOC": 6,
    "GHDLEFOLNAE": 1277121387,
    "descTextMapHash": 999645772,
    "MJAHLAILCOM": 2218798126,
    "OHJEJKBMKJL": 3940047551,
    "descParamList": [[1.0], [], []],
    "ANDJHHEDMKA": [true, false, false],
    "EJJFKECLFNE": "CARD_NUMERICAL_ATTACK",
    "CEHBDJCCCLC": "CARD_NUMERICAL_BASE",
    "DFFFEHOHHAK": 2000.0,
    "costPoints": 500,
    "cardType": "CHESS_CARD_MECHANISM",
    "NKMCIINMDLG": "CARD_QUALITY_GOOD",
    "IHJEINCMEAH": 1,
    "LABPPMCAOFM": {
      "BIADMFAIIKE": "CHESS_CARD_TARGET_ALL",
      "BPONLNCHNFD": [],
      "OAMBHJKOBJL": "CHESS_CARD_EFFECT_CARD_TYPE_STACK_SGV",
      "FKMAPFCGJBH": "SGV_AttackDamageLevel",
      "IIPKKGHFPAK": 1,
      "NAKEEPIEOOJ": 99999
    },
    "JIPAABDEGFK": 100,
    "DPLFAICDLLM": true,
    "HHFLHFDGHKI": true,
    "FBOMOFFGPCH": true,
    "BBKGKGIIEIA": [
      {
        "BPONLNCHNFD": [],
        "FKMAPFCGJBH": ""
      }
    ]
  },
  {
    "ID": 86,
    "LJFJDLBAMOK": 12,
    "EPNNHMDGFKJ": "CARD_TAG_OTHER",
    "CCHJCBBBIOC": 6,
    "GHDLEFOLNAE": 504157307,
    "descTextMapHash": 3214815324,
    "MJAHLAILCOM": 282883566,
    "OHJEJKBMKJL": 457111007,
    "descParamList": [[1.0], [], []],
    "ANDJHHEDMKA": [true, false, false],
    "EJJFKECLFNE": "CARD_NUMERICAL_MASTERY",
    "CEHBDJCCCLC": "CARD_NUMERICAL_BASE",
    "DFFFEHOHHAK": 75.0,
    "costPoints": 500,
    "cardType": "CHESS_CARD_MECHANISM",
    "NKMCIINMDLG": "CARD_QUALITY_GOOD",
    "IHJEINCMEAH": 1,
    "LABPPMCAOFM": {
      "BIADMFAIIKE": "CHESS_CARD_TARGET_ALL",
      "BPONLNCHNFD": [],
      "OAMBHJKOBJL": "CHESS_CARD_EFFECT_CARD_TYPE_STACK_SGV",
      "FKMAPFCGJBH": "SGV_ElementMasteryLevel",
      "IIPKKGHFPAK": 1,
      "NAKEEPIEOOJ": 99999
    },
    "JIPAABDEGFK": 100,
    "DPLFAICDLLM": true,
    "HHFLHFDGHKI": true,
    "FBOMOFFGPCH": true,
    "BBKGKGIIEIA": [
      {
        "BPONLNCHNFD": [],
        "FKMAPFCGJBH": ""
      }
    ]
  },
  {
    "ID": 87,
    "LJFJDLBAMOK": 13,
    "EPNNHMDGFKJ": "CARD_TAG_OTHER",
    "CCHJCBBBIOC": 5,
    "GHDLEFOLNAE": 754576619,
    "descTextMapHash": 2916332772,
    "MJAHLAILCOM": 1959133646,
    "OHJEJKBMKJL": 1904619623,
    "descParamList": [[3.0], [], []],
    "ANDJHHEDMKA": [false, false, false],
    "costPoints": 1500,
    "cardType": "CHESS_CARD_MECHANISM",
    "NKMCIINMDLG": "CARD_QUALITY_PERCECT",
    "IHJEINCMEAH": 1,
    "LABPPMCAOFM": {
      "BPONLNCHNFD": [],
      "OAMBHJKOBJL": "CHESS_CARD_EFFECT_FREE_CARD_REFRESH",
      "FKMAPFCGJBH": "",
      "GNEBNBDLECG": 3
    },
    "JIPAABDEGFK": 100,
    "HHFLHFDGHKI": true,
    "FBOMOFFGPCH": true,
    "BBKGKGIIEIA": [
      {
        "BPONLNCHNFD": [],
        "FKMAPFCGJBH": ""
      }
    ]
  },
  {
    "ID": 88,
    "LJFJDLBAMOK": 14,
    "EPNNHMDGFKJ": "CARD_TAG_OTHER",
    "CCHJCBBBIOC": 8,
    "GHDLEFOLNAE": 326770083,
    "descTextMapHash": 2432133828,
    "MJAHLAILCOM": 2584279518,
    "OHJEJKBMKJL": 247978223,
    "descParamList": [
      [6.0, 6.0],
      [250.0, 500.0],
      [250.0, 500.0]
    ],
    "ANDJHHEDMKA": [false, false, true],
    "EJJFKECLFNE": "CARD_NUMERICAL_ATTACK",
    "CEHBDJCCCLC": "CARD_NUMERICAL_PERCENTAGE",
    "DFFFEHOHHAK": 2.5,
    "costPoints": 1500,
    "cardType": "CHESS_CARD_MECHANISM",
    "NKMCIINMDLG": "CARD_QUALITY_PERCECT",
    "IHJEINCMEAH": 2,
    "LABPPMCAOFM": {
      "BIADMFAIIKE": "CHESS_CARD_TARGET_ALL",
      "BPONLNCHNFD": [],
      "OAMBHJKOBJL": "CHESS_CARD_EFFECT_SGV_PICK_CARD_LTE",
      "FKMAPFCGJBH": "SGV_AttackRatioUp",
      "GNEBNBDLECG": 1,
      "IIPKKGHFPAK": 6
    },
    "JIPAABDEGFK": 100,
    "HHFLHFDGHKI": true,
    "FBOMOFFGPCH": true,
    "BBKGKGIIEIA": [
      {
        "BPONLNCHNFD": [],
        "FKMAPFCGJBH": ""
      }
    ]
  },
  {
    "ID": 89,
    "LJFJDLBAMOK": 15,
    "EPNNHMDGFKJ": "CARD_TAG_OTHER",
    "CCHJCBBBIOC": 10,
    "GHDLEFOLNAE": 3899828771,
    "descTextMapHash": 2645548908,
    "MJAHLAILCOM": 388301334,
    "OHJEJKBMKJL": 2180884119,
    "descParamList": [[5.0], [1.0], []],
    "ANDJHHEDMKA": [false, true, false],
    "costPoints": 1500,
    "cardType": "CHESS_CARD_MECHANISM",
    "NKMCIINMDLG": "CARD_QUALITY_PERCECT",
    "IHJEINCMEAH": 1,
    "LABPPMCAOFM": {
      "BPONLNCHNFD": [],
      "OAMBHJKOBJL": "CHESS_CARD_EFFECT_CARDS_TYPE_COUNT_NO_COST",
      "FKMAPFCGJBH": "",
      "GNEBNBDLECG": 2,
      "IIPKKGHFPAK": 5,
      "NAKEEPIEOOJ": 2
    },
    "JIPAABDEGFK": 100,
    "HHFLHFDGHKI": true,
    "FBOMOFFGPCH": true,
    "BBKGKGIIEIA": [
      {
        "BPONLNCHNFD": [],
        "FKMAPFCGJBH": ""
      }
    ]
  },
  {
    "ID": 90,
    "LJFJDLBAMOK": 16,
    "EPNNHMDGFKJ": "CARD_TAG_OTHER",
    "CCHJCBBBIOC": 9,
    "GHDLEFOLNAE": 3167058267,
    "descTextMapHash": 2795735452,
    "MJAHLAILCOM": 1926816238,
    "OHJEJKBMKJL": 1686760143,
    "descParamList": [[1000.0], [1.0], [1.0]],
    "ANDJHHEDMKA": [false, false, true],
    "EJJFKECLFNE": "CARD_NUMERICAL_ATTACK",
    "CEHBDJCCCLC": "CARD_NUMERICAL_BASE",
    "DFFFEHOHHAK": 2000.0,
    "costPoints": 1500,
    "cardType": "CHESS_CARD_MECHANISM",
    "NKMCIINMDLG": "CARD_QUALITY_PERCECT",
    "IHJEINCMEAH": 1,
    "LABPPMCAOFM": {
      "BIADMFAIIKE": "CHESS_CARD_TARGET_ALL",
      "BPONLNCHNFD": [],
      "OAMBHJKOBJL": "CHESS_CARD_EFFECT_POINTS_STACK_SGV",
      "FKMAPFCGJBH": "SGV_AttackDamageLevel",
      "GNEBNBDLECG": 1000,
      "IIPKKGHFPAK": 1,
      "NAKEEPIEOOJ": 99999
    },
    "JIPAABDEGFK": 100,
    "HHFLHFDGHKI": true,
    "FBOMOFFGPCH": true,
    "BBKGKGIIEIA": [
      {
        "BPONLNCHNFD": [],
        "FKMAPFCGJBH": ""
      }
    ]
  },
  {
    "ID": 91,
    "LJFJDLBAMOK": 17,
    "EPNNHMDGFKJ": "CARD_TAG_OTHER",
    "CCHJCBBBIOC": 6,
    "GHDLEFOLNAE": 637576251,
    "descTextMapHash": 4246448548,
    "MJAHLAILCOM": 2163638758,
    "OHJEJKBMKJL": 168266919,
    "descParamList": [[1.0], [], []],
    "ANDJHHEDMKA": [false, false, false],
    "costPoints": 1000,
    "cardType": "CHESS_CARD_MECHANISM",
    "NKMCIINMDLG": "CARD_QUALITY_PERCECT",
    "IHJEINCMEAH": 1,
    "LABPPMCAOFM": {
      "BPONLNCHNFD": [],
      "OAMBHJKOBJL": "CHESS_CARD_EFFECT_CARD_TYPE_FORCE_CURSE",
      "FKMAPFCGJBH": "",
      "GNEBNBDLECG": 3
    },
    "JIPAABDEGFK": 100,
    "HHFLHFDGHKI": true,
    "FBOMOFFGPCH": true,
    "BBKGKGIIEIA": [
      {
        "BPONLNCHNFD": [],
        "FKMAPFCGJBH": ""
      }
    ]
  },
  {
    "ID": 92,
    "LJFJDLBAMOK": 1,
    "CCHJCBBBIOC": 1,
    "GHDLEFOLNAE": 4232036563,
    "descTextMapHash": 4264324652,
    "MJAHLAILCOM": 2382879942,
    "OHJEJKBMKJL": 3579559959,
    "descParamList": [[1.0], [10.0], []],
    "ANDJHHEDMKA": [false, false, false],
    "costPoints": 100,
    "cardType": "CHESS_CARD_CHALLENGE",
    "IHJEINCMEAH": 3,
    "LABPPMCAOFM": {
      "BPONLNCHNFD": [],
      "OAMBHJKOBJL": "CHESS_CARD_EFFECT_MOD_KILL_POINTS",
      "FKMAPFCGJBH": "",
      "GNEBNBDLECG": 1000,
      "HEPIGAPKEMM": 1,
      "BKLMJNIHHBG": 1
    },
    "JIPAABDEGFK": 100,
    "FBOMOFFGPCH": true,
    "BBKGKGIIEIA": [
      {
        "BPONLNCHNFD": [],
        "FKMAPFCGJBH": ""
      }
    ]
  },
  {
    "ID": 93,
    "LJFJDLBAMOK": 2,
    "CCHJCBBBIOC": 1,
    "GHDLEFOLNAE": 2953187131,
    "descTextMapHash": 2809661812,
    "MJAHLAILCOM": 2301926846,
    "OHJEJKBMKJL": 2750184343,
    "descParamList": [[20.0], [10.0], []],
    "ANDJHHEDMKA": [false, false, false],
    "costPoints": 100,
    "cardType": "CHESS_CARD_CHALLENGE",
    "IHJEINCMEAH": 3,
    "LABPPMCAOFM": {
      "BPONLNCHNFD": [],
      "OAMBHJKOBJL": "CHESS_CARD_EFFECT_MOD_KILL_POINTS",
      "FKMAPFCGJBH": "",
      "GNEBNBDLECG": 1000,
      "HEPIGAPKEMM": 1,
      "BKLMJNIHHBG": 1
    },
    "JIPAABDEGFK": 100,
    "FBOMOFFGPCH": true,
    "BBKGKGIIEIA": [
      {
        "BPONLNCHNFD": [],
        "FKMAPFCGJBH": ""
      }
    ]
  },
  {
    "ID": 94,
    "LJFJDLBAMOK": 3,
    "CCHJCBBBIOC": 1,
    "GHDLEFOLNAE": 950021323,
    "descTextMapHash": 1537043828,
    "MJAHLAILCOM": 1179962926,
    "OHJEJKBMKJL": 126250703,
    "descParamList": [[1.0], [10.0], []],
    "ANDJHHEDMKA": [false, false, false],
    "costPoints": 100,
    "cardType": "CHESS_CARD_CHALLENGE",
    "IHJEINCMEAH": 3,
    "LABPPMCAOFM": {
      "BPONLNCHNFD": [],
      "OAMBHJKOBJL": "CHESS_CARD_EFFECT_MOD_KILL_POINTS",
      "FKMAPFCGJBH": "",
      "GNEBNBDLECG": 1000,
      "HEPIGAPKEMM": 1,
      "BKLMJNIHHBG": 1
    },
    "JIPAABDEGFK": 100,
    "FBOMOFFGPCH": true,
    "BBKGKGIIEIA": [
      {
        "BPONLNCHNFD": [],
        "FKMAPFCGJBH": ""
      }
    ]
  },
  {
    "ID": 95,
    "LJFJDLBAMOK": 1,
    "CCHJCBBBIOC": 1,
    "GHDLEFOLNAE": 2150129987,
    "descTextMapHash": 3983099204,
    "MJAHLAILCOM": 1495175398,
    "OHJEJKBMKJL": 1878100015,
    "descParamList": [[], [], []],
    "ANDJHHEDMKA": [false, false, false],
    "IHJEINCMEAH": 1,
    "LABPPMCAOFM": {
      "BPONLNCHNFD": [],
      "OAMBHJKOBJL": "CHESS_CARD_EFFECT_KILL_GEARS",
      "FKMAPFCGJBH": "",
      "GNEBNBDLECG": 1
    },
    "JIPAABDEGFK": 100,
    "FBOMOFFGPCH": true,
    "BBKGKGIIEIA": [
      {
        "BPONLNCHNFD": [],
        "FKMAPFCGJBH": ""
      }
    ]
  },
  {
    "ID": 96,
    "LJFJDLBAMOK": 2,
    "CCHJCBBBIOC": 1,
    "GHDLEFOLNAE": 4045098611,
    "descTextMapHash": 901184132,
    "MJAHLAILCOM": 2156877358,
    "OHJEJKBMKJL": 1028170151,
    "descParamList": [[2.0], [], []],
    "ANDJHHEDMKA": [false, false, false],
    "EJJFKECLFNE": "CARD_NUMERICAL_ATTACK",
    "CEHBDJCCCLC": "CARD_NUMERICAL_BASE",
    "DFFFEHOHHAK": -4000.0,
    "IHJEINCMEAH": 1,
    "LABPPMCAOFM": {
      "BIADMFAIIKE": "CHESS_CARD_TARGET_GADGETS",
      "BPONLNCHNFD": [70350281],
      "OAMBHJKOBJL": "CHESS_CARD_EFFECT_SET_SGV",
      "FKMAPFCGJBH": "SGV_AttackDamageLevel",
      "GNEBNBDLECG": -2
    },
    "JIPAABDEGFK": 100,
    "FBOMOFFGPCH": true,
    "BBKGKGIIEIA": [
      {
        "BPONLNCHNFD": [],
        "FKMAPFCGJBH": ""
      }
    ]
  },
  {
    "ID": 97,
    "LJFJDLBAMOK": 3,
    "CCHJCBBBIOC": 1,
    "GHDLEFOLNAE": 1132322195,
    "descTextMapHash": 167911228,
    "MJAHLAILCOM": 3139297254,
    "OHJEJKBMKJL": 4077693031,
    "descParamList": [[2.0], [], []],
    "ANDJHHEDMKA": [false, false, false],
    "EJJFKECLFNE": "CARD_NUMERICAL_ATTACK",
    "CEHBDJCCCLC": "CARD_NUMERICAL_BASE",
    "DFFFEHOHHAK": -4000.0,
    "IHJEINCMEAH": 1,
    "LABPPMCAOFM": {
      "BIADMFAIIKE": "CHESS_CARD_TARGET_GADGETS",
      "BPONLNCHNFD": [70350282],
      "OAMBHJKOBJL": "CHESS_CARD_EFFECT_SET_SGV",
      "FKMAPFCGJBH": "SGV_AttackDamageLevel",
      "GNEBNBDLECG": -2
    },
    "JIPAABDEGFK": 100,
    "FBOMOFFGPCH": true,
    "BBKGKGIIEIA": [
      {
        "BPONLNCHNFD": [],
        "FKMAPFCGJBH": ""
      }
    ]
  },
  {
    "ID": 98,
    "LJFJDLBAMOK": 4,
    "CCHJCBBBIOC": 1,
    "GHDLEFOLNAE": 768370963,
    "descTextMapHash": 3121895484,
    "MJAHLAILCOM": 3793797630,
    "OHJEJKBMKJL": 1343578087,
    "descParamList": [[2.0], [], []],
    "ANDJHHEDMKA": [false, false, false],
    "EJJFKECLFNE": "CARD_NUMERICAL_ATTACK",
    "CEHBDJCCCLC": "CARD_NUMERICAL_BASE",
    "DFFFEHOHHAK": -4000.0,
    "IHJEINCMEAH": 1,
    "LABPPMCAOFM": {
      "BIADMFAIIKE": "CHESS_CARD_TARGET_GADGETS",
      "BPONLNCHNFD": [70350283],
      "OAMBHJKOBJL": "CHESS_CARD_EFFECT_SET_SGV",
      "FKMAPFCGJBH": "SGV_AttackDamageLevel",
      "GNEBNBDLECG": -2
    },
    "JIPAABDEGFK": 100,
    "FBOMOFFGPCH": true,
    "BBKGKGIIEIA": [
      {
        "BPONLNCHNFD": [],
        "FKMAPFCGJBH": ""
      }
    ]
  },
  {
    "ID": 99,
    "LJFJDLBAMOK": 5,
    "CCHJCBBBIOC": 1,
    "GHDLEFOLNAE": 602576387,
    "descTextMapHash": 1085025964,
    "MJAHLAILCOM": 276440118,
    "OHJEJKBMKJL": 76858623,
    "descParamList": [[2.0], [], []],
    "ANDJHHEDMKA": [false, false, false],
    "EJJFKECLFNE": "CARD_NUMERICAL_ATTACK",
    "CEHBDJCCCLC": "CARD_NUMERICAL_BASE",
    "DFFFEHOHHAK": -4000.0,
    "IHJEINCMEAH": 1,
    "LABPPMCAOFM": {
      "BIADMFAIIKE": "CHESS_CARD_TARGET_GADGETS",
      "BPONLNCHNFD": [70350284],
      "OAMBHJKOBJL": "CHESS_CARD_EFFECT_SET_SGV",
      "FKMAPFCGJBH": "SGV_AttackDamageLevel",
      "GNEBNBDLECG": -2
    },
    "JIPAABDEGFK": 100,
    "FBOMOFFGPCH": true,
    "BBKGKGIIEIA": [
      {
        "BPONLNCHNFD": [],
        "FKMAPFCGJBH": ""
      }
    ]
  },
  {
    "ID": 100,
    "LJFJDLBAMOK": 6,
    "CCHJCBBBIOC": 1,
    "GHDLEFOLNAE": 3285786107,
    "descTextMapHash": 1431846252,
    "MJAHLAILCOM": 386333214,
    "OHJEJKBMKJL": 416264495,
    "descParamList": [[2.0], [], []],
    "ANDJHHEDMKA": [false, false, false],
    "EJJFKECLFNE": "CARD_NUMERICAL_ATTACK",
    "CEHBDJCCCLC": "CARD_NUMERICAL_BASE",
    "DFFFEHOHHAK": -4000.0,
    "IHJEINCMEAH": 1,
    "LABPPMCAOFM": {
      "BIADMFAIIKE": "CHESS_CARD_TARGET_GADGETS",
      "BPONLNCHNFD": [70350285],
      "OAMBHJKOBJL": "CHESS_CARD_EFFECT_SET_SGV",
      "FKMAPFCGJBH": "SGV_AttackDamageLevel",
      "GNEBNBDLECG": -2
    },
    "JIPAABDEGFK": 100,
    "FBOMOFFGPCH": true,
    "BBKGKGIIEIA": [
      {
        "BPONLNCHNFD": [],
        "FKMAPFCGJBH": ""
      }
    ]
  },
  {
    "ID": 101,
    "LJFJDLBAMOK": 7,
    "CCHJCBBBIOC": 1,
    "GHDLEFOLNAE": 1069417547,
    "descTextMapHash": 2413686156,
    "MJAHLAILCOM": 422559494,
    "OHJEJKBMKJL": 322907607,
    "descParamList": [[2.0], [], []],
    "ANDJHHEDMKA": [false, false, false],
    "EJJFKECLFNE": "CARD_NUMERICAL_ATTACK",
    "CEHBDJCCCLC": "CARD_NUMERICAL_BASE",
    "DFFFEHOHHAK": -4000.0,
    "IHJEINCMEAH": 1,
    "LABPPMCAOFM": {
      "BIADMFAIIKE": "CHESS_CARD_TARGET_GADGETS",
      "BPONLNCHNFD": [70350286],
      "OAMBHJKOBJL": "CHESS_CARD_EFFECT_SET_SGV",
      "FKMAPFCGJBH": "SGV_AttackDamageLevel",
      "GNEBNBDLECG": -2
    },
    "JIPAABDEGFK": 100,
    "FBOMOFFGPCH": true,
    "BBKGKGIIEIA": [
      {
        "BPONLNCHNFD": [],
        "FKMAPFCGJBH": ""
      }
    ]
  },
  {
    "ID": 102,
    "LJFJDLBAMOK": 8,
    "CCHJCBBBIOC": 1,
    "GHDLEFOLNAE": 2000605971,
    "descTextMapHash": 2998795020,
    "MJAHLAILCOM": 1907585102,
    "OHJEJKBMKJL": 2004793535,
    "descParamList": [[], [], []],
    "ANDJHHEDMKA": [false, false, false],
    "IHJEINCMEAH": 1,
    "LABPPMCAOFM": {
      "BPONLNCHNFD": [],
      "FKMAPFCGJBH": ""
    },
    "JIPAABDEGFK": 100,
    "BBKGKGIIEIA": [
      {
        "BPONLNCHNFD": [],
        "FKMAPFCGJBH": ""
      }
    ]
  }
]
