[
  {
    "AABFFJMKGII": 1,
    "IBKOLDDBMDO": [1],
    "AELHHEMDEOK": [1],
    "consumeItemId": [1],
    "type": "ROBOT_TYPE_NORMAL",
    "GKKMBMFGANJ": 364601,
    "materialId": 101867,
    "modelPath": "SceneObj_Homeworld_Ani_General_Common_Decoration_Prop_RandomRobot_02",
    "AOMDHANHHBE": 202,
    "LOHBJGKNBBI": 5,
    "descTextMapHash": 2596237636,
    "BAPEPALHKEI": "Play_ui_activity_robot_randomRobot_01_1"
  },
  {
    "AABFFJMKGII": 2,
    "IBKOLDDBMDO": [1],
    "AELHHEMDEOK": [1],
    "consumeItemId": [2],
    "type": "ROBOT_TYPE_NORMAL",
    "GKKMBMFGANJ": 364602,
    "materialId": 101868,
    "modelPath": "SceneObj_Homeworld_Ani_General_Common_Decoration_Prop_RandomRobot_02",
    "AOMDHANHHBE": 203,
    "LOHBJGKNBBI": 5,
    "descTextMapHash": 2545157644,
    "BAPEPALHKEI": "Play_ui_activity_robot_randomRobot_01_2"
  },
  {
    "AABFFJMKGII": 3,
    "IBKOLDDBMDO": [1],
    "AELHHEMDEOK": [1],
    "consumeItemId": [3],
    "type": "ROBOT_TYPE_NORMAL",
    "GKKMBMFGANJ": 364603,
    "materialId": 101869,
    "modelPath": "SceneObj_Homeworld_Ani_General_Common_Decoration_Prop_RandomRobot_02",
    "AOMDHANHHBE": 204,
    "LOHBJGKNBBI": 5,
    "descTextMapHash": 2161002636,
    "BAPEPALHKEI": "Play_ui_activity_robot_randomRobot_01_3"
  },
  {
    "AABFFJMKGII": 4,
    "IBKOLDDBMDO": [1],
    "AELHHEMDEOK": [2],
    "consumeItemId": [1],
    "type": "ROBOT_TYPE_NORMAL",
    "GKKMBMFGANJ": 364604,
    "materialId": 101870,
    "modelPath": "SceneObj_Homeworld_Ani_General_Common_Decoration_Prop_RandomRobot_03",
    "AOMDHANHHBE": 202,
    "LOHBJGKNBBI": 5,
    "descTextMapHash": 3416042876,
    "BAPEPALHKEI": "Play_ui_activity_robot_randomRobot_01_1"
  },
  {
    "AABFFJMKGII": 5,
    "IBKOLDDBMDO": [1],
    "AELHHEMDEOK": [2],
    "consumeItemId": [2],
    "type": "ROBOT_TYPE_NORMAL",
    "GKKMBMFGANJ": 364605,
    "materialId": 101871,
    "modelPath": "SceneObj_Homeworld_Ani_General_Common_Decoration_Prop_RandomRobot_03",
    "AOMDHANHHBE": 203,
    "LOHBJGKNBBI": 5,
    "descTextMapHash": 1601243148,
    "BAPEPALHKEI": "Play_ui_activity_robot_randomRobot_01_2"
  },
  {
    "AABFFJMKGII": 6,
    "IBKOLDDBMDO": [1],
    "AELHHEMDEOK": [2],
    "consumeItemId": [3],
    "type": "ROBOT_TYPE_NORMAL",
    "GKKMBMFGANJ": 364606,
    "materialId": 101872,
    "modelPath": "SceneObj_Homeworld_Ani_General_Common_Decoration_Prop_RandomRobot_03",
    "AOMDHANHHBE": 204,
    "LOHBJGKNBBI": 5,
    "descTextMapHash": 2693763332,
    "BAPEPALHKEI": "Play_ui_activity_robot_randomRobot_01_3"
  },
  {
    "AABFFJMKGII": 7,
    "IBKOLDDBMDO": [1],
    "AELHHEMDEOK": [3],
    "consumeItemId": [1],
    "type": "ROBOT_TYPE_NORMAL",
    "GKKMBMFGANJ": 364607,
    "materialId": 101873,
    "modelPath": "SceneObj_Homeworld_Ani_General_Common_Decoration_Prop_RandomRobot_04",
    "AOMDHANHHBE": 202,
    "LOHBJGKNBBI": 5,
    "descTextMapHash": 3273760868,
    "BAPEPALHKEI": "Play_ui_activity_robot_randomRobot_01_1"
  },
  {
    "AABFFJMKGII": 8,
    "IBKOLDDBMDO": [1],
    "AELHHEMDEOK": [3],
    "consumeItemId": [2],
    "type": "ROBOT_TYPE_NORMAL",
    "GKKMBMFGANJ": 364608,
    "materialId": 101874,
    "modelPath": "SceneObj_Homeworld_Ani_General_Common_Decoration_Prop_RandomRobot_04",
    "AOMDHANHHBE": 203,
    "LOHBJGKNBBI": 5,
    "descTextMapHash": 2796398604,
    "BAPEPALHKEI": "Play_ui_activity_robot_randomRobot_01_2"
  },
  {
    "AABFFJMKGII": 9,
    "IBKOLDDBMDO": [1],
    "AELHHEMDEOK": [3],
    "consumeItemId": [3],
    "type": "ROBOT_TYPE_NORMAL",
    "GKKMBMFGANJ": 364609,
    "materialId": 101875,
    "modelPath": "SceneObj_Homeworld_Ani_General_Common_Decoration_Prop_RandomRobot_04",
    "AOMDHANHHBE": 204,
    "LOHBJGKNBBI": 5,
    "descTextMapHash": 766622500,
    "BAPEPALHKEI": "Play_ui_activity_robot_randomRobot_01_3"
  },
  {
    "AABFFJMKGII": 10,
    "IBKOLDDBMDO": [1],
    "AELHHEMDEOK": [4],
    "consumeItemId": [1, 2, 3],
    "type": "ROBOT_TYPE_HIDDEN",
    "GKKMBMFGANJ": 364619,
    "materialId": 101876,
    "modelPath": "SceneObj_Homeworld_Ani_General_Common_Decoration_Prop_RandomRobot_01",
    "AOMDHANHHBE": 201,
    "LOHBJGKNBBI": 10,
    "descTextMapHash": 1863052772,
    "BAPEPALHKEI": "Play_ui_activity_robot_randomRobot_01_4"
  },
  {
    "AABFFJMKGII": 11,
    "IBKOLDDBMDO": [2],
    "AELHHEMDEOK": [1],
    "consumeItemId": [1],
    "type": "ROBOT_TYPE_NORMAL",
    "GKKMBMFGANJ": 364610,
    "materialId": 101877,
    "modelPath": "SceneObj_Homeworld_Ani_General_Common_Decoration_Prop_RandomRobot_06",
    "AOMDHANHHBE": 202,
    "LOHBJGKNBBI": 5,
    "descTextMapHash": 1035357508,
    "BAPEPALHKEI": "Play_ui_activity_robot_randomRobot_02_1"
  },
  {
    "AABFFJMKGII": 12,
    "IBKOLDDBMDO": [2],
    "AELHHEMDEOK": [1],
    "consumeItemId": [2],
    "type": "ROBOT_TYPE_NORMAL",
    "GKKMBMFGANJ": 364611,
    "materialId": 101878,
    "modelPath": "SceneObj_Homeworld_Ani_General_Common_Decoration_Prop_RandomRobot_06",
    "AOMDHANHHBE": 203,
    "LOHBJGKNBBI": 5,
    "descTextMapHash": 3436886828,
    "BAPEPALHKEI": "Play_ui_activity_robot_randomRobot_02_2"
  },
  {
    "AABFFJMKGII": 13,
    "IBKOLDDBMDO": [2],
    "AELHHEMDEOK": [1],
    "consumeItemId": [3],
    "type": "ROBOT_TYPE_NORMAL",
    "GKKMBMFGANJ": 364612,
    "materialId": 101879,
    "modelPath": "SceneObj_Homeworld_Ani_General_Common_Decoration_Prop_RandomRobot_06",
    "AOMDHANHHBE": 204,
    "LOHBJGKNBBI": 5,
    "descTextMapHash": 3862808164,
    "BAPEPALHKEI": "Play_ui_activity_robot_randomRobot_02_3"
  },
  {
    "AABFFJMKGII": 14,
    "IBKOLDDBMDO": [2],
    "AELHHEMDEOK": [2],
    "consumeItemId": [1],
    "type": "ROBOT_TYPE_NORMAL",
    "GKKMBMFGANJ": 364613,
    "materialId": 101880,
    "modelPath": "SceneObj_Homeworld_Ani_General_Common_Decoration_Prop_RandomRobot_07",
    "AOMDHANHHBE": 202,
    "LOHBJGKNBBI": 5,
    "descTextMapHash": 1883879740,
    "BAPEPALHKEI": "Play_ui_activity_robot_randomRobot_02_1"
  },
  {
    "AABFFJMKGII": 15,
    "IBKOLDDBMDO": [2],
    "AELHHEMDEOK": [2],
    "consumeItemId": [2],
    "type": "ROBOT_TYPE_NORMAL",
    "GKKMBMFGANJ": 364614,
    "materialId": 101881,
    "modelPath": "SceneObj_Homeworld_Ani_General_Common_Decoration_Prop_RandomRobot_07",
    "AOMDHANHHBE": 203,
    "LOHBJGKNBBI": 5,
    "descTextMapHash": 3232631052,
    "BAPEPALHKEI": "Play_ui_activity_robot_randomRobot_02_2"
  },
  {
    "AABFFJMKGII": 16,
    "IBKOLDDBMDO": [2],
    "AELHHEMDEOK": [2],
    "consumeItemId": [3],
    "type": "ROBOT_TYPE_NORMAL",
    "GKKMBMFGANJ": 364615,
    "materialId": 101882,
    "modelPath": "SceneObj_Homeworld_Ani_General_Common_Decoration_Prop_RandomRobot_07",
    "AOMDHANHHBE": 204,
    "LOHBJGKNBBI": 5,
    "descTextMapHash": 2413477084,
    "BAPEPALHKEI": "Play_ui_activity_robot_randomRobot_02_3"
  },
  {
    "AABFFJMKGII": 17,
    "IBKOLDDBMDO": [2],
    "AELHHEMDEOK": [3],
    "consumeItemId": [1],
    "type": "ROBOT_TYPE_NORMAL",
    "GKKMBMFGANJ": 364616,
    "materialId": 101883,
    "modelPath": "SceneObj_Homeworld_Ani_General_Common_Decoration_Prop_RandomRobot_08",
    "AOMDHANHHBE": 202,
    "LOHBJGKNBBI": 5,
    "descTextMapHash": 3198937276,
    "BAPEPALHKEI": "Play_ui_activity_robot_randomRobot_02_1"
  },
  {
    "AABFFJMKGII": 18,
    "IBKOLDDBMDO": [2],
    "AELHHEMDEOK": [3],
    "consumeItemId": [2],
    "type": "ROBOT_TYPE_NORMAL",
    "GKKMBMFGANJ": 364617,
    "materialId": 101884,
    "modelPath": "SceneObj_Homeworld_Ani_General_Common_Decoration_Prop_RandomRobot_08",
    "AOMDHANHHBE": 203,
    "LOHBJGKNBBI": 5,
    "descTextMapHash": 1299669420,
    "BAPEPALHKEI": "Play_ui_activity_robot_randomRobot_02_2"
  },
  {
    "AABFFJMKGII": 19,
    "IBKOLDDBMDO": [2],
    "AELHHEMDEOK": [3],
    "consumeItemId": [3],
    "type": "ROBOT_TYPE_NORMAL",
    "GKKMBMFGANJ": 364618,
    "materialId": 101885,
    "modelPath": "SceneObj_Homeworld_Ani_General_Common_Decoration_Prop_RandomRobot_08",
    "AOMDHANHHBE": 204,
    "LOHBJGKNBBI": 5,
    "descTextMapHash": 3115472516,
    "BAPEPALHKEI": "Play_ui_activity_robot_randomRobot_02_3"
  },
  {
    "AABFFJMKGII": 20,
    "IBKOLDDBMDO": [2],
    "AELHHEMDEOK": [4],
    "consumeItemId": [1, 2, 3],
    "type": "ROBOT_TYPE_HIDDEN",
    "GKKMBMFGANJ": 364620,
    "materialId": 101886,
    "modelPath": "SceneObj_Homeworld_Ani_General_Common_Decoration_Prop_RandomRobot_05",
    "AOMDHANHHBE": 201,
    "LOHBJGKNBBI": 10,
    "descTextMapHash": 1225527124,
    "BAPEPALHKEI": "Play_ui_activity_robot_randomRobot_02_4"
  }
]
