[
  {
    "Id": 1,
    "scheduleId": 5022001,
    "statName": "MIST_TRIAL_STAT_TYPE_FINISH_CHALLENGE_COUNT",
    "param": ["1,2,3,101,201,301,401", "", ""]
  },
  {
    "Id": 2,
    "scheduleId": 5022001,
    "statName": "MIST_TRIAL_STAT_TYPE_ATTACK_BY_GEAR_COUNT",
    "param": ["", "", ""]
  },
  {
    "Id": 3,
    "scheduleId": 5022001,
    "statName": "MIST_TRIAL_STAT_TYPE_KILL_MONSTER_BY_ATTACK_TAG",
    "param": ["FallingAttack", "", ""]
  },
  {
    "Id": 4,
    "scheduleId": 5022001,
    "statName": "MIST_TRIAL_STAT_TYPE_FINISH_CHALLENGE_COUNT",
    "param": ["1,2,3,101,201,301,401", "", ""]
  },
  {
    "Id": 5,
    "scheduleId": 5022001,
    "statName": "MIST_TRIAL_STAT_TYPE_RECOVER_HP_COUNT",
    "param": ["", "", ""]
  },
  {
    "Id": 6,
    "scheduleId": 5022001,
    "statName": "MIST_TRIAL_STAT_TYPE_KILL_MONSTER_BY_ATTACK_TAG",
    "param": ["Elemental_Burst", "", ""]
  },
  {
    "Id": 7,
    "scheduleId": 5022001,
    "statName": "MIST_TRIAL_STAT_TYPE_FINISH_CHALLENGE_COUNT",
    "param": ["1,2,3,101,201,301,401", "", ""]
  },
  {
    "Id": 8,
    "scheduleId": 5022001,
    "statName": "MIST_TRIAL_STAT_TYPE_KILL_SHIELD_COUNT",
    "param": ["50004002,50004012,50004022,50004023,50004054,50004055", "", ""]
  },
  {
    "Id": 9,
    "scheduleId": 5022001,
    "statName": "MIST_TRIAL_STAT_TYPE_KILL_MONSTER_BY_ATTACK_TAG",
    "param": [
      "ExtraAttack,NormalAttack_01,NormalAttack_02,NormalAttack_03,NormalAttack_04,NormalAttack_05,NormalAttack_06",
      "",
      ""
    ]
  },
  {
    "Id": 10,
    "scheduleId": 5022001,
    "statName": "MIST_TRIAL_STAT_TYPE_FINISH_CHALLENGE_COUNT",
    "param": ["1,2,3,101,201,301,401", "", ""]
  },
  {
    "Id": 11,
    "scheduleId": 5022001,
    "statName": "MIST_TRIAL_STAT_TYPE_BE_HURT_COUNT",
    "param": ["", "", ""]
  },
  {
    "Id": 12,
    "scheduleId": 5022001,
    "statName": "MIST_TRIAL_STAT_TYPE_FINISH_CHALLENGE_COUNT",
    "param": ["1,2,3,101,201,301,401", "", ""]
  },
  {
    "Id": 13,
    "scheduleId": 5022001,
    "statName": "MIST_TRIAL_STAT_TYPE_BE_HURT_COUNT",
    "param": ["", "", ""]
  },
  {
    "Id": 14,
    "scheduleId": 5022001,
    "statName": "MIST_TRIAL_STAT_TYPE_KILL_MONSTER_BY_SHIELD",
    "param": ["", "", ""]
  },
  {
    "Id": 15,
    "scheduleId": 5022001,
    "statName": "MIST_TRIAL_STAT_TYPE_FINISH_CHALLENGE_COUNT",
    "param": ["1,2,3,101,201,301,401", "", ""]
  },
  {
    "Id": 16,
    "scheduleId": 5022001,
    "statName": "MIST_TRIAL_STAT_TYPE_DISABLE_GEAR_COUNT",
    "param": ["70350215,70350216,70350217,70350218,70900012,70900013", "", ""]
  },
  {
    "Id": 17,
    "scheduleId": 5022001,
    "statName": "MIST_TRIAL_STAT_TYPE_ELEMENT_REACTION_TYPE_NUM",
    "param": ["1,2,3,7,8,12,16,17,18,19,20,27,28,29,30", "", ""]
  },
  {
    "Id": 18,
    "scheduleId": 5054001,
    "statName": "MIST_TRIAL_STAT_TYPE_ELEMENT_REACTION_COUNT",
    "param": ["8", "", ""]
  },
  {
    "Id": 19,
    "scheduleId": 5054001,
    "statName": "MIST_TRIAL_STAT_TYPE_ELEMENT_REACTION_COUNT",
    "param": ["12", "", ""]
  },
  {
    "Id": 20,
    "scheduleId": 5054001,
    "statName": "MIST_TRIAL_STAT_TYPE_ELEMENT_REACTION_COUNT",
    "param": ["2,7", "", ""]
  },
  {
    "Id": 21,
    "scheduleId": 5054001,
    "statName": "MIST_TRIAL_STAT_TYPE_ELEMENT_REACTION_COUNT",
    "param": ["1,16,17,18,19,20,27,28,29,30", "", ""]
  },
  {
    "Id": 22,
    "scheduleId": 5054001,
    "statName": "MIST_TRIAL_STAT_TYPE_ELEMENT_BURST_COUNT",
    "param": ["", "", ""]
  },
  {
    "Id": 23,
    "scheduleId": 5054001,
    "statName": "MIST_TRIAL_STAT_TYPE_ELEMENT_REACTION_COUNT",
    "param": ["17,18,19,20", "", ""]
  },
  {
    "Id": 24,
    "scheduleId": 5054001,
    "statName": "MIST_TRIAL_STAT_TYPE_KILL_MONSTER_COUNT",
    "param": ["", "", ""]
  },
  {
    "Id": 25,
    "scheduleId": 5114001,
    "statName": "MIST_TRIAL_STAT_TYPE_ELEMENT_REACTION_COUNT",
    "param": ["17,18,19,20", "", ""]
  },
  {
    "Id": 26,
    "scheduleId": 5114001,
    "statName": "MIST_TRIAL_STAT_TYPE_ELEMENT_REACTION_COUNT",
    "param": ["33,34,35", "", ""]
  },
  {
    "Id": 27,
    "scheduleId": 5114001,
    "statName": "MIST_TRIAL_STAT_TYPE_ELEMENT_REACTION_COUNT",
    "param": ["6", "", ""]
  },
  {
    "Id": 28,
    "scheduleId": 5114001,
    "statName": "MIST_TRIAL_STAT_TYPE_ELEMENT_REACTION_COUNT",
    "param": ["2", "", ""]
  },
  {
    "Id": 29,
    "scheduleId": 5114001,
    "statName": "MIST_TRIAL_STAT_TYPE_ELEMENT_REACTION_COUNT",
    "param": ["33,34,35,6,36,37", "", ""]
  },
  {
    "Id": 30,
    "scheduleId": 5114001,
    "statName": "MIST_TRIAL_STAT_TYPE_ELEMENT_REACTION_COUNT",
    "param": ["27,28,29,30", "", ""]
  },
  {
    "Id": 31,
    "scheduleId": 5114001,
    "statName": "MIST_TRIAL_STAT_TYPE_KILL_MONSTER_COUNT",
    "param": ["", "", ""]
  }
]
