[
  {
    "levelId": 1,
    "weight": 10,
    "EGIODHJDLOO": "LEVEL_TYPE_AMUSEMENT",
    "galleryId": 28001,
    "NOBAAPPALEL": 240,
    "AMOMDJKNJHK": 440,
    "LPIGAHFGGAJ": [6041],
    "BMIODDCGHOH": "UI_Activity_CharAmusement_01",
    "levelNameTextMapHash": 4118195393,
    "levelDescTextMapHash": 3678785393,
    "NOAAJFHBPPD": 4012773663
  },
  {
    "levelId": 2,
    "weight": 10,
    "EGIODHJDLOO": "LEVEL_TYPE_AMUSEMENT",
    "galleryId": 28002,
    "NOBAAPPALEL": 200,
    "AMOMDJKNJHK": 340,
    "LPIGAHFGGAJ": [6007],
    "BMIODDCGHOH": "UI_Activity_CharAmusement_02",
    "levelNameTextMapHash": 2736653673,
    "levelDescTextMapHash": 3504321161,
    "NOAAJFHBPPD": 1404323319
  },
  {
    "levelId": 3,
    "weight": 10,
    "EGIODHJDLOO": "LEVEL_TYPE_AMUSEMENT",
    "galleryId": 28003,
    "NOBAAPPALEL": 200,
    "AMOMDJKNJHK": 350,
    "LPIGAHFGGAJ": [6038],
    "BMIODDCGHOH": "UI_Activity_CharAmusement_03",
    "levelNameTextMapHash": 3651758369,
    "levelDescTextMapHash": 1120481057,
    "NOAAJFHBPPD": 3788822311
  },
  {
    "levelId": 4,
    "weight": 10,
    "EGIODHJDLOO": "LEVEL_TYPE_AMUSEMENT",
    "galleryId": 28004,
    "NOBAAPPALEL": 220,
    "AMOMDJKNJHK": 350,
    "LPIGAHFGGAJ": [6000],
    "BMIODDCGHOH": "UI_Activity_CharAmusement_04",
    "levelNameTextMapHash": 1742641241,
    "levelDescTextMapHash": 3296315905,
    "NOAAJFHBPPD": 1575980511
  },
  {
    "levelId": 5,
    "weight": 10,
    "EGIODHJDLOO": "LEVEL_TYPE_AMUSEMENT",
    "galleryId": 28005,
    "NOBAAPPALEL": 180,
    "AMOMDJKNJHK": 500,
    "LPIGAHFGGAJ": [6025],
    "BMIODDCGHOH": "UI_Activity_CharAmusement_05",
    "levelNameTextMapHash": 648534553,
    "levelDescTextMapHash": 1873020785,
    "NOAAJFHBPPD": 526852631
  },
  {
    "levelId": 6,
    "weight": 10,
    "EGIODHJDLOO": "LEVEL_TYPE_AMUSEMENT",
    "galleryId": 28006,
    "NOBAAPPALEL": 180,
    "AMOMDJKNJHK": 420,
    "LPIGAHFGGAJ": [6006],
    "BMIODDCGHOH": "UI_Activity_CharAmusement_06",
    "levelNameTextMapHash": 3783052041,
    "levelDescTextMapHash": 42901433,
    "NOAAJFHBPPD": 2430326735
  },
  {
    "levelId": 7,
    "weight": 10,
    "EGIODHJDLOO": "LEVEL_TYPE_AMUSEMENT",
    "galleryId": 28007,
    "NOBAAPPALEL": 250,
    "AMOMDJKNJHK": 800,
    "LPIGAHFGGAJ": [6015],
    "BMIODDCGHOH": "UI_Activity_CharAmusement_07",
    "levelNameTextMapHash": 530272073,
    "levelDescTextMapHash": 3180331065,
    "NOAAJFHBPPD": 2732377727
  },
  {
    "levelId": 8,
    "weight": 10,
    "EGIODHJDLOO": "LEVEL_TYPE_AMUSEMENT",
    "galleryId": 28008,
    "NOBAAPPALEL": 220,
    "AMOMDJKNJHK": 700,
    "LPIGAHFGGAJ": [6031],
    "BMIODDCGHOH": "UI_Activity_CharAmusement_08",
    "levelNameTextMapHash": 2746285185,
    "levelDescTextMapHash": 2370742017,
    "NOAAJFHBPPD": 889622119
  },
  {
    "levelId": 9,
    "weight": 10,
    "EGIODHJDLOO": "LEVEL_TYPE_AMUSEMENT",
    "galleryId": 28009,
    "NOBAAPPALEL": 35,
    "AMOMDJKNJHK": 75,
    "LPIGAHFGGAJ": [6003, 6044],
    "BMIODDCGHOH": "UI_Activity_CharAmusement_09",
    "levelNameTextMapHash": 370924033,
    "levelDescTextMapHash": 494982705,
    "NOAAJFHBPPD": 2496044079
  },
  {
    "levelId": 10,
    "weight": 10,
    "EGIODHJDLOO": "LEVEL_TYPE_AMUSEMENT",
    "galleryId": 28010,
    "NOBAAPPALEL": 35,
    "AMOMDJKNJHK": 60,
    "LPIGAHFGGAJ": [6043],
    "BMIODDCGHOH": "UI_Activity_CharAmusement_10",
    "levelNameTextMapHash": 2569872153,
    "levelDescTextMapHash": 723593721,
    "NOAAJFHBPPD": 2088029447
  },
  {
    "levelId": 11,
    "weight": 10,
    "EGIODHJDLOO": "LEVEL_TYPE_AMUSEMENT",
    "galleryId": 28011,
    "NOBAAPPALEL": 220,
    "AMOMDJKNJHK": 320,
    "LPIGAHFGGAJ": [6035],
    "BMIODDCGHOH": "UI_Activity_CharAmusement_11",
    "levelNameTextMapHash": 2224758057,
    "levelDescTextMapHash": 4267659481,
    "NOAAJFHBPPD": 2379485567
  },
  {
    "levelId": 12,
    "weight": 10,
    "EGIODHJDLOO": "LEVEL_TYPE_AMUSEMENT",
    "galleryId": 28012,
    "NOBAAPPALEL": 280,
    "AMOMDJKNJHK": 430,
    "LPIGAHFGGAJ": [6055],
    "BMIODDCGHOH": "UI_Activity_CharAmusement_12",
    "levelNameTextMapHash": 3682886401,
    "levelDescTextMapHash": 2564265001,
    "NOAAJFHBPPD": 2325118047
  },
  {
    "levelId": 13,
    "weight": 10,
    "EGIODHJDLOO": "LEVEL_TYPE_FIGHT",
    "galleryId": 28013,
    "NOBAAPPALEL": 16,
    "AMOMDJKNJHK": 28,
    "LPIGAHFGGAJ": [6028],
    "BMIODDCGHOH": "UI_Activity_CharAmusement_13",
    "levelNameTextMapHash": 3196467321,
    "levelDescTextMapHash": 574760073,
    "NOAAJFHBPPD": 1889672511
  },
  {
    "levelId": 14,
    "weight": 10,
    "EGIODHJDLOO": "LEVEL_TYPE_FIGHT",
    "galleryId": 28014,
    "NOBAAPPALEL": 12,
    "AMOMDJKNJHK": 18,
    "LPIGAHFGGAJ": [6019],
    "BMIODDCGHOH": "UI_Activity_CharAmusement_14",
    "levelNameTextMapHash": 3753408609,
    "levelDescTextMapHash": 3834788817,
    "NOAAJFHBPPD": 3801638351
  },
  {
    "levelId": 15,
    "weight": 10,
    "EGIODHJDLOO": "LEVEL_TYPE_FIGHT",
    "galleryId": 28015,
    "NOBAAPPALEL": 20,
    "AMOMDJKNJHK": 30,
    "LPIGAHFGGAJ": [6056, 6029],
    "BMIODDCGHOH": "UI_Activity_CharAmusement_15",
    "levelNameTextMapHash": 504555649,
    "levelDescTextMapHash": 644886985,
    "NOAAJFHBPPD": 2520803423
  },
  {
    "levelId": 16,
    "weight": 10,
    "EGIODHJDLOO": "LEVEL_TYPE_FIGHT",
    "galleryId": 28016,
    "NOBAAPPALEL": 20,
    "AMOMDJKNJHK": 25,
    "LPIGAHFGGAJ": [6033, 6039],
    "BMIODDCGHOH": "UI_Activity_CharAmusement_16",
    "levelNameTextMapHash": 1889363217,
    "levelDescTextMapHash": 3889717865,
    "NOAAJFHBPPD": 3410428063
  },
  {
    "levelId": 17,
    "weight": 7,
    "EGIODHJDLOO": "LEVEL_TYPE_FIGHT",
    "galleryId": 28017,
    "NOBAAPPALEL": 8,
    "AMOMDJKNJHK": 12,
    "LPIGAHFGGAJ": [6022],
    "BMIODDCGHOH": "UI_Activity_CharAmusement_17",
    "levelNameTextMapHash": 2548521961,
    "levelDescTextMapHash": 3418390409,
    "NOAAJFHBPPD": 4011301823
  },
  {
    "levelId": 18,
    "weight": 7,
    "EGIODHJDLOO": "LEVEL_TYPE_FIGHT",
    "galleryId": 28018,
    "NOBAAPPALEL": 8,
    "AMOMDJKNJHK": 10,
    "LPIGAHFGGAJ": [6037],
    "BMIODDCGHOH": "UI_Activity_CharAmusement_18",
    "levelNameTextMapHash": 1220578905,
    "levelDescTextMapHash": 3921068913,
    "NOAAJFHBPPD": 1664306135
  }
]
