[
  {
    "activityId": 5090,
    "PMAOHDBINEF": 180,
    "energyLimit": 1000,
    "BDFDPDONIIC": 3,
    "MPGMAHHIIMI": 1,
    "KIDIGOLKIIP": 20,
    "LFHEAGEDCJB": 2,
    "ACPDPAGNFOI": 1.2000000476837158,
    "DJIEJNCANKO": 1.5,
    "IIEOCIJFJAL": 20019,
    "LDJJLFCLPGH": 0.30000001192092896,
    "EMJOKENABFA": "Eff_Activity_Muqadas_PotionPoint_Core_01",
    "NCMPHEOMKBE": "Eff_Activity_Muqadas_PotionPoint_Core_02",
    "BLJKPJDEFDG": "Eff_Activity_Muqadas_PotionPoint_Core_AS",
    "NPDNKJECGKC": "Eff_Activity_Muqadas_PotionPoint_Core_Shrink",
    "ODJNEPCELGN": "Eff_Activity_Muqadas_PotionPoint_01",
    "BIBHFKNHFLF": "Eff_Activity_Muqadas_PotionPoint_02",
    "IMJICBCGBIG": "Eff_Activity_Muqadas_PotionPoint_AS",
    "ALHGLNOMLKL": "Eff_Activity_Muqadas_PotionPoint_Shrink",
    "PFBLJPEPKNF": 2.0,
    "JMBIKIBDNEH": 0.800000011920929,
    "OJEPLBDKGFG": 0.4000000059604645,
    "OOMBNBIFGKD": 5
  }
]
