[
  {
    "describeId": 60901,
    "EDMPHABACAD": 0.800000011920929,
    "BPLOMGFFEDL": [],
    "ILJEFPLLGDK": [
      {
        "BCKNLKAIDPC": [0.0, 0.0, 0.0]
      },
      {
        "BCKNLKAIDPC": []
      },
      {
        "BCKNLKAIDPC": []
      },
      {
        "BCKNLKAIDPC": []
      },
      {
        "BCKNLKAIDPC": []
      }
    ]
  },
  {
    "describeId": 60902,
    "EDMPHABACAD": 0.800000011920929,
    "BPLOMGFFEDL": [],
    "ILJEFPLLGDK": [
      {
        "BCKNLKAIDPC": [0.0, 0.0, 0.0]
      },
      {
        "BCKNLKAIDPC": []
      },
      {
        "BCKNLKAIDPC": []
      },
      {
        "BCKNLKAIDPC": []
      },
      {
        "BCKNLKAIDPC": []
      }
    ]
  },
  {
    "describeId": 60903,
    "EDMPHABACAD": 0.800000011920929,
    "BPLOMGFFEDL": [],
    "ILJEFPLLGDK": [
      {
        "BCKNLKAIDPC": [0.0, 0.0, 0.0]
      },
      {
        "BCKNLKAIDPC": []
      },
      {
        "BCKNLKAIDPC": []
      },
      {
        "BCKNLKAIDPC": []
      },
      {
        "BCKNLKAIDPC": []
      }
    ]
  },
  {
    "describeId": 60904,
    "EDMPHABACAD": 0.800000011920929,
    "BPLOMGFFEDL": [],
    "ILJEFPLLGDK": [
      {
        "BCKNLKAIDPC": [0.0, 0.0, 0.0]
      },
      {
        "BCKNLKAIDPC": []
      },
      {
        "BCKNLKAIDPC": []
      },
      {
        "BCKNLKAIDPC": []
      },
      {
        "BCKNLKAIDPC": []
      }
    ]
  },
  {
    "describeId": 60905,
    "EDMPHABACAD": 0.800000011920929,
    "BPLOMGFFEDL": [],
    "ILJEFPLLGDK": [
      {
        "BCKNLKAIDPC": [0.0, 0.0, 0.0]
      },
      {
        "BCKNLKAIDPC": []
      },
      {
        "BCKNLKAIDPC": []
      },
      {
        "BCKNLKAIDPC": []
      },
      {
        "BCKNLKAIDPC": []
      }
    ]
  },
  {
    "describeId": 60906,
    "EDMPHABACAD": 0.800000011920929,
    "BPLOMGFFEDL": [],
    "ILJEFPLLGDK": [
      {
        "BCKNLKAIDPC": [0.0, 0.0, 0.0]
      },
      {
        "BCKNLKAIDPC": []
      },
      {
        "BCKNLKAIDPC": []
      },
      {
        "BCKNLKAIDPC": []
      },
      {
        "BCKNLKAIDPC": []
      }
    ]
  },
  {
    "describeId": 60907,
    "EDMPHABACAD": 0.800000011920929,
    "BPLOMGFFEDL": [],
    "ILJEFPLLGDK": [
      {
        "BCKNLKAIDPC": [0.0, 0.0, 0.0]
      },
      {
        "BCKNLKAIDPC": []
      },
      {
        "BCKNLKAIDPC": []
      },
      {
        "BCKNLKAIDPC": []
      },
      {
        "BCKNLKAIDPC": []
      }
    ]
  },
  {
    "describeId": 60908,
    "EDMPHABACAD": 0.800000011920929,
    "BPLOMGFFEDL": [],
    "ILJEFPLLGDK": [
      {
        "BCKNLKAIDPC": [0.0, 0.0, 0.0]
      },
      {
        "BCKNLKAIDPC": []
      },
      {
        "BCKNLKAIDPC": []
      },
      {
        "BCKNLKAIDPC": []
      },
      {
        "BCKNLKAIDPC": []
      }
    ]
  },
  {
    "describeId": 60909,
    "EDMPHABACAD": 0.800000011920929,
    "BPLOMGFFEDL": [],
    "ILJEFPLLGDK": [
      {
        "BCKNLKAIDPC": [0.0, 0.0, 0.0]
      },
      {
        "BCKNLKAIDPC": []
      },
      {
        "BCKNLKAIDPC": []
      },
      {
        "BCKNLKAIDPC": []
      },
      {
        "BCKNLKAIDPC": []
      }
    ]
  },
  {
    "describeId": 60910,
    "EDMPHABACAD": 0.800000011920929,
    "BPLOMGFFEDL": [],
    "ILJEFPLLGDK": [
      {
        "BCKNLKAIDPC": [0.0, 0.0, 0.0]
      },
      {
        "BCKNLKAIDPC": []
      },
      {
        "BCKNLKAIDPC": []
      },
      {
        "BCKNLKAIDPC": []
      },
      {
        "BCKNLKAIDPC": []
      }
    ]
  },
  {
    "describeId": 61201,
    "EDMPHABACAD": 1.0,
    "BPLOMGFFEDL": [1],
    "ILJEFPLLGDK": [
      {
        "BCKNLKAIDPC": [0.0, 0.800000011920929, 0.0]
      },
      {
        "BCKNLKAIDPC": [-0.30000001192092896, 0.20000000298023224, 0.0]
      },
      {
        "BCKNLKAIDPC": [0.30000001192092896, 0.20000000298023224, 0.0]
      },
      {
        "BCKNLKAIDPC": []
      },
      {
        "BCKNLKAIDPC": []
      }
    ]
  },
  {
    "describeId": 61202,
    "EDMPHABACAD": 1.0,
    "BPLOMGFFEDL": [1],
    "ILJEFPLLGDK": [
      {
        "BCKNLKAIDPC": [0.0, 0.800000011920929, 0.0]
      },
      {
        "BCKNLKAIDPC": [-0.30000001192092896, 0.20000000298023224, 0.0]
      },
      {
        "BCKNLKAIDPC": [0.30000001192092896, 0.20000000298023224, 0.0]
      },
      {
        "BCKNLKAIDPC": []
      },
      {
        "BCKNLKAIDPC": []
      }
    ]
  },
  {
    "describeId": 61203,
    "EDMPHABACAD": 1.0,
    "BPLOMGFFEDL": [2],
    "ILJEFPLLGDK": [
      {
        "BCKNLKAIDPC": [0.0, 1.0, 0.0]
      },
      {
        "BCKNLKAIDPC": [0.0, 0.10000000149011612, 0.4000000059604645]
      },
      {
        "BCKNLKAIDPC": [0.0, -0.30000001192092896, 0.0]
      },
      {
        "BCKNLKAIDPC": []
      },
      {
        "BCKNLKAIDPC": []
      }
    ]
  },
  {
    "describeId": 61204,
    "EDMPHABACAD": 1.0,
    "BPLOMGFFEDL": [2],
    "ILJEFPLLGDK": [
      {
        "BCKNLKAIDPC": [0.0, 1.0, 0.0]
      },
      {
        "BCKNLKAIDPC": [0.0, 0.10000000149011612, 0.4000000059604645]
      },
      {
        "BCKNLKAIDPC": [0.0, -0.30000001192092896, 0.0]
      },
      {
        "BCKNLKAIDPC": []
      },
      {
        "BCKNLKAIDPC": []
      }
    ]
  },
  {
    "describeId": 53101,
    "EDMPHABACAD": 1.0,
    "BPLOMGFFEDL": [1],
    "ILJEFPLLGDK": [
      {
        "BCKNLKAIDPC": [0.0, 0.5, 0.0]
      },
      {
        "BCKNLKAIDPC": [0.20000000298023224, -0.5, 0.0]
      },
      {
        "BCKNLKAIDPC": [-0.20000000298023224, -0.5, 0.0]
      },
      {
        "BCKNLKAIDPC": []
      },
      {
        "BCKNLKAIDPC": []
      }
    ]
  },
  {
    "describeId": 53102,
    "EDMPHABACAD": 1.0,
    "BPLOMGFFEDL": [1],
    "ILJEFPLLGDK": [
      {
        "BCKNLKAIDPC": [0.0, 0.5, 0.0]
      },
      {
        "BCKNLKAIDPC": [0.20000000298023224, -0.5, 0.0]
      },
      {
        "BCKNLKAIDPC": [-0.20000000298023224, -0.5, 0.0]
      },
      {
        "BCKNLKAIDPC": []
      },
      {
        "BCKNLKAIDPC": []
      }
    ]
  },
  {
    "describeId": 53103,
    "EDMPHABACAD": 1.0,
    "BPLOMGFFEDL": [1],
    "ILJEFPLLGDK": [
      {
        "BCKNLKAIDPC": [0.0, 0.5, 0.0]
      },
      {
        "BCKNLKAIDPC": [0.20000000298023224, -0.5, 0.0]
      },
      {
        "BCKNLKAIDPC": [-0.20000000298023224, -0.5, 0.0]
      },
      {
        "BCKNLKAIDPC": []
      },
      {
        "BCKNLKAIDPC": []
      }
    ]
  },
  {
    "describeId": 52101,
    "EDMPHABACAD": 0.800000011920929,
    "BPLOMGFFEDL": [],
    "ILJEFPLLGDK": [
      {
        "BCKNLKAIDPC": [0.0, 0.5, 0.0]
      },
      {
        "BCKNLKAIDPC": []
      },
      {
        "BCKNLKAIDPC": []
      },
      {
        "BCKNLKAIDPC": []
      },
      {
        "BCKNLKAIDPC": []
      }
    ]
  },
  {
    "describeId": 52102,
    "EDMPHABACAD": 0.800000011920929,
    "BPLOMGFFEDL": [],
    "ILJEFPLLGDK": [
      {
        "BCKNLKAIDPC": [0.0, 0.5, 0.0]
      },
      {
        "BCKNLKAIDPC": []
      },
      {
        "BCKNLKAIDPC": []
      },
      {
        "BCKNLKAIDPC": []
      },
      {
        "BCKNLKAIDPC": []
      }
    ]
  },
  {
    "describeId": 52103,
    "EDMPHABACAD": 0.800000011920929,
    "BPLOMGFFEDL": [],
    "ILJEFPLLGDK": [
      {
        "BCKNLKAIDPC": [0.0, 0.5, 0.0]
      },
      {
        "BCKNLKAIDPC": []
      },
      {
        "BCKNLKAIDPC": []
      },
      {
        "BCKNLKAIDPC": []
      },
      {
        "BCKNLKAIDPC": []
      }
    ]
  },
  {
    "describeId": 52104,
    "EDMPHABACAD": 0.800000011920929,
    "BPLOMGFFEDL": [],
    "ILJEFPLLGDK": [
      {
        "BCKNLKAIDPC": [0.0, 0.5, 0.0]
      },
      {
        "BCKNLKAIDPC": []
      },
      {
        "BCKNLKAIDPC": []
      },
      {
        "BCKNLKAIDPC": []
      },
      {
        "BCKNLKAIDPC": []
      }
    ]
  },
  {
    "describeId": 52105,
    "EDMPHABACAD": 0.800000011920929,
    "BPLOMGFFEDL": [],
    "ILJEFPLLGDK": [
      {
        "BCKNLKAIDPC": [0.0, 0.5, 0.0]
      },
      {
        "BCKNLKAIDPC": []
      },
      {
        "BCKNLKAIDPC": []
      },
      {
        "BCKNLKAIDPC": []
      },
      {
        "BCKNLKAIDPC": []
      }
    ]
  },
  {
    "describeId": 40201,
    "EDMPHABACAD": 0.800000011920929,
    "BPLOMGFFEDL": [],
    "ILJEFPLLGDK": [
      {
        "BCKNLKAIDPC": [0.0, 0.0, 0.0]
      },
      {
        "BCKNLKAIDPC": [0.0, 0.699999988079071, 0.0]
      },
      {
        "BCKNLKAIDPC": [0.699999988079071, -0.5, -0.20000000298023224]
      },
      {
        "BCKNLKAIDPC": [-0.699999988079071, -0.5, -0.20000000298023224]
      },
      {
        "BCKNLKAIDPC": []
      }
    ]
  },
  {
    "describeId": 40202,
    "EDMPHABACAD": 0.800000011920929,
    "BPLOMGFFEDL": [],
    "ILJEFPLLGDK": [
      {
        "BCKNLKAIDPC": [0.0, 0.4000000059604645, 0.699999988079071]
      },
      {
        "BCKNLKAIDPC": [0.0, 0.0, 0.0]
      },
      {
        "BCKNLKAIDPC": []
      },
      {
        "BCKNLKAIDPC": []
      },
      {
        "BCKNLKAIDPC": []
      }
    ]
  },
  {
    "describeId": 40203,
    "EDMPHABACAD": 0.800000011920929,
    "BPLOMGFFEDL": [],
    "ILJEFPLLGDK": [
      {
        "BCKNLKAIDPC": [0.0, 0.0, 0.0]
      },
      {
        "BCKNLKAIDPC": []
      },
      {
        "BCKNLKAIDPC": []
      },
      {
        "BCKNLKAIDPC": []
      },
      {
        "BCKNLKAIDPC": []
      }
    ]
  },
  {
    "describeId": 40204,
    "EDMPHABACAD": 0.800000011920929,
    "BPLOMGFFEDL": [],
    "ILJEFPLLGDK": [
      {
        "BCKNLKAIDPC": [0.0, 0.6000000238418579, 0.0]
      },
      {
        "BCKNLKAIDPC": [0.0, 0.0, 0.0]
      },
      {
        "BCKNLKAIDPC": []
      },
      {
        "BCKNLKAIDPC": []
      },
      {
        "BCKNLKAIDPC": []
      }
    ]
  },
  {
    "describeId": 40302,
    "EDMPHABACAD": 1.0,
    "BPLOMGFFEDL": [1],
    "ILJEFPLLGDK": [
      {
        "BCKNLKAIDPC": [0.0, 0.0, 0.800000011920929]
      },
      {
        "BCKNLKAIDPC": [-0.5, 0.5, -0.30000001192092896]
      },
      {
        "BCKNLKAIDPC": [0.5, 0.5, -0.30000001192092896]
      },
      {
        "BCKNLKAIDPC": [
          -0.4000000059604645, -0.6000000238418579, -0.30000001192092896
        ]
      },
      {
        "BCKNLKAIDPC": [
          0.4000000059604645, -0.6000000238418579, -0.30000001192092896
        ]
      }
    ]
  },
  {
    "describeId": 10202,
    "EDMPHABACAD": 1.0,
    "BPLOMGFFEDL": [1],
    "ILJEFPLLGDK": [
      {
        "BCKNLKAIDPC": [0.0, 0.20000000298023224, 0.5]
      },
      {
        "BCKNLKAIDPC": [-0.30000001192092896, -0.30000001192092896, 0.0]
      },
      {
        "BCKNLKAIDPC": [0.30000001192092896, -0.30000001192092896, 0.0]
      },
      {
        "BCKNLKAIDPC": []
      },
      {
        "BCKNLKAIDPC": []
      }
    ]
  },
  {
    "describeId": 10207,
    "EDMPHABACAD": 1.0,
    "BPLOMGFFEDL": [1],
    "ILJEFPLLGDK": [
      {
        "BCKNLKAIDPC": [0.0, 0.20000000298023224, 0.5]
      },
      {
        "BCKNLKAIDPC": [-0.30000001192092896, -0.30000001192092896, 0.0]
      },
      {
        "BCKNLKAIDPC": [0.30000001192092896, -0.30000001192092896, 0.0]
      },
      {
        "BCKNLKAIDPC": []
      },
      {
        "BCKNLKAIDPC": []
      }
    ]
  },
  {
    "describeId": 10301,
    "EDMPHABACAD": 0.800000011920929,
    "BPLOMGFFEDL": [],
    "ILJEFPLLGDK": [
      {
        "BCKNLKAIDPC": [0.0, 0.4000000059604645, 0.10000000149011612]
      },
      {
        "BCKNLKAIDPC": []
      },
      {
        "BCKNLKAIDPC": []
      },
      {
        "BCKNLKAIDPC": []
      },
      {
        "BCKNLKAIDPC": []
      }
    ]
  },
  {
    "describeId": 10302,
    "EDMPHABACAD": 0.800000011920929,
    "BPLOMGFFEDL": [],
    "ILJEFPLLGDK": [
      {
        "BCKNLKAIDPC": [0.0, 0.4000000059604645, 0.10000000149011612]
      },
      {
        "BCKNLKAIDPC": []
      },
      {
        "BCKNLKAIDPC": []
      },
      {
        "BCKNLKAIDPC": []
      },
      {
        "BCKNLKAIDPC": []
      }
    ]
  },
  {
    "describeId": 10303,
    "EDMPHABACAD": 0.800000011920929,
    "BPLOMGFFEDL": [],
    "ILJEFPLLGDK": [
      {
        "BCKNLKAIDPC": [0.0, 0.4000000059604645, 0.10000000149011612]
      },
      {
        "BCKNLKAIDPC": []
      },
      {
        "BCKNLKAIDPC": []
      },
      {
        "BCKNLKAIDPC": []
      },
      {
        "BCKNLKAIDPC": []
      }
    ]
  },
  {
    "describeId": 10304,
    "EDMPHABACAD": 0.800000011920929,
    "BPLOMGFFEDL": [],
    "ILJEFPLLGDK": [
      {
        "BCKNLKAIDPC": [0.0, 0.4000000059604645, 0.10000000149011612]
      },
      {
        "BCKNLKAIDPC": []
      },
      {
        "BCKNLKAIDPC": []
      },
      {
        "BCKNLKAIDPC": []
      },
      {
        "BCKNLKAIDPC": []
      }
    ]
  },
  {
    "describeId": 10305,
    "EDMPHABACAD": 0.800000011920929,
    "BPLOMGFFEDL": [],
    "ILJEFPLLGDK": [
      {
        "BCKNLKAIDPC": [0.0, 0.4000000059604645, 0.10000000149011612]
      },
      {
        "BCKNLKAIDPC": []
      },
      {
        "BCKNLKAIDPC": []
      },
      {
        "BCKNLKAIDPC": []
      },
      {
        "BCKNLKAIDPC": []
      }
    ]
  },
  {
    "describeId": 10306,
    "EDMPHABACAD": 0.800000011920929,
    "BPLOMGFFEDL": [],
    "ILJEFPLLGDK": [
      {
        "BCKNLKAIDPC": [0.0, 0.4000000059604645, 0.10000000149011612]
      },
      {
        "BCKNLKAIDPC": []
      },
      {
        "BCKNLKAIDPC": []
      },
      {
        "BCKNLKAIDPC": []
      },
      {
        "BCKNLKAIDPC": []
      }
    ]
  },
  {
    "describeId": 10101,
    "EDMPHABACAD": 0.800000011920929,
    "BPLOMGFFEDL": [],
    "ILJEFPLLGDK": [
      {
        "BCKNLKAIDPC": [0.0, 0.4000000059604645, 0.6000000238418579]
      },
      {
        "BCKNLKAIDPC": []
      },
      {
        "BCKNLKAIDPC": []
      },
      {
        "BCKNLKAIDPC": []
      },
      {
        "BCKNLKAIDPC": []
      }
    ]
  },
  {
    "describeId": 10102,
    "EDMPHABACAD": 0.800000011920929,
    "BPLOMGFFEDL": [],
    "ILJEFPLLGDK": [
      {
        "BCKNLKAIDPC": [0.0, 0.4000000059604645, 0.6000000238418579]
      },
      {
        "BCKNLKAIDPC": []
      },
      {
        "BCKNLKAIDPC": []
      },
      {
        "BCKNLKAIDPC": []
      },
      {
        "BCKNLKAIDPC": []
      }
    ]
  },
  {
    "describeId": 10103,
    "EDMPHABACAD": 0.800000011920929,
    "BPLOMGFFEDL": [],
    "ILJEFPLLGDK": [
      {
        "BCKNLKAIDPC": [0.0, 0.4000000059604645, 0.6000000238418579]
      },
      {
        "BCKNLKAIDPC": []
      },
      {
        "BCKNLKAIDPC": []
      },
      {
        "BCKNLKAIDPC": []
      },
      {
        "BCKNLKAIDPC": []
      }
    ]
  },
  {
    "describeId": 10104,
    "EDMPHABACAD": 0.800000011920929,
    "BPLOMGFFEDL": [],
    "ILJEFPLLGDK": [
      {
        "BCKNLKAIDPC": [0.0, 0.4000000059604645, 0.6000000238418579]
      },
      {
        "BCKNLKAIDPC": []
      },
      {
        "BCKNLKAIDPC": []
      },
      {
        "BCKNLKAIDPC": []
      },
      {
        "BCKNLKAIDPC": []
      }
    ]
  },
  {
    "describeId": 10105,
    "EDMPHABACAD": 0.800000011920929,
    "BPLOMGFFEDL": [],
    "ILJEFPLLGDK": [
      {
        "BCKNLKAIDPC": [0.0, 0.4000000059604645, 0.6000000238418579]
      },
      {
        "BCKNLKAIDPC": []
      },
      {
        "BCKNLKAIDPC": []
      },
      {
        "BCKNLKAIDPC": []
      },
      {
        "BCKNLKAIDPC": []
      }
    ]
  },
  {
    "describeId": 10106,
    "EDMPHABACAD": 0.800000011920929,
    "BPLOMGFFEDL": [],
    "ILJEFPLLGDK": [
      {
        "BCKNLKAIDPC": [0.0, 0.4000000059604645, 0.6000000238418579]
      },
      {
        "BCKNLKAIDPC": []
      },
      {
        "BCKNLKAIDPC": []
      },
      {
        "BCKNLKAIDPC": []
      },
      {
        "BCKNLKAIDPC": []
      }
    ]
  },
  {
    "describeId": 10107,
    "EDMPHABACAD": 0.800000011920929,
    "BPLOMGFFEDL": [],
    "ILJEFPLLGDK": [
      {
        "BCKNLKAIDPC": [0.0, 0.4000000059604645, 0.6000000238418579]
      },
      {
        "BCKNLKAIDPC": []
      },
      {
        "BCKNLKAIDPC": []
      },
      {
        "BCKNLKAIDPC": []
      },
      {
        "BCKNLKAIDPC": []
      }
    ]
  },
  {
    "describeId": 10109,
    "EDMPHABACAD": 0.800000011920929,
    "BPLOMGFFEDL": [],
    "ILJEFPLLGDK": [
      {
        "BCKNLKAIDPC": [0.0, 0.4000000059604645, 0.6000000238418579]
      },
      {
        "BCKNLKAIDPC": []
      },
      {
        "BCKNLKAIDPC": []
      },
      {
        "BCKNLKAIDPC": []
      },
      {
        "BCKNLKAIDPC": []
      }
    ]
  },
  {
    "describeId": 10110,
    "EDMPHABACAD": 0.800000011920929,
    "BPLOMGFFEDL": [],
    "ILJEFPLLGDK": [
      {
        "BCKNLKAIDPC": [0.0, 0.4000000059604645, 0.6000000238418579]
      },
      {
        "BCKNLKAIDPC": []
      },
      {
        "BCKNLKAIDPC": []
      },
      {
        "BCKNLKAIDPC": []
      },
      {
        "BCKNLKAIDPC": []
      }
    ]
  },
  {
    "describeId": 10112,
    "EDMPHABACAD": 0.800000011920929,
    "BPLOMGFFEDL": [],
    "ILJEFPLLGDK": [
      {
        "BCKNLKAIDPC": [0.0, 0.4000000059604645, 0.6000000238418579]
      },
      {
        "BCKNLKAIDPC": []
      },
      {
        "BCKNLKAIDPC": []
      },
      {
        "BCKNLKAIDPC": []
      },
      {
        "BCKNLKAIDPC": []
      }
    ]
  },
  {
    "describeId": 10113,
    "EDMPHABACAD": 0.800000011920929,
    "BPLOMGFFEDL": [],
    "ILJEFPLLGDK": [
      {
        "BCKNLKAIDPC": [0.0, 0.4000000059604645, 0.6000000238418579]
      },
      {
        "BCKNLKAIDPC": []
      },
      {
        "BCKNLKAIDPC": []
      },
      {
        "BCKNLKAIDPC": []
      },
      {
        "BCKNLKAIDPC": []
      }
    ]
  },
  {
    "describeId": 10114,
    "EDMPHABACAD": 0.800000011920929,
    "BPLOMGFFEDL": [],
    "ILJEFPLLGDK": [
      {
        "BCKNLKAIDPC": [0.0, 0.4000000059604645, 0.6000000238418579]
      },
      {
        "BCKNLKAIDPC": []
      },
      {
        "BCKNLKAIDPC": []
      },
      {
        "BCKNLKAIDPC": []
      },
      {
        "BCKNLKAIDPC": []
      }
    ]
  },
  {
    "describeId": 10116,
    "EDMPHABACAD": 0.800000011920929,
    "BPLOMGFFEDL": [],
    "ILJEFPLLGDK": [
      {
        "BCKNLKAIDPC": [0.0, 0.4000000059604645, 0.6000000238418579]
      },
      {
        "BCKNLKAIDPC": []
      },
      {
        "BCKNLKAIDPC": []
      },
      {
        "BCKNLKAIDPC": []
      },
      {
        "BCKNLKAIDPC": []
      }
    ]
  },
  {
    "describeId": 60101,
    "EDMPHABACAD": 1.0,
    "BPLOMGFFEDL": [2],
    "ILJEFPLLGDK": [
      {
        "BCKNLKAIDPC": [0.0, 0.30000001192092896, 0.0]
      },
      {
        "BCKNLKAIDPC": [0.0, -0.10000000149011612, 0.0]
      },
      {
        "BCKNLKAIDPC": [0.0, -0.5, 0.0]
      },
      {
        "BCKNLKAIDPC": []
      },
      {
        "BCKNLKAIDPC": []
      }
    ]
  },
  {
    "describeId": 60102,
    "EDMPHABACAD": 1.0,
    "BPLOMGFFEDL": [2],
    "ILJEFPLLGDK": [
      {
        "BCKNLKAIDPC": [0.0, 0.30000001192092896, 0.0]
      },
      {
        "BCKNLKAIDPC": [0.0, -0.10000000149011612, 0.0]
      },
      {
        "BCKNLKAIDPC": [0.0, -0.5, 0.0]
      },
      {
        "BCKNLKAIDPC": []
      },
      {
        "BCKNLKAIDPC": []
      }
    ]
  },
  {
    "describeId": 60103,
    "EDMPHABACAD": 1.0,
    "BPLOMGFFEDL": [2],
    "ILJEFPLLGDK": [
      {
        "BCKNLKAIDPC": [0.0, 0.30000001192092896, 0.0]
      },
      {
        "BCKNLKAIDPC": [0.0, -0.10000000149011612, 0.0]
      },
      {
        "BCKNLKAIDPC": [0.0, -0.5, 0.0]
      },
      {
        "BCKNLKAIDPC": []
      },
      {
        "BCKNLKAIDPC": []
      }
    ]
  },
  {
    "describeId": 101,
    "EDMPHABACAD": 0.800000011920929,
    "BPLOMGFFEDL": [],
    "ILJEFPLLGDK": [
      {
        "BCKNLKAIDPC": [0.0, 0.0, 0.0]
      },
      {
        "BCKNLKAIDPC": []
      },
      {
        "BCKNLKAIDPC": []
      },
      {
        "BCKNLKAIDPC": []
      },
      {
        "BCKNLKAIDPC": []
      }
    ]
  },
  {
    "describeId": 103,
    "EDMPHABACAD": 0.800000011920929,
    "BPLOMGFFEDL": [],
    "ILJEFPLLGDK": [
      {
        "BCKNLKAIDPC": [0.0, 0.0, 0.0]
      },
      {
        "BCKNLKAIDPC": []
      },
      {
        "BCKNLKAIDPC": []
      },
      {
        "BCKNLKAIDPC": []
      },
      {
        "BCKNLKAIDPC": []
      }
    ]
  },
  {
    "describeId": 105,
    "EDMPHABACAD": 0.800000011920929,
    "BPLOMGFFEDL": [],
    "ILJEFPLLGDK": [
      {
        "BCKNLKAIDPC": [0.0, 0.0, 0.0]
      },
      {
        "BCKNLKAIDPC": []
      },
      {
        "BCKNLKAIDPC": []
      },
      {
        "BCKNLKAIDPC": []
      },
      {
        "BCKNLKAIDPC": []
      }
    ]
  },
  {
    "describeId": 108,
    "EDMPHABACAD": 0.800000011920929,
    "BPLOMGFFEDL": [],
    "ILJEFPLLGDK": [
      {
        "BCKNLKAIDPC": [0.0, 0.0, 0.0]
      },
      {
        "BCKNLKAIDPC": []
      },
      {
        "BCKNLKAIDPC": []
      },
      {
        "BCKNLKAIDPC": []
      },
      {
        "BCKNLKAIDPC": []
      }
    ]
  },
  {
    "describeId": 110,
    "EDMPHABACAD": 0.800000011920929,
    "BPLOMGFFEDL": [],
    "ILJEFPLLGDK": [
      {
        "BCKNLKAIDPC": [0.0, 0.0, 0.0]
      },
      {
        "BCKNLKAIDPC": []
      },
      {
        "BCKNLKAIDPC": []
      },
      {
        "BCKNLKAIDPC": []
      },
      {
        "BCKNLKAIDPC": []
      }
    ]
  },
  {
    "describeId": 112,
    "EDMPHABACAD": 0.800000011920929,
    "BPLOMGFFEDL": [],
    "ILJEFPLLGDK": [
      {
        "BCKNLKAIDPC": [0.0, 0.0, 0.0]
      },
      {
        "BCKNLKAIDPC": []
      },
      {
        "BCKNLKAIDPC": []
      },
      {
        "BCKNLKAIDPC": []
      },
      {
        "BCKNLKAIDPC": []
      }
    ]
  },
  {
    "describeId": 114,
    "EDMPHABACAD": 0.800000011920929,
    "BPLOMGFFEDL": [],
    "ILJEFPLLGDK": [
      {
        "BCKNLKAIDPC": [0.0, 0.0, 0.0]
      },
      {
        "BCKNLKAIDPC": []
      },
      {
        "BCKNLKAIDPC": []
      },
      {
        "BCKNLKAIDPC": []
      },
      {
        "BCKNLKAIDPC": []
      }
    ]
  },
  {
    "describeId": 113,
    "EDMPHABACAD": 1.0,
    "BPLOMGFFEDL": [1],
    "ILJEFPLLGDK": [
      {
        "BCKNLKAIDPC": [0.0, 0.20000000298023224, 0.0]
      },
      {
        "BCKNLKAIDPC": [-0.20000000298023224, -0.10000000149011612, 0.0]
      },
      {
        "BCKNLKAIDPC": [0.20000000298023224, -0.10000000149011612, 0.0]
      },
      {
        "BCKNLKAIDPC": []
      },
      {
        "BCKNLKAIDPC": []
      }
    ]
  },
  {
    "describeId": 30501,
    "EDMPHABACAD": 0.6000000238418579,
    "BPLOMGFFEDL": [1],
    "ILJEFPLLGDK": [
      {
        "BCKNLKAIDPC": [0.0, 0.699999988079071, 0.0]
      },
      {
        "BCKNLKAIDPC": [0.0, 0.20000000298023224, 0.0]
      },
      {
        "BCKNLKAIDPC": [0.0, -0.20000000298023224, 0.0]
      },
      {
        "BCKNLKAIDPC": [0.0, -0.6000000238418579, 0.0]
      },
      {
        "BCKNLKAIDPC": [0.0, -1.0, 0.0]
      }
    ]
  },
  {
    "describeId": 30101,
    "EDMPHABACAD": 1.0,
    "BPLOMGFFEDL": [1],
    "ILJEFPLLGDK": [
      {
        "BCKNLKAIDPC": [0.0, 0.6000000238418579, 0.0]
      },
      {
        "BCKNLKAIDPC": [-0.30000001192092896, -0.4000000059604645, 0.0]
      },
      {
        "BCKNLKAIDPC": [0.30000001192092896, -0.4000000059604645, 0.0]
      },
      {
        "BCKNLKAIDPC": []
      },
      {
        "BCKNLKAIDPC": []
      }
    ]
  },
  {
    "describeId": 30102,
    "EDMPHABACAD": 1.0,
    "BPLOMGFFEDL": [1],
    "ILJEFPLLGDK": [
      {
        "BCKNLKAIDPC": [0.0, 0.6000000238418579, 0.0]
      },
      {
        "BCKNLKAIDPC": [-0.30000001192092896, -0.4000000059604645, 0.0]
      },
      {
        "BCKNLKAIDPC": [0.30000001192092896, -0.4000000059604645, 0.0]
      },
      {
        "BCKNLKAIDPC": []
      },
      {
        "BCKNLKAIDPC": []
      }
    ]
  },
  {
    "describeId": 30103,
    "EDMPHABACAD": 1.0,
    "BPLOMGFFEDL": [1],
    "ILJEFPLLGDK": [
      {
        "BCKNLKAIDPC": [0.0, 0.6000000238418579, 0.0]
      },
      {
        "BCKNLKAIDPC": [-0.20000000298023224, -0.5, 0.0]
      },
      {
        "BCKNLKAIDPC": [0.20000000298023224, -0.5, 0.0]
      },
      {
        "BCKNLKAIDPC": []
      },
      {
        "BCKNLKAIDPC": []
      }
    ]
  },
  {
    "describeId": 30106,
    "EDMPHABACAD": 1.0,
    "BPLOMGFFEDL": [1],
    "ILJEFPLLGDK": [
      {
        "BCKNLKAIDPC": [0.0, 0.4000000059604645, 0.0]
      },
      {
        "BCKNLKAIDPC": [-0.20000000298023224, -0.6000000238418579, 0.0]
      },
      {
        "BCKNLKAIDPC": [0.20000000298023224, -0.6000000238418579, 0.0]
      },
      {
        "BCKNLKAIDPC": []
      },
      {
        "BCKNLKAIDPC": []
      }
    ]
  },
  {
    "describeId": 50102,
    "EDMPHABACAD": 0.800000011920929,
    "BPLOMGFFEDL": [],
    "ILJEFPLLGDK": [
      {
        "BCKNLKAIDPC": [0.0, 0.4000000059604645, 0.0]
      },
      {
        "BCKNLKAIDPC": []
      },
      {
        "BCKNLKAIDPC": []
      },
      {
        "BCKNLKAIDPC": []
      },
      {
        "BCKNLKAIDPC": []
      }
    ]
  },
  {
    "describeId": 50103,
    "EDMPHABACAD": 0.800000011920929,
    "BPLOMGFFEDL": [],
    "ILJEFPLLGDK": [
      {
        "BCKNLKAIDPC": [0.0, 0.4000000059604645, 0.0]
      },
      {
        "BCKNLKAIDPC": []
      },
      {
        "BCKNLKAIDPC": []
      },
      {
        "BCKNLKAIDPC": []
      },
      {
        "BCKNLKAIDPC": []
      }
    ]
  },
  {
    "describeId": 50104,
    "EDMPHABACAD": 0.800000011920929,
    "BPLOMGFFEDL": [],
    "ILJEFPLLGDK": [
      {
        "BCKNLKAIDPC": [0.0, 0.4000000059604645, 0.0]
      },
      {
        "BCKNLKAIDPC": []
      },
      {
        "BCKNLKAIDPC": []
      },
      {
        "BCKNLKAIDPC": []
      },
      {
        "BCKNLKAIDPC": []
      }
    ]
  },
  {
    "describeId": 50105,
    "EDMPHABACAD": 0.800000011920929,
    "BPLOMGFFEDL": [],
    "ILJEFPLLGDK": [
      {
        "BCKNLKAIDPC": [0.0, 0.4000000059604645, 0.0]
      },
      {
        "BCKNLKAIDPC": []
      },
      {
        "BCKNLKAIDPC": []
      },
      {
        "BCKNLKAIDPC": []
      },
      {
        "BCKNLKAIDPC": []
      }
    ]
  },
  {
    "describeId": 50106,
    "EDMPHABACAD": 0.800000011920929,
    "BPLOMGFFEDL": [],
    "ILJEFPLLGDK": [
      {
        "BCKNLKAIDPC": [0.0, 0.4000000059604645, 0.0]
      },
      {
        "BCKNLKAIDPC": []
      },
      {
        "BCKNLKAIDPC": []
      },
      {
        "BCKNLKAIDPC": []
      },
      {
        "BCKNLKAIDPC": []
      }
    ]
  },
  {
    "describeId": 50107,
    "EDMPHABACAD": 0.800000011920929,
    "BPLOMGFFEDL": [],
    "ILJEFPLLGDK": [
      {
        "BCKNLKAIDPC": [0.0, 0.4000000059604645, 0.0]
      },
      {
        "BCKNLKAIDPC": []
      },
      {
        "BCKNLKAIDPC": []
      },
      {
        "BCKNLKAIDPC": []
      },
      {
        "BCKNLKAIDPC": []
      }
    ]
  },
  {
    "describeId": 50202,
    "EDMPHABACAD": 0.800000011920929,
    "BPLOMGFFEDL": [],
    "ILJEFPLLGDK": [
      {
        "BCKNLKAIDPC": [0.0, 0.4000000059604645, 0.0]
      },
      {
        "BCKNLKAIDPC": []
      },
      {
        "BCKNLKAIDPC": []
      },
      {
        "BCKNLKAIDPC": []
      },
      {
        "BCKNLKAIDPC": []
      }
    ]
  },
  {
    "describeId": 50302,
    "EDMPHABACAD": 0.800000011920929,
    "BPLOMGFFEDL": [],
    "ILJEFPLLGDK": [
      {
        "BCKNLKAIDPC": [0.0, 0.4000000059604645, 0.0]
      },
      {
        "BCKNLKAIDPC": []
      },
      {
        "BCKNLKAIDPC": []
      },
      {
        "BCKNLKAIDPC": []
      },
      {
        "BCKNLKAIDPC": []
      }
    ]
  },
  {
    "describeId": 50303,
    "EDMPHABACAD": 0.800000011920929,
    "BPLOMGFFEDL": [],
    "ILJEFPLLGDK": [
      {
        "BCKNLKAIDPC": [0.0, 0.4000000059604645, 0.0]
      },
      {
        "BCKNLKAIDPC": []
      },
      {
        "BCKNLKAIDPC": []
      },
      {
        "BCKNLKAIDPC": []
      },
      {
        "BCKNLKAIDPC": []
      }
    ]
  },
  {
    "describeId": 50601,
    "EDMPHABACAD": 0.800000011920929,
    "BPLOMGFFEDL": [],
    "ILJEFPLLGDK": [
      {
        "BCKNLKAIDPC": [0.0, 0.4000000059604645, 0.0]
      },
      {
        "BCKNLKAIDPC": []
      },
      {
        "BCKNLKAIDPC": []
      },
      {
        "BCKNLKAIDPC": []
      },
      {
        "BCKNLKAIDPC": []
      }
    ]
  },
  {
    "describeId": 50701,
    "EDMPHABACAD": 0.800000011920929,
    "BPLOMGFFEDL": [],
    "ILJEFPLLGDK": [
      {
        "BCKNLKAIDPC": [0.0, 0.4000000059604645, 0.0]
      },
      {
        "BCKNLKAIDPC": []
      },
      {
        "BCKNLKAIDPC": []
      },
      {
        "BCKNLKAIDPC": []
      },
      {
        "BCKNLKAIDPC": []
      }
    ]
  },
  {
    "describeId": 20401,
    "EDMPHABACAD": 0.800000011920929,
    "BPLOMGFFEDL": [],
    "ILJEFPLLGDK": [
      {
        "BCKNLKAIDPC": [0.0, 0.4000000059604645, 0.20000000298023224]
      },
      {
        "BCKNLKAIDPC": [0.0, -0.5, 0.0]
      },
      {
        "BCKNLKAIDPC": []
      },
      {
        "BCKNLKAIDPC": []
      },
      {
        "BCKNLKAIDPC": []
      }
    ]
  },
  {
    "describeId": 20402,
    "EDMPHABACAD": 0.800000011920929,
    "BPLOMGFFEDL": [],
    "ILJEFPLLGDK": [
      {
        "BCKNLKAIDPC": [0.0, 0.4000000059604645, 0.20000000298023224]
      },
      {
        "BCKNLKAIDPC": [0.0, -0.5, 0.0]
      },
      {
        "BCKNLKAIDPC": []
      },
      {
        "BCKNLKAIDPC": []
      },
      {
        "BCKNLKAIDPC": []
      }
    ]
  },
  {
    "describeId": 20501,
    "EDMPHABACAD": 1.0,
    "BPLOMGFFEDL": [1],
    "ILJEFPLLGDK": [
      {
        "BCKNLKAIDPC": [0.0, 0.0, 0.0]
      },
      {
        "BCKNLKAIDPC": [-0.5, -1.0, 0.0]
      },
      {
        "BCKNLKAIDPC": [0.5, -1.0, 0.0]
      },
      {
        "BCKNLKAIDPC": []
      },
      {
        "BCKNLKAIDPC": []
      }
    ]
  },
  {
    "describeId": 20502,
    "EDMPHABACAD": 1.0,
    "BPLOMGFFEDL": [1],
    "ILJEFPLLGDK": [
      {
        "BCKNLKAIDPC": [0.0, 0.0, 0.0]
      },
      {
        "BCKNLKAIDPC": [-0.5, -1.0, 0.0]
      },
      {
        "BCKNLKAIDPC": [0.5, -1.0, 0.0]
      },
      {
        "BCKNLKAIDPC": []
      },
      {
        "BCKNLKAIDPC": []
      }
    ]
  },
  {
    "describeId": 20101,
    "EDMPHABACAD": 0.5,
    "BPLOMGFFEDL": [1],
    "ILJEFPLLGDK": [
      {
        "BCKNLKAIDPC": [0.0, 0.4000000059604645, 0.0]
      },
      {
        "BCKNLKAIDPC": [-0.30000001192092896, -0.5, 0.0]
      },
      {
        "BCKNLKAIDPC": [0.30000001192092896, -0.5, 0.0]
      },
      {
        "BCKNLKAIDPC": []
      },
      {
        "BCKNLKAIDPC": []
      }
    ]
  },
  {
    "describeId": 20102,
    "EDMPHABACAD": 0.5,
    "BPLOMGFFEDL": [1],
    "ILJEFPLLGDK": [
      {
        "BCKNLKAIDPC": [0.0, 0.4000000059604645, 0.0]
      },
      {
        "BCKNLKAIDPC": [-0.30000001192092896, -0.5, 0.0]
      },
      {
        "BCKNLKAIDPC": [0.30000001192092896, -0.5, 0.0]
      },
      {
        "BCKNLKAIDPC": []
      },
      {
        "BCKNLKAIDPC": []
      }
    ]
  },
  {
    "describeId": 20103,
    "EDMPHABACAD": 0.5,
    "BPLOMGFFEDL": [1],
    "ILJEFPLLGDK": [
      {
        "BCKNLKAIDPC": [0.0, 0.4000000059604645, 0.0]
      },
      {
        "BCKNLKAIDPC": [-0.30000001192092896, -0.5, 0.0]
      },
      {
        "BCKNLKAIDPC": [0.30000001192092896, -0.5, 0.0]
      },
      {
        "BCKNLKAIDPC": []
      },
      {
        "BCKNLKAIDPC": []
      }
    ]
  },
  {
    "describeId": 20104,
    "EDMPHABACAD": 0.5,
    "BPLOMGFFEDL": [1],
    "ILJEFPLLGDK": [
      {
        "BCKNLKAIDPC": [0.0, 0.4000000059604645, 0.0]
      },
      {
        "BCKNLKAIDPC": [-0.30000001192092896, -0.5, 0.0]
      },
      {
        "BCKNLKAIDPC": [0.30000001192092896, -0.5, 0.0]
      },
      {
        "BCKNLKAIDPC": []
      },
      {
        "BCKNLKAIDPC": []
      }
    ]
  },
  {
    "describeId": 40101,
    "EDMPHABACAD": 1.0,
    "BPLOMGFFEDL": [],
    "ILJEFPLLGDK": [
      {
        "BCKNLKAIDPC": [0.0, 0.5, 0.0]
      },
      {
        "BCKNLKAIDPC": [0.0, 0.0, 0.0]
      },
      {
        "BCKNLKAIDPC": []
      },
      {
        "BCKNLKAIDPC": []
      },
      {
        "BCKNLKAIDPC": []
      }
    ]
  },
  {
    "describeId": 40103,
    "EDMPHABACAD": 1.0,
    "BPLOMGFFEDL": [1],
    "ILJEFPLLGDK": [
      {
        "BCKNLKAIDPC": [0.0, 0.5, 0.10000000149011612]
      },
      {
        "BCKNLKAIDPC": [-0.5, 0.5, 0.0]
      },
      {
        "BCKNLKAIDPC": [0.5, 0.5, 0.0]
      },
      {
        "BCKNLKAIDPC": [-0.30000001192092896, -0.8999999761581421, 0.0]
      },
      {
        "BCKNLKAIDPC": [0.30000001192092896, -0.8999999761581421, 0.0]
      }
    ]
  }
]
