[
  {
    "id": 101,
    "LLAHGAEAMED": "GreaterOrEqual",
    "materialId": 410004,
    "LPABNAHGJDC": 1
  },
  {
    "id": 102,
    "LLAHGAEAMED": "GreaterOrEqual",
    "materialId": 410005,
    "LPABNAHGJDC": 1
  },
  {
    "id": 103,
    "LLAHGAEAMED": "GreaterOrEqual",
    "materialId": 410006,
    "LPABNAHGJDC": 1
  },
  {
    "id": 104,
    "LLAHGAEAMED": "GreaterOrEqual",
    "materialId": 410007,
    "LPABNAHGJDC": 1
  },
  {
    "id": 105,
    "LLAHGAEAMED": "GreaterOrEqual",
    "materialId": 410008,
    "LPABNAHGJDC": 1
  },
  {
    "id": 106,
    "LLAHGAEAMED": "GreaterOrEqual",
    "materialId": 410009,
    "LPABNAHGJDC": 1
  },
  {
    "id": 107,
    "LLAHGAEAMED": "GreaterOrEqual",
    "materialId": 410001,
    "LPABNAHGJDC": 1
  },
  {
    "id": 108,
    "LLAHGAEAMED": "GreaterOrEqual",
    "materialId": 410002,
    "LPABNAHGJDC": 1
  },
  {
    "id": 109,
    "LLAHGAEAMED": "GreaterOrEqual",
    "materialId": 410003,
    "LPABNAHGJDC": 1
  }
]
