[
  {
    "levelUpNeedPoint": 1000
  },
  {
    "level": 1,
    "levelUpNeedPoint": 1000
  },
  {
    "level": 2,
    "levelUpNeedPoint": 1000
  },
  {
    "level": 3,
    "levelUpNeedPoint": 1000
  },
  {
    "level": 4,
    "levelUpNeedPoint": 1000
  },
  {
    "level": 5,
    "levelUpNeedPoint": 1000
  },
  {
    "level": 6,
    "levelUpNeedPoint": 1000
  },
  {
    "level": 7,
    "levelUpNeedPoint": 1000
  },
  {
    "level": 8,
    "levelUpNeedPoint": 1000
  },
  {
    "level": 9,
    "levelUpNeedPoint": 1000
  },
  {
    "level": 10,
    "levelUpNeedPoint": 1000
  },
  {
    "level": 11,
    "levelUpNeedPoint": 1000
  },
  {
    "level": 12,
    "levelUpNeedPoint": 1000
  },
  {
    "level": 13,
    "levelUpNeedPoint": 1000
  },
  {
    "level": 14,
    "levelUpNeedPoint": 1000
  },
  {
    "level": 15,
    "levelUpNeedPoint": 1000
  },
  {
    "level": 16,
    "levelUpNeedPoint": 1000
  },
  {
    "level": 17,
    "levelUpNeedPoint": 1000
  },
  {
    "level": 18,
    "levelUpNeedPoint": 1000
  },
  {
    "level": 19,
    "levelUpNeedPoint": 1000
  },
  {
    "level": 20,
    "levelUpNeedPoint": 1000
  },
  {
    "level": 21,
    "levelUpNeedPoint": 1000
  },
  {
    "level": 22,
    "levelUpNeedPoint": 1000
  },
  {
    "level": 23,
    "levelUpNeedPoint": 1000
  },
  {
    "level": 24,
    "levelUpNeedPoint": 1000
  },
  {
    "level": 25,
    "levelUpNeedPoint": 1000
  },
  {
    "level": 26,
    "levelUpNeedPoint": 1000
  },
  {
    "level": 27,
    "levelUpNeedPoint": 1000
  },
  {
    "level": 28,
    "levelUpNeedPoint": 1000
  },
  {
    "level": 29,
    "levelUpNeedPoint": 1000
  },
  {
    "level": 30,
    "levelUpNeedPoint": 1000
  },
  {
    "level": 31,
    "levelUpNeedPoint": 1000
  },
  {
    "level": 32,
    "levelUpNeedPoint": 1000
  },
  {
    "level": 33,
    "levelUpNeedPoint": 1000
  },
  {
    "level": 34,
    "levelUpNeedPoint": 1000
  },
  {
    "level": 35,
    "levelUpNeedPoint": 1000
  },
  {
    "level": 36,
    "levelUpNeedPoint": 1000
  },
  {
    "level": 37,
    "levelUpNeedPoint": 1000
  },
  {
    "level": 38,
    "levelUpNeedPoint": 1000
  },
  {
    "level": 39,
    "levelUpNeedPoint": 1000
  },
  {
    "level": 40,
    "levelUpNeedPoint": 1000
  },
  {
    "level": 41,
    "levelUpNeedPoint": 1000
  },
  {
    "level": 42,
    "levelUpNeedPoint": 1000
  },
  {
    "level": 43,
    "levelUpNeedPoint": 1000
  },
  {
    "level": 44,
    "levelUpNeedPoint": 1000
  },
  {
    "level": 45,
    "levelUpNeedPoint": 1000
  },
  {
    "level": 46,
    "levelUpNeedPoint": 1000
  },
  {
    "level": 47,
    "levelUpNeedPoint": 1000
  },
  {
    "level": 48,
    "levelUpNeedPoint": 1000
  },
  {
    "level": 49,
    "levelUpNeedPoint": 1000
  },
  {
    "level": 50,
    "levelUpNeedPoint": 1000
  }
]
