[
  {
    "addPoint": 120,
    "descTextMapHash": 2632929690,
    "guide": {
      "param": [""]
    },
    "id": 72001,
    "triggerConfig": {
      "triggerType": "TRIGGER_LOGIN",
      "paramList": ["", "", "", ""]
    },
    "progress": 1
  },
  {
    "addPoint": 150,
    "descTextMapHash": 4080744874,
    "guide": {
      "param": [""]
    },
    "id": 72002,
    "triggerConfig": {
      "triggerType": "TRIGGER_DAILY_TASK",
      "paramList": ["", "", "", ""]
    },
    "progress": 4
  },
  {
    "addPoint": 150,
    "descTextMapHash": 2587889018,
    "guide": {
      "param": [""]
    },
    "id": 72003,
    "triggerConfig": {
      "triggerType": "TRIGGER_OBTAIN_MATERIAL_NUM",
      "paramList": [
        "101001;101002;101003;101004;100058;100054;100028;101006;101008;101224",
        "",
        "",
        ""
      ]
    },
    "progress": 10
  },
  {
    "addPoint": 225,
    "descTextMapHash": 2480427610,
    "guide": {
      "param": [""]
    },
    "id": 72004,
    "triggerConfig": {
      "triggerType": "TRIGGER_COST_MATERIAL",
      "paramList": ["106", "", "", ""]
    },
    "progress": 150
  },
  {
    "refreshType": "BATTLE_PASS_MISSION_REFRESH_CYCLE_CROSS_SCHEDULE",
    "addPoint": 450,
    "descTextMapHash": 4122720930,
    "guide": {
      "param": [""]
    },
    "id": 73003,
    "triggerConfig": {
      "triggerType": "TRIGGER_MONSTER_DIE",
      "paramList": [
        "20040101;20040201;20040301;26020201;26020101;20050101;29020102;26050101;26050201;26050301;26050401;20040501;25090101;20040601;24021101;20040401;20070101;22060101;26050701;24010401;26110101;26020301;24050101;24030301;20040701;26130101;22100101;22100201;22100301;22100401",
        "\u53ef\u8054\u673a",
        "",
        ""
      ]
    },
    "progress": 10
  },
  {
    "refreshType": "BATTLE_PASS_MISSION_REFRESH_CYCLE_CROSS_SCHEDULE",
    "addPoint": 675,
    "descTextMapHash": 670302178,
    "guide": {
      "param": [""]
    },
    "id": 73006,
    "triggerConfig": {
      "triggerType": "TRIGGER_COST_MATERIAL",
      "paramList": ["106", "", "", ""]
    },
    "progress": 1200
  },
  {
    "refreshType": "BATTLE_PASS_MISSION_REFRESH_CYCLE_CROSS_SCHEDULE",
    "addPoint": 450,
    "descTextMapHash": 2766203258,
    "guide": {
      "param": [""]
    },
    "id": 73007,
    "triggerConfig": {
      "triggerType": "TRIGGER_COST_MATERIAL",
      "paramList": ["202", "", "", ""]
    },
    "progress": 500000
  },
  {
    "refreshType": "BATTLE_PASS_MISSION_REFRESH_CYCLE_CROSS_SCHEDULE",
    "addPoint": 450,
    "descTextMapHash": 3184101442,
    "guide": {
      "param": [""]
    },
    "id": 73008,
    "triggerConfig": {
      "triggerType": "TRIGGER_FINISH_DUNGEON",
      "paramList": ["", "", "", ""]
    },
    "progress": 15
  },
  {
    "refreshType": "BATTLE_PASS_MISSION_REFRESH_CYCLE_CROSS_SCHEDULE",
    "addPoint": 450,
    "descTextMapHash": 1302106722,
    "guide": {
      "param": [""]
    },
    "id": 73009,
    "triggerConfig": {
      "triggerType": "TRIGGER_FINISH_BLOSSOM_PROGRESS",
      "paramList": ["1;2;3;4;20;21;26;27", "", "", ""]
    },
    "progress": 20
  },
  {
    "refreshType": "BATTLE_PASS_MISSION_REFRESH_CYCLE_CROSS_SCHEDULE",
    "addPoint": 360,
    "descTextMapHash": 3888553682,
    "guide": {
      "param": [""]
    },
    "id": 73010,
    "triggerConfig": {
      "triggerType": "TRIGGER_DO_COOK",
      "paramList": ["1", "", "", ""]
    },
    "progress": 20
  },
  {
    "refreshType": "BATTLE_PASS_MISSION_REFRESH_CYCLE_CROSS_SCHEDULE",
    "addPoint": 360,
    "descTextMapHash": 2402352162,
    "guide": {
      "param": [""]
    },
    "id": 73011,
    "triggerConfig": {
      "triggerType": "TRIGGER_DO_FORGE",
      "paramList": ["", "", "", ""]
    },
    "progress": 20
  },
  {
    "refreshType": "BATTLE_PASS_MISSION_REFRESH_CYCLE_CROSS_SCHEDULE",
    "addPoint": 450,
    "descTextMapHash": 224642554,
    "guide": {
      "param": [""]
    },
    "id": 73012,
    "triggerConfig": {
      "triggerType": "TRIGGER_CITY_REPUTATION_FINISH_REQUEST",
      "paramList": ["", "", "", ""]
    },
    "progress": 3
  },
  {
    "refreshType": "BATTLE_PASS_MISSION_REFRESH_CYCLE_CROSS_SCHEDULE",
    "addPoint": 450,
    "descTextMapHash": 705778802,
    "guide": {
      "param": [""]
    },
    "id": 73013,
    "triggerConfig": {
      "triggerType": "TRIGGER_HUNTING_FINISH_NUM",
      "paramList": ["", "", "", ""]
    },
    "progress": 3
  },
  {
    "refreshType": "BATTLE_PASS_MISSION_REFRESH_CYCLE_CROSS_SCHEDULE",
    "addPoint": 1350,
    "descTextMapHash": 4187368258,
    "guide": {
      "param": [""]
    },
    "id": 73020,
    "triggerConfig": {
      "triggerType": "TRIGGER_WEEKLY_BOSS_KILL",
      "paramList": ["133002259:954", "", "", ""]
    },
    "progress": 3
  },
  {
    "refreshType": "BATTLE_PASS_MISSION_REFRESH_CYCLE_CROSS_SCHEDULE",
    "addPoint": 675,
    "descTextMapHash": 657977842,
    "guide": {
      "param": [""]
    },
    "id": 73017,
    "triggerConfig": {
      "triggerType": "TRIGGER_HOME_COIN",
      "paramList": ["", "", "", ""]
    },
    "progress": 1000
  },
  {
    "refreshType": "BATTLE_PASS_MISSION_REFRESH_CYCLE_CROSS_SCHEDULE",
    "addPoint": 450,
    "descTextMapHash": 2744221218,
    "guide": {
      "param": [""]
    },
    "id": 73018,
    "triggerConfig": {
      "triggerType": "TRIGGER_FURNITURE_MAKE",
      "paramList": ["", "", "", ""]
    },
    "progress": 10
  },
  {
    "refreshType": "BATTLE_PASS_MISSION_REFRESH_CYCLE_CROSS_SCHEDULE",
    "addPoint": 450,
    "descTextMapHash": 768446034,
    "guide": {
      "param": [""]
    },
    "id": 73019,
    "triggerConfig": {
      "triggerType": "TRIGGER_HOME_LIMITED_SHOP_BUY",
      "paramList": ["", "", "", ""]
    },
    "progress": 2
  },
  {
    "refreshType": "BATTLE_PASS_MISSION_REFRESH_CYCLE_CROSS_SCHEDULE",
    "addPoint": 675,
    "descTextMapHash": 2596520314,
    "guide": {
      "param": [""]
    },
    "id": 73021,
    "triggerConfig": {
      "triggerType": "TRIGGER_GCG_FINISH_WEEK_CHALLENGE",
      "paramList": ["", "", "", ""]
    },
    "progress": 2
  },
  {
    "refreshType": "BATTLE_PASS_MISSION_REFRESH_SCHEDULE",
    "addPoint": 1500,
    "scheduleId": 3400,
    "descTextMapHash": 3724776450,
    "guide": {
      "param": [""]
    },
    "id": 77001,
    "triggerConfig": {
      "triggerType": "TRIGGER_GACHA_NUM",
      "paramList": ["", "", "", ""]
    },
    "progress": 50
  },
  {
    "refreshType": "BATTLE_PASS_MISSION_REFRESH_SCHEDULE",
    "addPoint": 2250,
    "scheduleId": 3400,
    "descTextMapHash": 1583105194,
    "guide": {
      "param": [""]
    },
    "id": 77002,
    "triggerConfig": {
      "triggerType": "TRIGGER_TOWER_STARS_NUM",
      "paramList": ["", "", "", ""]
    },
    "progress": 12
  },
  {
    "refreshType": "BATTLE_PASS_MISSION_REFRESH_SCHEDULE",
    "addPoint": 1500,
    "scheduleId": 3400,
    "activityId": 2019,
    "descTextMapHash": 3221824914,
    "guide": {
      "param": [""]
    },
    "id": 77003,
    "triggerConfig": {
      "triggerType": "TRIGGER_LAN_V3_SHADOW_FINISH_LEVEL",
      "paramList": ["3", "", "", ""]
    },
    "progress": 1
  },
  {
    "refreshType": "BATTLE_PASS_MISSION_REFRESH_SCHEDULE",
    "addPoint": 1500,
    "scheduleId": 3400,
    "activityId": 2019,
    "descTextMapHash": 1152213754,
    "guide": {
      "param": [""]
    },
    "id": 77004,
    "triggerConfig": {
      "triggerType": "TRIGGER_LAN_V3_CAMP_FINISH_LEVEL",
      "paramList": ["6", "", "", ""]
    },
    "progress": 1
  },
  {
    "refreshType": "BATTLE_PASS_MISSION_REFRESH_SCHEDULE",
    "addPoint": 1500,
    "scheduleId": 3400,
    "activityId": 2019,
    "descTextMapHash": 3374119186,
    "guide": {
      "param": [""]
    },
    "id": 77005,
    "triggerConfig": {
      "triggerType": "TRIGGER_LAN_V3_RACE_REACH_SCORE",
      "paramList": ["37004", "2000", "", ""]
    },
    "progress": 1
  },
  {
    "refreshType": "BATTLE_PASS_MISSION_REFRESH_SCHEDULE",
    "addPoint": 1500,
    "scheduleId": 3400,
    "activityId": 2019,
    "descTextMapHash": 159905018,
    "guide": {
      "param": [""]
    },
    "id": 77006,
    "triggerConfig": {
      "triggerType": "TRIGGER_ACTIVITY_SCORE_EXCEED_VALUE",
      "paramList": ["2019", "", "", ""]
    },
    "progress": 3000
  },
  {
    "refreshType": "BATTLE_PASS_MISSION_REFRESH_SCHEDULE",
    "addPoint": 1500,
    "scheduleId": 3400,
    "activityId": 5117,
    "descTextMapHash": 894069434,
    "guide": {
      "param": [""]
    },
    "id": 77007,
    "triggerConfig": {
      "triggerType": "TRIGGER_DUEL_HEART_FINISH_LEVEL",
      "paramList": ["6", "1", "1", ""]
    },
    "progress": 1
  },
  {
    "refreshType": "BATTLE_PASS_MISSION_REFRESH_SCHEDULE",
    "addPoint": 1500,
    "scheduleId": 3400,
    "activityId": 5118,
    "descTextMapHash": 2719464178,
    "guide": {
      "param": [""]
    },
    "id": 77008,
    "triggerConfig": {
      "triggerType": "TRIGGER_ELECTROHERCULES_BATTLE_FINISH_LEVEL",
      "paramList": ["11", "", "", ""]
    },
    "progress": 1
  },
  {
    "refreshType": "BATTLE_PASS_MISSION_REFRESH_SCHEDULE",
    "addPoint": 1500,
    "scheduleId": 3400,
    "activityId": 5116,
    "descTextMapHash": 2802631906,
    "guide": {
      "param": [""]
    },
    "id": 77009,
    "triggerConfig": {
      "triggerType": "TRIGGER_TEAM_CHAIN_SCORE_REACH",
      "paramList": ["5", "4000", "", ""]
    },
    "progress": 1
  },
  {
    "refreshType": "BATTLE_PASS_MISSION_REFRESH_SCHEDULE",
    "addPoint": 1500,
    "scheduleId": 3500,
    "descTextMapHash": 2923379818,
    "guide": {
      "param": [""]
    },
    "id": 77101,
    "triggerConfig": {
      "triggerType": "TRIGGER_GACHA_NUM",
      "paramList": ["", "", "", ""]
    },
    "progress": 50
  },
  {
    "refreshType": "BATTLE_PASS_MISSION_REFRESH_SCHEDULE",
    "addPoint": 2250,
    "scheduleId": 3500,
    "descTextMapHash": 3008234338,
    "guide": {
      "param": [""]
    },
    "id": 77102,
    "triggerConfig": {
      "triggerType": "TRIGGER_TOWER_STARS_NUM",
      "paramList": ["", "", "", ""]
    },
    "progress": 12
  },
  {
    "refreshType": "BATTLE_PASS_MISSION_REFRESH_SCHEDULE",
    "addPoint": 1500,
    "scheduleId": 3500,
    "activityId": 2020,
    "descTextMapHash": 2761935242,
    "guide": {
      "param": [""]
    },
    "id": 77103,
    "triggerConfig": {
      "triggerType": "TRIGGER_FLEUR_FAIR_MUSIC_GAME_REACH_SCORE",
      "paramList": ["40;41;42", "2421;3357;3744", "", ""]
    },
    "progress": 1
  },
  {
    "refreshType": "BATTLE_PASS_MISSION_REFRESH_SCHEDULE",
    "addPoint": 1500,
    "scheduleId": 3500,
    "activityId": 2020,
    "descTextMapHash": 2069999338,
    "guide": {
      "param": [""]
    },
    "id": 77104,
    "triggerConfig": {
      "triggerType": "TRIGGER_FLEURFAIR_V2_PHOTO_FINISH_POS_ID",
      "paramList": ["9", "", "", ""]
    },
    "progress": 1
  },
  {
    "refreshType": "BATTLE_PASS_MISSION_REFRESH_SCHEDULE",
    "addPoint": 2250,
    "scheduleId": 3500,
    "activityId": 2020,
    "descTextMapHash": 4058517274,
    "guide": {
      "param": [""]
    },
    "id": 77105,
    "triggerConfig": {
      "triggerType": "TRIGGER_PACMAN_FINISH_LEVEL",
      "paramList": ["6", "", "", ""]
    },
    "progress": 1
  },
  {
    "refreshType": "BATTLE_PASS_MISSION_REFRESH_SCHEDULE",
    "addPoint": 1500,
    "scheduleId": 3500,
    "activityId": 5125,
    "descTextMapHash": 1723949090,
    "guide": {
      "param": [""]
    },
    "id": 77106,
    "triggerConfig": {
      "triggerType": "TRIGGER_SPICE_MAKE_FORMULA_TIMES",
      "paramList": ["7", "", "", ""]
    },
    "progress": 3
  },
  {
    "refreshType": "BATTLE_PASS_MISSION_REFRESH_SCHEDULE",
    "addPoint": 1500,
    "scheduleId": 3500,
    "activityId": 5123,
    "descTextMapHash": 3737024714,
    "guide": {
      "param": [""]
    },
    "id": 77107,
    "triggerConfig": {
      "triggerType": "TRIGGER_CRYSTAL_LINK_TOTAL_MAX_SCORE_REACH",
      "paramList": ["", "", "", ""]
    },
    "progress": 6000
  },
  {
    "refreshType": "BATTLE_PASS_MISSION_REFRESH_SCHEDULE",
    "addPoint": 1500,
    "scheduleId": 3500,
    "activityId": 5120,
    "descTextMapHash": 2347718218,
    "guide": {
      "param": [""]
    },
    "id": 77108,
    "triggerConfig": {
      "triggerType": "TRIGGER_FUNGUS_FIGHTER_V2_FINISH_LEVEL",
      "paramList": ["8", "", "", ""]
    },
    "progress": 1
  },
  {
    "refreshType": "BATTLE_PASS_MISSION_REFRESH_SCHEDULE",
    "addPoint": 1500,
    "scheduleId": 3600,
    "descTextMapHash": 2081248306,
    "guide": {
      "param": [""]
    },
    "id": 77201,
    "triggerConfig": {
      "triggerType": "TRIGGER_GACHA_NUM",
      "paramList": ["", "", "", ""]
    },
    "progress": 50
  },
  {
    "refreshType": "BATTLE_PASS_MISSION_REFRESH_SCHEDULE",
    "addPoint": 2250,
    "scheduleId": 3600,
    "descTextMapHash": 1162472642,
    "guide": {
      "param": [""]
    },
    "id": 77202,
    "triggerConfig": {
      "triggerType": "TRIGGER_TOWER_STARS_NUM",
      "paramList": ["", "", "", ""]
    },
    "progress": 12
  },
  {
    "refreshType": "BATTLE_PASS_MISSION_REFRESH_SCHEDULE",
    "addPoint": 1500,
    "scheduleId": 3600,
    "activityId": 2021,
    "descTextMapHash": 1554512010,
    "guide": {
      "param": [""]
    },
    "id": 77203,
    "triggerConfig": {
      "triggerType": "TRIGGER_FINISH_QUEST_AND",
      "paramList": ["4010027", "", "", ""]
    },
    "progress": 1
  },
  {
    "refreshType": "BATTLE_PASS_MISSION_REFRESH_SCHEDULE",
    "addPoint": 1500,
    "scheduleId": 3600,
    "activityId": 2021,
    "descTextMapHash": 1825179738,
    "guide": {
      "param": [""]
    },
    "id": 77204,
    "triggerConfig": {
      "triggerType": "TRIGGER_OBTAIN_MATERIAL_NUM",
      "paramList": ["158", "", "", ""]
    },
    "progress": 750
  },
  {
    "refreshType": "BATTLE_PASS_MISSION_REFRESH_SCHEDULE",
    "addPoint": 2250,
    "scheduleId": 3600,
    "activityId": 2021,
    "descTextMapHash": 863877586,
    "guide": {
      "param": [""]
    },
    "id": 77205,
    "triggerConfig": {
      "triggerType": "TRIGGER_OBTAIN_MATERIAL_NUM",
      "paramList": ["158", "", "", ""]
    },
    "progress": 1500
  },
  {
    "refreshType": "BATTLE_PASS_MISSION_REFRESH_SCHEDULE",
    "addPoint": 1500,
    "scheduleId": 3600,
    "activityId": 5128,
    "descTextMapHash": 1281359298,
    "guide": {
      "param": [""]
    },
    "id": 77206,
    "triggerConfig": {
      "triggerType": "TRIGGER_SANDWORM_CANNON_FINISH_GALLERY",
      "paramList": ["5", "", "", ""]
    },
    "progress": 1
  },
  {
    "refreshType": "BATTLE_PASS_MISSION_REFRESH_SCHEDULE",
    "addPoint": 1500,
    "scheduleId": 3600,
    "activityId": 5129,
    "descTextMapHash": 1304871250,
    "guide": {
      "param": [""]
    },
    "id": 77207,
    "triggerConfig": {
      "triggerType": "TRIGGER_INSTABLE_SPRAY_REACH_SCORE",
      "paramList": ["4", "2000", "", ""]
    },
    "progress": 1
  },
  {
    "refreshType": "BATTLE_PASS_MISSION_REFRESH_SCHEDULE",
    "addPoint": 2250,
    "scheduleId": 3600,
    "activityId": 5132,
    "descTextMapHash": 2908039634,
    "guide": {
      "param": [""]
    },
    "id": 77208,
    "triggerConfig": {
      "triggerType": "TRIGGER_SORUSH_TRIAL_FINISH_GALLERY",
      "paramList": ["3", "6", "", ""]
    },
    "progress": 1
  },
  {
    "refreshType": "BATTLE_PASS_MISSION_REFRESH_SCHEDULE",
    "addPoint": 1500,
    "scheduleId": 3300,
    "descTextMapHash": 891812378,
    "guide": {
      "param": [""]
    },
    "id": 76901,
    "triggerConfig": {
      "triggerType": "TRIGGER_GACHA_NUM",
      "paramList": ["", "", "", ""]
    },
    "progress": 50
  },
  {
    "refreshType": "BATTLE_PASS_MISSION_REFRESH_SCHEDULE",
    "addPoint": 2250,
    "scheduleId": 3300,
    "descTextMapHash": 468166338,
    "guide": {
      "param": [""]
    },
    "id": 76902,
    "triggerConfig": {
      "triggerType": "TRIGGER_TOWER_STARS_NUM",
      "paramList": ["", "", "", ""]
    },
    "progress": 12
  },
  {
    "refreshType": "BATTLE_PASS_MISSION_REFRESH_SCHEDULE",
    "addPoint": 1200,
    "scheduleId": 3300,
    "activityId": 2018,
    "descTextMapHash": 3928763434,
    "guide": {
      "param": [""]
    },
    "id": 76903,
    "triggerConfig": {
      "triggerType": "TRIGGER_BRICK_BREAKER_FINISH_WORLD_LEVEL",
      "paramList": ["100102", "", "", ""]
    },
    "progress": 1
  },
  {
    "refreshType": "BATTLE_PASS_MISSION_REFRESH_SCHEDULE",
    "addPoint": 1500,
    "scheduleId": 3300,
    "activityId": 2018,
    "descTextMapHash": 739167298,
    "guide": {
      "param": [""]
    },
    "id": 76904,
    "triggerConfig": {
      "triggerType": "TRIGGER_BRICK_BREAKER_FINISH_DUNGEON_LEVEL",
      "paramList": ["100301", "", "", ""]
    },
    "progress": 1
  },
  {
    "refreshType": "BATTLE_PASS_MISSION_REFRESH_SCHEDULE",
    "addPoint": 1500,
    "scheduleId": 3300,
    "activityId": 2018,
    "descTextMapHash": 3234720754,
    "guide": {
      "param": [""]
    },
    "id": 76905,
    "triggerConfig": {
      "triggerType": "TRIGGER_BRICK_BREAKER_FINISH_DUNGEON_LEVEL",
      "paramList": ["200301", "", "", ""]
    },
    "progress": 1
  },
  {
    "refreshType": "BATTLE_PASS_MISSION_REFRESH_SCHEDULE",
    "addPoint": 1500,
    "scheduleId": 3300,
    "activityId": 2018,
    "descTextMapHash": 542815042,
    "guide": {
      "param": [""]
    },
    "id": 76906,
    "triggerConfig": {
      "triggerType": "TRIGGER_BRICK_BREAKER_FINISH_DUNGEON_LEVEL",
      "paramList": ["300301", "", "", ""]
    },
    "progress": 1
  },
  {
    "refreshType": "BATTLE_PASS_MISSION_REFRESH_SCHEDULE",
    "addPoint": 1500,
    "scheduleId": 3300,
    "activityId": 5111,
    "descTextMapHash": 3525435082,
    "guide": {
      "param": [""]
    },
    "id": 76907,
    "triggerConfig": {
      "triggerType": "TRIGGER_ACTIVITY_SCORE_EXCEED_VALUE",
      "paramList": ["5111", "", "", ""]
    },
    "progress": 3000
  },
  {
    "refreshType": "BATTLE_PASS_MISSION_REFRESH_SCHEDULE",
    "addPoint": 1500,
    "scheduleId": 3300,
    "activityId": 5112,
    "descTextMapHash": 1414048978,
    "guide": {
      "param": [""]
    },
    "id": 76908,
    "triggerConfig": {
      "triggerType": "TRIGGER_COIN_COLLECT_RESULT_REACH",
      "paramList": ["5", "120000", "25", ""]
    },
    "progress": 1
  },
  {
    "refreshType": "BATTLE_PASS_MISSION_REFRESH_SCHEDULE",
    "addPoint": 1500,
    "scheduleId": 3300,
    "activityId": 5114,
    "descTextMapHash": 2278371610,
    "guide": {
      "param": [""]
    },
    "id": 76909,
    "triggerConfig": {
      "triggerType": "TRIGGER_FINISH_DUNGEON",
      "paramList": ["8307", "", "", ""]
    },
    "progress": 1
  },
  {
    "refreshType": "BATTLE_PASS_MISSION_REFRESH_SCHEDULE",
    "addPoint": 1500,
    "scheduleId": 3200,
    "descTextMapHash": 3663279578,
    "guide": {
      "param": [""]
    },
    "id": 76801,
    "triggerConfig": {
      "triggerType": "TRIGGER_GACHA_NUM",
      "paramList": ["", "", "", ""]
    },
    "progress": 50
  },
  {
    "refreshType": "BATTLE_PASS_MISSION_REFRESH_SCHEDULE",
    "addPoint": 2250,
    "scheduleId": 3200,
    "descTextMapHash": 2548866050,
    "guide": {
      "param": [""]
    },
    "id": 76802,
    "triggerConfig": {
      "triggerType": "TRIGGER_TOWER_STARS_NUM",
      "paramList": ["", "", "", ""]
    },
    "progress": 12
  },
  {
    "refreshType": "BATTLE_PASS_MISSION_REFRESH_SCHEDULE",
    "addPoint": 1200,
    "scheduleId": 3200,
    "activityId": 2017,
    "descTextMapHash": 2522480362,
    "guide": {
      "param": [""]
    },
    "id": 76803,
    "triggerConfig": {
      "triggerType": "TRIGGER_FUNGUS_FIGHTER_TRAINING_REACH_SCORE",
      "paramList": ["8106", "1000", "", ""]
    },
    "progress": 1
  },
  {
    "refreshType": "BATTLE_PASS_MISSION_REFRESH_SCHEDULE",
    "addPoint": 1500,
    "scheduleId": 3200,
    "activityId": 2017,
    "descTextMapHash": 3001392154,
    "guide": {
      "param": [""]
    },
    "id": 76804,
    "triggerConfig": {
      "triggerType": "TRIGGER_FUNGUS_FIGHTER_CAPTURE_FUNGUS",
      "paramList": ["8", "", "", ""]
    },
    "progress": 1
  },
  {
    "refreshType": "BATTLE_PASS_MISSION_REFRESH_SCHEDULE",
    "addPoint": 1500,
    "scheduleId": 3200,
    "activityId": 2017,
    "descTextMapHash": 1889151194,
    "guide": {
      "param": [""]
    },
    "id": 76805,
    "triggerConfig": {
      "triggerType": "TRIGGER_FUNGUS_FIGHTER_CULTIVATE_FUNGUS",
      "paramList": ["10", "0", "", ""]
    },
    "progress": 1
  },
  {
    "refreshType": "BATTLE_PASS_MISSION_REFRESH_SCHEDULE",
    "addPoint": 2250,
    "scheduleId": 3200,
    "activityId": 2017,
    "descTextMapHash": 554457138,
    "guide": {
      "param": [""]
    },
    "id": 76806,
    "triggerConfig": {
      "triggerType": "TRIGGER_FUNGUS_FIGHTER_TRAINING_REACH_SCORE",
      "paramList": ["8105", "1000", "", ""]
    },
    "progress": 1
  },
  {
    "refreshType": "BATTLE_PASS_MISSION_REFRESH_SCHEDULE",
    "addPoint": 1500,
    "scheduleId": 3200,
    "activityId": 5099,
    "descTextMapHash": 3181553322,
    "guide": {
      "param": [""]
    },
    "id": 76807,
    "triggerConfig": {
      "triggerType": "TRIGGER_CHAR_AMUSEMENT_FINISH_STAGE_ID",
      "paramList": ["4", "", "", ""]
    },
    "progress": 1
  },
  {
    "refreshType": "BATTLE_PASS_MISSION_REFRESH_SCHEDULE",
    "addPoint": 1500,
    "scheduleId": 3200,
    "activityId": 5107,
    "descTextMapHash": 2503185946,
    "guide": {
      "param": [""]
    },
    "id": 76808,
    "triggerConfig": {
      "triggerType": "TRIGGER_EFFIGY_CHALLENGE_V2_FINISH_ROOM",
      "paramList": ["29030", "0", "", ""]
    },
    "progress": 1
  },
  {
    "refreshType": "BATTLE_PASS_MISSION_REFRESH_SCHEDULE",
    "addPoint": 1500,
    "scheduleId": 3200,
    "activityId": 5108,
    "descTextMapHash": 1985511442,
    "guide": {
      "param": [""]
    },
    "id": 76809,
    "triggerConfig": {
      "triggerType": "TRIGGER_PHOTO_FINISH_POS_ID",
      "paramList": ["28", "", "", ""]
    },
    "progress": 1
  },
  {
    "refreshType": "BATTLE_PASS_MISSION_REFRESH_SCHEDULE",
    "addPoint": 1200,
    "scheduleId": 3200,
    "activityId": 5012,
    "descTextMapHash": 1389976738,
    "guide": {
      "param": [""]
    },
    "id": 76810,
    "triggerConfig": {
      "triggerType": "TRIGGER_DELIVER_ITEM_TO_SALESMAN",
      "paramList": ["", "", "", ""]
    },
    "progress": 5
  },
  {
    "refreshType": "BATTLE_PASS_MISSION_REFRESH_SCHEDULE",
    "addPoint": 1500,
    "scheduleId": 3100,
    "descTextMapHash": 508337994,
    "guide": {
      "param": [""]
    },
    "id": 76701,
    "triggerConfig": {
      "triggerType": "TRIGGER_GACHA_NUM",
      "paramList": ["", "", "", ""]
    },
    "progress": 50
  },
  {
    "refreshType": "BATTLE_PASS_MISSION_REFRESH_SCHEDULE",
    "addPoint": 2250,
    "scheduleId": 3100,
    "descTextMapHash": 1127423418,
    "guide": {
      "param": [""]
    },
    "id": 76702,
    "triggerConfig": {
      "triggerType": "TRIGGER_TOWER_STARS_NUM",
      "paramList": ["", "", "", ""]
    },
    "progress": 12
  },
  {
    "refreshType": "BATTLE_PASS_MISSION_REFRESH_SCHEDULE",
    "addPoint": 1500,
    "scheduleId": 3100,
    "activityId": 2016,
    "descTextMapHash": 2206072578,
    "guide": {
      "param": [""]
    },
    "id": 76703,
    "triggerConfig": {
      "triggerType": "TRIGGER_VINTAGE_MARKET_COIN_A",
      "paramList": ["1000000", "", "", ""]
    },
    "progress": 1
  },
  {
    "refreshType": "BATTLE_PASS_MISSION_REFRESH_SCHEDULE",
    "addPoint": 1500,
    "scheduleId": 3100,
    "activityId": 2016,
    "descTextMapHash": 1122252194,
    "guide": {
      "param": [""]
    },
    "id": 76704,
    "triggerConfig": {
      "triggerType": "TRIGGER_VINTAGE_COLLECT_DECORATION_NUM",
      "paramList": ["14", "", "", ""]
    },
    "progress": 1
  },
  {
    "refreshType": "BATTLE_PASS_MISSION_REFRESH_SCHEDULE",
    "addPoint": 1500,
    "scheduleId": 3100,
    "activityId": 2016,
    "descTextMapHash": 2640793778,
    "guide": {
      "param": [""]
    },
    "id": 76705,
    "triggerConfig": {
      "triggerType": "TRIGGER_VINTAGE_FINISH_CAMP",
      "paramList": ["15", "", "", ""]
    },
    "progress": 1
  },
  {
    "refreshType": "BATTLE_PASS_MISSION_REFRESH_SCHEDULE",
    "addPoint": 1500,
    "scheduleId": 3100,
    "activityId": 2016,
    "descTextMapHash": 2519518530,
    "guide": {
      "param": [""]
    },
    "id": 76706,
    "triggerConfig": {
      "triggerType": "TRIGGER_VINTAGE_HUNTING_FINISH_BOSS",
      "paramList": ["", "", "", ""]
    },
    "progress": 1
  },
  {
    "refreshType": "BATTLE_PASS_MISSION_REFRESH_SCHEDULE",
    "addPoint": 1500,
    "scheduleId": 3100,
    "activityId": 5095,
    "descTextMapHash": 2791529930,
    "guide": {
      "param": [""]
    },
    "id": 76707,
    "triggerConfig": {
      "triggerType": "TRIGGER_EXHIBITION_REPLACEABLE_VALUE_SETTLE_NUM",
      "paramList": ["11701113", "1", "", ""]
    },
    "progress": 1
  },
  {
    "refreshType": "BATTLE_PASS_MISSION_REFRESH_SCHEDULE",
    "addPoint": 1500,
    "scheduleId": 3100,
    "activityId": 5094,
    "descTextMapHash": 2452405122,
    "guide": {
      "param": [""]
    },
    "id": 76708,
    "triggerConfig": {
      "triggerType": "TRIGGER_SUMO_TOTAL_MAX_SCORE_REACH",
      "paramList": ["", "", "", ""]
    },
    "progress": 6000
  },
  {
    "refreshType": "BATTLE_PASS_MISSION_REFRESH_SCHEDULE",
    "addPoint": 1500,
    "scheduleId": 3100,
    "activityId": 5096,
    "descTextMapHash": 2895271378,
    "guide": {
      "param": [""]
    },
    "id": 76709,
    "triggerConfig": {
      "triggerType": "TRIGGER_ROCK_BOARD_EXPLORE_FINISH_STAGE_ID",
      "paramList": ["6", "", "", ""]
    },
    "progress": 1
  },
  {
    "refreshType": "BATTLE_PASS_MISSION_REFRESH_SCHEDULE",
    "addPoint": 1500,
    "scheduleId": 3000,
    "descTextMapHash": 1204286666,
    "guide": {
      "param": [""]
    },
    "id": 76601,
    "triggerConfig": {
      "triggerType": "TRIGGER_GACHA_NUM",
      "paramList": ["", "", "", ""]
    },
    "progress": 50
  },
  {
    "refreshType": "BATTLE_PASS_MISSION_REFRESH_SCHEDULE",
    "addPoint": 2250,
    "scheduleId": 3000,
    "descTextMapHash": 3748601266,
    "guide": {
      "param": [""]
    },
    "id": 76602,
    "triggerConfig": {
      "triggerType": "TRIGGER_TOWER_STARS_NUM",
      "paramList": ["", "", "", ""]
    },
    "progress": 12
  },
  {
    "refreshType": "BATTLE_PASS_MISSION_REFRESH_SCHEDULE",
    "addPoint": 1500,
    "scheduleId": 3000,
    "activityId": 2015,
    "descTextMapHash": 1569684362,
    "guide": {
      "param": [""]
    },
    "id": 76603,
    "triggerConfig": {
      "triggerType": "TRIGGER_GRAVEN_INNOCENCE_CARVE_COMPLETE_NUM",
      "paramList": ["5", "", "", ""]
    },
    "progress": 1
  },
  {
    "refreshType": "BATTLE_PASS_MISSION_REFRESH_SCHEDULE",
    "addPoint": 1500,
    "scheduleId": 3000,
    "activityId": 2015,
    "descTextMapHash": 403027002,
    "guide": {
      "param": [""]
    },
    "id": 76604,
    "triggerConfig": {
      "triggerType": "TRIGGER_OBTAIN_MATERIAL_NUM",
      "paramList": ["143", "", "", ""]
    },
    "progress": 2000
  },
  {
    "refreshType": "BATTLE_PASS_MISSION_REFRESH_SCHEDULE",
    "addPoint": 1500,
    "scheduleId": 3000,
    "activityId": 2015,
    "descTextMapHash": 2636900322,
    "guide": {
      "param": [""]
    },
    "id": 76605,
    "triggerConfig": {
      "triggerType": "TRIGGER_OBTAIN_MATERIAL_NUM",
      "paramList": ["144", "", "", ""]
    },
    "progress": 2000
  },
  {
    "refreshType": "BATTLE_PASS_MISSION_REFRESH_SCHEDULE",
    "addPoint": 1500,
    "scheduleId": 3000,
    "activityId": 5087,
    "descTextMapHash": 2712896698,
    "guide": {
      "param": [""]
    },
    "id": 76606,
    "triggerConfig": {
      "triggerType": "TRIGGER_INSTABLE_SPRAY_REACH_SCORE",
      "paramList": ["4", "2000", "", ""]
    },
    "progress": 1
  },
  {
    "refreshType": "BATTLE_PASS_MISSION_REFRESH_SCHEDULE",
    "addPoint": 1500,
    "scheduleId": 3000,
    "activityId": 5090,
    "descTextMapHash": 3907520314,
    "guide": {
      "param": [""]
    },
    "id": 76607,
    "triggerConfig": {
      "triggerType": "TRIGGER_MUQADAS_POTION_LEVEL_WEAKNESS_NUM",
      "paramList": ["6", "30", "", ""]
    },
    "progress": 1
  },
  {
    "refreshType": "BATTLE_PASS_MISSION_REFRESH_SCHEDULE",
    "addPoint": 1500,
    "scheduleId": 3000,
    "activityId": 5091,
    "descTextMapHash": 846052682,
    "guide": {
      "param": [""]
    },
    "id": 76608,
    "triggerConfig": {
      "triggerType": "TRIGGER_TREASURE_SEELIE_DONE_REGION",
      "paramList": ["5091", "5091001", "6", ""]
    },
    "progress": 1
  },
  {
    "refreshType": "BATTLE_PASS_MISSION_REFRESH_SCHEDULE",
    "addPoint": 1500,
    "scheduleId": 2800,
    "descTextMapHash": 1173848650,
    "guide": {
      "param": [""]
    },
    "id": 76501,
    "triggerConfig": {
      "triggerType": "TRIGGER_GACHA_NUM",
      "paramList": ["", "", "", ""]
    },
    "progress": 50
  },
  {
    "refreshType": "BATTLE_PASS_MISSION_REFRESH_SCHEDULE",
    "addPoint": 2250,
    "scheduleId": 2800,
    "descTextMapHash": 1165294178,
    "guide": {
      "param": [""]
    },
    "id": 76502,
    "triggerConfig": {
      "triggerType": "TRIGGER_TOWER_STARS_NUM",
      "paramList": ["", "", "", ""]
    },
    "progress": 12
  },
  {
    "refreshType": "BATTLE_PASS_MISSION_REFRESH_SCHEDULE",
    "addPoint": 1200,
    "scheduleId": 2800,
    "activityId": 2014,
    "descTextMapHash": 3683619778,
    "guide": {
      "param": [""]
    },
    "id": 76503,
    "triggerConfig": {
      "triggerType": "TRIGGER_EXHIBITION_ACCUMULABLE_VALUE",
      "paramList": ["11401101", "", "", ""]
    },
    "progress": 1
  },
  {
    "refreshType": "BATTLE_PASS_MISSION_REFRESH_SCHEDULE",
    "addPoint": 1500,
    "scheduleId": 2800,
    "activityId": 2014,
    "descTextMapHash": 2577617050,
    "guide": {
      "param": [""]
    },
    "id": 76504,
    "triggerConfig": {
      "triggerType": "TRIGGER_FINISH_CHALLENGE_LEFT_TIME",
      "paramList": ["199003025", "2018", "2018", "9860"]
    },
    "progress": 1
  },
  {
    "refreshType": "BATTLE_PASS_MISSION_REFRESH_SCHEDULE",
    "addPoint": 2250,
    "scheduleId": 2800,
    "activityId": 2014,
    "descTextMapHash": 162000482,
    "guide": {
      "param": [""]
    },
    "id": 76505,
    "triggerConfig": {
      "triggerType": "TRIGGER_OBTAIN_MATERIAL_NUM",
      "paramList": ["141", "", "", ""]
    },
    "progress": 2000
  },
  {
    "refreshType": "BATTLE_PASS_MISSION_REFRESH_SCHEDULE",
    "addPoint": 1500,
    "scheduleId": 2800,
    "activityId": 5083,
    "descTextMapHash": 2290610114,
    "guide": {
      "param": [""]
    },
    "id": 76506,
    "triggerConfig": {
      "triggerType": "TRIGGER_ISLAND_PARTY_REACH_SCORE",
      "paramList": ["6", "350", "", ""]
    },
    "progress": 1
  },
  {
    "refreshType": "BATTLE_PASS_MISSION_REFRESH_SCHEDULE",
    "addPoint": 1500,
    "scheduleId": 2800,
    "activityId": 5082,
    "descTextMapHash": 407764914,
    "guide": {
      "param": [""]
    },
    "id": 76507,
    "triggerConfig": {
      "triggerType": "TRIGGER_GEAR_FINISH_JIGSAW_PICTURE",
      "paramList": ["", "", "", ""]
    },
    "progress": 1
  },
  {
    "refreshType": "BATTLE_PASS_MISSION_REFRESH_SCHEDULE",
    "addPoint": 1500,
    "scheduleId": 2800,
    "activityId": 5085,
    "descTextMapHash": 3309106090,
    "guide": {
      "param": [""]
    },
    "id": 76509,
    "triggerConfig": {
      "triggerType": "TRIGGER_FINISH_ALL_ARENA_CHALLENGE_WATCHER_IN_SCHEDULE",
      "paramList": ["5085001", "1508526", "", ""]
    },
    "progress": 1
  },
  {
    "refreshType": "BATTLE_PASS_MISSION_REFRESH_SCHEDULE",
    "addPoint": 1500,
    "scheduleId": 2701,
    "descTextMapHash": 1002211130,
    "guide": {
      "param": [""]
    },
    "id": 73050,
    "triggerConfig": {
      "triggerType": "TRIGGER_GACHA_NUM",
      "paramList": ["", "", "", ""]
    },
    "progress": 50,
    "isDisuse": true
  },
  {
    "refreshType": "BATTLE_PASS_MISSION_REFRESH_SCHEDULE",
    "addPoint": 2250,
    "scheduleId": 2701,
    "descTextMapHash": 45072506,
    "guide": {
      "param": [""]
    },
    "id": 73051,
    "triggerConfig": {
      "triggerType": "TRIGGER_TOWER_STARS_NUM",
      "paramList": ["", "", "", ""]
    },
    "progress": 12,
    "isDisuse": true
  },
  {
    "refreshType": "BATTLE_PASS_MISSION_REFRESH_SCHEDULE",
    "addPoint": 1500,
    "scheduleId": 2700,
    "descTextMapHash": 3999354538,
    "guide": {
      "param": [""]
    },
    "id": 76401,
    "triggerConfig": {
      "triggerType": "TRIGGER_GACHA_NUM",
      "paramList": ["", "", "", ""]
    },
    "progress": 50
  },
  {
    "refreshType": "BATTLE_PASS_MISSION_REFRESH_SCHEDULE",
    "addPoint": 2250,
    "scheduleId": 2700,
    "descTextMapHash": 2670274586,
    "guide": {
      "param": [""]
    },
    "id": 76402,
    "triggerConfig": {
      "triggerType": "TRIGGER_TOWER_STARS_NUM",
      "paramList": ["", "", "", ""]
    },
    "progress": 12
  },
  {
    "refreshType": "BATTLE_PASS_MISSION_REFRESH_SCHEDULE",
    "addPoint": 1200,
    "scheduleId": 2700,
    "activityId": 2013,
    "descTextMapHash": 643367826,
    "guide": {
      "param": [""]
    },
    "id": 76403,
    "triggerConfig": {
      "triggerType": "TRIGGER_FINISH_ROGUE_DIARY_STAGE",
      "paramList": ["1", "1", "", ""]
    },
    "progress": 1
  },
  {
    "refreshType": "BATTLE_PASS_MISSION_REFRESH_SCHEDULE",
    "addPoint": 1200,
    "scheduleId": 2700,
    "activityId": 2013,
    "descTextMapHash": 3731177970,
    "guide": {
      "param": [""]
    },
    "id": 76404,
    "triggerConfig": {
      "triggerType": "TRIGGER_FINISH_ROGUE_DIARY_STAGE",
      "paramList": ["2", "1", "", ""]
    },
    "progress": 1
  },
  {
    "refreshType": "BATTLE_PASS_MISSION_REFRESH_SCHEDULE",
    "addPoint": 1200,
    "scheduleId": 2700,
    "activityId": 2013,
    "descTextMapHash": 826746338,
    "guide": {
      "param": [""]
    },
    "id": 76410,
    "triggerConfig": {
      "triggerType": "TRIGGER_FINISH_ROGUE_DIARY_STAGE",
      "paramList": ["3", "1", "", ""]
    },
    "progress": 1
  },
  {
    "refreshType": "BATTLE_PASS_MISSION_REFRESH_SCHEDULE",
    "addPoint": 1500,
    "scheduleId": 2700,
    "activityId": 2013,
    "descTextMapHash": 1841698946,
    "guide": {
      "param": [""]
    },
    "id": 76411,
    "triggerConfig": {
      "triggerType": "TRIGGER_FINISH_ROGUE_DIARY_STAGE",
      "paramList": ["4", "1", "", ""]
    },
    "progress": 1
  },
  {
    "refreshType": "BATTLE_PASS_MISSION_REFRESH_SCHEDULE",
    "addPoint": 1500,
    "scheduleId": 2700,
    "activityId": 5072,
    "descTextMapHash": 3803103058,
    "guide": {
      "param": [""]
    },
    "id": 76412,
    "triggerConfig": {
      "triggerType": "TRIGGER_FLEUR_FAIR_MUSIC_GAME_REACH_SCORE",
      "paramList": ["20;21", "2100;2949", "", ""]
    },
    "progress": 1
  },
  {
    "refreshType": "BATTLE_PASS_MISSION_REFRESH_SCHEDULE",
    "addPoint": 1500,
    "scheduleId": 2700,
    "activityId": 5080,
    "descTextMapHash": 890559658,
    "guide": {
      "param": [""]
    },
    "id": 76413,
    "triggerConfig": {
      "triggerType": "TRIGGER_GACHA_MAKE_ROBOT_NUM",
      "paramList": ["", "", "", ""]
    },
    "progress": 3
  },
  {
    "refreshType": "BATTLE_PASS_MISSION_REFRESH_SCHEDULE",
    "addPoint": 1500,
    "scheduleId": 2700,
    "activityId": 5079,
    "descTextMapHash": 58228394,
    "guide": {
      "param": [""]
    },
    "id": 76414,
    "triggerConfig": {
      "triggerType": "TRIGGER_LUMINANCE_STONE_CHALLENGE_SCORE_REACH",
      "paramList": ["2000", "", "", ""]
    },
    "progress": 1
  },
  {
    "refreshType": "BATTLE_PASS_MISSION_REFRESH_SCHEDULE",
    "addPoint": 1200,
    "scheduleId": 2700,
    "activityId": 5012,
    "descTextMapHash": 1141684714,
    "guide": {
      "param": [""]
    },
    "id": 76415,
    "triggerConfig": {
      "triggerType": "TRIGGER_DELIVER_ITEM_TO_SALESMAN",
      "paramList": ["", "", "", ""]
    },
    "progress": 5
  },
  {
    "refreshType": "BATTLE_PASS_MISSION_REFRESH_SCHEDULE",
    "addPoint": 1500,
    "scheduleId": 2600,
    "descTextMapHash": 2866048850,
    "guide": {
      "param": [""]
    },
    "id": 76301,
    "triggerConfig": {
      "triggerType": "TRIGGER_GACHA_NUM",
      "paramList": ["", "", "", ""]
    },
    "progress": 50
  },
  {
    "refreshType": "BATTLE_PASS_MISSION_REFRESH_SCHEDULE",
    "addPoint": 2250,
    "scheduleId": 2600,
    "descTextMapHash": 2458131202,
    "guide": {
      "param": [""]
    },
    "id": 76302,
    "triggerConfig": {
      "triggerType": "TRIGGER_TOWER_STARS_NUM",
      "paramList": ["", "", "", ""]
    },
    "progress": 12
  },
  {
    "refreshType": "BATTLE_PASS_MISSION_REFRESH_SCHEDULE",
    "addPoint": 1500,
    "scheduleId": 2600,
    "activityId": 2012,
    "descTextMapHash": 717976338,
    "guide": {
      "param": [""]
    },
    "id": 76303,
    "triggerConfig": {
      "triggerType": "TRIGGER_IRODORI_CHESS_STAGE_REACH_SCORE",
      "paramList": ["4", "0", "1500", ""]
    },
    "progress": 1
  },
  {
    "refreshType": "BATTLE_PASS_MISSION_REFRESH_SCHEDULE",
    "addPoint": 1500,
    "scheduleId": 2600,
    "activityId": 2012,
    "descTextMapHash": 105999490,
    "guide": {
      "param": [""]
    },
    "id": 76304,
    "triggerConfig": {
      "triggerType": "TRIGGER_IRODORI_FINISH_MASTER_STAGE",
      "paramList": ["4", "1", "1", ""]
    },
    "progress": 1
  },
  {
    "refreshType": "BATTLE_PASS_MISSION_REFRESH_SCHEDULE",
    "addPoint": 1500,
    "scheduleId": 2600,
    "activityId": 2012,
    "descTextMapHash": 3286780578,
    "guide": {
      "param": [""]
    },
    "id": 76305,
    "triggerConfig": {
      "triggerType": "TRIGGER_IRODORI_FINISH_FLOWER_THEME",
      "paramList": ["4", "", "", ""]
    },
    "progress": 1
  },
  {
    "refreshType": "BATTLE_PASS_MISSION_REFRESH_SCHEDULE",
    "addPoint": 1200,
    "scheduleId": 2600,
    "activityId": 2012,
    "descTextMapHash": 417942570,
    "guide": {
      "param": [""]
    },
    "id": 76306,
    "triggerConfig": {
      "triggerType": "TRIGGER_IRODORI_FINISH_POETRY_THEME",
      "paramList": ["3", "", "", ""]
    },
    "progress": 1
  },
  {
    "refreshType": "BATTLE_PASS_MISSION_REFRESH_SCHEDULE",
    "addPoint": 2250,
    "scheduleId": 2600,
    "activityId": 5067,
    "descTextMapHash": 1910480674,
    "guide": {
      "param": [""]
    },
    "id": 76307,
    "triggerConfig": {
      "triggerType": "TRIGGER_CRYSTAL_LINK_TOTAL_MAX_SCORE_REACH",
      "paramList": ["", "", "", ""]
    },
    "progress": 6000
  },
  {
    "refreshType": "BATTLE_PASS_MISSION_REFRESH_SCHEDULE",
    "addPoint": 1500,
    "scheduleId": 2600,
    "activityId": 5066,
    "descTextMapHash": 1132238362,
    "guide": {
      "param": [""]
    },
    "id": 76308,
    "triggerConfig": {
      "triggerType": "TRIGGER_SPICE_MAKE_FORMULA_TIMES",
      "paramList": ["7", "", "", ""]
    },
    "progress": 3
  },
  {
    "refreshType": "BATTLE_PASS_MISSION_REFRESH_SCHEDULE",
    "addPoint": 1500,
    "scheduleId": 2600,
    "activityId": 5068,
    "descTextMapHash": 2501199290,
    "guide": {
      "param": [""]
    },
    "id": 76309,
    "triggerConfig": {
      "triggerType": "TRIGGER_PHOTO_FINISH_POS_ID",
      "paramList": ["14", "", "", ""]
    },
    "progress": 1
  },
  {
    "refreshType": "BATTLE_PASS_MISSION_REFRESH_SCHEDULE",
    "addPoint": 1500,
    "scheduleId": 2500,
    "descTextMapHash": 1834881362,
    "guide": {
      "param": [""]
    },
    "id": 76201,
    "triggerConfig": {
      "triggerType": "TRIGGER_GACHA_NUM",
      "paramList": ["", "", "", ""]
    },
    "progress": 50
  },
  {
    "refreshType": "BATTLE_PASS_MISSION_REFRESH_SCHEDULE",
    "addPoint": 2250,
    "scheduleId": 2500,
    "descTextMapHash": 1688165386,
    "guide": {
      "param": [""]
    },
    "id": 76202,
    "triggerConfig": {
      "triggerType": "TRIGGER_TOWER_STARS_NUM",
      "paramList": ["", "", "", ""]
    },
    "progress": 12
  },
  {
    "refreshType": "BATTLE_PASS_MISSION_REFRESH_SCHEDULE",
    "addPoint": 1500,
    "scheduleId": 2500,
    "activityId": 2011,
    "descTextMapHash": 1784336770,
    "guide": {
      "param": [""]
    },
    "id": 76203,
    "triggerConfig": {
      "triggerType": "TRIGGER_EXHIBITION_ACCUMULABLE_VALUE",
      "paramList": ["11101105", "", "", ""]
    },
    "progress": 1
  },
  {
    "refreshType": "BATTLE_PASS_MISSION_REFRESH_SCHEDULE",
    "addPoint": 1500,
    "scheduleId": 2500,
    "activityId": 2011,
    "descTextMapHash": 2172487002,
    "guide": {
      "param": [""]
    },
    "id": 76204,
    "triggerConfig": {
      "triggerType": "TRIGGER_EXHIBITION_ACCUMULABLE_VALUE",
      "paramList": ["11101101", "", "", ""]
    },
    "progress": 3
  },
  {
    "refreshType": "BATTLE_PASS_MISSION_REFRESH_SCHEDULE",
    "addPoint": 1500,
    "scheduleId": 2500,
    "activityId": 2011,
    "descTextMapHash": 1215544618,
    "guide": {
      "param": [""]
    },
    "id": 76205,
    "triggerConfig": {
      "triggerType": "TRIGGER_OFFERING_LEVEL",
      "paramList": ["4", "12", "", ""]
    },
    "progress": 1
  },
  {
    "refreshType": "BATTLE_PASS_MISSION_REFRESH_SCHEDULE",
    "addPoint": 2250,
    "scheduleId": 2500,
    "activityId": 5076,
    "descTextMapHash": 796645226,
    "guide": {
      "param": [""]
    },
    "id": 76206,
    "triggerConfig": {
      "triggerType": "TRIGGER_SUMO_TOTAL_MAX_SCORE_REACH",
      "paramList": ["", "", "", ""]
    },
    "progress": 6000
  },
  {
    "refreshType": "BATTLE_PASS_MISSION_REFRESH_SCHEDULE",
    "addPoint": 1500,
    "scheduleId": 2500,
    "activityId": 5062,
    "descTextMapHash": 270932866,
    "guide": {
      "param": [""]
    },
    "id": 76207,
    "triggerConfig": {
      "triggerType": "TRIGGER_BARTENDER_CHALLENGE_MODULE_LEVEL_SCORE",
      "paramList": ["4", "400", "", ""]
    },
    "progress": 1
  },
  {
    "refreshType": "BATTLE_PASS_MISSION_REFRESH_SCHEDULE",
    "addPoint": 1500,
    "scheduleId": 2500,
    "activityId": 5065,
    "descTextMapHash": 2293844042,
    "guide": {
      "param": [""]
    },
    "id": 76208,
    "triggerConfig": {
      "triggerType": "TRIGGER_FINISH_CUSTOM_DUNGEON_OFFICIAL",
      "paramList": ["2123", "", "", ""]
    },
    "progress": 1
  },
  {
    "refreshType": "BATTLE_PASS_MISSION_REFRESH_SCHEDULE",
    "addPoint": 1500,
    "scheduleId": 2400,
    "descTextMapHash": 2479048826,
    "guide": {
      "param": [""]
    },
    "id": 76101,
    "triggerConfig": {
      "triggerType": "TRIGGER_GACHA_NUM",
      "paramList": ["", "", "", ""]
    },
    "progress": 50
  },
  {
    "refreshType": "BATTLE_PASS_MISSION_REFRESH_SCHEDULE",
    "addPoint": 2250,
    "scheduleId": 2400,
    "descTextMapHash": 4132282562,
    "guide": {
      "param": [""]
    },
    "id": 76102,
    "triggerConfig": {
      "triggerType": "TRIGGER_TOWER_STARS_NUM",
      "paramList": ["", "", "", ""]
    },
    "progress": 12
  },
  {
    "refreshType": "BATTLE_PASS_MISSION_REFRESH_SCHEDULE",
    "addPoint": 1500,
    "scheduleId": 2400,
    "activityId": 2010,
    "descTextMapHash": 3861927650,
    "guide": {
      "param": [""]
    },
    "id": 76103,
    "triggerConfig": {
      "triggerType": "TRIGGER_OBTAIN_MATERIAL_NUM",
      "paramList": ["137", "", "", ""]
    },
    "progress": 2500
  },
  {
    "refreshType": "BATTLE_PASS_MISSION_REFRESH_SCHEDULE",
    "addPoint": 1500,
    "scheduleId": 2400,
    "activityId": 2010,
    "descTextMapHash": 158064050,
    "guide": {
      "param": [""]
    },
    "id": 76104,
    "triggerConfig": {
      "triggerType": "TRIGGER_OBTAIN_MATERIAL_NUM",
      "paramList": ["138", "", "", ""]
    },
    "progress": 2000
  },
  {
    "refreshType": "BATTLE_PASS_MISSION_REFRESH_SCHEDULE",
    "addPoint": 1500,
    "scheduleId": 2400,
    "activityId": 2010,
    "descTextMapHash": 3724337018,
    "guide": {
      "param": [""]
    },
    "id": 76105,
    "triggerConfig": {
      "triggerType": "TRIGGER_OBTAIN_MATERIAL_NUM",
      "paramList": ["139", "", "", ""]
    },
    "progress": 1500
  },
  {
    "refreshType": "BATTLE_PASS_MISSION_REFRESH_SCHEDULE",
    "addPoint": 2250,
    "scheduleId": 2400,
    "activityId": 5058,
    "descTextMapHash": 1200239210,
    "guide": {
      "param": [""]
    },
    "id": 76106,
    "triggerConfig": {
      "triggerType": "TRIGGER_POTION_STAGE_LEVEL_PASS_NUM",
      "paramList": ["3", "", "", ""]
    },
    "progress": 4
  },
  {
    "refreshType": "BATTLE_PASS_MISSION_REFRESH_SCHEDULE",
    "addPoint": 1500,
    "scheduleId": 2400,
    "activityId": 5023,
    "descTextMapHash": 141970834,
    "guide": {
      "param": [""]
    },
    "id": 76107,
    "triggerConfig": {
      "triggerType": "TRIGGER_ACTIVITY_SCORE_EXCEED_VALUE",
      "paramList": ["5023", "", "", ""]
    },
    "progress": 3000
  },
  {
    "refreshType": "BATTLE_PASS_MISSION_REFRESH_SCHEDULE",
    "addPoint": 1500,
    "scheduleId": 2400,
    "activityId": 5055,
    "descTextMapHash": 2175033810,
    "guide": {
      "param": [""]
    },
    "id": 76108,
    "triggerConfig": {
      "triggerType": "TRIGGER_FINISH_QUEST_AND",
      "paramList": ["7267811", "", "", ""]
    },
    "progress": 1
  },
  {
    "refreshType": "BATTLE_PASS_MISSION_REFRESH_SCHEDULE",
    "addPoint": 1500,
    "scheduleId": 2300,
    "descTextMapHash": 3891941986,
    "guide": {
      "param": [""]
    },
    "id": 76001,
    "triggerConfig": {
      "triggerType": "TRIGGER_GACHA_NUM",
      "paramList": ["", "", "", ""]
    },
    "progress": 50
  },
  {
    "refreshType": "BATTLE_PASS_MISSION_REFRESH_SCHEDULE",
    "addPoint": 2250,
    "scheduleId": 2300,
    "descTextMapHash": 593731474,
    "guide": {
      "param": [""]
    },
    "id": 76002,
    "triggerConfig": {
      "triggerType": "TRIGGER_TOWER_STARS_NUM",
      "paramList": ["", "", "", ""]
    },
    "progress": 12
  },
  {
    "refreshType": "BATTLE_PASS_MISSION_REFRESH_SCHEDULE",
    "addPoint": 1200,
    "scheduleId": 2300,
    "activityId": 2009,
    "descTextMapHash": 531291074,
    "guide": {
      "param": [""]
    },
    "id": 76003,
    "triggerConfig": {
      "triggerType": "TRIGGER_OBTAIN_MATERIAL_NUM",
      "paramList": ["135", "", "", ""]
    },
    "progress": 2000
  },
  {
    "refreshType": "BATTLE_PASS_MISSION_REFRESH_SCHEDULE",
    "addPoint": 1500,
    "scheduleId": 2300,
    "activityId": 2009,
    "descTextMapHash": 1288932882,
    "guide": {
      "param": [""]
    },
    "id": 76004,
    "triggerConfig": {
      "triggerType": "TRIGGER_OBTAIN_MATERIAL_NUM",
      "paramList": ["136", "", "", ""]
    },
    "progress": 2000
  },
  {
    "refreshType": "BATTLE_PASS_MISSION_REFRESH_SCHEDULE",
    "addPoint": 1500,
    "scheduleId": 2300,
    "activityId": 2009,
    "descTextMapHash": 1410417666,
    "guide": {
      "param": [""]
    },
    "id": 76005,
    "triggerConfig": {
      "triggerType": "TRIGGER_WINTER_CAMP_SNOWMAN_COMPLEIET",
      "paramList": ["6", "", "", ""]
    },
    "progress": 1
  },
  {
    "refreshType": "BATTLE_PASS_MISSION_REFRESH_SCHEDULE",
    "addPoint": 2250,
    "scheduleId": 2300,
    "activityId": 5054,
    "descTextMapHash": 2811685442,
    "guide": {
      "param": [""]
    },
    "id": 76006,
    "triggerConfig": {
      "triggerType": "TRIGGER_FINISH_DUNGEON",
      "paramList": ["7109", "", "", ""]
    },
    "progress": 1
  },
  {
    "refreshType": "BATTLE_PASS_MISSION_REFRESH_SCHEDULE",
    "addPoint": 1500,
    "scheduleId": 2300,
    "activityId": 5053,
    "descTextMapHash": 346526314,
    "guide": {
      "param": [""]
    },
    "id": 76007,
    "triggerConfig": {
      "triggerType": "TRIGGER_ACTIVITY_CHANNELLER_SLAB_LOOP_DUNGEON_TOTAL_SCORE",
      "paramList": ["5053", "5053001", "", ""]
    },
    "progress": 8000
  },
  {
    "refreshType": "BATTLE_PASS_MISSION_REFRESH_SCHEDULE",
    "addPoint": 2250,
    "scheduleId": 2300,
    "activityId": 5051,
    "descTextMapHash": 3711970626,
    "guide": {
      "param": [""]
    },
    "id": 76008,
    "triggerConfig": {
      "triggerType": "TRIGGER_FINISH_DUNGEON",
      "paramList": ["7310", "", "", ""]
    },
    "progress": 1
  },
  {
    "refreshType": "BATTLE_PASS_MISSION_REFRESH_SCHEDULE",
    "addPoint": 1200,
    "scheduleId": 2300,
    "activityId": 5012,
    "descTextMapHash": 2556915946,
    "guide": {
      "param": [""]
    },
    "id": 76009,
    "triggerConfig": {
      "triggerType": "TRIGGER_DELIVER_ITEM_TO_SALESMAN",
      "paramList": ["", "", "", ""]
    },
    "progress": 5
  },
  {
    "refreshType": "BATTLE_PASS_MISSION_REFRESH_SCHEDULE",
    "addPoint": 1500,
    "scheduleId": 2200,
    "descTextMapHash": 1568612362,
    "guide": {
      "param": [""]
    },
    "id": 75901,
    "triggerConfig": {
      "triggerType": "TRIGGER_GACHA_NUM",
      "paramList": ["", "", "", ""]
    },
    "progress": 50
  },
  {
    "refreshType": "BATTLE_PASS_MISSION_REFRESH_SCHEDULE",
    "addPoint": 2250,
    "scheduleId": 2200,
    "descTextMapHash": 2930429402,
    "guide": {
      "param": [""]
    },
    "id": 75902,
    "triggerConfig": {
      "triggerType": "TRIGGER_TOWER_STARS_NUM",
      "paramList": ["", "", "", ""]
    },
    "progress": 12
  },
  {
    "refreshType": "BATTLE_PASS_MISSION_REFRESH_SCHEDULE",
    "addPoint": 1500,
    "scheduleId": 2200,
    "activityId": 2008,
    "descTextMapHash": 2970426634,
    "guide": {
      "param": [""]
    },
    "id": 75903,
    "triggerConfig": {
      "triggerType": "TRIGGER_ROGUE_SHIKIGAMI_UPGRADE",
      "paramList": ["1", "", "", ""]
    },
    "progress": 10
  },
  {
    "refreshType": "BATTLE_PASS_MISSION_REFRESH_SCHEDULE",
    "addPoint": 1500,
    "scheduleId": 2200,
    "activityId": 2008,
    "descTextMapHash": 1394357058,
    "guide": {
      "param": [""]
    },
    "id": 75904,
    "triggerConfig": {
      "triggerType": "TRIGGER_ROGUE_FINISH_WITHOUT_USING_SPRING_CELL",
      "paramList": ["1", "", "", ""]
    },
    "progress": 1
  },
  {
    "refreshType": "BATTLE_PASS_MISSION_REFRESH_SCHEDULE",
    "addPoint": 1500,
    "scheduleId": 2200,
    "activityId": 2008,
    "descTextMapHash": 3379734474,
    "guide": {
      "param": [""]
    },
    "id": 75905,
    "triggerConfig": {
      "triggerType": "TRIGGER_ROGUE_FINISH_WITH_AVATAR_NUM_LESS_THAN",
      "paramList": ["6", "3", "", ""]
    },
    "progress": 1
  },
  {
    "refreshType": "BATTLE_PASS_MISSION_REFRESH_SCHEDULE",
    "addPoint": 2250,
    "scheduleId": 2200,
    "activityId": 5050,
    "descTextMapHash": 3134281290,
    "guide": {
      "param": [""]
    },
    "id": 75906,
    "triggerConfig": {
      "triggerType": "TRIGGER_FLEUR_FAIR_MUSIC_GAME_REACH_SCORE",
      "paramList": ["18", "3200", "", ""]
    },
    "progress": 1
  },
  {
    "refreshType": "BATTLE_PASS_MISSION_REFRESH_SCHEDULE",
    "addPoint": 1500,
    "scheduleId": 2200,
    "activityId": 5047,
    "descTextMapHash": 3313612138,
    "guide": {
      "param": [""]
    },
    "id": 75907,
    "triggerConfig": {
      "triggerType": "TRIGGER_HOME_GATHER_COUNT",
      "paramList": ["7022,7023,7024,7025,7026,7027,7028,7029,7030", "", "", ""]
    },
    "progress": 30
  },
  {
    "refreshType": "BATTLE_PASS_MISSION_REFRESH_SCHEDULE",
    "addPoint": 1500,
    "scheduleId": 2200,
    "activityId": 5049,
    "descTextMapHash": 2124241122,
    "guide": {
      "param": [""]
    },
    "id": 75908,
    "triggerConfig": {
      "triggerType": "TRIGGER_EXHIBITION_ACCUMULABLE_VALUE",
      "paramList": ["10601001", "", "", ""]
    },
    "progress": 1
  },
  {
    "refreshType": "BATTLE_PASS_MISSION_REFRESH_SCHEDULE",
    "addPoint": 1500,
    "scheduleId": 2100,
    "descTextMapHash": 2061987890,
    "guide": {
      "param": [""]
    },
    "id": 75801,
    "triggerConfig": {
      "triggerType": "TRIGGER_GACHA_NUM",
      "paramList": ["", "", "", ""]
    },
    "progress": 50
  },
  {
    "refreshType": "BATTLE_PASS_MISSION_REFRESH_SCHEDULE",
    "addPoint": 2250,
    "scheduleId": 2100,
    "descTextMapHash": 4268835674,
    "guide": {
      "param": [""]
    },
    "id": 75802,
    "triggerConfig": {
      "triggerType": "TRIGGER_TOWER_STARS_NUM",
      "paramList": ["", "", "", ""]
    },
    "progress": 12
  },
  {
    "refreshType": "BATTLE_PASS_MISSION_REFRESH_SCHEDULE",
    "addPoint": 1500,
    "scheduleId": 2100,
    "activityId": 5044,
    "descTextMapHash": 2028942450,
    "guide": {
      "param": [""]
    },
    "id": 75803,
    "triggerConfig": {
      "triggerType": "TRIGGER_ACTIVITY_EXPEDITION_FINISH",
      "paramList": ["", "", "", ""]
    },
    "progress": 16
  },
  {
    "refreshType": "BATTLE_PASS_MISSION_REFRESH_SCHEDULE",
    "addPoint": 2250,
    "scheduleId": 2100,
    "activityId": 5040,
    "descTextMapHash": 1171279282,
    "guide": {
      "param": [""]
    },
    "id": 75804,
    "triggerConfig": {
      "triggerType": "TRIGGER_SUMO_TOTAL_MAX_SCORE_REACH",
      "paramList": ["", "", "", ""]
    },
    "progress": 6000
  },
  {
    "refreshType": "BATTLE_PASS_MISSION_REFRESH_SCHEDULE",
    "addPoint": 1500,
    "scheduleId": 2100,
    "activityId": 5041,
    "descTextMapHash": 2765963522,
    "guide": {
      "param": [""]
    },
    "id": 75805,
    "triggerConfig": {
      "triggerType": "TRIGGER_OBTAIN_ITEM_NUM",
      "paramList": ["379019", "", "", ""]
    },
    "progress": 5
  },
  {
    "refreshType": "BATTLE_PASS_MISSION_REFRESH_SCHEDULE",
    "addPoint": 1500,
    "scheduleId": 2100,
    "activityId": 2007,
    "descTextMapHash": 3153486906,
    "guide": {
      "param": [""]
    },
    "id": 75806,
    "triggerConfig": {
      "triggerType": "TRIGGER_LUNA_RITE_SEARCH",
      "paramList": ["1", "", "", ""]
    },
    "progress": 100
  },
  {
    "refreshType": "BATTLE_PASS_MISSION_REFRESH_SCHEDULE",
    "addPoint": 1500,
    "scheduleId": 2100,
    "activityId": 2007,
    "descTextMapHash": 2988318282,
    "guide": {
      "param": [""]
    },
    "id": 75807,
    "triggerConfig": {
      "triggerType": "TRIGGER_LUNA_RITE_SEARCH",
      "paramList": ["2", "", "", ""]
    },
    "progress": 100
  },
  {
    "refreshType": "BATTLE_PASS_MISSION_REFRESH_SCHEDULE",
    "addPoint": 1500,
    "scheduleId": 2100,
    "activityId": 2007,
    "descTextMapHash": 1639898394,
    "guide": {
      "param": [""]
    },
    "id": 75808,
    "triggerConfig": {
      "triggerType": "TRIGGER_LUNA_RITE_SEARCH",
      "paramList": ["3", "", "", ""]
    },
    "progress": 100
  },
  {
    "refreshType": "BATTLE_PASS_MISSION_REFRESH_SCHEDULE",
    "addPoint": 1500,
    "scheduleId": 2000,
    "descTextMapHash": 2837497458,
    "guide": {
      "param": [""]
    },
    "id": 75701,
    "triggerConfig": {
      "triggerType": "TRIGGER_GACHA_NUM",
      "paramList": ["", "", "", ""]
    },
    "progress": 50
  },
  {
    "refreshType": "BATTLE_PASS_MISSION_REFRESH_SCHEDULE",
    "addPoint": 2250,
    "scheduleId": 2000,
    "descTextMapHash": 1888429106,
    "guide": {
      "param": [""]
    },
    "id": 75702,
    "triggerConfig": {
      "triggerType": "TRIGGER_TOWER_STARS_NUM",
      "paramList": ["", "", "", ""]
    },
    "progress": 12
  },
  {
    "refreshType": "BATTLE_PASS_MISSION_REFRESH_SCHEDULE",
    "addPoint": 1200,
    "scheduleId": 2000,
    "activityId": 5037,
    "descTextMapHash": 3748175050,
    "guide": {
      "param": [""]
    },
    "id": 75703,
    "triggerConfig": {
      "triggerType": "TRIGGER_CHESS_REACH_LEVEL",
      "paramList": ["6", "", "", ""]
    },
    "progress": 1
  },
  {
    "refreshType": "BATTLE_PASS_MISSION_REFRESH_SCHEDULE",
    "addPoint": 2250,
    "scheduleId": 2000,
    "activityId": 5037,
    "descTextMapHash": 3135952010,
    "guide": {
      "param": [""]
    },
    "id": 75704,
    "triggerConfig": {
      "triggerType": "TRIGGER_CHESS_DUNGEON_SUCC_WITH_TOWER_COUNT_LESS_OR_EQUAL",
      "paramList": ["5", "12", "", ""]
    },
    "progress": 1
  },
  {
    "refreshType": "BATTLE_PASS_MISSION_REFRESH_SCHEDULE",
    "addPoint": 1500,
    "scheduleId": 2000,
    "activityId": 2006,
    "descTextMapHash": 459703754,
    "guide": {
      "param": [""]
    },
    "id": 75705,
    "triggerConfig": {
      "triggerType": "TRIGGER_FINISH_CHALLENGE_LEFT_TIME",
      "paramList": ["133220053", "111167", "101", "110"]
    },
    "progress": 1
  },
  {
    "refreshType": "BATTLE_PASS_MISSION_REFRESH_SCHEDULE",
    "addPoint": 1200,
    "scheduleId": 2000,
    "activityId": 2006,
    "descTextMapHash": 2249606082,
    "guide": {
      "param": [""]
    },
    "id": 75706,
    "triggerConfig": {
      "triggerType": "TRIGGER_OBTAIN_MATERIAL_NUM",
      "paramList": ["127", "", "", ""]
    },
    "progress": 1680
  },
  {
    "refreshType": "BATTLE_PASS_MISSION_REFRESH_SCHEDULE",
    "addPoint": 1500,
    "scheduleId": 2000,
    "activityId": 2006,
    "descTextMapHash": 1920396610,
    "guide": {
      "param": [""]
    },
    "id": 75707,
    "triggerConfig": {
      "triggerType": "TRIGGER_OBTAIN_MATERIAL_NUM",
      "paramList": ["128", "", "", ""]
    },
    "progress": 2220
  },
  {
    "refreshType": "BATTLE_PASS_MISSION_REFRESH_SCHEDULE",
    "addPoint": 2250,
    "scheduleId": 2000,
    "activityId": 5034,
    "descTextMapHash": 1982790058,
    "guide": {
      "param": [""]
    },
    "id": 75708,
    "triggerConfig": {
      "triggerType": "TRIGGER_FINISH_ALL_ARENA_CHALLENGE_WATCHER_IN_SCHEDULE",
      "paramList": [
        "5034001",
        "1503402,1503406,1503410,1503414,1503418,1503422,1503426",
        "",
        ""
      ]
    },
    "progress": 1
  },
  {
    "refreshType": "BATTLE_PASS_MISSION_REFRESH_SCHEDULE",
    "addPoint": 1200,
    "scheduleId": 2000,
    "activityId": 5035,
    "descTextMapHash": 1034542306,
    "guide": {
      "param": [""]
    },
    "id": 75709,
    "triggerConfig": {
      "triggerType": "TRIGGER_TREASURE_MAP_DONE_REGION",
      "paramList": ["5035", "5035001", "14", ""]
    },
    "progress": 1
  },
  {
    "refreshType": "BATTLE_PASS_MISSION_REFRESH_SCHEDULE",
    "addPoint": 1500,
    "scheduleId": 1600,
    "descTextMapHash": 336371906,
    "guide": {
      "param": [""]
    },
    "id": 75601,
    "triggerConfig": {
      "triggerType": "TRIGGER_GACHA_NUM",
      "paramList": ["", "", "", ""]
    },
    "progress": 50
  },
  {
    "refreshType": "BATTLE_PASS_MISSION_REFRESH_SCHEDULE",
    "addPoint": 2250,
    "scheduleId": 1600,
    "descTextMapHash": 939738698,
    "guide": {
      "param": [""]
    },
    "id": 75602,
    "triggerConfig": {
      "triggerType": "TRIGGER_TOWER_STARS_NUM",
      "paramList": ["", "", "", ""]
    },
    "progress": 12
  },
  {
    "refreshType": "BATTLE_PASS_MISSION_REFRESH_SCHEDULE",
    "addPoint": 1500,
    "scheduleId": 1600,
    "activityId": 5030,
    "descTextMapHash": 836543346,
    "guide": {
      "param": [""]
    },
    "id": 75603,
    "triggerConfig": {
      "triggerType": "TRIGGER_BUOYANT_COMBAT_REACH_NEW_SCORE_LEVEL",
      "paramList": ["1", "", "", ""]
    },
    "progress": 5
  },
  {
    "refreshType": "BATTLE_PASS_MISSION_REFRESH_SCHEDULE",
    "addPoint": 2250,
    "scheduleId": 1600,
    "activityId": 5031,
    "descTextMapHash": 1612715114,
    "guide": {
      "param": [""]
    },
    "id": 75604,
    "triggerConfig": {
      "triggerType": "TRIGGER_EFFIGY_CHALLENGE_SCORE",
      "paramList": ["", "", "", ""]
    },
    "progress": 15000
  },
  {
    "refreshType": "BATTLE_PASS_MISSION_REFRESH_SCHEDULE",
    "addPoint": 2250,
    "scheduleId": 1600,
    "activityId": 5032,
    "descTextMapHash": 2402602250,
    "guide": {
      "param": [""]
    },
    "id": 75605,
    "triggerConfig": {
      "triggerType": "TRIGGER_BOUNCE_CONJURING_SCORE",
      "paramList": ["7014", "1800", "", ""]
    },
    "progress": 1
  },
  {
    "refreshType": "BATTLE_PASS_MISSION_REFRESH_SCHEDULE",
    "addPoint": 1500,
    "scheduleId": 1600,
    "activityId": 2005,
    "descTextMapHash": 2381215066,
    "guide": {
      "param": [""]
    },
    "id": 75606,
    "triggerConfig": {
      "triggerType": "TRIGGER_OBTAIN_MATERIAL_NUM",
      "paramList": ["124", "", "", ""]
    },
    "progress": 1000
  },
  {
    "refreshType": "BATTLE_PASS_MISSION_REFRESH_SCHEDULE",
    "addPoint": 1500,
    "scheduleId": 1600,
    "activityId": 2005,
    "descTextMapHash": 3582645490,
    "guide": {
      "param": [""]
    },
    "id": 75607,
    "triggerConfig": {
      "triggerType": "TRIGGER_GROUP_SUMMER_TIME_SPRINT_BOAT_REACH_POINTS",
      "paramList": ["144001108", "", "", ""]
    },
    "progress": 30000
  },
  {
    "refreshType": "BATTLE_PASS_MISSION_REFRESH_SCHEDULE",
    "addPoint": 1500,
    "scheduleId": 1600,
    "activityId": 2005,
    "descTextMapHash": 1923043626,
    "guide": {
      "param": [""]
    },
    "id": 75608,
    "triggerConfig": {
      "triggerType": "TRIGGER_BATTLE_FOR_MONSTER_DIE_OR",
      "paramList": ["25090101", "", "", ""]
    },
    "progress": 3
  },
  {
    "refreshType": "BATTLE_PASS_MISSION_REFRESH_SCHEDULE",
    "addPoint": 1500,
    "scheduleId": 1500,
    "descTextMapHash": 557834714,
    "guide": {
      "param": [""]
    },
    "id": 75501,
    "triggerConfig": {
      "triggerType": "TRIGGER_GACHA_NUM",
      "paramList": ["", "", "", ""]
    },
    "progress": 50
  },
  {
    "refreshType": "BATTLE_PASS_MISSION_REFRESH_SCHEDULE",
    "addPoint": 2250,
    "scheduleId": 1500,
    "descTextMapHash": 2915759746,
    "guide": {
      "param": [""]
    },
    "id": 75502,
    "triggerConfig": {
      "triggerType": "TRIGGER_TOWER_STARS_NUM",
      "paramList": ["", "", "", ""]
    },
    "progress": 12
  },
  {
    "refreshType": "BATTLE_PASS_MISSION_REFRESH_SCHEDULE",
    "addPoint": 1200,
    "scheduleId": 1500,
    "activityId": 2004,
    "descTextMapHash": 1728661746,
    "guide": {
      "param": [""]
    },
    "id": 75503,
    "triggerConfig": {
      "triggerType": "TRIGGER_ACTIVITY_CHANNELLER_SLAB_FINISH_ALL_CAMP",
      "paramList": ["2004", "2004001", "", ""]
    },
    "progress": 1
  },
  {
    "refreshType": "BATTLE_PASS_MISSION_REFRESH_SCHEDULE",
    "addPoint": 1200,
    "scheduleId": 1500,
    "activityId": 2004,
    "descTextMapHash": 3997405538,
    "guide": {
      "param": [""]
    },
    "id": 75504,
    "triggerConfig": {
      "triggerType": "TRIGGER_ACTIVITY_CHANNELLER_SLAB_FINISH_ALL_ONEOFF_DUNGEON",
      "paramList": ["2004", "2004001", "", ""]
    },
    "progress": 1
  },
  {
    "refreshType": "BATTLE_PASS_MISSION_REFRESH_SCHEDULE",
    "addPoint": 2250,
    "scheduleId": 1500,
    "activityId": 2004,
    "descTextMapHash": 2291954562,
    "guide": {
      "param": [""]
    },
    "id": 75505,
    "triggerConfig": {
      "triggerType": "TRIGGER_ACTIVITY_CHANNELLER_SLAB_LOOP_DUNGEON_TOTAL_SCORE",
      "paramList": ["2004", "2004001", "", ""]
    },
    "progress": 15000
  },
  {
    "refreshType": "BATTLE_PASS_MISSION_REFRESH_SCHEDULE",
    "addPoint": 1500,
    "scheduleId": 1500,
    "activityId": 5023,
    "descTextMapHash": 1420429370,
    "guide": {
      "param": [""]
    },
    "id": 75508,
    "triggerConfig": {
      "triggerType": "TRIGGER_ACTIVITY_SCORE_EXCEED_VALUE",
      "paramList": ["5023", "", "", ""]
    },
    "progress": 3000
  },
  {
    "refreshType": "BATTLE_PASS_MISSION_REFRESH_SCHEDULE",
    "addPoint": 1500,
    "scheduleId": 1500,
    "activityId": 5022,
    "descTextMapHash": 2113991778,
    "guide": {
      "param": [""]
    },
    "id": 75506,
    "triggerConfig": {
      "triggerType": "TRIGGER_FINISH_DUNGEON",
      "paramList": ["7103", "", "", ""]
    },
    "progress": 1
  },
  {
    "refreshType": "BATTLE_PASS_MISSION_REFRESH_SCHEDULE",
    "addPoint": 1500,
    "scheduleId": 1500,
    "activityId": 5024,
    "descTextMapHash": 673693018,
    "guide": {
      "param": [""]
    },
    "id": 75507,
    "triggerConfig": {
      "triggerType": "TRIGGER_FINISH_FIND_HILICHURL_LEVEL",
      "paramList": ["", "", "", ""]
    },
    "progress": 7
  },
  {
    "refreshType": "BATTLE_PASS_MISSION_REFRESH_CYCLE",
    "addPoint": 360,
    "scheduleId": 1100,
    "descTextMapHash": 3177532946,
    "guide": {
      "param": [""]
    },
    "id": 73014,
    "triggerConfig": {
      "triggerType": "TRIGGER_FINISH_ROUTINE",
      "paramList": ["1", "", "", ""]
    },
    "progress": 5,
    "isDisuse": true
  },
  {
    "refreshType": "BATTLE_PASS_MISSION_REFRESH_CYCLE",
    "addPoint": 450,
    "scheduleId": 1100,
    "descTextMapHash": 1630319554,
    "guide": {
      "param": [""]
    },
    "id": 73001,
    "triggerConfig": {
      "triggerType": "TRIGGER_OBTAIN_MATERIAL_NUM",
      "paramList": [
        "100021;100022;100023;100024;100025;100055;100057;100056",
        "",
        "",
        ""
      ]
    },
    "progress": 100,
    "isDisuse": true
  },
  {
    "refreshType": "BATTLE_PASS_MISSION_REFRESH_CYCLE",
    "addPoint": 450,
    "scheduleId": 1100,
    "descTextMapHash": 464932386,
    "guide": {
      "param": [""]
    },
    "id": 73002,
    "triggerConfig": {
      "triggerType": "TRIGGER_OBTAIN_MATERIAL_NUM",
      "paramList": [
        "100027;100028;100029;100030;100031;100033;100034;100058",
        "",
        "",
        ""
      ]
    },
    "progress": 100,
    "isDisuse": true
  },
  {
    "refreshType": "BATTLE_PASS_MISSION_REFRESH_CYCLE",
    "addPoint": 675,
    "scheduleId": 1100,
    "descTextMapHash": 2646001682,
    "guide": {
      "param": [""]
    },
    "id": 73015,
    "triggerConfig": {
      "triggerType": "TRIGGER_FINISH_DUNGEON",
      "paramList": ["103;104;105;106", "\u53ef\u8054\u673a", "", ""]
    },
    "progress": 1,
    "isDisuse": true
  },
  {
    "refreshType": "BATTLE_PASS_MISSION_REFRESH_CYCLE",
    "addPoint": 675,
    "scheduleId": 1100,
    "descTextMapHash": 833111850,
    "guide": {
      "param": [""]
    },
    "id": 73004,
    "triggerConfig": {
      "triggerType": "TRIGGER_MONSTER_DIE",
      "paramList": ["29020101;29020102", "\u53ef\u8054\u673a", "", ""]
    },
    "progress": 1,
    "isDisuse": true
  },
  {
    "refreshType": "BATTLE_PASS_MISSION_REFRESH_CYCLE",
    "addPoint": 675,
    "scheduleId": 1100,
    "descTextMapHash": 3456403298,
    "guide": {
      "param": [""]
    },
    "id": 73005,
    "triggerConfig": {
      "triggerType": "TRIGGER_FINISH_DUNGEON",
      "paramList": ["2020;2021;2022;2023;2024;2025", "", "", ""]
    },
    "progress": 1,
    "isDisuse": true
  },
  {
    "refreshType": "BATTLE_PASS_MISSION_REFRESH_CYCLE",
    "addPoint": 1350,
    "scheduleId": 1100,
    "descTextMapHash": 161329546,
    "guide": {
      "param": [""]
    },
    "id": 73016,
    "triggerConfig": {
      "triggerType": "TRIGGER_FINISH_DUNGEON",
      "paramList": ["103;104;105;106;2020;2021;2022;2023;2024;2025", "", "", ""]
    },
    "progress": 3,
    "isDisuse": true
  },
  {
    "refreshType": "BATTLE_PASS_MISSION_REFRESH_SCHEDULE",
    "addPoint": 1500,
    "scheduleId": 1400,
    "descTextMapHash": 1133498322,
    "guide": {
      "param": [""]
    },
    "id": 75401,
    "triggerConfig": {
      "triggerType": "TRIGGER_GACHA_NUM",
      "paramList": ["", "", "", ""]
    },
    "progress": 50
  },
  {
    "refreshType": "BATTLE_PASS_MISSION_REFRESH_SCHEDULE",
    "addPoint": 2250,
    "scheduleId": 1400,
    "descTextMapHash": 1648856274,
    "guide": {
      "param": [""]
    },
    "id": 75402,
    "triggerConfig": {
      "triggerType": "TRIGGER_TOWER_STARS_NUM",
      "paramList": ["", "", "", ""]
    },
    "progress": 12
  },
  {
    "refreshType": "BATTLE_PASS_MISSION_REFRESH_SCHEDULE",
    "addPoint": 1200,
    "scheduleId": 1400,
    "activityId": 5020,
    "descTextMapHash": 1381257058,
    "guide": {
      "param": [""]
    },
    "id": 75403,
    "triggerConfig": {
      "triggerType": "TRIGGER_FINISH_QUEST_AND",
      "paramList": ["4142204", "", "", ""]
    },
    "progress": 1
  },
  {
    "refreshType": "BATTLE_PASS_MISSION_REFRESH_SCHEDULE",
    "addPoint": 1500,
    "scheduleId": 1400,
    "activityId": 5019,
    "descTextMapHash": 2121777986,
    "guide": {
      "param": [""]
    },
    "id": 75404,
    "triggerConfig": {
      "triggerType": "TRIGGER_FINISH_ALL_ARENA_CHALLENGE_WATCHER_IN_SCHEDULE",
      "paramList": ["5019001", "", "", ""]
    },
    "progress": 1
  },
  {
    "refreshType": "BATTLE_PASS_MISSION_REFRESH_SCHEDULE",
    "addPoint": 1500,
    "scheduleId": 1400,
    "activityId": 5012,
    "descTextMapHash": 328499370,
    "guide": {
      "param": [""]
    },
    "id": 76405,
    "triggerConfig": {
      "triggerType": "TRIGGER_DELIVER_ITEM_TO_SALESMAN",
      "paramList": ["", "", "", ""]
    },
    "progress": 5
  },
  {
    "refreshType": "BATTLE_PASS_MISSION_REFRESH_SCHEDULE",
    "addPoint": 1500,
    "scheduleId": 1400,
    "activityId": 2003,
    "descTextMapHash": 420837338,
    "guide": {
      "param": [""]
    },
    "id": 76406,
    "triggerConfig": {
      "triggerType": "TRIGGER_GALLERY_BALLOON_REACH_SCORE",
      "paramList": ["1001", "2600", "", ""]
    },
    "progress": 1
  },
  {
    "refreshType": "BATTLE_PASS_MISSION_REFRESH_SCHEDULE",
    "addPoint": 1500,
    "scheduleId": 1400,
    "activityId": 2003,
    "descTextMapHash": 1271710586,
    "guide": {
      "param": [""]
    },
    "id": 76407,
    "triggerConfig": {
      "triggerType": "TRIGGER_GALLERY_FALL_REACH_SCORE",
      "paramList": ["2002", "3000", "", ""]
    },
    "progress": 1
  },
  {
    "refreshType": "BATTLE_PASS_MISSION_REFRESH_SCHEDULE",
    "addPoint": 1500,
    "scheduleId": 1400,
    "activityId": 2003,
    "descTextMapHash": 1496000226,
    "guide": {
      "param": [""]
    },
    "id": 76408,
    "triggerConfig": {
      "triggerType": "TRIGGER_FLEUR_FAIR_MUSIC_GAME_REACH_SCORE",
      "paramList": ["9", "2200", "", ""]
    },
    "progress": 1
  },
  {
    "refreshType": "BATTLE_PASS_MISSION_REFRESH_SCHEDULE",
    "addPoint": 2250,
    "scheduleId": 1400,
    "activityId": 2003,
    "descTextMapHash": 522018706,
    "guide": {
      "param": [""]
    },
    "id": 76409,
    "triggerConfig": {
      "triggerType": "TRIGGER_FLEUR_FAIR_DUNGEON_MISSION_FINISH",
      "paramList": ["", "", "", ""]
    },
    "progress": 20
  },
  {
    "refreshType": "BATTLE_PASS_MISSION_REFRESH_SCHEDULE",
    "addPoint": 1500,
    "scheduleId": 1300,
    "descTextMapHash": 2592598114,
    "guide": {
      "param": [""]
    },
    "id": 73301,
    "triggerConfig": {
      "triggerType": "TRIGGER_GACHA_NUM",
      "paramList": ["", "", "", ""]
    },
    "progress": 50
  },
  {
    "refreshType": "BATTLE_PASS_MISSION_REFRESH_SCHEDULE",
    "addPoint": 2250,
    "scheduleId": 1300,
    "descTextMapHash": 2784383834,
    "guide": {
      "param": [""]
    },
    "id": 73302,
    "triggerConfig": {
      "triggerType": "TRIGGER_TOWER_STARS_NUM",
      "paramList": ["", "", "", ""]
    },
    "progress": 12
  },
  {
    "refreshType": "BATTLE_PASS_MISSION_REFRESH_SCHEDULE",
    "addPoint": 1500,
    "scheduleId": 1300,
    "activityId": 5017,
    "descTextMapHash": 2926173170,
    "guide": {
      "param": [""]
    },
    "id": 73303,
    "triggerConfig": {
      "triggerType": "TRIGGER_ACTIVITY_EXPEDITION_FINISH",
      "paramList": ["", "", "", ""]
    },
    "progress": 16
  },
  {
    "refreshType": "BATTLE_PASS_MISSION_REFRESH_SCHEDULE",
    "addPoint": 1200,
    "scheduleId": 1300,
    "activityId": 5016,
    "descTextMapHash": 605203442,
    "guide": {
      "param": [""]
    },
    "id": 73304,
    "triggerConfig": {
      "triggerType": "TRIGGER_BLESSING_REDEEM_REWARD_NUM",
      "paramList": ["", "", "", ""]
    },
    "progress": 7
  },
  {
    "refreshType": "BATTLE_PASS_MISSION_REFRESH_SCHEDULE",
    "addPoint": 1200,
    "scheduleId": 1300,
    "activityId": 5016,
    "descTextMapHash": 2817028578,
    "guide": {
      "param": [""]
    },
    "id": 73305,
    "triggerConfig": {
      "triggerType": "TRIGGER_BLESSING_EXCHANGE_PIC_NUM",
      "paramList": ["", "", "", ""]
    },
    "progress": 1
  },
  {
    "refreshType": "BATTLE_PASS_MISSION_REFRESH_SCHEDULE",
    "addPoint": 1500,
    "scheduleId": 1300,
    "activityId": 2002,
    "descTextMapHash": 4054280770,
    "guide": {
      "param": [""]
    },
    "id": 73309,
    "triggerConfig": {
      "triggerType": "TRIGGER_SEA_LAMP_MINI_QUEST",
      "paramList": ["", "", "", ""]
    },
    "progress": 23
  },
  {
    "refreshType": "BATTLE_PASS_MISSION_REFRESH_SCHEDULE",
    "addPoint": 2250,
    "scheduleId": 1300,
    "activityId": 2002,
    "descTextMapHash": 3351396490,
    "guide": {
      "param": [""]
    },
    "id": 73310,
    "triggerConfig": {
      "triggerType": "TRIGGER_MECHANICUS_DIFFICULT_EQ",
      "paramList": ["7", "", "", ""]
    },
    "progress": 1
  },
  {
    "refreshType": "BATTLE_PASS_MISSION_REFRESH_SCHEDULE",
    "addPoint": 1500,
    "scheduleId": 1300,
    "activityId": 2002,
    "descTextMapHash": 1407899362,
    "guide": {
      "param": [""]
    },
    "id": 73311,
    "triggerConfig": {
      "triggerType": "TRIGGER_MECHANICUS_KILL_MONSTER",
      "paramList": ["", "", "", ""]
    },
    "progress": 1500
  },
  {
    "refreshType": "BATTLE_PASS_MISSION_REFRESH_SCHEDULE",
    "addPoint": 1500,
    "scheduleId": 9998,
    "activityId": 2002,
    "descTextMapHash": 361516050,
    "guide": {
      "param": [""]
    },
    "id": 73306,
    "triggerConfig": {
      "triggerType": "TRIGGER_BLESSING_EXCHANGE_PIC_NUM",
      "paramList": ["", "", "", ""]
    },
    "progress": 1,
    "isDisuse": true
  },
  {
    "refreshType": "BATTLE_PASS_MISSION_REFRESH_SCHEDULE",
    "addPoint": 1500,
    "scheduleId": 9998,
    "activityId": 2002,
    "descTextMapHash": 1493419306,
    "guide": {
      "param": [""]
    },
    "id": 73307,
    "triggerConfig": {
      "triggerType": "TRIGGER_BLESSING_EXCHANGE_PIC_NUM",
      "paramList": ["", "", "", ""]
    },
    "progress": 1,
    "isDisuse": true
  },
  {
    "refreshType": "BATTLE_PASS_MISSION_REFRESH_SCHEDULE",
    "addPoint": 2250,
    "scheduleId": 9998,
    "activityId": 2002,
    "descTextMapHash": 1252573370,
    "guide": {
      "param": [""]
    },
    "id": 73308,
    "triggerConfig": {
      "triggerType": "TRIGGER_BLESSING_EXCHANGE_PIC_NUM",
      "paramList": ["", "", "", ""]
    },
    "progress": 1,
    "isDisuse": true
  },
  {
    "refreshType": "BATTLE_PASS_MISSION_REFRESH_SCHEDULE",
    "addPoint": 1500,
    "scheduleId": 1200,
    "descTextMapHash": 833453618,
    "guide": {
      "param": [""]
    },
    "id": 75201,
    "triggerConfig": {
      "triggerType": "TRIGGER_GACHA_NUM",
      "paramList": ["", "", "", ""]
    },
    "progress": 50
  },
  {
    "refreshType": "BATTLE_PASS_MISSION_REFRESH_SCHEDULE",
    "addPoint": 2250,
    "scheduleId": 1200,
    "descTextMapHash": 3405200562,
    "guide": {
      "param": [""]
    },
    "id": 75202,
    "triggerConfig": {
      "triggerType": "TRIGGER_COST_MATERIAL",
      "paramList": ["106", "", "", ""]
    },
    "progress": 5500
  },
  {
    "refreshType": "BATTLE_PASS_MISSION_REFRESH_SCHEDULE",
    "addPoint": 2250,
    "scheduleId": 1200,
    "descTextMapHash": 4268593930,
    "guide": {
      "param": [""]
    },
    "id": 75203,
    "triggerConfig": {
      "triggerType": "TRIGGER_TOWER_STARS_NUM",
      "paramList": ["", "", "", ""]
    },
    "progress": 12
  },
  {
    "refreshType": "BATTLE_PASS_MISSION_REFRESH_SCHEDULE",
    "addPoint": 1500,
    "scheduleId": 1200,
    "descTextMapHash": 3484051746,
    "guide": {
      "param": [""]
    },
    "id": 75204,
    "triggerConfig": {
      "triggerType": "TRIGGER_OFFERING_LEVEL",
      "paramList": ["1", "8", "", ""]
    },
    "progress": 1
  },
  {
    "refreshType": "BATTLE_PASS_MISSION_REFRESH_SCHEDULE",
    "addPoint": 1200,
    "scheduleId": 1200,
    "activityId": 5011,
    "descTextMapHash": 609741962,
    "guide": {
      "param": [""]
    },
    "id": 75205,
    "triggerConfig": {
      "triggerType": "TRIGGER_TREASURE_MAP_DONE_REGION",
      "paramList": ["5011", "5011001", "14", ""]
    },
    "progress": 1
  },
  {
    "refreshType": "BATTLE_PASS_MISSION_REFRESH_SCHEDULE",
    "addPoint": 2250,
    "scheduleId": 1200,
    "activityId": 3001,
    "descTextMapHash": 3077503106,
    "guide": {
      "param": [""]
    },
    "id": 75206,
    "triggerConfig": {
      "triggerType": "TRIGGER_REACH_MP_PLAY_SCORE",
      "paramList": ["3", "300", "", ""]
    },
    "progress": 1
  },
  {
    "refreshType": "BATTLE_PASS_MISSION_REFRESH_SCHEDULE",
    "addPoint": 1500,
    "scheduleId": 1200,
    "activityId": 3001,
    "descTextMapHash": 2357390018,
    "guide": {
      "param": [""]
    },
    "id": 75207,
    "triggerConfig": {
      "triggerType": "TRIGGER_SPECIFIED_WEAPON_AWAKEN",
      "paramList": ["11413", "2", "", ""]
    },
    "progress": 1
  },
  {
    "refreshType": "BATTLE_PASS_MISSION_REFRESH_SCHEDULE",
    "addPoint": 1200,
    "scheduleId": 1200,
    "activityId": 5012,
    "descTextMapHash": 2148215434,
    "guide": {
      "param": [""]
    },
    "id": 75208,
    "triggerConfig": {
      "triggerType": "TRIGGER_DELIVER_ITEM_TO_SALESMAN",
      "paramList": ["8", "3", "", ""]
    },
    "progress": 5
  },
  {
    "refreshType": "BATTLE_PASS_MISSION_REFRESH_SCHEDULE",
    "addPoint": 1500,
    "scheduleId": 1200,
    "activityId": 5014,
    "descTextMapHash": 2927759946,
    "guide": {
      "param": [""]
    },
    "id": 75209,
    "triggerConfig": {
      "triggerType": "TRIGGER_EFFIGY_CHALLENGE_SCORE",
      "paramList": ["", "", "", ""]
    },
    "progress": 10000
  },
  {
    "refreshType": "BATTLE_PASS_MISSION_REFRESH_SCHEDULE",
    "addPoint": 1500,
    "scheduleId": 1100,
    "descTextMapHash": 3710440946,
    "guide": {
      "param": [""]
    },
    "id": 74003,
    "triggerConfig": {
      "triggerType": "TRIGGER_GACHA_NUM",
      "paramList": ["", "", "", ""]
    },
    "progress": 50
  },
  {
    "refreshType": "BATTLE_PASS_MISSION_REFRESH_SCHEDULE",
    "addPoint": 2250,
    "scheduleId": 1100,
    "descTextMapHash": 2440235266,
    "guide": {
      "param": [""]
    },
    "id": 74004,
    "triggerConfig": {
      "triggerType": "TRIGGER_COST_MATERIAL",
      "paramList": ["106", "", "", ""]
    },
    "progress": 5500
  },
  {
    "refreshType": "BATTLE_PASS_MISSION_REFRESH_SCHEDULE",
    "isForce": true,
    "addPoint": 1200,
    "scheduleId": 1100,
    "activityId": 5006,
    "descTextMapHash": 1737876674,
    "guide": {
      "param": [""]
    },
    "id": 75105,
    "triggerConfig": {
      "triggerType": "TRIGGER_FINISH_DAILY_DELIVERY_NUM",
      "paramList": ["", "", "", ""]
    },
    "progress": 9
  },
  {
    "refreshType": "BATTLE_PASS_MISSION_REFRESH_SCHEDULE",
    "addPoint": 2250,
    "scheduleId": 1100,
    "descTextMapHash": 3116045658,
    "guide": {
      "param": [""]
    },
    "id": 75106,
    "triggerConfig": {
      "triggerType": "TRIGGER_TOWER_STARS_NUM",
      "paramList": ["", "", "", ""]
    },
    "progress": 12
  },
  {
    "refreshType": "BATTLE_PASS_MISSION_REFRESH_SCHEDULE",
    "isForce": true,
    "addPoint": 1200,
    "scheduleId": 1100,
    "activityId": 5007,
    "descTextMapHash": 3284032106,
    "guide": {
      "param": [""]
    },
    "id": 75107,
    "triggerConfig": {
      "triggerType": "TRIGGER_GROUP_FLIGHT_CHALLENGE_REACH_POINTS",
      "paramList": ["133104761", "3", "", ""]
    },
    "progress": 30000
  },
  {
    "refreshType": "BATTLE_PASS_MISSION_REFRESH_SCHEDULE",
    "isForce": true,
    "addPoint": 2250,
    "scheduleId": 1100,
    "activityId": 2001,
    "descTextMapHash": 3971410666,
    "guide": {
      "param": [""]
    },
    "id": 75108,
    "triggerConfig": {
      "triggerType": "TRIGGER_TAKE_GENERAL_REWARD",
      "paramList": ["70950021", "", "", ""]
    },
    "progress": 18
  },
  {
    "refreshType": "BATTLE_PASS_MISSION_REFRESH_SCHEDULE",
    "isForce": true,
    "addPoint": 1500,
    "scheduleId": 1100,
    "activityId": 2001,
    "descTextMapHash": 3952561458,
    "guide": {
      "param": [""]
    },
    "id": 75109,
    "triggerConfig": {
      "triggerType": "TRIGGER_TAKE_GENERAL_REWARD",
      "paramList": ["70330041", "", "", ""]
    },
    "progress": 6
  },
  {
    "refreshType": "BATTLE_PASS_MISSION_REFRESH_SCHEDULE",
    "addPoint": 1500,
    "scheduleId": 9998,
    "descTextMapHash": 4067809610,
    "guide": {
      "param": [""]
    },
    "id": 74001,
    "triggerConfig": {
      "triggerType": "TRIGGER_GACHA_NUM",
      "paramList": ["", "", "", ""]
    },
    "progress": 50
  },
  {
    "refreshType": "BATTLE_PASS_MISSION_REFRESH_SCHEDULE",
    "addPoint": 2250,
    "scheduleId": 9998,
    "descTextMapHash": 2280209450,
    "guide": {
      "param": [""]
    },
    "id": 74002,
    "triggerConfig": {
      "triggerType": "TRIGGER_COST_MATERIAL",
      "paramList": ["106", "", "", ""]
    },
    "progress": 5500
  },
  {
    "refreshType": "BATTLE_PASS_MISSION_REFRESH_SCHEDULE",
    "isForce": true,
    "addPoint": 1200,
    "scheduleId": 9998,
    "activityId": 5001,
    "descTextMapHash": 1930400210,
    "guide": {
      "param": [""]
    },
    "id": 75101,
    "triggerConfig": {
      "triggerType": "TRIGGER_CRUCIBLE_ELEMENT_SCORE",
      "paramList": ["", "", "", ""]
    },
    "progress": 160000
  },
  {
    "refreshType": "BATTLE_PASS_MISSION_REFRESH_SCHEDULE",
    "addPoint": 2250,
    "scheduleId": 9998,
    "descTextMapHash": 788637098,
    "guide": {
      "param": [""]
    },
    "id": 75102,
    "triggerConfig": {
      "triggerType": "TRIGGER_FINISH_TOWER_LEVEL",
      "paramList": ["8", "3", "", ""]
    },
    "progress": 1
  },
  {
    "refreshType": "BATTLE_PASS_MISSION_REFRESH_SCHEDULE",
    "isForce": true,
    "addPoint": 1200,
    "scheduleId": 9998,
    "activityId": 5003,
    "descTextMapHash": 3178350626,
    "guide": {
      "param": [""]
    },
    "id": 75103,
    "triggerConfig": {
      "triggerType": "TRIGGER_DELIVER_ITEM_TO_SALESMAN",
      "paramList": ["8", "3", "", ""]
    },
    "progress": 5
  },
  {
    "refreshType": "BATTLE_PASS_MISSION_REFRESH_SCHEDULE",
    "isForce": true,
    "addPoint": 1500,
    "scheduleId": 9998,
    "activityId": 5001,
    "descTextMapHash": 3597185866,
    "guide": {
      "param": [""]
    },
    "id": 75104,
    "triggerConfig": {
      "triggerType": "TRIGGER_MP_PLAY_BATTLE_WIN",
      "paramList": ["1", "", "", ""]
    },
    "progress": 10
  },
  {
    "refreshType": "BATTLE_PASS_MISSION_REFRESH_SCHEDULE",
    "isForce": true,
    "addPoint": 2250,
    "scheduleId": 9998,
    "activityId": 5001,
    "descTextMapHash": 3147813778,
    "guide": {
      "param": [""]
    },
    "id": 75015,
    "triggerConfig": {
      "triggerType": "TRIGGER_CRUCIBLE_WORLD_LEVEL_SCORE",
      "paramList": ["720", "", "", ""]
    },
    "progress": 1
  }
]
