[
  {
    "id": 1,
    "iconName": "UI_Buff_Charge_Gadget"
  },
  {
    "id": 2,
    "iconName": "UI_Buff_Charge_Monster",
    "NJPAKBAADKF": "CHARING_FILL_NEGATIVE"
  },
  {
    "id": 3,
    "iconName": "UI_Buff_Charge_Revive",
    "NJPAKBAADKF": "CHARING_FILL_NEGATIVE"
  },
  {
    "id": 4,
    "iconName": "UI_Buff_Charge_Botany"
  }
]
