[
  {
    "chestLevel": 1,
    "zoneMinLevel": 1
  },
  {
    "chestLevel": 6,
    "zoneMinLevel": 6
  },
  {
    "chestLevel": 11,
    "zoneMinLevel": 11
  },
  {
    "chestLevel": 16,
    "zoneMinLevel": 16
  },
  {
    "chestLevel": 21,
    "zoneMinLevel": 21
  },
  {
    "chestLevel": 26,
    "zoneMinLevel": 26
  }
]
