[
  {
    "id": 1,
    "abilityName": [
      "ActivityAbility_CoinCollect_RocketJump",
      "ActivityAbility_CoinCollect_Range_Eff"
    ],
    "NHAKKOCEEEH": true,
    "DFPEALONPNP": "ART/UI/Atlas/Activity/CoinCollect/UI_Activity_CoinCollect_Buff_03",
    "NGGEFNONDKA": 2733497262,
    "JBIACLIKKCG": 859457796
  },
  {
    "id": 2,
    "abilityName": ["ActivityAbility_CoinCollect_CreateWindField"],
    "NHAKKOCEEEH": true,
    "DFPEALONPNP": "ART/UI/Atlas/Activity/CoinCollect/UI_Activity_CoinCollect_Buff_02",
    "NGGEFNONDKA": 4230752926,
    "JBIACLIKKCG": 2573757540
  },
  {
    "id": 3,
    "abilityName": ["ActivityAbility_CoinCollect_Range_Eff"],
    "DPIHEHBOHNO": true,
    "NHAKKOCEEEH": true,
    "DFPEALONPNP": "ART/UI/Atlas/Activity/CoinCollect/UI_Activity_CoinCollect_Buff_01",
    "NGGEFNONDKA": 3964932334,
    "JBIACLIKKCG": 2661582156
  },
  {
    "id": 4,
    "abilityName": [
      "ActivityAbility_CoinCollect_MoveSpeedUp",
      "ActivityAbility_CoinCollect_Range_Eff"
    ],
    "DPIHEHBOHNO": true,
    "DFPEALONPNP": "ART/UI/Atlas/Activity/CoinCollect/UI_Activity_CoinCollect_Buff_04",
    "NGGEFNONDKA": 2557357030,
    "JBIACLIKKCG": 388719012
  },
  {
    "id": 5,
    "abilityName": [
      "ActivityAbility_CoinCollect_RocketJump",
      "ActivityAbility_CoinCollect_Range_Eff"
    ],
    "DPIHEHBOHNO": true,
    "DFPEALONPNP": "ART/UI/Atlas/Activity/CoinCollect/UI_Activity_CoinCollect_Buff_05",
    "NGGEFNONDKA": 931740038,
    "JBIACLIKKCG": 3552450596
  },
  {
    "id": 6,
    "abilityName": [
      "ActivityAbility_CoinCollect_CostStamina_Zero",
      "ActivityAbility_CoinCollect_MoveSpeedUp",
      "ActivityAbility_CoinCollect_Range_Eff"
    ],
    "NHAKKOCEEEH": true,
    "DFPEALONPNP": "ART/UI/Atlas/Activity/CoinCollect/UI_Activity_CoinCollect_Buff_06",
    "NGGEFNONDKA": 1650252830,
    "JBIACLIKKCG": 3885040564
  }
]
