[
  {
    "groupId": 1001,
    "dungeonList": [2112, 2113, 2114, 2115, 2116],
    "NDGGMCHHPJD": [2122, 2120, 2121, 2119, 2123],
    "PNKDFLACPMI": 5,
    "GCBOKGEMOOK": 10,
    "KHGGABNBCLO": 2005011,
    "OKCGHIJMIPJ": 11201102,
    "CCKMHLCMJFP": 11201103,
    "NPCDAMDEALF": 400
  }
]
