[
  {
    "typeID": 1,
    "typeNameTextMapHash": 3402260500
  },
  {
    "typeID": 2,
    "typeNameTextMapHash": 584631308
  },
  {
    "typeID": 3,
    "typeNameTextMapHash": 2766931596
  },
  {
    "typeID": 4,
    "typeNameTextMapHash": 2659426892
  },
  {
    "typeID": 5,
    "typeNameTextMapHash": 1785168652
  },
  {
    "typeID": 6,
    "typeNameTextMapHash": 1031607076
  }
]
