[
  {
    "id": 1,
    "activityId": 5033,
    "OBACPJPCAKM": 2809521654
  },
  {
    "id": 2,
    "activityId": 5084,
    "KNPJAENFCLP": 53,
    "NEDPGCPPBKP": 5084002,
    "OBACPJPCAKM": 2940752534
  }
]
