[
  {
    "id": 10701001,
    "BNONHHHDKHM": 10701001,
    "OKFKIFKGFNB": 10701,
    "GKLGLGAMKDH": 3966712675,
    "CLJEDKFOKJB": 1606186022,
    "displayType": "EXHIBITION_DISPLAY_TYPE_TIME_MINSEC"
  },
  {
    "id": 10701002,
    "BNONHHHDKHM": 10701002,
    "OKFKIFKGFNB": 10701,
    "GKLGLGAMKDH": 1088577771,
    "CLJEDKFOKJB": 2161958190,
    "displayType": "EXHIBITION_DISPLAY_TYPE_INT"
  },
  {
    "id": 10701003,
    "BNONHHHDKHM": 10701003,
    "OKFKIFKGFNB": 10701,
    "GKLGLGAMKDH": 1069832883,
    "CLJEDKFOKJB": 913078174,
    "displayType": "EXHIBITION_DISPLAY_TYPE_INT"
  },
  {
    "id": 10701004,
    "BNONHHHDKHM": 10701004,
    "OKFKIFKGFNB": 10701,
    "GKLGLGAMKDH": 3871856155,
    "CLJEDKFOKJB": 3740120302,
    "displayType": "EXHIBITION_DISPLAY_TYPE_INT"
  },
  {
    "id": 10701005,
    "BNONHHHDKHM": 10701005,
    "OKFKIFKGFNB": 10701,
    "GKLGLGAMKDH": 2956830771,
    "CLJEDKFOKJB": 3964129534,
    "displayType": "EXHIBITION_DISPLAY_TYPE_TIME_MINSEC"
  },
  {
    "id": 10701006,
    "BNONHHHDKHM": 10701006,
    "OKFKIFKGFNB": 10701,
    "GKLGLGAMKDH": 2068211507,
    "CLJEDKFOKJB": 90658390,
    "displayType": "EXHIBITION_DISPLAY_TYPE_INT"
  },
  {
    "id": 10701007,
    "BNONHHHDKHM": 10701007,
    "OKFKIFKGFNB": 10701,
    "GKLGLGAMKDH": 2737236995,
    "CLJEDKFOKJB": 2093285806,
    "displayType": "EXHIBITION_DISPLAY_TYPE_INT"
  },
  {
    "id": 10701008,
    "BNONHHHDKHM": 10701008,
    "OKFKIFKGFNB": 10701,
    "GKLGLGAMKDH": 2054005179,
    "CLJEDKFOKJB": 4044407382,
    "displayType": "EXHIBITION_DISPLAY_TYPE_INT"
  },
  {
    "id": 10701009,
    "BNONHHHDKHM": 10701009,
    "OKFKIFKGFNB": 10701,
    "GKLGLGAMKDH": 2764000435,
    "CLJEDKFOKJB": 3588333390,
    "displayType": "EXHIBITION_DISPLAY_TYPE_TIME_MINSEC"
  },
  {
    "id": 10701010,
    "BNONHHHDKHM": 10701010,
    "OKFKIFKGFNB": 10701,
    "GKLGLGAMKDH": 263489027,
    "CLJEDKFOKJB": 3891808454,
    "displayType": "EXHIBITION_DISPLAY_TYPE_INT"
  },
  {
    "id": 10701011,
    "BNONHHHDKHM": 10701011,
    "OKFKIFKGFNB": 10701,
    "GKLGLGAMKDH": 715888003,
    "CLJEDKFOKJB": 4097305726,
    "displayType": "EXHIBITION_DISPLAY_TYPE_INT"
  },
  {
    "id": 10701012,
    "BNONHHHDKHM": 10701012,
    "OKFKIFKGFNB": 10701,
    "GKLGLGAMKDH": 1803527747,
    "CLJEDKFOKJB": 217727590,
    "displayType": "EXHIBITION_DISPLAY_TYPE_INT"
  },
  {
    "id": 10701013,
    "BNONHHHDKHM": 10701013,
    "OKFKIFKGFNB": 10701,
    "GKLGLGAMKDH": 2080720803,
    "CLJEDKFOKJB": 3527369742,
    "displayType": "EXHIBITION_DISPLAY_TYPE_TIME_MINSEC"
  },
  {
    "id": 10701014,
    "BNONHHHDKHM": 10701014,
    "OKFKIFKGFNB": 10701,
    "GKLGLGAMKDH": 3758204323,
    "CLJEDKFOKJB": 2247772678,
    "displayType": "EXHIBITION_DISPLAY_TYPE_INT"
  },
  {
    "id": 10701015,
    "BNONHHHDKHM": 10701015,
    "OKFKIFKGFNB": 10701,
    "GKLGLGAMKDH": 2728274731,
    "CLJEDKFOKJB": 2641678358,
    "displayType": "EXHIBITION_DISPLAY_TYPE_INT"
  },
  {
    "id": 10701016,
    "BNONHHHDKHM": 10701016,
    "OKFKIFKGFNB": 10701,
    "GKLGLGAMKDH": 1051511603,
    "CLJEDKFOKJB": 3202784974,
    "displayType": "EXHIBITION_DISPLAY_TYPE_INT"
  },
  {
    "id": 10701017,
    "BNONHHHDKHM": 10701017,
    "OKFKIFKGFNB": 10701,
    "GKLGLGAMKDH": 3443909443,
    "CLJEDKFOKJB": 494822158,
    "displayType": "EXHIBITION_DISPLAY_TYPE_TIME_MINSEC"
  },
  {
    "id": 10701018,
    "BNONHHHDKHM": 10701018,
    "OKFKIFKGFNB": 10701,
    "GKLGLGAMKDH": 3397117563,
    "CLJEDKFOKJB": 4048364710,
    "displayType": "EXHIBITION_DISPLAY_TYPE_INT"
  },
  {
    "id": 10701019,
    "BNONHHHDKHM": 10701019,
    "OKFKIFKGFNB": 10701,
    "GKLGLGAMKDH": 1326385411,
    "CLJEDKFOKJB": 4224008966,
    "displayType": "EXHIBITION_DISPLAY_TYPE_INT"
  },
  {
    "id": 10701020,
    "BNONHHHDKHM": 10701020,
    "OKFKIFKGFNB": 10701,
    "GKLGLGAMKDH": 2575983827,
    "CLJEDKFOKJB": 1303957678,
    "displayType": "EXHIBITION_DISPLAY_TYPE_INT"
  },
  {
    "id": 10701021,
    "BNONHHHDKHM": 10701021,
    "OKFKIFKGFNB": 10701,
    "GKLGLGAMKDH": 1160590163,
    "CLJEDKFOKJB": 4108142838,
    "displayType": "EXHIBITION_DISPLAY_TYPE_TIME_MINSEC"
  },
  {
    "id": 10701022,
    "BNONHHHDKHM": 10701022,
    "OKFKIFKGFNB": 10701,
    "GKLGLGAMKDH": 623134115,
    "CLJEDKFOKJB": 1867747510,
    "displayType": "EXHIBITION_DISPLAY_TYPE_INT"
  },
  {
    "id": 10701023,
    "BNONHHHDKHM": 10701023,
    "OKFKIFKGFNB": 10701,
    "GKLGLGAMKDH": 2130183307,
    "CLJEDKFOKJB": 1095413022,
    "displayType": "EXHIBITION_DISPLAY_TYPE_INT"
  },
  {
    "id": 10701024,
    "BNONHHHDKHM": 10701024,
    "OKFKIFKGFNB": 10701,
    "GKLGLGAMKDH": 2426380715,
    "CLJEDKFOKJB": 3097884774,
    "displayType": "EXHIBITION_DISPLAY_TYPE_INT"
  },
  {
    "id": 10701025,
    "BNONHHHDKHM": 10701025,
    "OKFKIFKGFNB": 10701,
    "GKLGLGAMKDH": 960263179,
    "CLJEDKFOKJB": 2108066910,
    "displayType": "EXHIBITION_DISPLAY_TYPE_TIME_MINSEC"
  },
  {
    "id": 10701026,
    "BNONHHHDKHM": 10701026,
    "OKFKIFKGFNB": 10701,
    "GKLGLGAMKDH": 2788837827,
    "CLJEDKFOKJB": 3431050966,
    "displayType": "EXHIBITION_DISPLAY_TYPE_INT"
  },
  {
    "id": 10701027,
    "BNONHHHDKHM": 10701027,
    "OKFKIFKGFNB": 10701,
    "GKLGLGAMKDH": 3199413683,
    "CLJEDKFOKJB": 4268281542,
    "displayType": "EXHIBITION_DISPLAY_TYPE_INT"
  },
  {
    "id": 10701028,
    "BNONHHHDKHM": 10701028,
    "OKFKIFKGFNB": 10701,
    "GKLGLGAMKDH": 3734748355,
    "CLJEDKFOKJB": 1510111918,
    "displayType": "EXHIBITION_DISPLAY_TYPE_INT"
  },
  {
    "id": 11801001,
    "BNONHHHDKHM": 11801001,
    "OKFKIFKGFNB": 11801,
    "GKLGLGAMKDH": 2755421515,
    "CLJEDKFOKJB": 318488430,
    "displayType": "EXHIBITION_DISPLAY_TYPE_TIME_MINSEC"
  },
  {
    "id": 11801002,
    "BNONHHHDKHM": 11801002,
    "OKFKIFKGFNB": 11801,
    "GKLGLGAMKDH": 3102592675,
    "CLJEDKFOKJB": 2269902686,
    "displayType": "EXHIBITION_DISPLAY_TYPE_INT_CHARACTER"
  },
  {
    "id": 11801003,
    "BNONHHHDKHM": 11801003,
    "OKFKIFKGFNB": 11801,
    "GKLGLGAMKDH": 3882787939,
    "CLJEDKFOKJB": 3567912158,
    "displayType": "EXHIBITION_DISPLAY_TYPE_INT"
  },
  {
    "id": 11801004,
    "BNONHHHDKHM": 11801004,
    "OKFKIFKGFNB": 11801,
    "GKLGLGAMKDH": 1047442531,
    "CLJEDKFOKJB": 1866119702,
    "displayType": "EXHIBITION_DISPLAY_TYPE_INT"
  },
  {
    "id": 11801005,
    "BNONHHHDKHM": 11801005,
    "OKFKIFKGFNB": 11801,
    "GKLGLGAMKDH": 860083099,
    "CLJEDKFOKJB": 4076682150,
    "displayType": "EXHIBITION_DISPLAY_TYPE_TIME_MINSEC"
  },
  {
    "id": 11801006,
    "BNONHHHDKHM": 11801006,
    "OKFKIFKGFNB": 11801,
    "GKLGLGAMKDH": 1605409083,
    "CLJEDKFOKJB": 1998080422,
    "displayType": "EXHIBITION_DISPLAY_TYPE_INT_CHARACTER"
  },
  {
    "id": 11801007,
    "BNONHHHDKHM": 11801007,
    "OKFKIFKGFNB": 11801,
    "GKLGLGAMKDH": 3509437483,
    "CLJEDKFOKJB": 1140443638,
    "displayType": "EXHIBITION_DISPLAY_TYPE_INT"
  },
  {
    "id": 11801008,
    "BNONHHHDKHM": 11801008,
    "OKFKIFKGFNB": 11801,
    "GKLGLGAMKDH": 2494047731,
    "CLJEDKFOKJB": 2024684326,
    "displayType": "EXHIBITION_DISPLAY_TYPE_INT"
  },
  {
    "id": 11801009,
    "BNONHHHDKHM": 11801009,
    "OKFKIFKGFNB": 11801,
    "GKLGLGAMKDH": 3138879259,
    "CLJEDKFOKJB": 2281677814,
    "displayType": "EXHIBITION_DISPLAY_TYPE_TIME_MINSEC"
  },
  {
    "id": 11801010,
    "BNONHHHDKHM": 11801010,
    "OKFKIFKGFNB": 11801,
    "GKLGLGAMKDH": 3447115211,
    "CLJEDKFOKJB": 446740366,
    "displayType": "EXHIBITION_DISPLAY_TYPE_INT_CHARACTER"
  },
  {
    "id": 11801011,
    "BNONHHHDKHM": 11801011,
    "OKFKIFKGFNB": 11801,
    "GKLGLGAMKDH": 3131140171,
    "CLJEDKFOKJB": 2575985726,
    "displayType": "EXHIBITION_DISPLAY_TYPE_INT"
  },
  {
    "id": 11801012,
    "BNONHHHDKHM": 11801012,
    "OKFKIFKGFNB": 11801,
    "GKLGLGAMKDH": 1781571899,
    "CLJEDKFOKJB": 3009722438,
    "displayType": "EXHIBITION_DISPLAY_TYPE_INT"
  },
  {
    "id": 11801013,
    "BNONHHHDKHM": 11801013,
    "OKFKIFKGFNB": 11801,
    "GKLGLGAMKDH": 2556448059,
    "CLJEDKFOKJB": 3834917398,
    "displayType": "EXHIBITION_DISPLAY_TYPE_TIME_MINSEC"
  },
  {
    "id": 11801014,
    "BNONHHHDKHM": 11801014,
    "OKFKIFKGFNB": 11801,
    "GKLGLGAMKDH": 3463284803,
    "CLJEDKFOKJB": 2009296726,
    "displayType": "EXHIBITION_DISPLAY_TYPE_INT_CHARACTER"
  },
  {
    "id": 11801015,
    "BNONHHHDKHM": 11801015,
    "OKFKIFKGFNB": 11801,
    "GKLGLGAMKDH": 2447546563,
    "CLJEDKFOKJB": 2456722702,
    "displayType": "EXHIBITION_DISPLAY_TYPE_INT"
  },
  {
    "id": 11801016,
    "BNONHHHDKHM": 11801016,
    "OKFKIFKGFNB": 11801,
    "GKLGLGAMKDH": 89749963,
    "CLJEDKFOKJB": 299660470,
    "displayType": "EXHIBITION_DISPLAY_TYPE_INT"
  },
  {
    "id": 11801017,
    "BNONHHHDKHM": 11801017,
    "OKFKIFKGFNB": 11801,
    "GKLGLGAMKDH": 2775528347,
    "CLJEDKFOKJB": 3877813262,
    "displayType": "EXHIBITION_DISPLAY_TYPE_TIME_MINSEC"
  },
  {
    "id": 11801018,
    "BNONHHHDKHM": 11801018,
    "OKFKIFKGFNB": 11801,
    "GKLGLGAMKDH": 274145483,
    "CLJEDKFOKJB": 3219291870,
    "displayType": "EXHIBITION_DISPLAY_TYPE_INT_CHARACTER"
  },
  {
    "id": 11801019,
    "BNONHHHDKHM": 11801019,
    "OKFKIFKGFNB": 11801,
    "GKLGLGAMKDH": 2255549835,
    "CLJEDKFOKJB": 3576355974,
    "displayType": "EXHIBITION_DISPLAY_TYPE_INT"
  },
  {
    "id": 11801020,
    "BNONHHHDKHM": 11801020,
    "OKFKIFKGFNB": 11801,
    "GKLGLGAMKDH": 3379549203,
    "CLJEDKFOKJB": 429195070,
    "displayType": "EXHIBITION_DISPLAY_TYPE_INT"
  },
  {
    "id": 11801021,
    "BNONHHHDKHM": 11801021,
    "OKFKIFKGFNB": 11801,
    "GKLGLGAMKDH": 2866488107,
    "CLJEDKFOKJB": 1852388806,
    "displayType": "EXHIBITION_DISPLAY_TYPE_TIME_MINSEC"
  },
  {
    "id": 11801022,
    "BNONHHHDKHM": 11801022,
    "OKFKIFKGFNB": 11801,
    "GKLGLGAMKDH": 3626184883,
    "CLJEDKFOKJB": 3307668038,
    "displayType": "EXHIBITION_DISPLAY_TYPE_INT_CHARACTER"
  },
  {
    "id": 11801023,
    "BNONHHHDKHM": 11801023,
    "OKFKIFKGFNB": 11801,
    "GKLGLGAMKDH": 3634620891,
    "CLJEDKFOKJB": 4282072094,
    "displayType": "EXHIBITION_DISPLAY_TYPE_INT"
  },
  {
    "id": 11801024,
    "BNONHHHDKHM": 11801024,
    "OKFKIFKGFNB": 11801,
    "GKLGLGAMKDH": 1333348531,
    "CLJEDKFOKJB": 3160870510,
    "displayType": "EXHIBITION_DISPLAY_TYPE_INT"
  },
  {
    "id": 11801025,
    "BNONHHHDKHM": 11801025,
    "OKFKIFKGFNB": 11801,
    "GKLGLGAMKDH": 2915680275,
    "CLJEDKFOKJB": 85377070,
    "displayType": "EXHIBITION_DISPLAY_TYPE_TIME_MINSEC"
  },
  {
    "id": 11801026,
    "BNONHHHDKHM": 11801026,
    "OKFKIFKGFNB": 11801,
    "GKLGLGAMKDH": 2271859603,
    "CLJEDKFOKJB": 1797562846,
    "displayType": "EXHIBITION_DISPLAY_TYPE_INT_CHARACTER"
  },
  {
    "id": 11801027,
    "BNONHHHDKHM": 11801027,
    "OKFKIFKGFNB": 11801,
    "GKLGLGAMKDH": 1492117019,
    "CLJEDKFOKJB": 1645665934,
    "displayType": "EXHIBITION_DISPLAY_TYPE_INT"
  },
  {
    "id": 11801028,
    "BNONHHHDKHM": 11801028,
    "OKFKIFKGFNB": 11801,
    "GKLGLGAMKDH": 236913227,
    "CLJEDKFOKJB": 1633253966,
    "displayType": "EXHIBITION_DISPLAY_TYPE_INT"
  }
]
