[
  {
    "ECMKCIKOBHH": 1,
    "dungeonId": 8111,
    "ADHGJAKMEPN": [1, 2, 5, 7, 9, 10],
    "OCFLECIKFLH": [1],
    "DFFLJPOAMFP": [],
    "ICKOFGHIKEJ": 2,
    "AGFKCNPPMGK": 4008213,
    "LBEENAJPNPD": "ART/UI/Atlas/Activity/FungusFighter/UI_Icon_Fungus_NPC_12858",
    "GFGAGJCJHGF": [11, 3, 5, 7],
    "MJJMAKHMALC": 2,
    "BFHLLJMPKIB": 3756225044,
    "EMLIEKHNHGL": 2894046134,
    "FMKHMLJMHMK": 3641524746,
    "DAPJCCCCODO": 3702251533,
    "HJLJJJOLDBM": 3975091331
  },
  {
    "ECMKCIKOBHH": 2,
    "dungeonId": 8112,
    "ADHGJAKMEPN": [1, 2, 3, 5, 6, 7, 9, 10],
    "OCFLECIKFLH": [1],
    "DFFLJPOAMFP": [],
    "ICKOFGHIKEJ": 3,
    "AGFKCNPPMGK": 4008314,
    "LBEENAJPNPD": "ART/UI/Atlas/Activity/FungusFighter/UI_Icon_Fungus_NPC_12859",
    "GFGAGJCJHGF": [12, 10, 7, 2],
    "MJJMAKHMALC": 8,
    "BFHLLJMPKIB": 3697773980,
    "EMLIEKHNHGL": 1663924686,
    "FMKHMLJMHMK": 4093360890,
    "DAPJCCCCODO": 2452549733,
    "HJLJJJOLDBM": 3294386235
  },
  {
    "ECMKCIKOBHH": 3,
    "dungeonId": 8113,
    "ADHGJAKMEPN": [1, 2, 3, 5, 6, 7, 9, 10],
    "OCFLECIKFLH": [1],
    "DFFLJPOAMFP": [],
    "ICKOFGHIKEJ": 3,
    "AGFKCNPPMGK": 4008315,
    "LBEENAJPNPD": "ART/UI/Atlas/Activity/FungusFighter/UI_Icon_Fungus_NPC_12860",
    "GFGAGJCJHGF": [13, 1, 8, 10],
    "MJJMAKHMALC": 5,
    "BFHLLJMPKIB": 2970278052,
    "EMLIEKHNHGL": 4029483774,
    "FMKHMLJMHMK": 2037938322,
    "DAPJCCCCODO": 1453211237,
    "HJLJJJOLDBM": 2354623003
  },
  {
    "ECMKCIKOBHH": 4,
    "dungeonId": 8114,
    "ADHGJAKMEPN": [1, 2, 3, 4, 5, 6, 7, 8, 9, 10],
    "OCFLECIKFLH": [1],
    "DFFLJPOAMFP": [],
    "ICKOFGHIKEJ": 4,
    "AGFKCNPPMGK": 4008402,
    "LBEENAJPNPD": "ART/UI/Atlas/Activity/FungusFighter/UI_Icon_Fungus_NPC_12861",
    "GFGAGJCJHGF": [14, 7, 1, 10],
    "MJJMAKHMALC": 9,
    "BFHLLJMPKIB": 384857484,
    "EMLIEKHNHGL": 295586958,
    "FMKHMLJMHMK": 866613714,
    "DAPJCCCCODO": 3478260445,
    "HJLJJJOLDBM": 690310379
  },
  {
    "ECMKCIKOBHH": 5,
    "dungeonId": 8115,
    "ADHGJAKMEPN": [1, 2, 3, 4, 5, 6, 7, 8, 9, 10],
    "OCFLECIKFLH": [1],
    "DFFLJPOAMFP": [],
    "ICKOFGHIKEJ": 4,
    "AGFKCNPPMGK": 4008412,
    "LBEENAJPNPD": "ART/UI/Atlas/Activity/FungusFighter/UI_Icon_Fungus_NPC_1063",
    "GFGAGJCJHGF": [15, 8, 5, 4],
    "MJJMAKHMALC": 3,
    "BFHLLJMPKIB": 4129968396,
    "EMLIEKHNHGL": 3337748758,
    "FMKHMLJMHMK": 3505250298,
    "DAPJCCCCODO": 2583799501,
    "HJLJJJOLDBM": 919886731
  },
  {
    "ECMKCIKOBHH": 6,
    "dungeonId": 8116,
    "ADHGJAKMEPN": [1, 2, 3, 4, 5, 6, 7, 8, 9, 10],
    "OCFLECIKFLH": [1, 3, 4],
    "DFFLJPOAMFP": [],
    "ICKOFGHIKEJ": 5,
    "AGFKCNPPMGK": 4008506,
    "LBEENAJPNPD": "ART/UI/Atlas/Activity/FungusFighter/UI_Icon_Fungus_NPC_12855",
    "GFGAGJCJHGF": [16, 7, 10, 8],
    "MJJMAKHMALC": 6,
    "BFHLLJMPKIB": 2731823148,
    "EMLIEKHNHGL": 3999013318,
    "FMKHMLJMHMK": 1443418610,
    "DAPJCCCCODO": 4071305549,
    "HJLJJJOLDBM": 1250518507
  }
]
