[
  {
    "gadgetId": 70380004,
    "titleTextMapHash": 2093235494
  },
  {
    "gadgetId": 70380019,
    "titleTextMapHash": 3966296574
  },
  {
    "gadgetId": 70710116,
    "titleTextMapHash": 1249107806
  },
  {
    "gadgetId": 70290067,
    "titleTextMapHash": 2905268334
  },
  {
    "gadgetId": 70710438,
    "titleTextMapHash": 1656841838
  },
  {
    "gadgetId": 70800047,
    "titleTextMapHash": 1939205214
  },
  {
    "gadgetId": 70800048,
    "titleTextMapHash": 1576025894
  },
  {
    "gadgetId": 70800049,
    "titleTextMapHash": 3037361062
  },
  {
    "gadgetId": 70360308,
    "titleTextMapHash": 2870998958
  },
  {
    "gadgetId": 70710501,
    "titleTextMapHash": 2664540894
  },
  {
    "gadgetId": 70290254,
    "titleTextMapHash": 631966062
  },
  {
    "gadgetId": 70290296,
    "titleTextMapHash": 2454727134
  },
  {
    "gadgetId": 70290297,
    "titleTextMapHash": 2488860782
  },
  {
    "gadgetId": 70350452,
    "titleTextMapHash": 1193588118
  },
  {
    "gadgetId": 72000019,
    "titleTextMapHash": 4173075254
  },
  {
    "gadgetId": 70290769,
    "titleTextMapHash": 534390502
  },
  {
    "gadgetId": 70350478,
    "titleTextMapHash": 2635568598
  },
  {
    "gadgetId": 70350495,
    "titleTextMapHash": 1729749686
  },
  {
    "gadgetId": 70290930,
    "titleTextMapHash": 3024323678
  },
  {
    "gadgetId": 70290932,
    "titleTextMapHash": 1472911294
  },
  {
    "gadgetId": 70290935,
    "titleTextMapHash": 3917302902
  },
  {
    "gadgetId": 70290936,
    "titleTextMapHash": 949851854
  },
  {
    "gadgetId": 70220139,
    "titleTextMapHash": 3567656958
  }
]
