[
  {
    "itemId": 339500,
    "nameTextMapHash": 384357012,
    "descTextMapHash": 3962735882,
    "PGMJJPOGCNA": 1908811578,
    "order": 1,
    "BNCBJNIKJJN": 2862788099280328496,
    "AGOGIIAAHND": "ART/System/GCG/Required/Gcg_Proxy/Gcg_Proxy_Table_01",
    "FPGGJEPJDIA": 1,
    "PGLMHAKPACN": 2,
    "IMKDIOHPFIM": ["Eff_UI_Gcg_Checkerboard_Glow_02"],
    "MBLCIDAGNKB": ["Eff_UI_Gcg_Table_Mengde"],
    "BIPDDGNAAEG": ["Eff_UI_Gcg_Table_Mengde_1"],
    "NKDMAMCIHGI": "ART/Effect/UI/UI/GCG/Eff_UI_Gcg_Click_Mengde",
    "DONHAABDOAK": "Data/Environment/EnviroSystemProfile/UI/ESP_UI_GcgCard",
    "GHJFDJHHGAD": "State_CardGame_MengDe"
  },
  {
    "id": 101,
    "itemId": 339501,
    "nameTextMapHash": 45426028,
    "descTextMapHash": 2275741714,
    "PGMJJPOGCNA": 363252498,
    "order": 2,
    "BNCBJNIKJJN": 3237775952017223437,
    "AGOGIIAAHND": "ART/System/GCG/Required/Gcg_Proxy/Gcg_Proxy_Table_01",
    "FPGGJEPJDIA": 3,
    "PGLMHAKPACN": 4,
    "IMKDIOHPFIM": ["Eff_UI_Gcg_Checkerboard_Glow"],
    "MBLCIDAGNKB": ["Eff_UI_Gcg_Table_Liyue"],
    "BIPDDGNAAEG": ["Eff_UI_Gcg_Table_Liyue_1"],
    "NKDMAMCIHGI": "ART/Effect/UI/UI/GCG/Eff_UI_Gcg_Click_Liyue",
    "DONHAABDOAK": "Data/Environment/EnviroSystemProfile/UI/ESP_UI_GcgCard",
    "GHJFDJHHGAD": "State_CardGame_LiYue"
  },
  {
    "id": 102,
    "itemId": 339502,
    "nameTextMapHash": 2761138860,
    "descTextMapHash": 1856930906,
    "PGMJJPOGCNA": 3847898434,
    "order": 3,
    "BNCBJNIKJJN": 869199178744522539,
    "AGOGIIAAHND": "ART/System/GCG/Required/Gcg_Proxy/Gcg_Proxy_Table_01",
    "FPGGJEPJDIA": 5,
    "PGLMHAKPACN": 6,
    "IMKDIOHPFIM": ["Eff_UI_Gcg_Checkerboard_Glow_01"],
    "MBLCIDAGNKB": ["Eff_UI_Gcg_Table_Daoqi"],
    "BIPDDGNAAEG": ["Eff_UI_Gcg_Table_Daoqi_1"],
    "NKDMAMCIHGI": "ART/Effect/UI/UI/GCG/Eff_UI_Gcg_Click_Daoqi",
    "DONHAABDOAK": "Data/Environment/EnviroSystemProfile/UI/ESP_UI_GcgCard",
    "GHJFDJHHGAD": "State_CardGame_DaoQi"
  },
  {
    "id": 103,
    "itemId": 339503,
    "nameTextMapHash": 2172568444,
    "descTextMapHash": 2150118914,
    "PGMJJPOGCNA": 3393081682,
    "order": 4,
    "BNCBJNIKJJN": 2566641660547949665,
    "AGOGIIAAHND": "ART/System/GCG/Required/Gcg_Proxy/Gcg_Proxy_Table_01",
    "FPGGJEPJDIA": 7,
    "PGLMHAKPACN": 8,
    "IMKDIOHPFIM": ["Eff_UI_Gcg_Checkerboard_Glow_03"],
    "MBLCIDAGNKB": ["Eff_UI_Gcg_Table_Xumi"],
    "BIPDDGNAAEG": ["Eff_UI_Gcg_Table_Xumi_1"],
    "NKDMAMCIHGI": "ART/Effect/UI/UI/GCG/Eff_UI_Gcg_Click_Xumi",
    "DONHAABDOAK": "Data/Environment/EnviroSystemProfile/UI/ESP_UI_GcgCard",
    "GHJFDJHHGAD": "State_CardGame_XuMi"
  }
]
