[
  {
    "id": 101,
    "JGAHNKNGBGD": "GCG_ELEMENT_CRYO",
    "FPOOJMKPBNM": "GCG_ELEMENT_PYRO",
    "GGHOHGHJANF": 101
  },
  {
    "id": 102,
    "JGAHNKNGBGD": "GCG_ELEMENT_HYDRO",
    "FPOOJMKPBNM": "GCG_ELEMENT_PYRO",
    "GGHOHGHJANF": 102
  },
  {
    "id": 103,
    "JGAHNKNGBGD": "GCG_ELEMENT_ELECTRO",
    "FPOOJMKPBNM": "GCG_ELEMENT_PYRO",
    "GGHOHGHJANF": 103
  },
  {
    "id": 104,
    "JGAHNKNGBGD": "GCG_ELEMENT_ELECTRO",
    "FPOOJMKPBNM": "GCG_ELEMENT_CRYO",
    "GGHOHGHJANF": 104
  },
  {
    "id": 105,
    "JGAHNKNGBGD": "GCG_ELEMENT_ELECTRO",
    "FPOOJMKPBNM": "GCG_ELEMENT_HYDRO",
    "GGHOHGHJANF": 105
  },
  {
    "id": 106,
    "JGAHNKNGBGD": "GCG_ELEMENT_CRYO",
    "FPOOJMKPBNM": "GCG_ELEMENT_HYDRO",
    "GGHOHGHJANF": 106
  },
  {
    "id": 107,
    "JGAHNKNGBGD": "GCG_ELEMENT_CRYO",
    "FPOOJMKPBNM": "GCG_ELEMENT_ANEMO",
    "GGHOHGHJANF": 107
  },
  {
    "id": 108,
    "JGAHNKNGBGD": "GCG_ELEMENT_HYDRO",
    "FPOOJMKPBNM": "GCG_ELEMENT_ANEMO",
    "GGHOHGHJANF": 108
  },
  {
    "id": 109,
    "JGAHNKNGBGD": "GCG_ELEMENT_PYRO",
    "FPOOJMKPBNM": "GCG_ELEMENT_ANEMO",
    "GGHOHGHJANF": 109
  },
  {
    "id": 110,
    "JGAHNKNGBGD": "GCG_ELEMENT_ELECTRO",
    "FPOOJMKPBNM": "GCG_ELEMENT_ANEMO",
    "GGHOHGHJANF": 110
  },
  {
    "id": 111,
    "JGAHNKNGBGD": "GCG_ELEMENT_CRYO",
    "FPOOJMKPBNM": "GCG_ELEMENT_GEO",
    "GGHOHGHJANF": 111
  },
  {
    "id": 112,
    "JGAHNKNGBGD": "GCG_ELEMENT_HYDRO",
    "FPOOJMKPBNM": "GCG_ELEMENT_GEO",
    "GGHOHGHJANF": 112
  },
  {
    "id": 113,
    "JGAHNKNGBGD": "GCG_ELEMENT_PYRO",
    "FPOOJMKPBNM": "GCG_ELEMENT_GEO",
    "GGHOHGHJANF": 113
  },
  {
    "id": 114,
    "JGAHNKNGBGD": "GCG_ELEMENT_ELECTRO",
    "FPOOJMKPBNM": "GCG_ELEMENT_GEO",
    "GGHOHGHJANF": 114
  },
  {
    "id": 115,
    "JGAHNKNGBGD": "GCG_ELEMENT_PYRO",
    "FPOOJMKPBNM": "GCG_ELEMENT_DENDRO",
    "GGHOHGHJANF": 115
  },
  {
    "id": 116,
    "JGAHNKNGBGD": "GCG_ELEMENT_HYDRO",
    "FPOOJMKPBNM": "GCG_ELEMENT_DENDRO",
    "GGHOHGHJANF": 116
  },
  {
    "id": 117,
    "JGAHNKNGBGD": "GCG_ELEMENT_ELECTRO",
    "FPOOJMKPBNM": "GCG_ELEMENT_DENDRO",
    "GGHOHGHJANF": 117
  }
]
