[
  {
    "MGGAIIFKEAB": [5, 6],
    "ID": 1,
    "subTagNameTextMapHash": 387177523
  },
  {
    "MGGAIIFKEAB": [5, 6],
    "ID": 2,
    "subTagNameTextMapHash": 582219323
  },
  {
    "MGGAIIFKEAB": [5, 6],
    "ID": 3,
    "subTagNameTextMapHash": 2613030851
  },
  {
    "MGGAIIFKEAB": [1, 2, 3],
    "ID": 4,
    "subTagNameTextMapHash": 1850249395
  },
  {
    "MGGAIIFKEAB": [5, 6],
    "ID": 5,
    "subTagNameTextMapHash": 1715768251
  },
  {
    "MGGAIIFKEAB": [5, 6],
    "ID": 6,
    "subTagNameTextMapHash": 2706894515
  },
  {
    "MGGAIIFKEAB": [5, 6],
    "ID": 7,
    "subTagNameTextMapHash": 3298693443
  },
  {
    "MGGAIIFKEAB": [],
    "ID": 8,
    "subTagNameTextMapHash": 2787896931
  },
  {
    "MGGAIIFKEAB": [],
    "ID": 9,
    "subTagNameTextMapHash": 1738115043
  },
  {
    "MGGAIIFKEAB": [1, 2, 3],
    "ID": 10,
    "subTagNameTextMapHash": 4173370387
  },
  {
    "MGGAIIFKEAB": [],
    "ID": 11,
    "subTagNameTextMapHash": 2972116859
  }
]
