[
  {
    "subId": 1,
    "subTagTextMapHash": 2009922312
  },
  {
    "subId": 2,
    "showNewMark": true,
    "ICDGHKHKNBD": true,
    "subTagTextMapHash": 3399827520
  },
  {
    "subId": 3,
    "showNewMark": true,
    "subTagTextMapHash": 2594538648
  },
  {
    "subId": 4,
    "showNewMark": true,
    "subTagTextMapHash": 3882361056
  },
  {
    "subId": 5,
    "subTagTextMapHash": 346464176
  }
]
