[
  {
    "id": 101,
    "centerPosList": [
      2775.10009765625, 281.79998779296875, -1555.9000244140625
    ],
    "centerRadius": 100,
    "safeClueGroup": [133003618, 133003624],
    "clueGroup": [
      133003618, 133003619, 133003620, 133003621, 133003622, 133003623,
      133003624, 133003625, 133003626, 133003627, 133003628, 133003630,
      133003631, 133003640, 133003641, 133003642, 133003643, 133003644,
      133003645, 133003646, 133003647, 133003648, 133003649, 133003650,
      133003651, 133003652, 133003653, 133003654, 133003655, 133003656,
      133003657, 133003658, 133003659, 133003660, 133003661, 133003662,
      133003663, 133003664, 133003665, 133003666, 133003667, 133003668,
      133003669, 133003670, 133003671, 133003672, 133003673, 133003674,
      133003675, 133003676, 133003677, 133003678, 133003679, 133003680,
      133003681, 133003682, 133003683, 133003684, 133003685, 133003686
    ],
    "safeDestinationGroup": [133003615],
    "destinationGroup": [133003613, 133003614, 133003615],
    "regionInfoTextMapHash": 3322729397,
    "HGIEFDCBGMG": []
  },
  {
    "id": 102,
    "centerPosList": [
      1385.5999755859375, 242.3000030517578, -1523.699951171875
    ],
    "centerRadius": 120,
    "safeClueGroup": [133001438, 133001439],
    "clueGroup": [
      133001438, 133001439, 133001440, 133001441, 133001442, 133001443,
      133001444, 133001445, 133001446, 133001447, 133001448, 133001449,
      133001450, 133001451, 133001452, 133001453, 133001454, 133001455,
      133001456, 133001457, 133001458, 133001459, 133001460, 133001461,
      133001462, 133001463, 133001464, 133001465, 133001466, 133001467,
      133001468, 133001469, 133001470, 133001471, 133001472, 133001473,
      133001474, 133001475, 133001476, 133001477, 133001478, 133001479,
      133001480, 133001481, 133001482, 133001483, 133001484, 133001485,
      133001486, 133001487, 133001488, 133001489, 133001490, 133001491,
      133001492, 133001493, 133001494, 133001495, 133001496, 133001497
    ],
    "safeDestinationGroup": [133001434],
    "destinationGroup": [133001434, 133001436, 133001437],
    "regionInfoTextMapHash": 1156075805,
    "HGIEFDCBGMG": []
  },
  {
    "id": 103,
    "centerPosList": [2198.0, 249.0, -1627.199951171875],
    "centerRadius": 120,
    "safeClueGroup": [133003693, 133003694],
    "clueGroup": [
      133003693, 133003694, 133003695, 133003696, 133003697, 133003698,
      133003699, 133003700, 133003701, 133003702, 133003703, 133003704,
      133003705, 133003706, 133003707, 133003708, 133003709, 133003710,
      133003711, 133003712, 133003713, 133003714, 133003715, 133003716,
      133003717, 133003718, 133003719, 133003720, 133003721, 133003722,
      133003723, 133003724, 133003725, 133003726, 133003727, 133003728,
      133003729, 133003730, 133003731, 133003732, 133003733, 133003734,
      133003735, 133003736, 133003737, 133003738, 133003739, 133003740,
      133003741, 133003742, 133003743, 133003744, 133003745, 133003746,
      133003747, 133003748, 133003749, 133003750, 133003751, 133003752,
      133003753
    ],
    "safeDestinationGroup": [133003690],
    "destinationGroup": [133003690, 133003691, 133003692],
    "regionInfoTextMapHash": 3039451365,
    "HGIEFDCBGMG": []
  },
  {
    "id": 104,
    "centerPosList": [
      2581.199951171875, 277.29998779296875, -331.8999938964844
    ],
    "centerRadius": 120,
    "safeClueGroup": [133004377, 133004374],
    "clueGroup": [
      133004374, 133004375, 133004376, 133004377, 133004378, 133004379,
      133004380, 133004381, 133004382, 133004383, 133004384, 133004385,
      133004386, 133004387, 133004388, 133004389, 133004390, 133004391,
      133004392, 133004393, 133004394, 133004395, 133004396, 133004397,
      133004398, 133004399, 133004400, 133004401, 133004402, 133004403,
      133004404, 133004405, 133004406, 133004407, 133004408, 133004409,
      133004410, 133004411, 133004412, 133004413, 133004414, 133004415,
      133004416, 133004417, 133004418, 133004419, 133004420, 133004421,
      133004422, 133004423, 133004424, 133004425, 133004426, 133004427,
      133004428, 133004429, 133004430, 133004431, 133004432
    ],
    "safeDestinationGroup": [133004371],
    "destinationGroup": [133004371, 133004372, 133004373],
    "regionInfoTextMapHash": 1085800661,
    "HGIEFDCBGMG": []
  },
  {
    "id": 201,
    "centerPosList": [656.5999755859375, 200.0, 248.3000030517578],
    "centerRadius": 100,
    "safeClueGroup": [133104707, 133104700],
    "clueGroup": [
      133104700, 133104701, 133104702, 133104703, 133104704, 133104705,
      133104706, 133104707, 133104708, 133104709, 133104710, 133104711,
      133104712, 133104713, 133104714, 133104715, 133104716, 133104717,
      133104718, 133104719, 133104720, 133104721, 133104722, 133104723,
      133104724, 133104725, 133104726, 133104727, 133104729, 133104730,
      133104731, 133104732, 133104733, 133104734, 133104735, 133104736,
      133104737, 133104738, 133104739, 133104740, 133104741, 133104743,
      133104744, 133104745, 133104746, 133104747, 133104748, 133104749,
      133104750, 133104751, 133104752, 133104753, 133104754, 133104755,
      133104756, 133104757, 133104758, 133104759, 133104760
    ],
    "safeDestinationGroup": [133104698],
    "destinationGroup": [133104694, 133104695, 133104696, 133104697, 133104698],
    "regionInfoTextMapHash": 579660645,
    "HGIEFDCBGMG": []
  },
  {
    "id": 202,
    "centerPosList": [386.8999938964844, 174.5, 854.7999877929688],
    "centerRadius": 120,
    "safeClueGroup": [133104763, 133104774],
    "clueGroup": [
      133104002, 133104007, 133104009, 133104013, 133104014, 133104015,
      133104016, 133104017, 133104018, 133104019, 133104020, 133104021,
      133104023, 133104024, 133104025, 133104027, 133104028, 133104763,
      133104764, 133104765, 133104766, 133104767, 133104768, 133104769,
      133104770, 133104771, 133104772, 133104773, 133104774, 133104775,
      133104776, 133104777, 133104778, 133104779, 133104780, 133104781,
      133104782, 133104783, 133104784, 133104785, 133104786, 133104787,
      133104788, 133104789, 133104790, 133104791, 133104792, 133104793,
      133104794, 133104795, 133104796, 133104797, 133104798, 133104799,
      133104800
    ],
    "safeDestinationGroup": [133104762],
    "destinationGroup": [133104762],
    "regionInfoTextMapHash": 594885349,
    "HGIEFDCBGMG": []
  },
  {
    "id": 203,
    "centerPosList": [1621.5999755859375, 287.0, 412.0],
    "centerRadius": 120,
    "safeClueGroup": [133102022, 133102023],
    "clueGroup": [
      133102022, 133102023, 133102024, 133102025, 133102026, 133102027,
      133102028, 133102029, 133102030, 133102031, 133102032, 133102033,
      133102034, 133102035, 133102036, 133102038, 133102039, 133102040,
      133102041, 133102042, 133102043, 133102044, 133102046, 133102047,
      133102048, 133102049, 133102050, 133102051, 133102052, 133102053,
      133102054, 133102055, 133102057, 133102058, 133102059, 133102060,
      133102061, 133102062, 133102064, 133102065, 133102066, 133102069,
      133102070, 133102075, 133102078, 133102079, 133102080, 133102081,
      133102082, 133102083, 133102084, 133102087
    ],
    "safeDestinationGroup": [133102019],
    "destinationGroup": [133102019, 133102021],
    "regionInfoTextMapHash": 1742560301,
    "HGIEFDCBGMG": []
  },
  {
    "id": 204,
    "centerPosList": [-672.5999755859375, 210.3000030517578, 1270.5],
    "centerRadius": 120,
    "safeClueGroup": [133106340, 133106341],
    "clueGroup": [
      133106328, 133106329, 133106330, 133106331, 133106332, 133106333,
      133106334, 133106335, 133106336, 133106337, 133106338, 133106339,
      133106340, 133106341, 133106342, 133106343, 133106344, 133106345,
      133106346, 133106347, 133106348, 133106349, 133106350, 133106351,
      133106352, 133106353, 133106354, 133106355, 133106356, 133106357,
      133106358, 133106359, 133106360, 133106361, 133106362, 133106363,
      133106364, 133106365, 133106366, 133106367, 133106368, 133106369,
      133106370, 133106371, 133106372, 133106373, 133106374, 133106375,
      133106376, 133106377, 133106378, 133106379, 133106380, 133106381,
      133106382, 133106383
    ],
    "safeDestinationGroup": [133106325],
    "destinationGroup": [133106325, 133106326, 133106327],
    "regionInfoTextMapHash": 802073661,
    "HGIEFDCBGMG": []
  },
  {
    "id": 301,
    "centerPosList": [-3517.0, 200.0, -3098.0],
    "centerRadius": 90,
    "safeClueGroup": [133104707, 133104700],
    "clueGroup": [
      133104700, 133104701, 133104702, 133104703, 133104704, 133104705,
      133104706, 133104707, 133104708, 133104709, 133104710, 133104711,
      133104712, 133104713, 133104714, 133104715, 133104716, 133104717,
      133104718, 133104719, 133104720, 133104721, 133104722, 133104723,
      133104724, 133104725, 133104726, 133104727, 133104729, 133104730,
      133104731, 133104732, 133104733, 133104734, 133104735, 133104736,
      133104737, 133104738, 133104739, 133104740, 133104741, 133104743,
      133104744, 133104745, 133104746, 133104747, 133104748, 133104749,
      133104750, 133104751, 133104752, 133104753, 133104754, 133104755,
      133104756, 133104757, 133104758, 133104759, 133104760
    ],
    "safeDestinationGroup": [133213542],
    "destinationGroup": [133213175],
    "regionInfoTextMapHash": 270266773,
    "HGIEFDCBGMG": [33001, 33003, 33004, 33005, 13001, 13002, 23001, 23002]
  },
  {
    "id": 302,
    "centerPosList": [-2877.0, 199.0, -4275.0],
    "centerRadius": 90,
    "safeClueGroup": [133104707],
    "clueGroup": [
      133104700, 133104701, 133104702, 133104703, 133104704, 133104705,
      133104706, 133104707, 133104708, 133104709, 133104710, 133104711,
      133104712, 133104713, 133104714, 133104715, 133104716, 133104717,
      133104718, 133104719, 133104720, 133104721, 133104722, 133104723,
      133104724, 133104725, 133104726, 133104727, 133104729, 133104730,
      133104731, 133104732, 133104733, 133104734, 133104735, 133104736,
      133104737, 133104738, 133104739, 133104740, 133104741, 133104743,
      133104744, 133104745, 133104746, 133104747, 133104748, 133104749,
      133104750, 133104751, 133104752, 133104753, 133104754, 133104755,
      133104756, 133104757, 133104758, 133104759, 133104760
    ],
    "safeDestinationGroup": [133220663],
    "destinationGroup": [133220203],
    "regionInfoTextMapHash": 1242532829,
    "HGIEFDCBGMG": [
      33006, 33007, 33008, 33011, 33012, 33013, 13003, 13004, 23003, 23004
    ]
  },
  {
    "id": 303,
    "centerPosList": [-3507.0, 200.0, -2794.0],
    "centerRadius": 110,
    "safeClueGroup": [133102022, 133102023],
    "clueGroup": [
      133102022, 133102023, 133102024, 133102025, 133102026, 133102027,
      133102028, 133102029, 133102030, 133102031, 133102032, 133102033,
      133102034, 133102035, 133102036, 133102038, 133102039, 133102040,
      133102041, 133102042, 133102043, 133102044, 133102046, 133102047,
      133102048, 133102049, 133102050, 133102051, 133102052, 133102053,
      133102054, 133102055, 133102057, 133102058, 133102059, 133102060,
      133102061, 133102062, 133102064, 133102065, 133102066, 133102069,
      133102070, 133102075, 133102078, 133102079, 133102080, 133102081,
      133102082, 133102083, 133102084, 133102087
    ],
    "safeDestinationGroup": [133212556],
    "destinationGroup": [133212187],
    "regionInfoTextMapHash": 1687235821,
    "HGIEFDCBGMG": [33009, 33010, 13005, 23005]
  },
  {
    "id": 304,
    "centerPosList": [-2326.0, 240.0, -4181.0],
    "centerRadius": 100,
    "safeClueGroup": [133106340, 133106341],
    "clueGroup": [
      133106328, 133106329, 133106330, 133106331, 133106332, 133106333,
      133106334, 133106335, 133106336, 133106337, 133106338, 133106339,
      133106340, 133106341, 133106342, 133106343, 133106344, 133106345,
      133106346, 133106347, 133106348, 133106349, 133106350, 133106351,
      133106352, 133106353, 133106354, 133106355, 133106356, 133106357,
      133106358, 133106359, 133106360, 133106361, 133106362, 133106363,
      133106364, 133106365, 133106366, 133106367, 133106368, 133106369,
      133106370, 133106371, 133106372, 133106373, 133106374, 133106375,
      133106376, 133106377, 133106378, 133106379, 133106380, 133106381,
      133106382, 133106383
    ],
    "safeDestinationGroup": [133220664],
    "destinationGroup": [133220279],
    "regionInfoTextMapHash": 2988252453,
    "HGIEFDCBGMG": [33014, 33015, 33016, 33017, 13006, 23006]
  },
  {
    "id": 401,
    "centerPosList": [-547.0, 226.0, 3256.0],
    "centerRadius": 90,
    "safeClueGroup": [133104707, 133104700],
    "clueGroup": [
      133104700, 133104701, 133104702, 133104703, 133104704, 133104705,
      133104706, 133104707, 133104708, 133104709, 133104710, 133104711,
      133104712, 133104713, 133104714, 133104715, 133104716, 133104717,
      133104718, 133104719, 133104720, 133104721, 133104722, 133104723,
      133104724, 133104725, 133104726, 133104727, 133104729, 133104730,
      133104731, 133104732, 133104733, 133104734, 133104735, 133104736,
      133104737, 133104738, 133104739, 133104740, 133104741, 133104743,
      133104744, 133104745, 133104746, 133104747, 133104748, 133104749,
      133104750, 133104751, 133104752, 133104753, 133104754, 133104755,
      133104756, 133104757, 133104758, 133104759, 133104760
    ],
    "safeDestinationGroup": [133301214],
    "destinationGroup": [133301653],
    "regionInfoTextMapHash": 4089455549,
    "HGIEFDCBGMG": [34001, 34002, 24001, 14001]
  },
  {
    "id": 402,
    "centerPosList": [-1014.0, 271.0, 3887.0],
    "centerRadius": 90,
    "safeClueGroup": [133104707],
    "clueGroup": [
      133104700, 133104701, 133104702, 133104703, 133104704, 133104705,
      133104706, 133104707, 133104708, 133104709, 133104710, 133104711,
      133104712, 133104713, 133104714, 133104715, 133104716, 133104717,
      133104718, 133104719, 133104720, 133104721, 133104722, 133104723,
      133104724, 133104725, 133104726, 133104727, 133104729, 133104730,
      133104731, 133104732, 133104733, 133104734, 133104735, 133104736,
      133104737, 133104738, 133104739, 133104740, 133104741, 133104743,
      133104744, 133104745, 133104746, 133104747, 133104748, 133104749,
      133104750, 133104751, 133104752, 133104753, 133104754, 133104755,
      133104756, 133104757, 133104758, 133104759, 133104760
    ],
    "safeDestinationGroup": [133301218],
    "destinationGroup": [133301654],
    "regionInfoTextMapHash": 1859873621,
    "HGIEFDCBGMG": [34003, 34004, 24002, 14002]
  },
  {
    "id": 403,
    "centerPosList": [-698.0, 206.0, 2768.0],
    "centerRadius": 90,
    "safeClueGroup": [133102022, 133102023],
    "clueGroup": [
      133102022, 133102023, 133102024, 133102025, 133102026, 133102027,
      133102028, 133102029, 133102030, 133102031, 133102032, 133102033,
      133102034, 133102035, 133102036, 133102038, 133102039, 133102040,
      133102041, 133102042, 133102043, 133102044, 133102046, 133102047,
      133102048, 133102049, 133102050, 133102051, 133102052, 133102053,
      133102054, 133102055, 133102057, 133102058, 133102059, 133102060,
      133102061, 133102062, 133102064, 133102065, 133102066, 133102069,
      133102070, 133102075, 133102078, 133102079, 133102080, 133102081,
      133102082, 133102083, 133102084, 133102087
    ],
    "safeDestinationGroup": [133302179],
    "destinationGroup": [133302641],
    "regionInfoTextMapHash": 2321125653,
    "HGIEFDCBGMG": [34005, 34006, 24003, 14003]
  },
  {
    "id": 404,
    "centerPosList": [402.0, 225.0, 2338.0],
    "centerRadius": 90,
    "safeClueGroup": [133106340, 133106341],
    "clueGroup": [
      133106328, 133106329, 133106330, 133106331, 133106332, 133106333,
      133106334, 133106335, 133106336, 133106337, 133106338, 133106339,
      133106340, 133106341, 133106342, 133106343, 133106344, 133106345,
      133106346, 133106347, 133106348, 133106349, 133106350, 133106351,
      133106352, 133106353, 133106354, 133106355, 133106356, 133106357,
      133106358, 133106359, 133106360, 133106361, 133106362, 133106363,
      133106364, 133106365, 133106366, 133106367, 133106368, 133106369,
      133106370, 133106371, 133106372, 133106373, 133106374, 133106375,
      133106376, 133106377, 133106378, 133106379, 133106380, 133106381,
      133106382, 133106383
    ],
    "safeDestinationGroup": [133315064],
    "destinationGroup": [133315262],
    "regionInfoTextMapHash": 3756379653,
    "HGIEFDCBGMG": [34007, 34008, 24004, 14004]
  },
  {
    "id": 405,
    "centerPosList": [-1537.0, 272.0, 3636.0],
    "centerRadius": 60,
    "safeClueGroup": [133104707, 133104700],
    "clueGroup": [
      133104700, 133104701, 133104702, 133104703, 133104704, 133104705,
      133104706, 133104707, 133104708, 133104709, 133104710, 133104711,
      133104712, 133104713, 133104714, 133104715, 133104716, 133104717,
      133104718, 133104719, 133104720, 133104721, 133104722, 133104723,
      133104724, 133104725, 133104726, 133104727, 133104729, 133104730,
      133104731, 133104732, 133104733, 133104734, 133104735, 133104736,
      133104737, 133104738, 133104739, 133104740, 133104741, 133104743,
      133104744, 133104745, 133104746, 133104747, 133104748, 133104749,
      133104750, 133104751, 133104752, 133104753, 133104754, 133104755,
      133104756, 133104757, 133104758, 133104759, 133104760
    ],
    "safeDestinationGroup": [133303063],
    "destinationGroup": [133303592],
    "regionInfoTextMapHash": 635473301,
    "HGIEFDCBGMG": [34009, 34010, 24005, 14005]
  },
  {
    "id": 406,
    "centerPosList": [-1562.0, 126.0, 3344.0],
    "centerRadius": 90,
    "safeClueGroup": [133104707],
    "clueGroup": [
      133104700, 133104701, 133104702, 133104703, 133104704, 133104705,
      133104706, 133104707, 133104708, 133104709, 133104710, 133104711,
      133104712, 133104713, 133104714, 133104715, 133104716, 133104717,
      133104718, 133104719, 133104720, 133104721, 133104722, 133104723,
      133104724, 133104725, 133104726, 133104727, 133104729, 133104730,
      133104731, 133104732, 133104733, 133104734, 133104735, 133104736,
      133104737, 133104738, 133104739, 133104740, 133104741, 133104743,
      133104744, 133104745, 133104746, 133104747, 133104748, 133104749,
      133104750, 133104751, 133104752, 133104753, 133104754, 133104755,
      133104756, 133104757, 133104758, 133104759, 133104760
    ],
    "safeDestinationGroup": [133303179],
    "destinationGroup": [133303591],
    "regionInfoTextMapHash": 2128840397,
    "HGIEFDCBGMG": [34011, 34012, 24006, 14006]
  },
  {
    "id": 407,
    "centerPosList": [-1276.0, 106.0, 2306.0],
    "centerRadius": 60,
    "safeClueGroup": [133102022, 133102023],
    "clueGroup": [
      133102022, 133102023, 133102024, 133102025, 133102026, 133102027,
      133102028, 133102029, 133102030, 133102031, 133102032, 133102033,
      133102034, 133102035, 133102036, 133102038, 133102039, 133102040,
      133102041, 133102042, 133102043, 133102044, 133102046, 133102047,
      133102048, 133102049, 133102050, 133102051, 133102052, 133102053,
      133102054, 133102055, 133102057, 133102058, 133102059, 133102060,
      133102061, 133102062, 133102064, 133102065, 133102066, 133102069,
      133102070, 133102075, 133102078, 133102079, 133102080, 133102081,
      133102082, 133102083, 133102084, 133102087
    ],
    "safeDestinationGroup": [133304096],
    "destinationGroup": [133304405],
    "regionInfoTextMapHash": 844305813,
    "HGIEFDCBGMG": [34013, 34014, 24007, 14007]
  },
  {
    "id": 408,
    "centerPosList": [-1739.0, 268.0, 2833.0],
    "centerRadius": 90,
    "safeClueGroup": [133106340, 133106341],
    "clueGroup": [
      133106328, 133106329, 133106330, 133106331, 133106332, 133106333,
      133106334, 133106335, 133106336, 133106337, 133106338, 133106339,
      133106340, 133106341, 133106342, 133106343, 133106344, 133106345,
      133106346, 133106347, 133106348, 133106349, 133106350, 133106351,
      133106352, 133106353, 133106354, 133106355, 133106356, 133106357,
      133106358, 133106359, 133106360, 133106361, 133106362, 133106363,
      133106364, 133106365, 133106366, 133106367, 133106368, 133106369,
      133106370, 133106371, 133106372, 133106373, 133106374, 133106375,
      133106376, 133106377, 133106378, 133106379, 133106380, 133106381,
      133106382, 133106383
    ],
    "safeDestinationGroup": [133304097],
    "destinationGroup": [133304406],
    "regionInfoTextMapHash": 744265325,
    "HGIEFDCBGMG": [34015, 34016, 24008, 14008]
  }
]
