[
  {
    "BEEGHHODFLD": 1,
    "EBJHLHDGGGF": 308219834,
    "scoreRatio": 1.0,
    "PMIJHJHEHFB": 49
  },
  {
    "BEEGHHODFLD": 2,
    "EBJHLHDGGGF": 3031540082,
    "scoreRatio": 2.0,
    "PMIJHJHEHFB": 69
  },
  {
    "BEEGHHODFLD": 3,
    "EBJHLHDGGGF": 3476923010,
    "scoreRatio": 4.0,
    "PMIJHJHEHFB": 89
  }
]
