[
  {
    "ID": 1,
    "condID": 2012101,
    "MJEEDPMMHND": 2012121,
    "ICKOFGHIKEJ": 1,
    "entityType": "IRODORI_POETRY_ENTITY_TYPE_GATHER",
    "JNEHBGBAPGG": [
      {
        "GHELLBHBLBI": [70520034, 70520030],
        "KFECEOJJMLC": 111
      },
      {
        "GHELLBHBLBI": [70520028],
        "KFECEOJJMLC": 112
      },
      {
        "GHELLBHBLBI": [70520035, 70520033],
        "KFECEOJJMLC": 113
      },
      {
        "GHELLBHBLBI": [70520037, 70520025],
        "KFECEOJJMLC": 114
      },
      {
        "GHELLBHBLBI": [70520027, 70520031],
        "KFECEOJJMLC": 115
      }
    ],
    "AMOFJLKKIAC": 72691,
    "LGGHJHFBPDG": 7269102,
    "EEJBHBNNLCN": 7269104,
    "ABNELHFEDHH": [600109, 600110, 600112],
    "watcherID": 12012101,
    "GLPKDEAJOGI": 2916348678,
    "CKKJOAJPIGO": 3416993127,
    "PPOIEICHPPD": 3867564812,
    "BIJDBOLIJFN": 1869859583,
    "IMJIFEPMPMB": [101, 102, 0, 104]
  },
  {
    "ID": 2,
    "condID": 2012102,
    "MJEEDPMMHND": 2012122,
    "ICKOFGHIKEJ": 2,
    "entityType": "IRODORI_POETRY_ENTITY_TYPE_MONSTER",
    "JNEHBGBAPGG": [
      {
        "GHELLBHBLBI": [28010104, 28010105, 28010207, 28010204, 28010206],
        "KFECEOJJMLC": 211
      },
      {
        "GHELLBHBLBI": [28020701, 28020801, 28020503],
        "KFECEOJJMLC": 212
      },
      {
        "GHELLBHBLBI": [28030306, 28030102, 28050104],
        "KFECEOJJMLC": 213
      },
      {
        "GHELLBHBLBI": [
          28010401, 28010403, 28040505, 28040502, 28040202, 28040301
        ],
        "KFECEOJJMLC": 214
      },
      {
        "GHELLBHBLBI": []
      }
    ],
    "AMOFJLKKIAC": 72692,
    "LGGHJHFBPDG": 7269202,
    "EEJBHBNNLCN": 7269204,
    "ABNELHFEDHH": [600114, 600115, 600117],
    "watcherID": 12012102,
    "GLPKDEAJOGI": 229165270,
    "CKKJOAJPIGO": 1594074863,
    "PPOIEICHPPD": 2820371500,
    "BIJDBOLIJFN": 925815207,
    "IMJIFEPMPMB": [201, 202, 0, 204, 205]
  },
  {
    "ID": 3,
    "condID": 2012103,
    "MJEEDPMMHND": 2012123,
    "ICKOFGHIKEJ": 3,
    "entityType": "IRODORI_POETRY_ENTITY_TYPE_GATHER",
    "JNEHBGBAPGG": [
      {
        "GHELLBHBLBI": [70540013, 70540022],
        "KFECEOJJMLC": 311
      },
      {
        "GHELLBHBLBI": [70510009, 70540020, 70540019],
        "KFECEOJJMLC": 312
      },
      {
        "GHELLBHBLBI": [70510004, 70590013],
        "KFECEOJJMLC": 313
      },
      {
        "GHELLBHBLBI": [70540018],
        "KFECEOJJMLC": 314
      },
      {
        "GHELLBHBLBI": []
      }
    ],
    "AMOFJLKKIAC": 72693,
    "LGGHJHFBPDG": 7269302,
    "EEJBHBNNLCN": 7269304,
    "ABNELHFEDHH": [600119, 600120, 600122],
    "watcherID": 12012103,
    "GLPKDEAJOGI": 677012526,
    "CKKJOAJPIGO": 3973859279,
    "PPOIEICHPPD": 1309474836,
    "BIJDBOLIJFN": 460724287,
    "IMJIFEPMPMB": [301, 302, 0, 306]
  }
]
