[
  {
    "PHLKPFFPNPL": 101,
    "descTextMapHash": 1688971161
  },
  {
    "PHLKPFFPNPL": 102,
    "descTextMapHash": 329757753
  },
  {
    "PHLKPFFPNPL": 103,
    "descTextMapHash": 2638176713
  },
  {
    "PHLKPFFPNPL": 201,
    "descTextMapHash": 3648142873
  },
  {
    "PHLKPFFPNPL": 202,
    "descTextMapHash": 3580976161
  },
  {
    "PHLKPFFPNPL": 203,
    "descTextMapHash": 1080839601
  },
  {
    "PHLKPFFPNPL": 301,
    "descTextMapHash": 2508513721
  },
  {
    "PHLKPFFPNPL": 302,
    "descTextMapHash": 3865875329
  },
  {
    "PHLKPFFPNPL": 303,
    "descTextMapHash": 1677805233
  },
  {
    "PHLKPFFPNPL": 401,
    "descTextMapHash": 4151720729
  },
  {
    "PHLKPFFPNPL": 402,
    "descTextMapHash": 497571649
  },
  {
    "PHLKPFFPNPL": 403,
    "descTextMapHash": 1596075025
  },
  {
    "PHLKPFFPNPL": 501,
    "descTextMapHash": 3416858257
  },
  {
    "PHLKPFFPNPL": 502,
    "descTextMapHash": 3134314689
  },
  {
    "PHLKPFFPNPL": 503,
    "descTextMapHash": 3083257553
  },
  {
    "PHLKPFFPNPL": 601,
    "descTextMapHash": 4246912521
  },
  {
    "PHLKPFFPNPL": 602,
    "descTextMapHash": 3762143073
  },
  {
    "PHLKPFFPNPL": 603,
    "descTextMapHash": 37141457
  },
  {
    "PHLKPFFPNPL": 701,
    "descTextMapHash": 1908763321
  },
  {
    "PHLKPFFPNPL": 702,
    "descTextMapHash": 271567913
  },
  {
    "PHLKPFFPNPL": 703,
    "descTextMapHash": 549368465
  },
  {
    "PHLKPFFPNPL": 801,
    "descTextMapHash": 1704887441
  },
  {
    "PHLKPFFPNPL": 802,
    "descTextMapHash": 1369641745
  },
  {
    "PHLKPFFPNPL": 803,
    "descTextMapHash": 2344259753
  }
]
