[
  {
    "levelId": 1,
    "watcherList": [12012218, 12012219, 12012220, 12012221],
    "FPHDMAKCMLC": 1,
    "NNFKFJFIHIN": 5,
    "HMMBJLAALPP": 1500
  },
  {
    "levelId": 2,
    "watcherList": [12012222, 12012223, 12012224, 12012225],
    "FPHDMAKCMLC": 2,
    "NNFKFJFIHIN": 6,
    "HMMBJLAALPP": 1500
  },
  {
    "levelId": 3,
    "watcherList": [12012226, 12012227, 12012228, 12012229],
    "FPHDMAKCMLC": 3,
    "NNFKFJFIHIN": 7,
    "HMMBJLAALPP": 1500
  },
  {
    "levelId": 4,
    "watcherList": [12012230, 12012231, 12012232, 12012233],
    "FPHDMAKCMLC": 4,
    "NNFKFJFIHIN": 8,
    "HMMBJLAALPP": 1500
  }
]
