[
  {
    "groupID": 1,
    "logicType": "LOGIC_OR",
    "MAKOIEFLBHB": [
      1, 2, 3, 4, 5, 6, 7, 8, 9, 10, 13, 18, 98, 99, 100, 101, 102, 103, 104,
      105, 106, 107, 201, 202, 203, 204, 205, 206, 207, 208, 209, 210, 213, 218,
      298, 299, 300, 301, 302, 303, 304, 305, 306, 307
    ]
  },
  {
    "groupID": 2,
    "logicType": "LOGIC_OR",
    "MAKOIEFLBHB": [
      11, 12, 14, 15, 16, 17, 19, 20, 21, 22, 23, 24, 25, 211, 212, 214, 215,
      216, 217, 219, 220, 221, 222, 223, 224, 225
    ]
  },
  {
    "groupID": 3,
    "logicType": "LOGIC_OR",
    "MAKOIEFLBHB": [26, 27, 28, 29, 108, 226, 227, 228, 229, 308]
  },
  {
    "groupID": 4,
    "logicType": "LOGIC_OR",
    "MAKOIEFLBHB": [30, 31, 32, 33, 34, 230, 231, 232, 233, 234]
  },
  {
    "groupID": 5,
    "logicType": "LOGIC_OR",
    "MAKOIEFLBHB": [
      35, 36, 37, 38, 39, 40, 41, 42, 43, 44, 45, 46, 47, 48, 49, 50, 51, 52,
      53, 54, 55, 56, 57, 58, 59, 60, 61, 62, 63, 64, 65, 66, 67, 68, 69, 70,
      71, 72, 73, 74, 75, 76, 77, 78, 79, 80, 81, 82, 83, 84, 85, 86, 87, 88,
      89, 90, 91, 92, 93, 94, 95, 96, 97, 109, 110, 111, 235, 236, 237, 238,
      239, 240, 241, 242, 243, 244, 245, 246, 247, 248, 249, 250, 251, 252, 253,
      254, 255, 256, 257, 258, 259, 260, 261, 262, 263, 264, 265, 266, 267, 268,
      269, 270, 271, 272, 273, 274, 275, 276, 277, 278, 279, 280, 281, 282, 283,
      284, 285, 286, 287, 288, 289, 290, 291, 292, 293, 294, 295, 296, 297, 309,
      310, 311
    ]
  },
  {
    "groupID": 6,
    "logicType": "LOGIC_OR",
    "MAKOIEFLBHB": [
      1, 2, 3, 4, 5, 6, 7, 8, 9, 10, 11, 12, 13, 14, 15, 16, 17, 18, 19, 20, 21,
      22, 23, 24, 25, 26, 27, 28, 29, 30, 31, 32, 33, 34, 35, 36, 37, 38, 39,
      40, 41, 42, 43, 44, 45, 46, 47, 48, 49, 50, 51, 52, 53, 54, 55, 56, 57,
      58, 59, 60, 61, 62, 63, 64, 65, 66, 67, 68, 69, 70, 71, 72, 73, 74, 75,
      76, 77, 78, 79, 80, 81, 82, 83, 84, 85, 86, 87, 88, 89, 90, 91, 92, 93,
      94, 95, 96, 97, 98, 99, 100, 101, 102, 103, 104, 105, 106, 107, 108, 109,
      110, 111, 201, 202, 203, 204, 205, 206, 207, 208, 209, 210, 211, 212, 213,
      214, 215, 216, 217, 218, 219, 220, 221, 222, 223, 224, 225, 226, 227, 228,
      229, 230, 231, 232, 233, 234, 235, 236, 237, 238, 239, 240, 241, 242, 243,
      244, 245, 246, 247, 248, 249, 250, 251, 252, 253, 254, 255, 256, 257, 258,
      259, 260, 261, 262, 263, 264, 265, 266, 267, 268, 269, 270, 271, 272, 273,
      274, 275, 276, 277, 278, 279, 280, 281, 282, 283, 284, 285, 286, 287, 288,
      289, 290, 291, 292, 293, 294, 295, 296, 297, 298, 299, 300, 301, 302, 303,
      304, 305, 306, 307, 308, 309, 310, 311
    ]
  }
]
