[
  {
    "id": 1,
    "NKNNMELLFFH": "UI_ACTIVITY_LANTERNRITEV2_PROJECTION_PART_BUTTON_1",
    "iconPath": "ART/UI/Atlas/LanternRiteV2/UI_LanternRiteV2_Lamp_Parts1"
  },
  {
    "id": 2,
    "NKNNMELLFFH": "UI_ACTIVITY_LANTERNRITEV2_PROJECTION_PART_BUTTON_2",
    "iconPath": "ART/UI/Atlas/LanternRiteV2/UI_LanternRiteV2_Lamp_Parts2"
  },
  {
    "id": 3,
    "NKNNMELLFFH": "UI_ACTIVITY_LANTERNRITEV2_PROJECTION_PART_BUTTON_3",
    "iconPath": "ART/UI/Atlas/LanternRiteV2/UI_LanternRiteV2_Lamp_Parts3"
  },
  {
    "id": 11,
    "NKNNMELLFFH": "UI_ACTIVITY_LANTERNRITEV2_PROJECTION_PART_BUTTON_ALL",
    "iconPath": "ART/UI/Atlas/LanternRiteV2/UI_LanternRiteV2_Lamp_Parts4"
  }
]
