[
  {
    "ID": 1,
    "dungeonId": 68,
    "KGKMKCDDBFO": [8, 9]
  },
  {
    "ID": 2,
    "dungeonId": 7602,
    "KGKMKCDDBFO": [8, 9]
  },
  {
    "ID": 3,
    "dungeonId": 7605,
    "KGKMKCDDBFO": [8, 9]
  },
  {
    "ID": 4,
    "dungeonId": 7617,
    "KGKMKCDDBFO": [8, 9]
  },
  {
    "ID": 5,
    "dungeonId": 7608,
    "KGKMKCDDBFO": [8, 9]
  },
  {
    "ID": 6,
    "dungeonId": 7611,
    "KGKMKCDDBFO": [8, 9]
  },
  {
    "ID": 7,
    "dungeonId": 7614,
    "KGKMKCDDBFO": [8, 9]
  },
  {
    "ID": 8,
    "dungeonId": 1131,
    "KGKMKCDDBFO": [13, 14, 15, 16]
  },
  {
    "ID": 9,
    "dungeonId": 1132,
    "KGKMKCDDBFO": [8, 9]
  },
  {
    "ID": 10,
    "dungeonId": 1157,
    "KGKMKCDDBFO": [26, 27, 28]
  }
]
