[
  {
    "stageId": 1,
    "dayIndex": 1,
    "EONMHCOLJFN": 726495150,
    "BLFHJHKPOIJ": 3131143440,
    "BIEECANIHPK": 3504688709,
    "LEGPEKMEJHB": 1438211639,
    "DNDKKPKGHGJ": [5079001, 5079002, 5079003, 5079029],
    "watcherList": [1507901],
    "FLAGGDKNMGB": [71501, 71506],
    "IDOIGDLCAJB": 50790101,
    "pushTipsID": 11054
  },
  {
    "stageId": 2,
    "dayIndex": 2,
    "EONMHCOLJFN": 2959184374,
    "BLFHJHKPOIJ": 1955363912,
    "BIEECANIHPK": 1986386509,
    "LEGPEKMEJHB": 3924626695,
    "DNDKKPKGHGJ": [5079004, 5079005, 5079006, 5079030],
    "watcherList": [1507902],
    "FLAGGDKNMGB": [71502, 71507],
    "IDOIGDLCAJB": 50790102,
    "pushTipsID": 11055
  },
  {
    "stageId": 3,
    "dayIndex": 3,
    "EONMHCOLJFN": 1673221838,
    "BLFHJHKPOIJ": 4038672088,
    "BIEECANIHPK": 1267804629,
    "LEGPEKMEJHB": 4288147399,
    "DNDKKPKGHGJ": [5079007, 5079008, 5079009, 5079031],
    "watcherList": [1507903],
    "FLAGGDKNMGB": [71503, 71508],
    "IDOIGDLCAJB": 50790103,
    "pushTipsID": 11056
  },
  {
    "stageId": 4,
    "dayIndex": 4,
    "EONMHCOLJFN": 990204454,
    "BLFHJHKPOIJ": 1219300432,
    "BIEECANIHPK": 3953632133,
    "LEGPEKMEJHB": 612082239,
    "DNDKKPKGHGJ": [5079010, 5079011, 5079012, 5079032],
    "watcherList": [1507904],
    "FLAGGDKNMGB": [71504, 71509],
    "IDOIGDLCAJB": 50790104,
    "pushTipsID": 11057
  },
  {
    "stageId": 5,
    "dayIndex": 5,
    "EONMHCOLJFN": 3801696622,
    "BLFHJHKPOIJ": 3694070072,
    "BIEECANIHPK": 2442633213,
    "LEGPEKMEJHB": 2253878903,
    "DNDKKPKGHGJ": [5079013, 5079014, 5079015, 5079033],
    "watcherList": [1507905, 1507906, 1507907],
    "FLAGGDKNMGB": [71505, 71510],
    "IDOIGDLCAJB": 50790105,
    "pushTipsID": 11058
  }
]
