[
  {
    "Id": 1,
    "NBEHLEJPEEO": "LUNA_RITE_REGION_TYPE_LIYUE",
    "ALKDIMCGCEH": 108109,
    "ILGOJMOPONI": 20070101,
    "rewardID": 32401,
    "PMCEDOMHKPD": "",
    "ADCEPKFDICF": "21010201:1,21010402:1,21030103:1,21010701:1",
    "PAMFAJFEHIB": "21020201:1",
    "ADPCFCLEOHD": 3268287793,
    "NIEFCOFGIMP": 1453195370
  },
  {
    "Id": 2,
    "NBEHLEJPEEO": "LUNA_RITE_REGION_TYPE_LIYUE",
    "ALKDIMCGCEH": 108094,
    "ILGOJMOPONI": 20070102,
    "rewardID": 32402,
    "PMCEDOMHKPD": "",
    "ADCEPKFDICF": "20011201:1,20011401:1,20011001:1,20010801:1",
    "PAMFAJFEHIB": "20011304:1,20011502:1",
    "ADPCFCLEOHD": 2975407969,
    "NIEFCOFGIMP": 2777554202
  },
  {
    "Id": 3,
    "NBEHLEJPEEO": "LUNA_RITE_REGION_TYPE_LIYUE",
    "ALKDIMCGCEH": 108082,
    "ILGOJMOPONI": 20070103,
    "rewardID": 32403,
    "PMCEDOMHKPD": "",
    "ADCEPKFDICF": "25030301:1,25070101:1,25010201:1,25020201:1",
    "PAMFAJFEHIB": "23020101:1",
    "ADPCFCLEOHD": 1704197705,
    "NIEFCOFGIMP": 1224227042
  },
  {
    "Id": 4,
    "NBEHLEJPEEO": "LUNA_RITE_REGION_TYPE_LIYUE",
    "ALKDIMCGCEH": 108106,
    "ILGOJMOPONI": 20070104,
    "rewardID": 32404,
    "PMCEDOMHKPD": "",
    "ADCEPKFDICF": "20011401:1,26030101:1,20011101:1,20011001:1",
    "PAMFAJFEHIB": "26040101:1",
    "ADPCFCLEOHD": 2865095905,
    "NIEFCOFGIMP": 3517938626
  },
  {
    "Id": 5,
    "NBEHLEJPEEO": "LUNA_RITE_REGION_TYPE_LIYUE",
    "ALKDIMCGCEH": 108127,
    "ILGOJMOPONI": 20070105,
    "rewardID": 32405,
    "PMCEDOMHKPD": "",
    "ADCEPKFDICF": "21010401:1,21010201:1,21030103:1,21010701:1",
    "PAMFAJFEHIB": "21020301:1",
    "ADPCFCLEOHD": 828860633,
    "NIEFCOFGIMP": 1947397242
  },
  {
    "Id": 6,
    "NBEHLEJPEEO": "LUNA_RITE_REGION_TYPE_LIYUE",
    "ILGOJMOPONI": 20070106,
    "rewardID": 32406,
    "PMCEDOMHKPD": "",
    "ADCEPKFDICF": "21010201:1,21010401:1,21030103:1,21010701:1",
    "PAMFAJFEHIB": "24010101:1",
    "ADPCFCLEOHD": 1369050113,
    "NIEFCOFGIMP": 3204492090
  },
  {
    "Id": 7,
    "NBEHLEJPEEO": "LUNA_RITE_REGION_TYPE_MENGDE",
    "ALKDIMCGCEH": 108013,
    "ILGOJMOPONI": 20070201,
    "rewardID": 32407,
    "PMCEDOMHKPD": "",
    "ADCEPKFDICF": "21030201:1,21010401:1,21010201:1,21010701:1,21010601:1",
    "PAMFAJFEHIB": "21020101:1",
    "ADPCFCLEOHD": 3299523985,
    "NIEFCOFGIMP": 3316576642
  },
  {
    "Id": 8,
    "NBEHLEJPEEO": "LUNA_RITE_REGION_TYPE_MENGDE",
    "ALKDIMCGCEH": 108006,
    "ILGOJMOPONI": 20070202,
    "rewardID": 32408,
    "PMCEDOMHKPD": "",
    "ADCEPKFDICF": "25020201:1,25010201:1,25010301:1,25010501:1,25030201:1",
    "PAMFAJFEHIB": "23020101:1",
    "ADPCFCLEOHD": 3027964257,
    "NIEFCOFGIMP": 2648840202
  },
  {
    "Id": 9,
    "NBEHLEJPEEO": "LUNA_RITE_REGION_TYPE_MENGDE",
    "ALKDIMCGCEH": 108033,
    "ILGOJMOPONI": 20070203,
    "rewardID": 32409,
    "PMCEDOMHKPD": "",
    "ADCEPKFDICF": "20010801:1,20010501:1,21010401:1,20011001:1,21010902:1,21010701:1",
    "PAMFAJFEHIB": "20010601:1",
    "ADPCFCLEOHD": 3581463745,
    "NIEFCOFGIMP": 4240948258
  },
  {
    "Id": 10,
    "NBEHLEJPEEO": "LUNA_RITE_REGION_TYPE_MENGDE",
    "ALKDIMCGCEH": 108017,
    "ILGOJMOPONI": 20070204,
    "rewardID": 32410,
    "PMCEDOMHKPD": "",
    "ADCEPKFDICF": "21010401:1,21010701:1,21010201:1",
    "PAMFAJFEHIB": "22010104:1",
    "ADPCFCLEOHD": 3587773313,
    "NIEFCOFGIMP": 761200522
  },
  {
    "Id": 11,
    "NBEHLEJPEEO": "LUNA_RITE_REGION_TYPE_MENGDE",
    "ALKDIMCGCEH": 108047,
    "ILGOJMOPONI": 20070205,
    "rewardID": 32411,
    "PMCEDOMHKPD": "",
    "ADCEPKFDICF": "21010201:1,21010401:1,21010701:1,21030101:1,21011601:1,21030301:1",
    "PAMFAJFEHIB": "21020202:1",
    "ADPCFCLEOHD": 2582438017,
    "NIEFCOFGIMP": 3819191098
  },
  {
    "Id": 12,
    "NBEHLEJPEEO": "LUNA_RITE_REGION_TYPE_MENGDE",
    "ILGOJMOPONI": 20070206,
    "rewardID": 32412,
    "PMCEDOMHKPD": "",
    "ADCEPKFDICF": "21010201:1,21010601:1,21030301:1,21010401:1,21010501:1,21010701:1,21030101:1",
    "PAMFAJFEHIB": "21020501:1",
    "ADPCFCLEOHD": 1571778969,
    "NIEFCOFGIMP": 509721338
  },
  {
    "Id": 13,
    "NBEHLEJPEEO": "LUNA_RITE_REGION_TYPE_DRAGONSPINE",
    "ALKDIMCGCEH": 108009,
    "ILGOJMOPONI": 20070301,
    "rewardID": 32413,
    "PMCEDOMHKPD": "",
    "ADCEPKFDICF": "21030501:1,21011301:1,21011401:1,21010901:1,21020601:1,21010201:1",
    "PAMFAJFEHIB": "",
    "ADPCFCLEOHD": 1667079401,
    "NIEFCOFGIMP": 1614505946
  },
  {
    "Id": 14,
    "NBEHLEJPEEO": "LUNA_RITE_REGION_TYPE_DRAGONSPINE",
    "ALKDIMCGCEH": 108097,
    "ILGOJMOPONI": 20070302,
    "rewardID": 32414,
    "PMCEDOMHKPD": "",
    "ADCEPKFDICF": "20010801:1,20010501:1,20010901:1,21011401:1,26010101:1",
    "PAMFAJFEHIB": "",
    "ADPCFCLEOHD": 1959317641,
    "NIEFCOFGIMP": 3623858050
  },
  {
    "Id": 15,
    "NBEHLEJPEEO": "LUNA_RITE_REGION_TYPE_DRAGONSPINE",
    "ALKDIMCGCEH": 108039,
    "ILGOJMOPONI": 20070303,
    "rewardID": 32415,
    "PMCEDOMHKPD": "",
    "ADCEPKFDICF": "25030201:1,25010201:1,25030301:1,25010701:1,25020201:1,23040101:1",
    "PAMFAJFEHIB": "",
    "ADPCFCLEOHD": 1018011433,
    "NIEFCOFGIMP": 422704266
  },
  {
    "Id": 16,
    "NBEHLEJPEEO": "LUNA_RITE_REGION_TYPE_DRAGONSPINE",
    "ALKDIMCGCEH": 108206,
    "ILGOJMOPONI": 20070304,
    "rewardID": 32416,
    "PMCEDOMHKPD": "",
    "ADCEPKFDICF": "23010301:1,23010501:1,23010101:1,23010201:1",
    "PAMFAJFEHIB": "",
    "ADPCFCLEOHD": 3832567465,
    "NIEFCOFGIMP": 2178425866
  },
  {
    "Id": 17,
    "NBEHLEJPEEO": "LUNA_RITE_REGION_TYPE_DRAGONSPINE",
    "ALKDIMCGCEH": 108061,
    "ILGOJMOPONI": 20070305,
    "rewardID": 32417,
    "PMCEDOMHKPD": "",
    "ADCEPKFDICF": "21030501:1,21011301:1,21010401:1,21020601:1,21011401:1,21010201:1",
    "PAMFAJFEHIB": "",
    "ADPCFCLEOHD": 4148018817,
    "NIEFCOFGIMP": 3977335554
  },
  {
    "Id": 18,
    "NBEHLEJPEEO": "LUNA_RITE_REGION_TYPE_DRAGONSPINE",
    "ILGOJMOPONI": 20070306,
    "rewardID": 32418,
    "PMCEDOMHKPD": "",
    "ADCEPKFDICF": "21010201:1,21010401:1,21011301:1,21011401:1,21010901:1,28020304:1",
    "PAMFAJFEHIB": "",
    "ADPCFCLEOHD": 3070594961,
    "NIEFCOFGIMP": 2503116578
  }
]
