[
  {
    "scheduleId": 2002001,
    "condId": 2002164,
    "watcherIdList": [],
    "avatarRewardList": [3008001, 3008006, 3008002, 3008004, 3008003, 3008005],
    "descTextMapHash": 4093489151,
    "costItemNum": [115],
    "KPNCJPNDFFL": [1000]
  },
  {
    "scheduleId": 2004001,
    "condId": 2004014,
    "watcherIdList": [],
    "avatarRewardList": [3015401],
    "descTextMapHash": 4209415871,
    "costItemNum": [122],
    "KPNCJPNDFFL": [1000]
  },
  {
    "scheduleId": 2006001,
    "condId": 2006111,
    "watcherIdList": [],
    "avatarRewardList": [3020001],
    "descTextMapHash": 2565587871,
    "costItemNum": [127, 128],
    "KPNCJPNDFFL": [1000, 1000]
  },
  {
    "scheduleId": 2008001,
    "condId": 2008009,
    "watcherIdList": [2008018],
    "avatarRewardList": [3025001],
    "descTextMapHash": 3129338567,
    "costItemNum": [134],
    "KPNCJPNDFFL": [1000]
  },
  {
    "scheduleId": 2010001,
    "condId": 2010007,
    "watcherIdList": [],
    "avatarRewardList": [
      3035001, 3035002, 3035003, 3035004, 3035005, 3035006, 3035007, 3035008
    ],
    "descTextMapHash": 1068450767,
    "costItemNum": [137, 139],
    "KPNCJPNDFFL": [1000, 1000]
  },
  {
    "scheduleId": 2012001,
    "condId": 2012120,
    "watcherIdList": [12012103, 12012235, 12012234, 12012304],
    "avatarRewardList": [3042001],
    "descTextMapHash": 1443525671,
    "costItemNum": [],
    "KPNCJPNDFFL": []
  },
  {
    "scheduleId": 2014001,
    "condId": 2014002,
    "watcherIdList": [12014501],
    "avatarRewardList": [3047001],
    "descTextMapHash": 2555517879,
    "costItemNum": [],
    "KPNCJPNDFFL": []
  },
  {
    "scheduleId": 2017001,
    "condId": 2017502,
    "watcherIdList": [],
    "avatarRewardList": [3058001],
    "descTextMapHash": 1254380255,
    "costItemNum": [151, 152],
    "KPNCJPNDFFL": [1000, 1000]
  },
  {
    "scheduleId": 2019001,
    "condId": 2019001,
    "watcherIdList": [1201904],
    "avatarRewardList": [
      3065001, 3065002, 3065003, 3065004, 3065005, 3065006, 3065007, 3065008,
      3065009
    ],
    "descTextMapHash": 522775383,
    "costItemNum": [],
    "KPNCJPNDFFL": []
  },
  {
    "scheduleId": 2021001,
    "condId": 2021007,
    "watcherIdList": [12021001],
    "avatarRewardList": [3068106],
    "descTextMapHash": 1791666775,
    "costItemNum": [],
    "KPNCJPNDFFL": []
  }
]
