[
  {
    "id": 1,
    "IDNJFNIBICK": 3,
    "GIAHJBEMMNH": 5,
    "rewardPreviewId": 40101,
    "AFAFFMODEAA": 39,
    "effectDescTextMapHash": 1546547195
  },
  {
    "id": 2,
    "IDNJFNIBICK": 3,
    "GIAHJBEMMNH": 5,
    "rewardPreviewId": 40102,
    "AFAFFMODEAA": 39,
    "effectDescTextMapHash": 3384315403
  },
  {
    "id": 3,
    "IDNJFNIBICK": 3,
    "GIAHJBEMMNH": 5,
    "rewardPreviewId": 40103,
    "AFAFFMODEAA": 39,
    "effectDescTextMapHash": 2647824339
  },
  {
    "id": 4,
    "IDNJFNIBICK": 3,
    "GIAHJBEMMNH": 5,
    "rewardPreviewId": 40104,
    "AFAFFMODEAA": 39,
    "effectDescTextMapHash": 2634425003
  },
  {
    "id": 5,
    "IDNJFNIBICK": 3,
    "GIAHJBEMMNH": 5,
    "rewardPreviewId": 40105,
    "AFAFFMODEAA": 39,
    "effectDescTextMapHash": 2063980115
  },
  {
    "id": 6,
    "IDNJFNIBICK": 3,
    "GIAHJBEMMNH": 5,
    "rewardPreviewId": 40106,
    "AFAFFMODEAA": 39,
    "effectDescTextMapHash": 2741324587
  },
  {
    "id": 7,
    "IDNJFNIBICK": 3,
    "GIAHJBEMMNH": 5,
    "rewardPreviewId": 40107,
    "AFAFFMODEAA": 39,
    "effectDescTextMapHash": 3968076331
  },
  {
    "id": 8,
    "IDNJFNIBICK": 3,
    "GIAHJBEMMNH": 5,
    "rewardPreviewId": 40108,
    "AFAFFMODEAA": 39,
    "effectDescTextMapHash": 1708085347
  },
  {
    "id": 9,
    "IDNJFNIBICK": 3,
    "GIAHJBEMMNH": 5,
    "rewardPreviewId": 40109,
    "AFAFFMODEAA": 39,
    "effectDescTextMapHash": 929044307
  },
  {
    "id": 10,
    "IDNJFNIBICK": 3,
    "GIAHJBEMMNH": 5,
    "rewardPreviewId": 40110,
    "AFAFFMODEAA": 39,
    "effectDescTextMapHash": 358999507
  },
  {
    "id": 11,
    "IDNJFNIBICK": 3,
    "GIAHJBEMMNH": 5,
    "rewardPreviewId": 40111,
    "AFAFFMODEAA": 39,
    "effectDescTextMapHash": 2709374635
  },
  {
    "id": 12,
    "IDNJFNIBICK": 3,
    "GIAHJBEMMNH": 5,
    "rewardPreviewId": 40112,
    "AFAFFMODEAA": 39,
    "effectDescTextMapHash": 2863728683
  },
  {
    "id": 13,
    "IDNJFNIBICK": 3,
    "GIAHJBEMMNH": 5,
    "rewardPreviewId": 40113,
    "AFAFFMODEAA": 39,
    "effectDescTextMapHash": 1949880123
  },
  {
    "id": 14,
    "IDNJFNIBICK": 3,
    "GIAHJBEMMNH": 5,
    "rewardPreviewId": 40114,
    "AFAFFMODEAA": 39,
    "effectDescTextMapHash": 1716924387
  }
]
