[
  {
    "id": 1,
    "NPEIGGDAHLN": 2689243084,
    "AKIGOKPCHHI": 4277090032,
    "JOGKBEJMLDI": 13519843368553292596,
    "MEICKCEKIIN": "REUNION_JUMP_WEBVIEW",
    "NMAOGBLCJFG": [
      {
        "param": []
      },
      {
        "param": []
      }
    ],
    "LCIHBAKIOEC": "REUNION_RED_POINT_SHOW"
  },
  {
    "id": 2,
    "NPEIGGDAHLN": 756006828,
    "AKIGOKPCHHI": 3665015088,
    "JOGKBEJMLDI": 5168487466868897363,
    "MEICKCEKIIN": "REUNION_JUMP_INVESTIGATION_QUEST",
    "NMAOGBLCJFG": [
      {
        "type": "REUNION_GUIDE_OPEN_TYPE_ADV_HAS_UNFINISH_QUEST",
        "param": []
      },
      {
        "param": []
      }
    ],
    "LCIHBAKIOEC": "REUNION_RED_POINT_HIDE"
  },
  {
    "id": 3,
    "NPEIGGDAHLN": 2316754588,
    "AKIGOKPCHHI": 657100144,
    "JOGKBEJMLDI": 7077116751778997484,
    "MEICKCEKIIN": "REUNION_JUMP_INVESTIGATION_EDUCATION",
    "KFLGCOOCEEO": "REUNION_GUIDE_OP_TYPE_OR",
    "NMAOGBLCJFG": [
      {
        "type": "REUNION_GUIDE_OPEN_TYPE_ADV_HAS_UNFINISH_WATCHER",
        "param": []
      },
      {
        "type": "REUNION_GUIDE_OPEN_TYPE_ADV_HAS_AVAILABLE_REWARD",
        "param": []
      }
    ],
    "LCIHBAKIOEC": "REUNION_RED_POINT_HIDE"
  },
  {
    "id": 4,
    "NPEIGGDAHLN": 1854186700,
    "AKIGOKPCHHI": 3079749448,
    "JOGKBEJMLDI": 1637380986733015864,
    "MEICKCEKIIN": "REUNION_JUMP_GCG",
    "KFLGCOOCEEO": "REUNION_GUIDE_OP_TYPE_AND",
    "NMAOGBLCJFG": [
      {
        "type": "REUNION_GUIDE_OPEN_TYPE_PLAYER_LEVEL_GEQ",
        "param": [32]
      },
      {
        "type": "REUNION_GUIDE_OPEN_TYPE_PREQUEST_FINISH",
        "param": [39604]
      }
    ],
    "LCIHBAKIOEC": "REUNION_RED_POINT_HIDE"
  },
  {
    "id": 5,
    "NPEIGGDAHLN": 2456650228,
    "AKIGOKPCHHI": 1148176224,
    "JOGKBEJMLDI": 8736631099856134680,
    "MEICKCEKIIN": "REUNION_JUMP_HOME",
    "KFLGCOOCEEO": "REUNION_GUIDE_OP_TYPE_AND",
    "NMAOGBLCJFG": [
      {
        "type": "REUNION_GUIDE_OPEN_TYPE_PLAYER_LEVEL_GEQ",
        "param": [28]
      },
      {
        "type": "REUNION_GUIDE_OPEN_TYPE_PREQUEST_FINISH",
        "param": [102510, 1100811]
      }
    ],
    "LCIHBAKIOEC": "REUNION_RED_POINT_HIDE"
  }
]
