[
  {
    "LDDDHCCLGPH": 1,
    "poolId": 1,
    "groupId": 1
  },
  {
    "LDDDHCCLGPH": 2,
    "poolId": 1,
    "groupId": 2
  },
  {
    "LDDDHCCLGPH": 3,
    "poolId": 1,
    "groupId": 3
  },
  {
    "LDDDHCCLGPH": 4,
    "poolId": 1,
    "groupId": 4
  },
  {
    "LDDDHCCLGPH": 5,
    "poolId": 1,
    "groupId": 5
  },
  {
    "LDDDHCCLGPH": 6,
    "poolId": 1,
    "groupId": 6
  },
  {
    "LDDDHCCLGPH": 7,
    "poolId": 2,
    "groupId": 1
  },
  {
    "LDDDHCCLGPH": 8,
    "poolId": 2,
    "groupId": 3
  },
  {
    "LDDDHCCLGPH": 9,
    "poolId": 2,
    "groupId": 4
  },
  {
    "LDDDHCCLGPH": 10,
    "poolId": 2,
    "groupId": 6
  }
]
