[
  {
    "activityId": 2013,
    "questIdList": ["1019", "1028", "1029", "1030|1031"],
    "MNEIPFIPDPA": [2013001, 2013001, 2013003, 2013005],
    "watcherIdList": [1201301, 1201302, 1201303]
  }
]
