[
  {
    "id": 1,
    "groupId": 133220387,
    "rewardId": 200020101,
    "EIELBMIHPPD": 30501,
    "reviseLevel": 1,
    "mapTitleTextMapHash": 1320633543,
    "mapDescTextMapHash": 2810707278,
    "showImage": "UI_TreasureHunt_Puzzle2",
    "AOAILNAPKBA": 8,
    "regionCenter": [-2379.39990234375, 245.6999969482422, -4291.60009765625],
    "regionRadius": 20
  },
  {
    "id": 2,
    "unlockRegionId": 4,
    "groupId": 133212197,
    "rewardId": 200020102,
    "EIELBMIHPPD": 30501,
    "reviseLevel": 1,
    "mapTitleTextMapHash": 4157591751,
    "mapDescTextMapHash": 3548578646,
    "showImage": "UI_TreasureHunt_Puzzle2",
    "AOAILNAPKBA": 8,
    "regionCenter": [-3729.0, 204.0, -1675.5999755859375],
    "regionRadius": 20
  }
]
