[
  {
    "ID": 1,
    "treePattern": "Area_Ljxs_Tree_Common_Birchtree01_Lod0",
    "treeType": "TREE_TYPE_BIRCH"
  },
  {
    "ID": 2,
    "treePattern": "Area_Ljxs_Tree_Common_Pt_01_NoSnow_Lod0",
    "treeType": "TREE_TYPE_PINE"
  },
  {
    "ID": 3,
    "treePattern": "Tree_Area_Ljxs_Tree_Common_Pt_01_Lod0",
    "treeType": "TREE_TYPE_PINE"
  },
  {
    "ID": 4,
    "treePattern": "Tree_Area_Ljxs_Tree_Common_Pt_02_Lod0",
    "treeType": "TREE_TYPE_PINE"
  },
  {
    "ID": 5,
    "treePattern": "Tree_Area_Ljxs_Tree_Common_Pt_03_Lod0",
    "treeType": "TREE_TYPE_PINE"
  },
  {
    "ID": 6,
    "treePattern": "Tree_Area_Ljxs_Tree_Common_Pt_04_Lod0",
    "treeType": "TREE_TYPE_PINE"
  },
  {
    "ID": 7,
    "treePattern": "Tree_Area_Ly_Tree_Common_Gg_02_Lod0",
    "treeType": "TREE_TYPE_POPULUS_EUPHRATICA"
  },
  {
    "ID": 8,
    "treePattern": "Tree_Area_Ly_Tree_Common_Gg_03_Lod0",
    "treeType": "TREE_TYPE_POPULUS_EUPHRATICA"
  },
  {
    "ID": 9,
    "treePattern": "Tree_Area_Ly_Tree_Common_Gg_06_Lod0",
    "treeType": "TREE_TYPE_POPULUS_EUPHRATICA"
  },
  {
    "ID": 10,
    "treePattern": "Tree_Area_Ly_Tree_Common_Pt_01_Lod0",
    "treeType": "TREE_TYPE_PINE"
  },
  {
    "ID": 11,
    "treePattern": "Tree_Area_Ly_Tree_Common_Pt_02_Lod0",
    "treeType": "TREE_TYPE_PINE"
  },
  {
    "ID": 12,
    "treePattern": "Tree_Area_Ly_Tree_Common_Pt_03_Lod0",
    "treeType": "TREE_TYPE_PINE"
  },
  {
    "ID": 13,
    "treePattern": "Tree_Area_Ly_Tree_Common_Pt_05_Lod0",
    "treeType": "TREE_TYPE_PINE"
  },
  {
    "ID": 14,
    "treePattern": "Tree_Area_Ly_Tree_QC_Bamboo_01_Lod0",
    "treeType": "TREE_TYPE_BAMBOO"
  },
  {
    "ID": 15,
    "treePattern": "Tree_Area_Ly_Tree_QC_Bamboo_02_Lod0",
    "treeType": "TREE_TYPE_BAMBOO"
  },
  {
    "ID": 16,
    "treePattern": "Tree_Area_Ly_Tree_QC_Bamboo_03_Lod0",
    "treeType": "TREE_TYPE_BAMBOO"
  },
  {
    "ID": 17,
    "treePattern": "Tree_Area_Ly_Tree_QC_Bamboo_04_Lod0",
    "treeType": "TREE_TYPE_BAMBOO"
  },
  {
    "ID": 18,
    "treePattern": "Tree_Stages_AppleTree01_Vo",
    "treeType": "TREE_TYPE_MAPLE"
  },
  {
    "ID": 19,
    "treePattern": "Tree_Stages_Birchtree01_Fin",
    "treeType": "TREE_TYPE_BIRCH"
  },
  {
    "ID": 20,
    "treePattern": "Tree_Stages_CyPinetree01_Fin",
    "treeType": "TREE_TYPE_PINE"
  },
  {
    "ID": 21,
    "treePattern": "Tree_Stages_CyPinetree02_Fin",
    "treeType": "TREE_TYPE_PINE"
  },
  {
    "ID": 22,
    "treePattern": "Tree_Stages_CyPinetree03_Fin",
    "treeType": "TREE_TYPE_PINE"
  },
  {
    "ID": 23,
    "treePattern": "Tree_Stages_CyTree01_Fin",
    "treeType": "TREE_TYPE_CYPRESS"
  },
  {
    "ID": 24,
    "treePattern": "Tree_Stages_CyTree02_Fin",
    "treeType": "TREE_TYPE_CYPRESS"
  },
  {
    "ID": 25,
    "treePattern": "Tree_Stages_CyTree03_Fin",
    "treeType": "TREE_TYPE_CYPRESS"
  },
  {
    "ID": 26,
    "treePattern": "Tree_Stages_CyTree04_Fin",
    "treeType": "TREE_TYPE_CYPRESS"
  },
  {
    "ID": 27,
    "treePattern": "Tree_Stages_CyTree05_Fin",
    "treeType": "TREE_TYPE_CYPRESS"
  },
  {
    "ID": 28,
    "treePattern": "Tree_Stages_FirTree01_Fin",
    "treeType": "TREE_TYPE_FIRTREE"
  },
  {
    "ID": 29,
    "treePattern": "Tree_Stages_FirTree02_Fin",
    "treeType": "TREE_TYPE_FIRTREE"
  },
  {
    "ID": 30,
    "treePattern": "Tree_Stages_FirTree03_Fin",
    "treeType": "TREE_TYPE_FIRTREE"
  },
  {
    "ID": 31,
    "treePattern": "Tree_Stages_Fleur_CyPineTree_01_Fin",
    "treeType": "TREE_TYPE_PINE"
  },
  {
    "ID": 32,
    "treePattern": "Tree_Area_Dq_Common_Fs_01_01_Fin",
    "treeType": "TREE_TYPE_ACER"
  },
  {
    "ID": 33,
    "treePattern": "Tree_Area_Dq_Common_Fs_02_01_Fin",
    "treeType": "TREE_TYPE_ACER"
  },
  {
    "ID": 34,
    "treePattern": "Tree_Area_Dq_Common_Liushan_02_01_Fin",
    "treeType": "TREE_TYPE_CRYPTOMERIA"
  },
  {
    "ID": 35,
    "treePattern": "Tree_Area_Dq_Common_Liushan_03_01_Fin",
    "treeType": "TREE_TYPE_CRYPTOMERIA"
  },
  {
    "ID": 36,
    "treePattern": "Tree_Area_Dq_Common_Liushan_05_01_Fin",
    "treeType": "TREE_TYPE_CRYPTOMERIA"
  },
  {
    "ID": 37,
    "treePattern": "Tree_Area_Dq_Common_Ls_01_01_Fin",
    "treeType": "TREE_TYPE_OTOGI"
  },
  {
    "ID": 38,
    "treePattern": "Tree_Area_Dq_Common_Ls_03_01_Fin",
    "treeType": "TREE_TYPE_OTOGI"
  },
  {
    "ID": 39,
    "treePattern": "Tree_Area_Dq_Common_Ls_04_01_Fin",
    "treeType": "TREE_TYPE_OTOGI"
  },
  {
    "ID": 40,
    "treePattern": "Tree_Area_Dq_Common_Ls_05_01_Fin",
    "treeType": "TREE_TYPE_OTOGI"
  },
  {
    "ID": 41,
    "treePattern": "Tree_Area_Dq_Common_Ls_06_01_Fin",
    "treeType": "TREE_TYPE_OTOGI"
  },
  {
    "ID": 42,
    "treePattern": "Tree_Area_Dq_Common_Pt_01_01_Fin",
    "treeType": "TREE_TYPE_PINE"
  },
  {
    "ID": 43,
    "treePattern": "Tree_Area_Dq_Common_Pt_02_01_Fin",
    "treeType": "TREE_TYPE_PINE"
  },
  {
    "ID": 44,
    "treePattern": "Tree_Area_Dq_Common_Pt_03_01_Fin",
    "treeType": "TREE_TYPE_PINE"
  },
  {
    "ID": 45,
    "treePattern": "Tree_Area_Dq_Common_Pt_05_01_Fin",
    "treeType": "TREE_TYPE_PINE"
  },
  {
    "ID": 46,
    "treePattern": "Tree_Area_Dq_Common_Sak_01_01_Fin",
    "treeType": "TREE_TYPE_CERASUS"
  },
  {
    "ID": 47,
    "treePattern": "Tree_Area_Dq_Common_Sak_06_01_Fin",
    "treeType": "TREE_TYPE_CERASUS"
  },
  {
    "ID": 48,
    "treePattern": "Tree_Area_Dq_HZD_Ty_02_01_Fin",
    "treeType": "TREE_TYPE_CYPRESS"
  },
  {
    "ID": 49,
    "treePattern": "Tree_Area_Dq_Common_Sak_07_01_Fin",
    "treeType": "TREE_TYPE_CERASUS"
  },
  {
    "ID": 50,
    "treePattern": "Tree_Area_Dq_Tree_Common_Pt_04_Lod0",
    "treeType": "TREE_TYPE_PINE"
  },
  {
    "ID": 51,
    "treePattern": "Tree_Area_Dq_Tree_HG_Ty_01_Lod0",
    "treeType": "TREE_TYPE_CRYPTOMERIA"
  },
  {
    "ID": 52,
    "treePattern": "Tree_Area_Cyjy_Tree_UP_E_01_Lod0",
    "treeType": "TREE_TYPE_POPULUS_EUPHRATICA"
  },
  {
    "ID": 53,
    "treePattern": "Tree_Area_Cyjy_Tree_UP_E_02_Lod0",
    "treeType": "TREE_TYPE_POPULUS_EUPHRATICA"
  },
  {
    "ID": 54,
    "treePattern": "Tree_Area_Cyjy_Tree_UP_Hys_01_Lod0",
    "treeType": "TREE_TYPE_POPULUS_EUPHRATICA"
  },
  {
    "ID": 55,
    "treePattern": "Tree_Area_Cyjy_Tree_UP_Hys_04_Lod0",
    "treeType": "TREE_TYPE_POPULUS_EUPHRATICA"
  },
  {
    "ID": 56,
    "treePattern": "Tree_Area_Cyjy_Tree_UP_Hys_05_Lod0",
    "treeType": "TREE_TYPE_POPULUS_EUPHRATICA"
  },
  {
    "ID": 57,
    "treePattern": "Tree_Area_Cyjy_Tree_UP_Hys_06_Lod0",
    "treeType": "TREE_TYPE_POPULUS_EUPHRATICA"
  },
  {
    "ID": 58,
    "treePattern": "Tree_Area_Cyjy_Tree_UP_Hys_07_Lod0",
    "treeType": "TREE_TYPE_POPULUS_EUPHRATICA"
  },
  {
    "ID": 59,
    "treePattern": "Tree_Area_Cyjy_Tree_UP_Hys_08_Lod0",
    "treeType": "TREE_TYPE_POPULUS_EUPHRATICA"
  },
  {
    "ID": 60,
    "treePattern": "Tree_Area_Cyjy_Tree_UP_Hys_09_Lod0",
    "treeType": "TREE_TYPE_POPULUS_EUPHRATICA"
  },
  {
    "ID": 61,
    "treePattern": "Tree_Area_Cyjy_Tree_UP_Hys_13_Lod0",
    "treeType": "TREE_TYPE_POPULUS_EUPHRATICA"
  },
  {
    "ID": 62,
    "treePattern": "Tree_Area_Cyjy_Tree_UP_Hys_14_Lod0",
    "treeType": "TREE_TYPE_POPULUS_EUPHRATICA"
  },
  {
    "ID": 63,
    "treePattern": "Tree_Area_Cyjy_Tree_UP_Hys_15_Lod0",
    "treeType": "TREE_TYPE_POPULUS_EUPHRATICA"
  },
  {
    "ID": 64,
    "treePattern": "Tree_Area_Xm_Tree_ARC_PingShu_08_Bark_Lod0",
    "treeType": "TREE_TYPE_FICUS"
  },
  {
    "ID": 65,
    "treePattern": "Tree_Area_Xm_Tree_ARC_PingShu_09_Bark_Lod0",
    "treeType": "TREE_TYPE_FICUS"
  },
  {
    "ID": 66,
    "treePattern": "Tree_Area_Xm_Tree_Common_Cys_01_Lod0",
    "treeType": "TREE_TYPE_MELIA"
  },
  {
    "ID": 67,
    "treePattern": "Tree_Area_Xm_Tree_Common_Cys_02_Lod0",
    "treeType": "TREE_TYPE_MELIA"
  },
  {
    "ID": 68,
    "treePattern": "Tree_Area_Xm_Tree_Common_Hds_04_Lod0",
    "treeType": "TREE_TYPE_MARATTIA"
  },
  {
    "ID": 69,
    "treePattern": "Tree_Area_Xm_Tree_Common_Hyds_01_Lod0",
    "treeType": "TREE_TYPE_MARATTIA"
  },
  {
    "ID": 70,
    "treePattern": "Tree_Area_Xm_Tree_Common_Palm_01_Lod0",
    "treeType": "TREE_TYPE_MELIA"
  },
  {
    "ID": 71,
    "treePattern": "Tree_Area_Xm_Tree_Common_Palm_03_Lod0",
    "treeType": "TREE_TYPE_MELIA"
  },
  {
    "ID": 72,
    "treePattern": "Tree_Area_Xm_Tree_Common_Palm_04_Lod0",
    "treeType": "TREE_TYPE_MELIA"
  },
  {
    "ID": 73,
    "treePattern": "Tree_Area_Xm_Tree_Common_Qgs_01_Lod0",
    "treeType": "TREE_TYPE_MARATTIA"
  },
  {
    "ID": 74,
    "treePattern": "Tree_Area_Xm_Tree_Common_Sxs_02_Lod0",
    "treeType": "TREE_TYPE_MARATTIA"
  },
  {
    "ID": 75,
    "treePattern": "Tree_Area_Xm_Tree_Common_Sxs_04_Lod0",
    "treeType": "TREE_TYPE_MARATTIA"
  },
  {
    "ID": 76,
    "treePattern": "Tree_Area_Xm_Tree_Common_Tieshu_01_Lod0",
    "treeType": "TREE_TYPE_MARATTIA"
  },
  {
    "ID": 77,
    "treePattern": "Tree_Area_Xm_Tree_Common_Tieshu_02_Lod0",
    "treeType": "TREE_TYPE_MARATTIA"
  },
  {
    "ID": 78,
    "treePattern": "Tree_Area_Xm_Tree_Common_Tys_07_Lod0",
    "treeType": "TREE_TYPE_FICUS"
  },
  {
    "ID": 79,
    "treePattern": "Tree_Area_Xm_Tree_Common_Tys_08_Lod0",
    "treeType": "TREE_TYPE_FICUS"
  },
  {
    "ID": 80,
    "treePattern": "Tree_Area_Xm_Tree_Common_Zhs_02_Lod0",
    "treeType": "TREE_TYPE_MARATTIA"
  },
  {
    "ID": 81,
    "treePattern": "Tree_Area_Xm_Tree_Common_Zhs_03_Lod0",
    "treeType": "TREE_TYPE_MARATTIA"
  },
  {
    "ID": 82,
    "treePattern": "Tree_Area_Xm_Tree_CWSM_Blb_01_Fin",
    "treeType": "TREE_TYPE_SYLVESTRIS"
  },
  {
    "ID": 83,
    "treePattern": "Tree_Area_Xm_Tree_CWSM_Blb_04_Fin",
    "treeType": "TREE_TYPE_SYLVESTRIS"
  },
  {
    "ID": 84,
    "treePattern": "Tree_Area_Xm_Tree_CWSM_Blb_05_Fin",
    "treeType": "TREE_TYPE_SYLVESTRIS"
  },
  {
    "ID": 85,
    "treePattern": "Tree_Area_Xm_Tree_CWSM_Blb_06_Fin",
    "treeType": "TREE_TYPE_SYLVESTRIS"
  },
  {
    "ID": 86,
    "treePattern": "Tree_Area_Xm_Tree_CWSM_Bls_02_Fin",
    "treeType": "TREE_TYPE_SYLVESTRIS"
  },
  {
    "ID": 87,
    "treePattern": "Tree_Area_Xm_Tree_CWSM_Bls_03_Fin",
    "treeType": "TREE_TYPE_SYLVESTRIS"
  },
  {
    "ID": 88,
    "treePattern": "Tree_Area_Xm_Tree_CWSM_Cjs_01_Fin",
    "treeType": "TREE_TYPE_SYLVESTRIS"
  },
  {
    "ID": 89,
    "treePattern": "Tree_Area_Xm_Tree_CWSM_Ds_02_Fin",
    "treeType": "TREE_TYPE_TAMARIX"
  },
  {
    "ID": 93,
    "treePattern": "Tree_Area_Xm_Tree_CWSM_Mbs_02_Lod0",
    "treeType": "TREE_TYPE_SYLVESTRIS"
  },
  {
    "ID": 94,
    "treePattern": "Tree_Area_Xm_Tree_CWSM_Xrzs_01_Fin",
    "treeType": "TREE_TYPE_SYLVESTRIS"
  },
  {
    "ID": 95,
    "treePattern": "Tree_Area_Xm_Tree_CWSM_Xrzs_02_Fin",
    "treeType": "TREE_TYPE_SYLVESTRIS"
  },
  {
    "ID": 96,
    "treePattern": "Tree_Area_Xm_Tree_CWSM_Xrzs_04_Fin",
    "treeType": "TREE_TYPE_SYLVESTRIS"
  },
  {
    "ID": 97,
    "treePattern": "Tree_Area_Xm_Tree_CWSM_Yzs_01_Lod0",
    "treeType": "TREE_TYPE_TAMARIX"
  },
  {
    "ID": 98,
    "treePattern": "Tree_Area_Xm_Tree_CWSM_Yzs_02_Lod0",
    "treeType": "TREE_TYPE_TAMARIX"
  },
  {
    "ID": 99,
    "treePattern": "Tree_Area_Xm_Tree_CWSM_Yzs_04_Lod0",
    "treeType": "TREE_TYPE_TAMARIX"
  },
  {
    "ID": 100,
    "treePattern": "Tree_Area_Xm_Tree_CWSM_Yzs_05_Lod0",
    "treeType": "TREE_TYPE_TAMARIX"
  },
  {
    "ID": 101,
    "treePattern": "Tree_Area_Xm_Tree_HYZS_Hyds_02_Fin",
    "treeType": "TREE_TYPE_MARATTIA"
  },
  {
    "ID": 102,
    "treePattern": "Tree_Area_Xm_Tree_ARC_PingShu_01_Lod0",
    "treeType": "TREE_TYPE_FICUS"
  },
  {
    "ID": 103,
    "treePattern": "Tree_Area_Xm_Tree_ARC_PingShu_04_Lod0",
    "treeType": "TREE_TYPE_FICUS"
  },
  {
    "ID": 104,
    "treePattern": "Tree_Area_Xm_Tree_Common_Hds_01_Lod0",
    "treeType": "TREE_TYPE_MARATTIA"
  },
  {
    "ID": 105,
    "treePattern": "Tree_Area_Xm_Tree_Common_Hds_02_Lod0",
    "treeType": "TREE_TYPE_MARATTIA"
  },
  {
    "ID": 106,
    "treePattern": "Tree_Area_Xm_Tree_Common_Hds_03_Lod0",
    "treeType": "TREE_TYPE_MARATTIA"
  },
  {
    "ID": 107,
    "treePattern": "Tree_Area_Xm_Tree_Common_Hds_05_Lod0",
    "treeType": "TREE_TYPE_MARATTIA"
  },
  {
    "ID": 108,
    "treePattern": "Tree_Area_Xm_Tree_Common_Palm_02_Lod0",
    "treeType": "TREE_TYPE_MELIA"
  },
  {
    "ID": 109,
    "treePattern": "Tree_Area_Xm_Tree_Common_Sxs_01_Lod0",
    "treeType": "TREE_TYPE_MARATTIA"
  },
  {
    "ID": 110,
    "treePattern": "Tree_Area_Xm_Tree_Common_Sxs_03_Lod0",
    "treeType": "TREE_TYPE_MARATTIA"
  },
  {
    "ID": 111,
    "treePattern": "Tree_Area_Xm_Tree_Common_Tieshu_03_Lod0",
    "treeType": "TREE_TYPE_MARATTIA"
  },
  {
    "ID": 112,
    "treePattern": "Tree_Area_Xm_Tree_CWSM_Ds_01_Lod0",
    "treeType": "TREE_TYPE_TAMARIX"
  },
  {
    "ID": 114,
    "treePattern": "Tree_Area_Xm_Tree_CWSM_Yzs_03_Lod0",
    "treeType": "TREE_TYPE_TAMARIX"
  },
  {
    "ID": 115,
    "treePattern": "Tree_Area_Xm_Tree_SH_Hys_03_Lod0",
    "treeType": "TREE_TYPE_TAMARIX"
  },
  {
    "ID": 116,
    "treePattern": "Tree_Area_Xm_Tree_SH_Hys_04_Lod0",
    "treeType": "TREE_TYPE_TAMARIX"
  },
  {
    "ID": 117,
    "treePattern": "Tree_Area_Xm_Tree_SH_Hys_05_Lod0",
    "treeType": "TREE_TYPE_TAMARIX"
  }
]
