[
  {
    "id": 101,
    "detailIdList": [10101, 10102],
    "CODAHKPAIMH": [],
    "MBCCKIJLLFM": []
  },
  {
    "id": 102,
    "detailIdList": [10201],
    "CODAHKPAIMH": [],
    "MBCCKIJLLFM": []
  },
  {
    "id": 103,
    "detailIdList": [10301, 10302],
    "pauseGame": true,
    "CODAHKPAIMH": [],
    "MBCCKIJLLFM": []
  },
  {
    "id": 104,
    "detailIdList": [10401, 10402, 10403],
    "pauseGame": true,
    "CODAHKPAIMH": [],
    "MBCCKIJLLFM": []
  },
  {
    "id": 105,
    "detailIdList": [10501, 10502, 10503],
    "pauseGame": true,
    "CODAHKPAIMH": [],
    "MBCCKIJLLFM": []
  },
  {
    "id": 106,
    "detailIdList": [10601, 10602],
    "pauseGame": true,
    "CODAHKPAIMH": [],
    "MBCCKIJLLFM": []
  },
  {
    "id": 107,
    "detailIdList": [10701, 10702],
    "pauseGame": true,
    "CODAHKPAIMH": [],
    "MBCCKIJLLFM": []
  },
  {
    "id": 108,
    "detailIdList": [10801],
    "pauseGame": true,
    "CODAHKPAIMH": [],
    "MBCCKIJLLFM": []
  },
  {
    "id": 109,
    "detailIdList": [10901, 10902],
    "pauseGame": true,
    "CODAHKPAIMH": [],
    "MBCCKIJLLFM": []
  },
  {
    "id": 110,
    "detailIdList": [11001, 11002],
    "pauseGame": true,
    "CODAHKPAIMH": [],
    "MBCCKIJLLFM": []
  },
  {
    "id": 111,
    "detailIdList": [11101, 11102],
    "pauseGame": true,
    "CODAHKPAIMH": [],
    "MBCCKIJLLFM": []
  },
  {
    "id": 112,
    "detailIdList": [11201, 11202],
    "pauseGame": true,
    "CODAHKPAIMH": [],
    "MBCCKIJLLFM": []
  },
  {
    "id": 113,
    "detailIdList": [11301, 11302, 11303, 11304],
    "pauseGame": true,
    "CODAHKPAIMH": [],
    "MBCCKIJLLFM": []
  },
  {
    "id": 114,
    "detailIdList": [11401, 11402, 11403, 11404, 11405],
    "pauseGame": true,
    "CODAHKPAIMH": [],
    "MBCCKIJLLFM": []
  },
  {
    "id": 115,
    "detailIdList": [11501],
    "pauseGame": true,
    "CODAHKPAIMH": [],
    "MBCCKIJLLFM": []
  },
  {
    "id": 116,
    "detailIdList": [11601],
    "pauseGame": true,
    "CODAHKPAIMH": [],
    "MBCCKIJLLFM": []
  },
  {
    "id": 117,
    "detailIdList": [11701],
    "pauseGame": true,
    "CODAHKPAIMH": [],
    "MBCCKIJLLFM": []
  },
  {
    "id": 118,
    "detailIdList": [11801],
    "pauseGame": true,
    "CODAHKPAIMH": [],
    "MBCCKIJLLFM": []
  },
  {
    "id": 119,
    "detailIdList": [11901],
    "pauseGame": true,
    "CODAHKPAIMH": [],
    "MBCCKIJLLFM": []
  },
  {
    "id": 120,
    "detailIdList": [12001],
    "pauseGame": true,
    "CODAHKPAIMH": [],
    "MBCCKIJLLFM": []
  },
  {
    "id": 121,
    "detailIdList": [12101],
    "pauseGame": true,
    "CODAHKPAIMH": [],
    "MBCCKIJLLFM": []
  },
  {
    "id": 122,
    "detailIdList": [12201],
    "pauseGame": true,
    "CODAHKPAIMH": [],
    "MBCCKIJLLFM": []
  },
  {
    "id": 123,
    "detailIdList": [12301],
    "pauseGame": true,
    "CODAHKPAIMH": [],
    "MBCCKIJLLFM": []
  },
  {
    "id": 124,
    "detailIdList": [12401],
    "pauseGame": true,
    "CODAHKPAIMH": [],
    "MBCCKIJLLFM": []
  },
  {
    "id": 125,
    "detailIdList": [12501],
    "pauseGame": true,
    "CODAHKPAIMH": [],
    "MBCCKIJLLFM": []
  },
  {
    "id": 126,
    "detailIdList": [12601],
    "pauseGame": true,
    "CODAHKPAIMH": [],
    "MBCCKIJLLFM": []
  },
  {
    "id": 127,
    "detailIdList": [12701],
    "pauseGame": true,
    "CODAHKPAIMH": [],
    "MBCCKIJLLFM": []
  },
  {
    "id": 128,
    "detailIdList": [12801],
    "pauseGame": true,
    "CODAHKPAIMH": [],
    "MBCCKIJLLFM": []
  },
  {
    "id": 129,
    "detailIdList": [12901],
    "pauseGame": true,
    "CODAHKPAIMH": [],
    "MBCCKIJLLFM": []
  },
  {
    "id": 130,
    "detailIdList": [13001],
    "pauseGame": true,
    "CODAHKPAIMH": [],
    "MBCCKIJLLFM": []
  },
  {
    "id": 131,
    "detailIdList": [13101],
    "pauseGame": true,
    "CODAHKPAIMH": [],
    "MBCCKIJLLFM": []
  },
  {
    "id": 132,
    "detailIdList": [13201],
    "pauseGame": true,
    "CODAHKPAIMH": [],
    "MBCCKIJLLFM": []
  },
  {
    "id": 133,
    "detailIdList": [13301],
    "pauseGame": true,
    "CODAHKPAIMH": [],
    "MBCCKIJLLFM": []
  },
  {
    "id": 134,
    "detailIdList": [13401],
    "pauseGame": true,
    "CODAHKPAIMH": [],
    "MBCCKIJLLFM": []
  },
  {
    "id": 135,
    "detailIdList": [13501],
    "pauseGame": true,
    "CODAHKPAIMH": [],
    "MBCCKIJLLFM": []
  },
  {
    "id": 136,
    "detailIdList": [13601],
    "pauseGame": true,
    "CODAHKPAIMH": [],
    "MBCCKIJLLFM": []
  },
  {
    "id": 137,
    "detailIdList": [13701],
    "pauseGame": true,
    "CODAHKPAIMH": [],
    "MBCCKIJLLFM": []
  },
  {
    "id": 138,
    "detailIdList": [13801],
    "pauseGame": true,
    "CODAHKPAIMH": [],
    "MBCCKIJLLFM": []
  },
  {
    "id": 139,
    "detailIdList": [13901],
    "pauseGame": true,
    "CODAHKPAIMH": [],
    "MBCCKIJLLFM": []
  },
  {
    "id": 140,
    "detailIdList": [14001],
    "pauseGame": true,
    "CODAHKPAIMH": [],
    "MBCCKIJLLFM": []
  },
  {
    "id": 141,
    "detailIdList": [14101],
    "pauseGame": true,
    "CODAHKPAIMH": [],
    "MBCCKIJLLFM": []
  },
  {
    "id": 142,
    "detailIdList": [14201],
    "pauseGame": true,
    "CODAHKPAIMH": [],
    "MBCCKIJLLFM": []
  },
  {
    "id": 143,
    "detailIdList": [14301],
    "pauseGame": true,
    "CODAHKPAIMH": [],
    "MBCCKIJLLFM": []
  },
  {
    "id": 144,
    "detailIdList": [14401],
    "pauseGame": true,
    "CODAHKPAIMH": [],
    "MBCCKIJLLFM": []
  },
  {
    "id": 145,
    "detailIdList": [14501],
    "pauseGame": true,
    "CODAHKPAIMH": [],
    "MBCCKIJLLFM": []
  },
  {
    "id": 146,
    "detailIdList": [14601],
    "pauseGame": true,
    "CODAHKPAIMH": [],
    "MBCCKIJLLFM": []
  },
  {
    "id": 147,
    "detailIdList": [14701],
    "pauseGame": true,
    "CODAHKPAIMH": [],
    "MBCCKIJLLFM": []
  },
  {
    "id": 148,
    "detailIdList": [14801],
    "pauseGame": true,
    "CODAHKPAIMH": [],
    "MBCCKIJLLFM": []
  },
  {
    "id": 149,
    "detailIdList": [14901, 14902],
    "pauseGame": true,
    "CODAHKPAIMH": [],
    "MBCCKIJLLFM": []
  },
  {
    "id": 150,
    "detailIdList": [15001],
    "pauseGame": true,
    "CODAHKPAIMH": [],
    "MBCCKIJLLFM": []
  },
  {
    "id": 160,
    "detailIdList": [16001, 16002, 16003],
    "pauseGame": true,
    "CODAHKPAIMH": [],
    "MBCCKIJLLFM": []
  },
  {
    "id": 170,
    "detailIdList": [17001, 17002, 17003, 17004, 17005],
    "pauseGame": true,
    "CODAHKPAIMH": [],
    "MBCCKIJLLFM": []
  },
  {
    "id": 180,
    "detailIdList": [18001],
    "CODAHKPAIMH": [],
    "MBCCKIJLLFM": []
  },
  {
    "id": 181,
    "detailIdList": [18101],
    "CODAHKPAIMH": [],
    "MBCCKIJLLFM": []
  },
  {
    "id": 182,
    "detailIdList": [18201],
    "CODAHKPAIMH": [],
    "MBCCKIJLLFM": []
  },
  {
    "id": 183,
    "detailIdList": [18301, 18302],
    "pauseGame": true,
    "CODAHKPAIMH": [],
    "MBCCKIJLLFM": []
  },
  {
    "id": 190,
    "detailIdList": [19004, 19005],
    "pauseGame": true,
    "CODAHKPAIMH": [],
    "MBCCKIJLLFM": []
  },
  {
    "id": 191,
    "detailIdList": [19101],
    "pauseGame": true,
    "CODAHKPAIMH": [],
    "MBCCKIJLLFM": []
  },
  {
    "id": 192,
    "detailIdList": [19201],
    "pauseGame": true,
    "CODAHKPAIMH": [],
    "MBCCKIJLLFM": []
  },
  {
    "id": 201,
    "detailIdList": [20101],
    "pauseGame": true,
    "CODAHKPAIMH": [],
    "MBCCKIJLLFM": []
  },
  {
    "id": 202,
    "detailIdList": [20201],
    "pauseGame": true,
    "CODAHKPAIMH": [],
    "MBCCKIJLLFM": []
  },
  {
    "id": 211,
    "detailIdList": [21101, 21102],
    "pauseGame": true,
    "CODAHKPAIMH": [],
    "MBCCKIJLLFM": []
  },
  {
    "id": 212,
    "detailIdList": [21201],
    "pauseGame": true,
    "CODAHKPAIMH": [],
    "MBCCKIJLLFM": []
  },
  {
    "id": 221,
    "detailIdList": [22101, 22102, 22103],
    "pauseGame": true,
    "CODAHKPAIMH": [],
    "MBCCKIJLLFM": []
  },
  {
    "id": 222,
    "detailIdList": [22201],
    "pauseGame": true,
    "CODAHKPAIMH": [],
    "MBCCKIJLLFM": []
  },
  {
    "id": 231,
    "detailIdList": [23101, 23102, 23103],
    "pauseGame": true,
    "CODAHKPAIMH": [],
    "MBCCKIJLLFM": []
  },
  {
    "id": 232,
    "detailIdList": [23201],
    "pauseGame": true,
    "CODAHKPAIMH": [],
    "MBCCKIJLLFM": []
  },
  {
    "id": 233,
    "detailIdList": [23301],
    "pauseGame": true,
    "CODAHKPAIMH": [],
    "MBCCKIJLLFM": []
  },
  {
    "id": 234,
    "detailIdList": [23401],
    "pauseGame": true,
    "CODAHKPAIMH": [],
    "MBCCKIJLLFM": []
  },
  {
    "id": 235,
    "detailIdList": [23501, 23502],
    "pauseGame": true,
    "CODAHKPAIMH": [],
    "MBCCKIJLLFM": []
  },
  {
    "id": 236,
    "detailIdList": [23601],
    "pauseGame": true,
    "CODAHKPAIMH": [],
    "MBCCKIJLLFM": []
  },
  {
    "id": 237,
    "detailIdList": [23701],
    "pauseGame": true,
    "CODAHKPAIMH": [],
    "MBCCKIJLLFM": []
  },
  {
    "id": 238,
    "detailIdList": [23801],
    "pauseGame": true,
    "CODAHKPAIMH": [],
    "MBCCKIJLLFM": []
  },
  {
    "id": 239,
    "detailIdList": [23901],
    "pauseGame": true,
    "CODAHKPAIMH": [],
    "MBCCKIJLLFM": []
  },
  {
    "id": 240,
    "detailIdList": [24001],
    "pauseGame": true,
    "CODAHKPAIMH": [],
    "MBCCKIJLLFM": []
  },
  {
    "id": 241,
    "detailIdList": [24101],
    "pauseGame": true,
    "CODAHKPAIMH": [],
    "MBCCKIJLLFM": []
  },
  {
    "id": 242,
    "detailIdList": [24201],
    "pauseGame": true,
    "CODAHKPAIMH": [],
    "MBCCKIJLLFM": []
  },
  {
    "id": 243,
    "detailIdList": [24301],
    "pauseGame": true,
    "CODAHKPAIMH": [],
    "MBCCKIJLLFM": []
  },
  {
    "id": 244,
    "detailIdList": [24401],
    "pauseGame": true,
    "CODAHKPAIMH": [],
    "MBCCKIJLLFM": []
  },
  {
    "id": 245,
    "detailIdList": [24501],
    "pauseGame": true,
    "CODAHKPAIMH": [],
    "MBCCKIJLLFM": []
  },
  {
    "id": 246,
    "detailIdList": [24601],
    "pauseGame": true,
    "CODAHKPAIMH": [],
    "MBCCKIJLLFM": []
  },
  {
    "id": 247,
    "detailIdList": [24701],
    "pauseGame": true,
    "CODAHKPAIMH": [],
    "MBCCKIJLLFM": []
  },
  {
    "id": 248,
    "detailIdList": [24801],
    "pauseGame": true,
    "CODAHKPAIMH": [],
    "MBCCKIJLLFM": []
  },
  {
    "id": 249,
    "detailIdList": [24901],
    "pauseGame": true,
    "CODAHKPAIMH": [],
    "MBCCKIJLLFM": []
  },
  {
    "id": 250,
    "detailIdList": [25001],
    "pauseGame": true,
    "CODAHKPAIMH": [],
    "MBCCKIJLLFM": []
  },
  {
    "id": 251,
    "detailIdList": [25101, 25102],
    "pauseGame": true,
    "CODAHKPAIMH": [],
    "MBCCKIJLLFM": []
  },
  {
    "id": 252,
    "detailIdList": [25201],
    "pauseGame": true,
    "CODAHKPAIMH": [],
    "MBCCKIJLLFM": []
  },
  {
    "id": 253,
    "detailIdList": [25301],
    "pauseGame": true,
    "CODAHKPAIMH": [],
    "MBCCKIJLLFM": []
  },
  {
    "id": 254,
    "detailIdList": [25401, 25402],
    "pauseGame": true,
    "CODAHKPAIMH": [],
    "MBCCKIJLLFM": []
  },
  {
    "id": 255,
    "detailIdList": [25501],
    "pauseGame": true,
    "CODAHKPAIMH": [],
    "MBCCKIJLLFM": []
  },
  {
    "id": 256,
    "detailIdList": [25601],
    "pauseGame": true,
    "CODAHKPAIMH": [],
    "MBCCKIJLLFM": []
  },
  {
    "id": 257,
    "detailIdList": [25701, 25702, 25703, 25704, 25705, 25707],
    "pauseGame": true,
    "CODAHKPAIMH": [],
    "MBCCKIJLLFM": []
  },
  {
    "id": 258,
    "detailIdList": [25801],
    "pauseGame": true,
    "CODAHKPAIMH": [],
    "MBCCKIJLLFM": []
  },
  {
    "id": 259,
    "detailIdList": [25901],
    "pauseGame": true,
    "CODAHKPAIMH": [],
    "MBCCKIJLLFM": []
  },
  {
    "id": 260,
    "detailIdList": [26001],
    "pauseGame": true,
    "CODAHKPAIMH": [],
    "MBCCKIJLLFM": []
  },
  {
    "id": 261,
    "detailIdList": [26101],
    "pauseGame": true,
    "CODAHKPAIMH": [],
    "MBCCKIJLLFM": []
  },
  {
    "id": 262,
    "detailIdList": [26201],
    "pauseGame": true,
    "CODAHKPAIMH": [],
    "MBCCKIJLLFM": []
  },
  {
    "id": 263,
    "detailIdList": [26301],
    "pauseGame": true,
    "CODAHKPAIMH": [],
    "MBCCKIJLLFM": []
  },
  {
    "id": 264,
    "detailIdList": [26401],
    "pauseGame": true,
    "CODAHKPAIMH": [],
    "MBCCKIJLLFM": []
  },
  {
    "id": 265,
    "detailIdList": [26501],
    "pauseGame": true,
    "CODAHKPAIMH": [],
    "MBCCKIJLLFM": []
  },
  {
    "id": 266,
    "detailIdList": [26601],
    "pauseGame": true,
    "CODAHKPAIMH": [],
    "MBCCKIJLLFM": []
  },
  {
    "id": 267,
    "detailIdList": [26701],
    "pauseGame": true,
    "CODAHKPAIMH": [],
    "MBCCKIJLLFM": []
  },
  {
    "id": 268,
    "detailIdList": [26801],
    "pauseGame": true,
    "CODAHKPAIMH": [],
    "MBCCKIJLLFM": []
  },
  {
    "id": 269,
    "detailIdList": [26901],
    "pauseGame": true,
    "CODAHKPAIMH": [],
    "MBCCKIJLLFM": []
  },
  {
    "id": 270,
    "detailIdList": [27001],
    "pauseGame": true,
    "CODAHKPAIMH": [],
    "MBCCKIJLLFM": []
  },
  {
    "id": 271,
    "detailIdList": [27101],
    "pauseGame": true,
    "CODAHKPAIMH": [],
    "MBCCKIJLLFM": []
  },
  {
    "id": 272,
    "detailIdList": [27201],
    "pauseGame": true,
    "CODAHKPAIMH": [],
    "MBCCKIJLLFM": []
  },
  {
    "id": 273,
    "detailIdList": [27301],
    "pauseGame": true,
    "CODAHKPAIMH": [],
    "MBCCKIJLLFM": []
  },
  {
    "id": 274,
    "detailIdList": [27401],
    "pauseGame": true,
    "CODAHKPAIMH": [],
    "MBCCKIJLLFM": []
  },
  {
    "id": 275,
    "detailIdList": [27501],
    "pauseGame": true,
    "CODAHKPAIMH": [],
    "MBCCKIJLLFM": []
  },
  {
    "id": 276,
    "detailIdList": [27601],
    "pauseGame": true,
    "CODAHKPAIMH": [],
    "MBCCKIJLLFM": []
  },
  {
    "id": 277,
    "detailIdList": [27701],
    "pauseGame": true,
    "CODAHKPAIMH": [],
    "MBCCKIJLLFM": []
  },
  {
    "id": 278,
    "detailIdList": [27801],
    "pauseGame": true,
    "CODAHKPAIMH": [],
    "MBCCKIJLLFM": []
  },
  {
    "id": 279,
    "detailIdList": [27901],
    "pauseGame": true,
    "CODAHKPAIMH": [],
    "MBCCKIJLLFM": []
  },
  {
    "id": 280,
    "detailIdList": [28001],
    "pauseGame": true,
    "CODAHKPAIMH": [],
    "MBCCKIJLLFM": []
  },
  {
    "id": 281,
    "detailIdList": [28101],
    "pauseGame": true,
    "CODAHKPAIMH": [],
    "MBCCKIJLLFM": []
  },
  {
    "id": 282,
    "detailIdList": [28201],
    "pauseGame": true,
    "CODAHKPAIMH": [],
    "MBCCKIJLLFM": []
  },
  {
    "id": 283,
    "detailIdList": [28301],
    "pauseGame": true,
    "CODAHKPAIMH": [],
    "MBCCKIJLLFM": []
  },
  {
    "id": 284,
    "detailIdList": [28401],
    "pauseGame": true,
    "CODAHKPAIMH": [],
    "MBCCKIJLLFM": []
  },
  {
    "id": 285,
    "detailIdList": [28501],
    "pauseGame": true,
    "CODAHKPAIMH": [],
    "MBCCKIJLLFM": []
  },
  {
    "id": 286,
    "detailIdList": [28601],
    "pauseGame": true,
    "CODAHKPAIMH": [],
    "MBCCKIJLLFM": []
  },
  {
    "id": 287,
    "detailIdList": [28701],
    "pauseGame": true,
    "CODAHKPAIMH": [],
    "MBCCKIJLLFM": []
  },
  {
    "id": 288,
    "detailIdList": [28801],
    "pauseGame": true,
    "CODAHKPAIMH": [],
    "MBCCKIJLLFM": []
  },
  {
    "id": 289,
    "detailIdList": [28901],
    "pauseGame": true,
    "CODAHKPAIMH": [],
    "MBCCKIJLLFM": []
  },
  {
    "id": 290,
    "detailIdList": [29001],
    "pauseGame": true,
    "CODAHKPAIMH": [],
    "MBCCKIJLLFM": []
  },
  {
    "id": 291,
    "detailIdList": [29101],
    "pauseGame": true,
    "CODAHKPAIMH": [],
    "MBCCKIJLLFM": []
  },
  {
    "id": 292,
    "detailIdList": [29201],
    "pauseGame": true,
    "CODAHKPAIMH": [],
    "MBCCKIJLLFM": []
  },
  {
    "id": 293,
    "detailIdList": [29301],
    "pauseGame": true,
    "CODAHKPAIMH": [],
    "MBCCKIJLLFM": []
  },
  {
    "id": 3001,
    "detailIdList": [300101],
    "pauseGame": true,
    "CODAHKPAIMH": [],
    "MBCCKIJLLFM": []
  },
  {
    "id": 3002,
    "detailIdList": [300201],
    "pauseGame": true,
    "CODAHKPAIMH": [],
    "MBCCKIJLLFM": []
  },
  {
    "id": 3003,
    "detailIdList": [300301],
    "pauseGame": true,
    "CODAHKPAIMH": [],
    "MBCCKIJLLFM": []
  },
  {
    "id": 3004,
    "detailIdList": [300401],
    "pauseGame": true,
    "CODAHKPAIMH": [],
    "MBCCKIJLLFM": []
  },
  {
    "id": 3005,
    "detailIdList": [300501],
    "pauseGame": true,
    "CODAHKPAIMH": [],
    "MBCCKIJLLFM": []
  },
  {
    "id": 3006,
    "detailIdList": [300601],
    "pauseGame": true,
    "CODAHKPAIMH": [],
    "MBCCKIJLLFM": []
  },
  {
    "id": 3007,
    "detailIdList": [300701],
    "pauseGame": true,
    "CODAHKPAIMH": [],
    "MBCCKIJLLFM": []
  },
  {
    "id": 3008,
    "detailIdList": [300801],
    "pauseGame": true,
    "CODAHKPAIMH": [],
    "MBCCKIJLLFM": []
  },
  {
    "id": 3009,
    "detailIdList": [300901],
    "pauseGame": true,
    "CODAHKPAIMH": [],
    "MBCCKIJLLFM": []
  },
  {
    "id": 3010,
    "detailIdList": [301001],
    "pauseGame": true,
    "CODAHKPAIMH": [],
    "MBCCKIJLLFM": []
  },
  {
    "id": 3011,
    "detailIdList": [301101, 301102],
    "pauseGame": true,
    "CODAHKPAIMH": [],
    "MBCCKIJLLFM": []
  },
  {
    "id": 3012,
    "detailIdList": [301201],
    "pauseGame": true,
    "CODAHKPAIMH": [],
    "MBCCKIJLLFM": []
  },
  {
    "id": 3013,
    "detailIdList": [301301],
    "pauseGame": true,
    "CODAHKPAIMH": [],
    "MBCCKIJLLFM": []
  },
  {
    "id": 3014,
    "detailIdList": [301401],
    "pauseGame": true,
    "CODAHKPAIMH": [],
    "MBCCKIJLLFM": []
  },
  {
    "id": 3015,
    "detailIdList": [301501],
    "pauseGame": true,
    "CODAHKPAIMH": [],
    "MBCCKIJLLFM": []
  },
  {
    "id": 3016,
    "detailIdList": [301601],
    "pauseGame": true,
    "CODAHKPAIMH": [],
    "MBCCKIJLLFM": []
  },
  {
    "id": 3017,
    "detailIdList": [301701],
    "pauseGame": true,
    "CODAHKPAIMH": [],
    "MBCCKIJLLFM": []
  },
  {
    "id": 3018,
    "detailIdList": [301801],
    "pauseGame": true,
    "CODAHKPAIMH": [],
    "MBCCKIJLLFM": []
  },
  {
    "id": 3019,
    "detailIdList": [301901],
    "pauseGame": true,
    "CODAHKPAIMH": [],
    "MBCCKIJLLFM": []
  },
  {
    "id": 3020,
    "detailIdList": [302001],
    "pauseGame": true,
    "CODAHKPAIMH": [],
    "MBCCKIJLLFM": []
  },
  {
    "id": 3021,
    "detailIdList": [302101],
    "pauseGame": true,
    "CODAHKPAIMH": [],
    "MBCCKIJLLFM": []
  },
  {
    "id": 3022,
    "detailIdList": [302201],
    "pauseGame": true,
    "CODAHKPAIMH": [],
    "MBCCKIJLLFM": []
  },
  {
    "id": 3023,
    "detailIdList": [302301],
    "pauseGame": true,
    "CODAHKPAIMH": [],
    "MBCCKIJLLFM": []
  },
  {
    "id": 3024,
    "detailIdList": [302401],
    "pauseGame": true,
    "CODAHKPAIMH": [],
    "MBCCKIJLLFM": []
  },
  {
    "id": 3025,
    "detailIdList": [302501],
    "pauseGame": true,
    "CODAHKPAIMH": [],
    "MBCCKIJLLFM": []
  },
  {
    "id": 3026,
    "detailIdList": [302601],
    "pauseGame": true,
    "CODAHKPAIMH": [],
    "MBCCKIJLLFM": []
  },
  {
    "id": 3027,
    "detailIdList": [302701],
    "pauseGame": true,
    "CODAHKPAIMH": [],
    "MBCCKIJLLFM": []
  },
  {
    "id": 3028,
    "detailIdList": [302801],
    "pauseGame": true,
    "CODAHKPAIMH": [],
    "MBCCKIJLLFM": []
  },
  {
    "id": 3029,
    "detailIdList": [302901],
    "pauseGame": true,
    "CODAHKPAIMH": [],
    "MBCCKIJLLFM": []
  },
  {
    "id": 3030,
    "detailIdList": [303001],
    "pauseGame": true,
    "CODAHKPAIMH": [],
    "MBCCKIJLLFM": []
  },
  {
    "id": 3031,
    "detailIdList": [303101],
    "pauseGame": true,
    "CODAHKPAIMH": [],
    "MBCCKIJLLFM": []
  },
  {
    "id": 3032,
    "detailIdList": [303201],
    "pauseGame": true,
    "CODAHKPAIMH": [],
    "MBCCKIJLLFM": []
  },
  {
    "id": 3033,
    "detailIdList": [303301],
    "pauseGame": true,
    "CODAHKPAIMH": [],
    "MBCCKIJLLFM": []
  },
  {
    "id": 3034,
    "detailIdList": [303401],
    "pauseGame": true,
    "CODAHKPAIMH": [],
    "MBCCKIJLLFM": []
  },
  {
    "id": 3035,
    "detailIdList": [303501],
    "pauseGame": true,
    "CODAHKPAIMH": [],
    "MBCCKIJLLFM": []
  },
  {
    "id": 3036,
    "detailIdList": [303601],
    "pauseGame": true,
    "CODAHKPAIMH": [],
    "MBCCKIJLLFM": []
  },
  {
    "id": 3037,
    "detailIdList": [303701],
    "pauseGame": true,
    "CODAHKPAIMH": [],
    "MBCCKIJLLFM": []
  },
  {
    "id": 3038,
    "detailIdList": [303801],
    "pauseGame": true,
    "CODAHKPAIMH": [],
    "MBCCKIJLLFM": []
  },
  {
    "id": 3039,
    "detailIdList": [303901],
    "pauseGame": true,
    "CODAHKPAIMH": [],
    "MBCCKIJLLFM": []
  },
  {
    "id": 3040,
    "detailIdList": [304001],
    "pauseGame": true,
    "CODAHKPAIMH": [],
    "MBCCKIJLLFM": []
  },
  {
    "id": 300,
    "detailIdList": [30000],
    "pauseGame": true,
    "CODAHKPAIMH": [],
    "MBCCKIJLLFM": []
  },
  {
    "id": 301,
    "detailIdList": [30101],
    "pauseGame": true,
    "CODAHKPAIMH": [],
    "MBCCKIJLLFM": []
  },
  {
    "id": 302,
    "detailIdList": [30201, 30202],
    "pauseGame": true,
    "CODAHKPAIMH": [],
    "MBCCKIJLLFM": []
  },
  {
    "id": 303,
    "detailIdList": [30301, 30302],
    "pauseGame": true,
    "CODAHKPAIMH": [],
    "MBCCKIJLLFM": []
  },
  {
    "id": 304,
    "detailIdList": [30401],
    "pauseGame": true,
    "CODAHKPAIMH": [],
    "MBCCKIJLLFM": []
  },
  {
    "id": 305,
    "detailIdList": [30501],
    "pauseGame": true,
    "CODAHKPAIMH": [],
    "MBCCKIJLLFM": []
  },
  {
    "id": 306,
    "detailIdList": [30601],
    "pauseGame": true,
    "CODAHKPAIMH": [],
    "MBCCKIJLLFM": []
  },
  {
    "id": 307,
    "detailIdList": [30701],
    "pauseGame": true,
    "CODAHKPAIMH": [],
    "MBCCKIJLLFM": []
  },
  {
    "id": 308,
    "detailIdList": [30801],
    "pauseGame": true,
    "CODAHKPAIMH": [],
    "MBCCKIJLLFM": []
  },
  {
    "id": 309,
    "detailIdList": [30901],
    "pauseGame": true,
    "CODAHKPAIMH": [],
    "MBCCKIJLLFM": []
  },
  {
    "id": 310,
    "detailIdList": [31001],
    "pauseGame": true,
    "CODAHKPAIMH": [],
    "MBCCKIJLLFM": []
  },
  {
    "id": 311,
    "detailIdList": [31101],
    "pauseGame": true,
    "CODAHKPAIMH": [],
    "MBCCKIJLLFM": []
  },
  {
    "id": 312,
    "detailIdList": [31201],
    "pauseGame": true,
    "CODAHKPAIMH": [],
    "MBCCKIJLLFM": []
  },
  {
    "id": 313,
    "detailIdList": [31301],
    "pauseGame": true,
    "CODAHKPAIMH": [],
    "MBCCKIJLLFM": []
  },
  {
    "id": 314,
    "detailIdList": [31401],
    "pauseGame": true,
    "CODAHKPAIMH": [],
    "MBCCKIJLLFM": []
  },
  {
    "id": 315,
    "detailIdList": [31501],
    "pauseGame": true,
    "CODAHKPAIMH": [],
    "MBCCKIJLLFM": []
  },
  {
    "id": 316,
    "detailIdList": [31601],
    "pauseGame": true,
    "CODAHKPAIMH": [],
    "MBCCKIJLLFM": []
  },
  {
    "id": 317,
    "detailIdList": [31701],
    "pauseGame": true,
    "CODAHKPAIMH": [],
    "MBCCKIJLLFM": []
  },
  {
    "id": 318,
    "detailIdList": [31801],
    "pauseGame": true,
    "CODAHKPAIMH": [],
    "MBCCKIJLLFM": []
  },
  {
    "id": 319,
    "detailIdList": [31901],
    "pauseGame": true,
    "CODAHKPAIMH": [],
    "MBCCKIJLLFM": []
  },
  {
    "id": 320,
    "detailIdList": [32001],
    "pauseGame": true,
    "CODAHKPAIMH": [],
    "MBCCKIJLLFM": []
  },
  {
    "id": 321,
    "detailIdList": [32101],
    "pauseGame": true,
    "CODAHKPAIMH": [],
    "MBCCKIJLLFM": []
  },
  {
    "id": 322,
    "detailIdList": [32201],
    "pauseGame": true,
    "CODAHKPAIMH": [],
    "MBCCKIJLLFM": []
  },
  {
    "id": 323,
    "detailIdList": [32301],
    "pauseGame": true,
    "CODAHKPAIMH": [],
    "MBCCKIJLLFM": []
  },
  {
    "id": 324,
    "detailIdList": [32401],
    "pauseGame": true,
    "CODAHKPAIMH": [],
    "MBCCKIJLLFM": []
  },
  {
    "id": 325,
    "detailIdList": [32501, 32502],
    "pauseGame": true,
    "CODAHKPAIMH": [],
    "MBCCKIJLLFM": []
  },
  {
    "id": 326,
    "detailIdList": [32601],
    "pauseGame": true,
    "CODAHKPAIMH": [],
    "MBCCKIJLLFM": []
  },
  {
    "id": 327,
    "detailIdList": [32701],
    "pauseGame": true,
    "CODAHKPAIMH": [],
    "MBCCKIJLLFM": []
  },
  {
    "id": 328,
    "detailIdList": [32801],
    "pauseGame": true,
    "CODAHKPAIMH": [],
    "MBCCKIJLLFM": []
  },
  {
    "id": 329,
    "detailIdList": [32901],
    "pauseGame": true,
    "CODAHKPAIMH": [],
    "MBCCKIJLLFM": []
  },
  {
    "id": 330,
    "detailIdList": [33001],
    "pauseGame": true,
    "CODAHKPAIMH": [],
    "MBCCKIJLLFM": []
  },
  {
    "id": 331,
    "detailIdList": [33101, 33102],
    "pauseGame": true,
    "CODAHKPAIMH": [],
    "MBCCKIJLLFM": []
  },
  {
    "id": 332,
    "detailIdList": [33201],
    "pauseGame": true,
    "CODAHKPAIMH": [],
    "MBCCKIJLLFM": []
  },
  {
    "id": 333,
    "detailIdList": [33301],
    "pauseGame": true,
    "CODAHKPAIMH": [],
    "MBCCKIJLLFM": []
  },
  {
    "id": 334,
    "detailIdList": [33401],
    "pauseGame": true,
    "CODAHKPAIMH": [],
    "MBCCKIJLLFM": []
  },
  {
    "id": 335,
    "detailIdList": [33501],
    "pauseGame": true,
    "CODAHKPAIMH": [],
    "MBCCKIJLLFM": []
  },
  {
    "id": 336,
    "detailIdList": [33601],
    "pauseGame": true,
    "CODAHKPAIMH": [],
    "MBCCKIJLLFM": []
  },
  {
    "id": 337,
    "detailIdList": [33701],
    "pauseGame": true,
    "CODAHKPAIMH": [],
    "MBCCKIJLLFM": []
  },
  {
    "id": 338,
    "detailIdList": [33801],
    "pauseGame": true,
    "CODAHKPAIMH": [],
    "MBCCKIJLLFM": []
  },
  {
    "id": 339,
    "detailIdList": [33901, 33902],
    "pauseGame": true,
    "CODAHKPAIMH": [],
    "MBCCKIJLLFM": []
  },
  {
    "id": 340,
    "detailIdList": [34001],
    "pauseGame": true,
    "CODAHKPAIMH": [],
    "MBCCKIJLLFM": []
  },
  {
    "id": 341,
    "detailIdList": [34101],
    "pauseGame": true,
    "CODAHKPAIMH": [],
    "MBCCKIJLLFM": []
  },
  {
    "id": 342,
    "detailIdList": [34201, 34202],
    "pauseGame": true,
    "CODAHKPAIMH": [],
    "MBCCKIJLLFM": []
  },
  {
    "id": 343,
    "detailIdList": [34301, 34302, 34303],
    "pauseGame": true,
    "CODAHKPAIMH": [],
    "MBCCKIJLLFM": []
  },
  {
    "id": 344,
    "detailIdList": [34401],
    "pauseGame": true,
    "CODAHKPAIMH": [],
    "MBCCKIJLLFM": []
  },
  {
    "id": 345,
    "detailIdList": [34501, 34502, 34503],
    "pauseGame": true,
    "CODAHKPAIMH": [],
    "MBCCKIJLLFM": []
  },
  {
    "id": 346,
    "detailIdList": [34601, 34602],
    "pauseGame": true,
    "CODAHKPAIMH": [],
    "MBCCKIJLLFM": []
  },
  {
    "id": 347,
    "detailIdList": [34701],
    "pauseGame": true,
    "CODAHKPAIMH": [],
    "MBCCKIJLLFM": []
  },
  {
    "id": 348,
    "detailIdList": [34801],
    "pauseGame": true,
    "CODAHKPAIMH": [],
    "MBCCKIJLLFM": []
  },
  {
    "id": 349,
    "detailIdList": [34901],
    "pauseGame": true,
    "CODAHKPAIMH": [],
    "MBCCKIJLLFM": []
  },
  {
    "id": 350,
    "detailIdList": [35001, 35002],
    "pauseGame": true,
    "CODAHKPAIMH": [],
    "MBCCKIJLLFM": []
  },
  {
    "id": 351,
    "detailIdList": [35101],
    "pauseGame": true,
    "CODAHKPAIMH": [],
    "MBCCKIJLLFM": []
  },
  {
    "id": 352,
    "detailIdList": [35201, 35202, 35203],
    "pauseGame": true,
    "CODAHKPAIMH": [],
    "MBCCKIJLLFM": []
  },
  {
    "id": 353,
    "detailIdList": [35301, 35302, 35303],
    "pauseGame": true,
    "CODAHKPAIMH": [],
    "MBCCKIJLLFM": []
  },
  {
    "id": 354,
    "detailIdList": [35401, 35402, 35403],
    "pauseGame": true,
    "CODAHKPAIMH": [],
    "MBCCKIJLLFM": []
  },
  {
    "id": 355,
    "detailIdList": [35501, 35502, 35503],
    "pauseGame": true,
    "CODAHKPAIMH": [],
    "MBCCKIJLLFM": []
  },
  {
    "id": 356,
    "detailIdList": [35601],
    "pauseGame": true,
    "CODAHKPAIMH": [],
    "MBCCKIJLLFM": []
  },
  {
    "id": 357,
    "detailIdList": [35701, 35702],
    "pauseGame": true,
    "CODAHKPAIMH": [],
    "MBCCKIJLLFM": []
  },
  {
    "id": 358,
    "detailIdList": [35801],
    "pauseGame": true,
    "CODAHKPAIMH": [],
    "MBCCKIJLLFM": []
  },
  {
    "id": 359,
    "detailIdList": [35901, 35902],
    "pauseGame": true,
    "CODAHKPAIMH": [],
    "MBCCKIJLLFM": []
  },
  {
    "id": 360,
    "detailIdList": [36001, 36002],
    "pauseGame": true,
    "CODAHKPAIMH": [],
    "MBCCKIJLLFM": []
  },
  {
    "id": 361,
    "detailIdList": [36101, 36102],
    "pauseGame": true,
    "CODAHKPAIMH": [],
    "MBCCKIJLLFM": []
  },
  {
    "id": 362,
    "detailIdList": [36201, 36202, 36203],
    "pauseGame": true,
    "CODAHKPAIMH": [],
    "MBCCKIJLLFM": []
  },
  {
    "id": 363,
    "detailIdList": [36301],
    "pauseGame": true,
    "CODAHKPAIMH": [],
    "MBCCKIJLLFM": []
  },
  {
    "id": 364,
    "detailIdList": [36401],
    "pauseGame": true,
    "CODAHKPAIMH": [],
    "MBCCKIJLLFM": []
  },
  {
    "id": 365,
    "detailIdList": [36501],
    "pauseGame": true,
    "CODAHKPAIMH": [],
    "MBCCKIJLLFM": []
  },
  {
    "id": 366,
    "detailIdList": [36601, 36602],
    "pauseGame": true,
    "CODAHKPAIMH": [],
    "MBCCKIJLLFM": []
  },
  {
    "id": 367,
    "detailIdList": [36701, 36702],
    "pauseGame": true,
    "CODAHKPAIMH": [],
    "MBCCKIJLLFM": []
  },
  {
    "id": 368,
    "detailIdList": [36801],
    "pauseGame": true,
    "CODAHKPAIMH": [],
    "MBCCKIJLLFM": []
  },
  {
    "id": 369,
    "detailIdList": [36901, 36902],
    "pauseGame": true,
    "CODAHKPAIMH": [],
    "MBCCKIJLLFM": []
  },
  {
    "id": 370,
    "detailIdList": [37001, 37002, 37003],
    "pauseGame": true,
    "CODAHKPAIMH": [],
    "MBCCKIJLLFM": []
  },
  {
    "id": 371,
    "detailIdList": [37101],
    "pauseGame": true,
    "CODAHKPAIMH": [],
    "MBCCKIJLLFM": []
  },
  {
    "id": 372,
    "detailIdList": [37201],
    "pauseGame": true,
    "CODAHKPAIMH": [],
    "MBCCKIJLLFM": []
  },
  {
    "id": 373,
    "detailIdList": [37301, 37302],
    "pauseGame": true,
    "CODAHKPAIMH": [],
    "MBCCKIJLLFM": []
  },
  {
    "id": 374,
    "detailIdList": [37401, 37402],
    "pauseGame": true,
    "CODAHKPAIMH": [],
    "MBCCKIJLLFM": []
  },
  {
    "id": 375,
    "detailIdList": [37501],
    "pauseGame": true,
    "CODAHKPAIMH": [],
    "MBCCKIJLLFM": []
  },
  {
    "id": 376,
    "detailIdList": [37601],
    "pauseGame": true,
    "CODAHKPAIMH": [],
    "MBCCKIJLLFM": []
  },
  {
    "id": 377,
    "detailIdList": [37701, 37702],
    "pauseGame": true,
    "CODAHKPAIMH": [],
    "MBCCKIJLLFM": []
  },
  {
    "id": 378,
    "detailIdList": [37801],
    "pauseGame": true,
    "CODAHKPAIMH": [],
    "MBCCKIJLLFM": []
  },
  {
    "id": 379,
    "detailIdList": [37901],
    "pauseGame": true,
    "CODAHKPAIMH": [],
    "MBCCKIJLLFM": []
  },
  {
    "id": 380,
    "detailIdList": [38001, 38002],
    "pauseGame": true,
    "CODAHKPAIMH": [],
    "MBCCKIJLLFM": []
  },
  {
    "id": 381,
    "detailIdList": [38101, 38102, 38103],
    "pauseGame": true,
    "CODAHKPAIMH": [],
    "MBCCKIJLLFM": []
  },
  {
    "id": 400,
    "detailIdList": [40001, 40002],
    "pauseGame": true,
    "CODAHKPAIMH": [],
    "MBCCKIJLLFM": []
  },
  {
    "id": 401,
    "detailIdList": [40003],
    "pauseGame": true,
    "CODAHKPAIMH": [],
    "MBCCKIJLLFM": []
  },
  {
    "id": 402,
    "detailIdList": [40003],
    "pauseGame": true,
    "CODAHKPAIMH": [],
    "MBCCKIJLLFM": []
  },
  {
    "id": 403,
    "detailIdList": [40003],
    "pauseGame": true,
    "CODAHKPAIMH": [],
    "MBCCKIJLLFM": []
  },
  {
    "id": 404,
    "detailIdList": [40003],
    "pauseGame": true,
    "CODAHKPAIMH": [],
    "MBCCKIJLLFM": []
  },
  {
    "id": 405,
    "detailIdList": [40003],
    "pauseGame": true,
    "CODAHKPAIMH": [],
    "MBCCKIJLLFM": []
  },
  {
    "id": 406,
    "detailIdList": [40003],
    "pauseGame": true,
    "CODAHKPAIMH": [],
    "MBCCKIJLLFM": []
  },
  {
    "id": 407,
    "detailIdList": [40003],
    "pauseGame": true,
    "CODAHKPAIMH": [],
    "MBCCKIJLLFM": []
  },
  {
    "id": 408,
    "detailIdList": [40004],
    "pauseGame": true,
    "CODAHKPAIMH": [],
    "MBCCKIJLLFM": []
  },
  {
    "id": 409,
    "detailIdList": [40005],
    "pauseGame": true,
    "CODAHKPAIMH": [],
    "MBCCKIJLLFM": []
  },
  {
    "id": 410,
    "detailIdList": [
      40021, 40006, 40007, 40008, 40009, 40010, 40011, 40012, 40013
    ],
    "pauseGame": true,
    "CODAHKPAIMH": [],
    "MBCCKIJLLFM": []
  },
  {
    "id": 411,
    "detailIdList": [
      40014, 40015, 40016, 40017, 40018, 40019, 40020, 40022, 40023, 40024,
      40025, 40026, 40027, 40028, 40029, 40030
    ],
    "pauseGame": true,
    "CODAHKPAIMH": [],
    "MBCCKIJLLFM": []
  },
  {
    "id": 412,
    "detailIdList": [41201, 41202, 41203, 41204, 41205, 41206],
    "pauseGame": true,
    "CODAHKPAIMH": [],
    "MBCCKIJLLFM": []
  },
  {
    "id": 413,
    "detailIdList": [41301, 41302],
    "pauseGame": true,
    "CODAHKPAIMH": [],
    "MBCCKIJLLFM": []
  },
  {
    "id": 414,
    "detailIdList": [41401, 41402],
    "pauseGame": true,
    "CODAHKPAIMH": [],
    "MBCCKIJLLFM": []
  },
  {
    "id": 415,
    "detailIdList": [41501, 41502, 41503, 41504, 41505, 41506, 41507, 41508],
    "pauseGame": true,
    "CODAHKPAIMH": [],
    "MBCCKIJLLFM": []
  },
  {
    "id": 416,
    "detailIdList": [41601, 41602],
    "pauseGame": true,
    "CODAHKPAIMH": [],
    "MBCCKIJLLFM": []
  },
  {
    "id": 500,
    "detailIdList": [50001],
    "pauseGame": true,
    "CODAHKPAIMH": [],
    "MBCCKIJLLFM": []
  },
  {
    "id": 501,
    "detailIdList": [50101],
    "pauseGame": true,
    "CODAHKPAIMH": [],
    "MBCCKIJLLFM": []
  },
  {
    "id": 502,
    "detailIdList": [50201],
    "pauseGame": true,
    "CODAHKPAIMH": [],
    "MBCCKIJLLFM": []
  },
  {
    "id": 503,
    "detailIdList": [50301],
    "pauseGame": true,
    "CODAHKPAIMH": [],
    "MBCCKIJLLFM": []
  },
  {
    "id": 601,
    "detailIdList": [60001, 60002],
    "pauseGame": true,
    "CODAHKPAIMH": [],
    "MBCCKIJLLFM": []
  },
  {
    "id": 602,
    "detailIdList": [60201],
    "pauseGame": true,
    "CODAHKPAIMH": [],
    "MBCCKIJLLFM": []
  },
  {
    "id": 701,
    "detailIdList": [70101, 70102],
    "pauseGame": true,
    "CODAHKPAIMH": [],
    "MBCCKIJLLFM": []
  },
  {
    "id": 702,
    "detailIdList": [70201, 70202],
    "pauseGame": true,
    "CODAHKPAIMH": [],
    "MBCCKIJLLFM": []
  },
  {
    "id": 703,
    "detailIdList": [70301, 70302],
    "pauseGame": true,
    "CODAHKPAIMH": [],
    "MBCCKIJLLFM": []
  },
  {
    "id": 704,
    "detailIdList": [70401],
    "pauseGame": true,
    "CODAHKPAIMH": [],
    "MBCCKIJLLFM": []
  },
  {
    "id": 705,
    "detailIdList": [70501, 70502],
    "pauseGame": true,
    "CODAHKPAIMH": [],
    "MBCCKIJLLFM": []
  },
  {
    "id": 706,
    "detailIdList": [70601, 70602],
    "pauseGame": true,
    "CODAHKPAIMH": [],
    "MBCCKIJLLFM": []
  },
  {
    "id": 707,
    "detailIdList": [70701, 70702],
    "pauseGame": true,
    "CODAHKPAIMH": [],
    "MBCCKIJLLFM": []
  },
  {
    "id": 708,
    "detailIdList": [70801, 70802, 70803],
    "pauseGame": true,
    "CODAHKPAIMH": [],
    "MBCCKIJLLFM": []
  },
  {
    "id": 709,
    "detailIdList": [70901, 70902],
    "pauseGame": true,
    "CODAHKPAIMH": [],
    "MBCCKIJLLFM": []
  },
  {
    "id": 801,
    "detailIdList": [80103, 80101, 80102],
    "pauseGame": true,
    "CODAHKPAIMH": [],
    "MBCCKIJLLFM": []
  },
  {
    "id": 802,
    "detailIdList": [80201, 80202, 80203, 80204],
    "pauseGame": true,
    "CODAHKPAIMH": [],
    "MBCCKIJLLFM": []
  },
  {
    "id": 803,
    "detailIdList": [80301, 80302],
    "pauseGame": true,
    "CODAHKPAIMH": [],
    "MBCCKIJLLFM": []
  },
  {
    "id": 804,
    "detailIdList": [80201, 80202, 80203, 80204, 80301, 80302],
    "pauseGame": true,
    "CODAHKPAIMH": [],
    "MBCCKIJLLFM": []
  },
  {
    "id": 805,
    "detailIdList": [80501, 80502],
    "pauseGame": true,
    "CODAHKPAIMH": [],
    "MBCCKIJLLFM": []
  },
  {
    "id": 806,
    "detailIdList": [80601, 80602],
    "pauseGame": true,
    "CODAHKPAIMH": [],
    "MBCCKIJLLFM": []
  },
  {
    "id": 807,
    "detailIdList": [80701, 80702, 80703],
    "pauseGame": true,
    "CODAHKPAIMH": [],
    "MBCCKIJLLFM": []
  },
  {
    "id": 808,
    "detailIdList": [80801, 80802, 80803],
    "pauseGame": true,
    "CODAHKPAIMH": [],
    "MBCCKIJLLFM": []
  },
  {
    "id": 809,
    "detailIdList": [80901, 80902, 80903],
    "pauseGame": true,
    "CODAHKPAIMH": [],
    "MBCCKIJLLFM": []
  },
  {
    "id": 810,
    "detailIdList": [81001, 81002, 81003],
    "pauseGame": true,
    "CODAHKPAIMH": [],
    "MBCCKIJLLFM": []
  },
  {
    "id": 811,
    "detailIdList": [81101, 81102, 81103],
    "pauseGame": true,
    "CODAHKPAIMH": [],
    "MBCCKIJLLFM": []
  },
  {
    "id": 812,
    "detailIdList": [81201, 81202, 81203, 81204, 81205],
    "pauseGame": true,
    "CODAHKPAIMH": [],
    "MBCCKIJLLFM": []
  },
  {
    "id": 813,
    "detailIdList": [81301, 81302, 81303, 81304, 81305],
    "pauseGame": true,
    "CODAHKPAIMH": [],
    "MBCCKIJLLFM": []
  },
  {
    "id": 814,
    "detailIdList": [81401, 81402, 81403, 81404],
    "pauseGame": true,
    "CODAHKPAIMH": [],
    "MBCCKIJLLFM": []
  },
  {
    "id": 815,
    "detailIdList": [81501, 81502, 81503, 81504],
    "pauseGame": true,
    "CODAHKPAIMH": [],
    "MBCCKIJLLFM": []
  },
  {
    "id": 816,
    "detailIdList": [81601, 81602, 81603],
    "pauseGame": true,
    "CODAHKPAIMH": [],
    "MBCCKIJLLFM": []
  },
  {
    "id": 817,
    "detailIdList": [81701, 81702, 81703],
    "pauseGame": true,
    "CODAHKPAIMH": [],
    "MBCCKIJLLFM": []
  },
  {
    "id": 818,
    "detailIdList": [81801, 81802, 81803, 81804],
    "pauseGame": true,
    "CODAHKPAIMH": [],
    "MBCCKIJLLFM": []
  },
  {
    "id": 819,
    "detailIdList": [81901, 81902, 81903, 81904, 81905],
    "pauseGame": true,
    "CODAHKPAIMH": [],
    "MBCCKIJLLFM": []
  },
  {
    "id": 820,
    "detailIdList": [82001, 82002, 82003],
    "pauseGame": true,
    "CODAHKPAIMH": [],
    "MBCCKIJLLFM": []
  },
  {
    "id": 821,
    "detailIdList": [82101, 82102, 82103],
    "pauseGame": true,
    "CODAHKPAIMH": [],
    "MBCCKIJLLFM": []
  },
  {
    "id": 822,
    "detailIdList": [82201, 82202],
    "pauseGame": true,
    "CODAHKPAIMH": [],
    "MBCCKIJLLFM": []
  },
  {
    "id": 823,
    "detailIdList": [82301, 82302, 82303],
    "pauseGame": true,
    "CODAHKPAIMH": [],
    "MBCCKIJLLFM": []
  },
  {
    "id": 824,
    "detailIdList": [82401, 82402, 82403, 82404],
    "pauseGame": true,
    "CODAHKPAIMH": [],
    "MBCCKIJLLFM": []
  },
  {
    "id": 825,
    "detailIdList": [82501, 82502, 82503],
    "pauseGame": true,
    "CODAHKPAIMH": [],
    "MBCCKIJLLFM": []
  },
  {
    "id": 826,
    "detailIdList": [82601, 82602],
    "pauseGame": true,
    "CODAHKPAIMH": [],
    "MBCCKIJLLFM": []
  },
  {
    "id": 827,
    "detailIdList": [82701, 82702, 82703, 82704],
    "pauseGame": true,
    "CODAHKPAIMH": [],
    "MBCCKIJLLFM": []
  },
  {
    "id": 828,
    "detailIdList": [82801, 82802],
    "pauseGame": true,
    "CODAHKPAIMH": [],
    "MBCCKIJLLFM": []
  },
  {
    "id": 829,
    "detailIdList": [82701, 82702, 82703, 82704, 82801, 82802],
    "pauseGame": true,
    "CODAHKPAIMH": [],
    "MBCCKIJLLFM": []
  },
  {
    "id": 830,
    "detailIdList": [83001, 83002],
    "pauseGame": true,
    "CODAHKPAIMH": [],
    "MBCCKIJLLFM": []
  },
  {
    "id": 831,
    "detailIdList": [83101, 83102, 83103],
    "pauseGame": true,
    "CODAHKPAIMH": [],
    "MBCCKIJLLFM": []
  },
  {
    "id": 832,
    "detailIdList": [83201, 83202, 83203, 83204],
    "pauseGame": true,
    "CODAHKPAIMH": [],
    "MBCCKIJLLFM": []
  },
  {
    "id": 833,
    "detailIdList": [83301, 83302, 83303],
    "pauseGame": true,
    "CODAHKPAIMH": [],
    "MBCCKIJLLFM": []
  },
  {
    "id": 834,
    "detailIdList": [83401, 83402, 83403, 83404],
    "pauseGame": true,
    "CODAHKPAIMH": [],
    "MBCCKIJLLFM": []
  },
  {
    "id": 835,
    "detailIdList": [83501],
    "pauseGame": true,
    "CODAHKPAIMH": [],
    "MBCCKIJLLFM": []
  },
  {
    "id": 836,
    "detailIdList": [83601, 83602, 83603],
    "pauseGame": true,
    "CODAHKPAIMH": [],
    "MBCCKIJLLFM": []
  },
  {
    "id": 837,
    "detailIdList": [83701, 83702, 83703, 83704],
    "pauseGame": true,
    "CODAHKPAIMH": [],
    "MBCCKIJLLFM": []
  },
  {
    "id": 838,
    "detailIdList": [83801, 83802, 83803, 83804],
    "pauseGame": true,
    "CODAHKPAIMH": [],
    "MBCCKIJLLFM": []
  },
  {
    "id": 839,
    "detailIdList": [83901, 83902, 83903, 83904, 83905],
    "pauseGame": true,
    "CODAHKPAIMH": [],
    "MBCCKIJLLFM": []
  },
  {
    "id": 842,
    "detailIdList": [84201, 84202],
    "pauseGame": true,
    "CODAHKPAIMH": [],
    "MBCCKIJLLFM": []
  },
  {
    "id": 843,
    "detailIdList": [84301],
    "pauseGame": true,
    "CODAHKPAIMH": [],
    "MBCCKIJLLFM": []
  },
  {
    "id": 844,
    "detailIdList": [84401],
    "pauseGame": true,
    "CODAHKPAIMH": [],
    "MBCCKIJLLFM": []
  },
  {
    "id": 845,
    "detailIdList": [84501, 84502, 84504],
    "pauseGame": true,
    "CODAHKPAIMH": [],
    "MBCCKIJLLFM": []
  },
  {
    "id": 846,
    "detailIdList": [84301, 84401],
    "pauseGame": true,
    "CODAHKPAIMH": [],
    "MBCCKIJLLFM": []
  },
  {
    "id": 847,
    "detailIdList": [84701, 84702, 84703],
    "pauseGame": true,
    "CODAHKPAIMH": [],
    "MBCCKIJLLFM": []
  },
  {
    "id": 848,
    "detailIdList": [84801],
    "pauseGame": true,
    "CODAHKPAIMH": [],
    "MBCCKIJLLFM": []
  },
  {
    "id": 849,
    "detailIdList": [84901, 84902, 84903],
    "pauseGame": true,
    "CODAHKPAIMH": [],
    "MBCCKIJLLFM": []
  },
  {
    "id": 850,
    "detailIdList": [85001],
    "pauseGame": true,
    "CODAHKPAIMH": [],
    "MBCCKIJLLFM": []
  },
  {
    "id": 851,
    "detailIdList": [
      84501, 84502, 84504, 84901, 84902, 84903, 85001, 84801, 84701, 84702,
      84703
    ],
    "pauseGame": true,
    "CODAHKPAIMH": [],
    "MBCCKIJLLFM": []
  },
  {
    "id": 852,
    "detailIdList": [85201, 85202, 85203, 85204],
    "pauseGame": true,
    "CODAHKPAIMH": [],
    "MBCCKIJLLFM": []
  },
  {
    "id": 853,
    "detailIdList": [85301, 85302],
    "pauseGame": true,
    "CODAHKPAIMH": [],
    "MBCCKIJLLFM": []
  },
  {
    "id": 854,
    "detailIdList": [85401, 85402, 85403, 85404, 85405],
    "pauseGame": true,
    "CODAHKPAIMH": [],
    "MBCCKIJLLFM": []
  },
  {
    "id": 855,
    "detailIdList": [85501, 85502, 85503],
    "pauseGame": true,
    "CODAHKPAIMH": [],
    "MBCCKIJLLFM": []
  },
  {
    "id": 856,
    "detailIdList": [85601, 85602, 85603, 85604],
    "pauseGame": true,
    "CODAHKPAIMH": [],
    "MBCCKIJLLFM": []
  },
  {
    "id": 857,
    "detailIdList": [85701, 85702, 85703, 85704],
    "pauseGame": true,
    "CODAHKPAIMH": [],
    "MBCCKIJLLFM": []
  },
  {
    "id": 858,
    "detailIdList": [85801],
    "pauseGame": true,
    "CODAHKPAIMH": [],
    "MBCCKIJLLFM": []
  },
  {
    "id": 859,
    "detailIdList": [85901, 85902],
    "pauseGame": true,
    "CODAHKPAIMH": [],
    "MBCCKIJLLFM": []
  },
  {
    "id": 860,
    "detailIdList": [86001, 86002, 86003],
    "pauseGame": true,
    "CODAHKPAIMH": [],
    "MBCCKIJLLFM": []
  },
  {
    "id": 861,
    "detailIdList": [86101],
    "pauseGame": true,
    "CODAHKPAIMH": [],
    "MBCCKIJLLFM": []
  },
  {
    "id": 862,
    "detailIdList": [86201, 86202],
    "pauseGame": true,
    "CODAHKPAIMH": [],
    "MBCCKIJLLFM": []
  },
  {
    "id": 863,
    "detailIdList": [86301],
    "pauseGame": true,
    "CODAHKPAIMH": [],
    "MBCCKIJLLFM": []
  },
  {
    "id": 864,
    "detailIdList": [86401, 86402],
    "pauseGame": true,
    "CODAHKPAIMH": [],
    "MBCCKIJLLFM": []
  },
  {
    "id": 865,
    "detailIdList": [86501],
    "pauseGame": true,
    "CODAHKPAIMH": [],
    "MBCCKIJLLFM": []
  },
  {
    "id": 866,
    "detailIdList": [86601, 86602],
    "pauseGame": true,
    "CODAHKPAIMH": [],
    "MBCCKIJLLFM": []
  },
  {
    "id": 867,
    "detailIdList": [86701],
    "pauseGame": true,
    "CODAHKPAIMH": [],
    "MBCCKIJLLFM": []
  },
  {
    "id": 868,
    "detailIdList": [86801],
    "pauseGame": true,
    "CODAHKPAIMH": [],
    "MBCCKIJLLFM": []
  },
  {
    "id": 869,
    "detailIdList": [86901, 86902, 86903],
    "pauseGame": true,
    "CODAHKPAIMH": [],
    "MBCCKIJLLFM": []
  },
  {
    "id": 870,
    "detailIdList": [86102, 86103, 86104, 86110],
    "pauseGame": true,
    "CODAHKPAIMH": [],
    "MBCCKIJLLFM": []
  },
  {
    "id": 871,
    "detailIdList": [86105, 86106, 86107, 86110],
    "pauseGame": true,
    "CODAHKPAIMH": [],
    "MBCCKIJLLFM": []
  },
  {
    "id": 872,
    "detailIdList": [86108, 86109, 86110],
    "pauseGame": true,
    "CODAHKPAIMH": [],
    "MBCCKIJLLFM": []
  },
  {
    "id": 873,
    "detailIdList": [
      86101, 86108, 86109, 86105, 86106, 86107, 86102, 86103, 86104, 86110
    ],
    "pauseGame": true,
    "CODAHKPAIMH": [],
    "MBCCKIJLLFM": []
  },
  {
    "id": 874,
    "detailIdList": [86201, 86202, 86301],
    "pauseGame": true,
    "CODAHKPAIMH": [],
    "MBCCKIJLLFM": []
  },
  {
    "id": 875,
    "detailIdList": [86401, 86402, 86501],
    "pauseGame": true,
    "CODAHKPAIMH": [],
    "MBCCKIJLLFM": []
  },
  {
    "id": 876,
    "detailIdList": [86701, 86801],
    "pauseGame": true,
    "CODAHKPAIMH": [],
    "MBCCKIJLLFM": []
  },
  {
    "id": 877,
    "detailIdList": [87701],
    "pauseGame": true,
    "CODAHKPAIMH": [],
    "MBCCKIJLLFM": []
  },
  {
    "id": 878,
    "detailIdList": [87801, 87802],
    "pauseGame": true,
    "CODAHKPAIMH": [],
    "MBCCKIJLLFM": []
  },
  {
    "id": 879,
    "detailIdList": [87901, 87902],
    "pauseGame": true,
    "CODAHKPAIMH": [],
    "MBCCKIJLLFM": []
  },
  {
    "id": 880,
    "detailIdList": [88001, 88002],
    "pauseGame": true,
    "CODAHKPAIMH": [],
    "MBCCKIJLLFM": []
  },
  {
    "id": 881,
    "detailIdList": [88101, 88102, 88103],
    "pauseGame": true,
    "CODAHKPAIMH": [],
    "MBCCKIJLLFM": []
  },
  {
    "id": 882,
    "detailIdList": [88201, 88202],
    "pauseGame": true,
    "CODAHKPAIMH": [],
    "MBCCKIJLLFM": []
  },
  {
    "id": 883,
    "detailIdList": [88001, 88002],
    "pauseGame": true,
    "CODAHKPAIMH": [],
    "MBCCKIJLLFM": []
  },
  {
    "id": 884,
    "detailIdList": [88001, 88002, 88101, 88102, 88103],
    "pauseGame": true,
    "CODAHKPAIMH": [],
    "MBCCKIJLLFM": []
  },
  {
    "id": 885,
    "detailIdList": [88001, 88002, 88101, 88102, 88103, 88201, 88202],
    "pauseGame": true,
    "CODAHKPAIMH": [],
    "MBCCKIJLLFM": []
  },
  {
    "id": 886,
    "detailIdList": [87701],
    "pauseGame": true,
    "CODAHKPAIMH": [],
    "MBCCKIJLLFM": []
  },
  {
    "id": 887,
    "detailIdList": [87701, 87801, 87802],
    "pauseGame": true,
    "CODAHKPAIMH": [],
    "MBCCKIJLLFM": []
  },
  {
    "id": 888,
    "detailIdList": [88801, 88802, 88803],
    "pauseGame": true,
    "CODAHKPAIMH": [],
    "MBCCKIJLLFM": []
  },
  {
    "id": 889,
    "detailIdList": [88901],
    "pauseGame": true,
    "CODAHKPAIMH": [],
    "MBCCKIJLLFM": []
  },
  {
    "id": 890,
    "detailIdList": [88902],
    "pauseGame": true,
    "CODAHKPAIMH": [],
    "MBCCKIJLLFM": []
  },
  {
    "id": 891,
    "detailIdList": [88903],
    "pauseGame": true,
    "CODAHKPAIMH": [],
    "MBCCKIJLLFM": []
  },
  {
    "id": 892,
    "detailIdList": [88904],
    "pauseGame": true,
    "CODAHKPAIMH": [],
    "MBCCKIJLLFM": []
  },
  {
    "id": 893,
    "detailIdList": [88905],
    "pauseGame": true,
    "CODAHKPAIMH": [],
    "MBCCKIJLLFM": []
  },
  {
    "id": 894,
    "detailIdList": [89401],
    "pauseGame": true,
    "CODAHKPAIMH": [],
    "MBCCKIJLLFM": []
  },
  {
    "id": 895,
    "detailIdList": [89501, 89502, 89503, 89504],
    "pauseGame": true,
    "CODAHKPAIMH": [],
    "MBCCKIJLLFM": []
  },
  {
    "id": 896,
    "detailIdList": [89601, 89602],
    "pauseGame": true,
    "CODAHKPAIMH": [],
    "MBCCKIJLLFM": []
  },
  {
    "id": 897,
    "detailIdList": [89701, 89702],
    "pauseGame": true,
    "CODAHKPAIMH": [],
    "MBCCKIJLLFM": []
  },
  {
    "id": 898,
    "detailIdList": [89801, 89802, 89803, 89804],
    "pauseGame": true,
    "CODAHKPAIMH": [],
    "MBCCKIJLLFM": []
  },
  {
    "id": 899,
    "detailIdList": [89901, 89902, 89903],
    "pauseGame": true,
    "CODAHKPAIMH": [],
    "MBCCKIJLLFM": []
  },
  {
    "id": 900,
    "detailIdList": [90001, 90002],
    "pauseGame": true,
    "CODAHKPAIMH": [],
    "MBCCKIJLLFM": []
  },
  {
    "id": 901,
    "detailIdList": [90003, 90004, 90005],
    "pauseGame": true,
    "CODAHKPAIMH": [],
    "MBCCKIJLLFM": []
  },
  {
    "id": 902,
    "detailIdList": [90006, 90007, 90008, 90009],
    "pauseGame": true,
    "CODAHKPAIMH": [],
    "MBCCKIJLLFM": []
  },
  {
    "id": 903,
    "detailIdList": [90010],
    "pauseGame": true,
    "CODAHKPAIMH": [],
    "MBCCKIJLLFM": []
  },
  {
    "id": 904,
    "detailIdList": [90011, 90012],
    "pauseGame": true,
    "CODAHKPAIMH": [],
    "MBCCKIJLLFM": []
  },
  {
    "id": 905,
    "detailIdList": [90501, 90502, 90503],
    "pauseGame": true,
    "CODAHKPAIMH": [],
    "MBCCKIJLLFM": []
  },
  {
    "id": 906,
    "detailIdList": [90601, 90602, 90603],
    "pauseGame": true,
    "CODAHKPAIMH": [],
    "MBCCKIJLLFM": []
  },
  {
    "id": 907,
    "detailIdList": [90701, 90702, 90703],
    "pauseGame": true,
    "CODAHKPAIMH": [],
    "MBCCKIJLLFM": []
  },
  {
    "id": 909,
    "detailIdList": [90901, 90902, 90903, 90904],
    "pauseGame": true,
    "CODAHKPAIMH": [],
    "MBCCKIJLLFM": []
  },
  {
    "id": 910,
    "detailIdList": [91001, 91002, 91003],
    "pauseGame": true,
    "CODAHKPAIMH": [],
    "MBCCKIJLLFM": []
  },
  {
    "id": 911,
    "detailIdList": [91101, 91102, 91103],
    "pauseGame": true,
    "CODAHKPAIMH": [],
    "MBCCKIJLLFM": []
  },
  {
    "id": 912,
    "detailIdList": [91201, 91202, 91203, 91204],
    "pauseGame": true,
    "CODAHKPAIMH": [],
    "MBCCKIJLLFM": []
  },
  {
    "id": 913,
    "detailIdList": [91301, 91302, 91303],
    "pauseGame": true,
    "CODAHKPAIMH": [],
    "MBCCKIJLLFM": []
  },
  {
    "id": 914,
    "detailIdList": [89401, 89501, 89502, 89503, 89504],
    "pauseGame": true,
    "CODAHKPAIMH": [],
    "MBCCKIJLLFM": []
  },
  {
    "id": 915,
    "detailIdList": [89401, 89501, 89502, 89503, 89504, 89601, 89602],
    "pauseGame": true,
    "CODAHKPAIMH": [],
    "MBCCKIJLLFM": []
  },
  {
    "id": 916,
    "detailIdList": [91601, 91602, 91603, 91604, 91605],
    "pauseGame": true,
    "CODAHKPAIMH": [],
    "MBCCKIJLLFM": []
  },
  {
    "id": 917,
    "detailIdList": [91701, 91702],
    "pauseGame": true,
    "CODAHKPAIMH": [],
    "MBCCKIJLLFM": []
  },
  {
    "id": 918,
    "detailIdList": [91801],
    "pauseGame": true,
    "CODAHKPAIMH": [],
    "MBCCKIJLLFM": []
  },
  {
    "id": 919,
    "detailIdList": [91901],
    "pauseGame": true,
    "CODAHKPAIMH": [],
    "MBCCKIJLLFM": []
  },
  {
    "id": 920,
    "detailIdList": [92001],
    "pauseGame": true,
    "CODAHKPAIMH": [],
    "MBCCKIJLLFM": []
  },
  {
    "id": 921,
    "detailIdList": [92101],
    "pauseGame": true,
    "CODAHKPAIMH": [],
    "MBCCKIJLLFM": []
  },
  {
    "id": 922,
    "detailIdList": [92201],
    "pauseGame": true,
    "CODAHKPAIMH": [],
    "MBCCKIJLLFM": []
  },
  {
    "id": 923,
    "detailIdList": [92301],
    "pauseGame": true,
    "CODAHKPAIMH": [],
    "MBCCKIJLLFM": []
  },
  {
    "id": 924,
    "detailIdList": [92401],
    "pauseGame": true,
    "CODAHKPAIMH": [],
    "MBCCKIJLLFM": []
  },
  {
    "id": 925,
    "detailIdList": [92501],
    "pauseGame": true,
    "CODAHKPAIMH": [],
    "MBCCKIJLLFM": []
  },
  {
    "id": 926,
    "detailIdList": [92601],
    "pauseGame": true,
    "CODAHKPAIMH": [],
    "MBCCKIJLLFM": []
  },
  {
    "id": 927,
    "detailIdList": [92701],
    "pauseGame": true,
    "CODAHKPAIMH": [],
    "MBCCKIJLLFM": []
  },
  {
    "id": 928,
    "detailIdList": [92801],
    "pauseGame": true,
    "CODAHKPAIMH": [],
    "MBCCKIJLLFM": []
  },
  {
    "id": 929,
    "detailIdList": [92901],
    "pauseGame": true,
    "CODAHKPAIMH": [],
    "MBCCKIJLLFM": []
  },
  {
    "id": 930,
    "detailIdList": [93001],
    "pauseGame": true,
    "CODAHKPAIMH": [],
    "MBCCKIJLLFM": []
  },
  {
    "id": 931,
    "detailIdList": [93101],
    "pauseGame": true,
    "CODAHKPAIMH": [],
    "MBCCKIJLLFM": []
  },
  {
    "id": 932,
    "detailIdList": [93201, 93202, 93203, 93204, 93205],
    "pauseGame": true,
    "CODAHKPAIMH": [],
    "MBCCKIJLLFM": []
  },
  {
    "id": 933,
    "detailIdList": [93301, 93302, 93303],
    "pauseGame": true,
    "CODAHKPAIMH": [],
    "MBCCKIJLLFM": []
  },
  {
    "id": 934,
    "detailIdList": [93401, 93402, 93403, 93404],
    "pauseGame": true,
    "CODAHKPAIMH": [],
    "MBCCKIJLLFM": []
  },
  {
    "id": 935,
    "detailIdList": [93501, 93502],
    "pauseGame": true,
    "CODAHKPAIMH": [],
    "MBCCKIJLLFM": []
  },
  {
    "id": 936,
    "detailIdList": [93601, 93602, 93603],
    "pauseGame": true,
    "CODAHKPAIMH": [],
    "MBCCKIJLLFM": []
  },
  {
    "id": 937,
    "detailIdList": [93701, 93702, 93703, 93704, 93705, 93706],
    "pauseGame": true,
    "CODAHKPAIMH": [],
    "MBCCKIJLLFM": []
  },
  {
    "id": 938,
    "detailIdList": [93801],
    "pauseGame": true,
    "CODAHKPAIMH": [],
    "MBCCKIJLLFM": []
  },
  {
    "id": 939,
    "detailIdList": [93901],
    "pauseGame": true,
    "CODAHKPAIMH": [],
    "MBCCKIJLLFM": []
  },
  {
    "id": 940,
    "detailIdList": [94001],
    "pauseGame": true,
    "CODAHKPAIMH": [],
    "MBCCKIJLLFM": []
  },
  {
    "id": 941,
    "detailIdList": [94101],
    "pauseGame": true,
    "CODAHKPAIMH": [],
    "MBCCKIJLLFM": []
  },
  {
    "id": 942,
    "detailIdList": [94201],
    "pauseGame": true,
    "CODAHKPAIMH": [],
    "MBCCKIJLLFM": []
  },
  {
    "id": 943,
    "detailIdList": [94301, 94302, 94303],
    "pauseGame": true,
    "CODAHKPAIMH": [],
    "MBCCKIJLLFM": []
  },
  {
    "id": 944,
    "detailIdList": [94401, 94402, 94403],
    "pauseGame": true,
    "CODAHKPAIMH": [],
    "MBCCKIJLLFM": []
  },
  {
    "id": 945,
    "detailIdList": [94502],
    "pauseGame": true,
    "KAFAGGOGLAH": true,
    "CODAHKPAIMH": [94501],
    "MBCCKIJLLFM": [94503]
  },
  {
    "id": 946,
    "detailIdList": [94601],
    "pauseGame": true,
    "CODAHKPAIMH": [],
    "MBCCKIJLLFM": []
  },
  {
    "id": 947,
    "detailIdList": [94701],
    "pauseGame": true,
    "CODAHKPAIMH": [],
    "MBCCKIJLLFM": []
  },
  {
    "id": 948,
    "detailIdList": [94801],
    "pauseGame": true,
    "CODAHKPAIMH": [],
    "MBCCKIJLLFM": []
  },
  {
    "id": 949,
    "detailIdList": [94901, 94902, 94903, 94904],
    "pauseGame": true,
    "CODAHKPAIMH": [],
    "MBCCKIJLLFM": []
  },
  {
    "id": 950,
    "detailIdList": [95001, 95002],
    "pauseGame": true,
    "CODAHKPAIMH": [],
    "MBCCKIJLLFM": []
  },
  {
    "id": 951,
    "detailIdList": [95101, 95102],
    "pauseGame": true,
    "CODAHKPAIMH": [],
    "MBCCKIJLLFM": []
  },
  {
    "id": 952,
    "detailIdList": [95201],
    "pauseGame": true,
    "CODAHKPAIMH": [],
    "MBCCKIJLLFM": []
  },
  {
    "id": 953,
    "detailIdList": [95301],
    "pauseGame": true,
    "CODAHKPAIMH": [],
    "MBCCKIJLLFM": []
  },
  {
    "id": 954,
    "detailIdList": [95401],
    "pauseGame": true,
    "CODAHKPAIMH": [],
    "MBCCKIJLLFM": []
  },
  {
    "id": 955,
    "detailIdList": [95501, 95502, 95503, 95504],
    "pauseGame": true,
    "CODAHKPAIMH": [],
    "MBCCKIJLLFM": []
  },
  {
    "id": 956,
    "detailIdList": [95601],
    "pauseGame": true,
    "CODAHKPAIMH": [],
    "MBCCKIJLLFM": []
  },
  {
    "id": 957,
    "detailIdList": [95701],
    "pauseGame": true,
    "CODAHKPAIMH": [],
    "MBCCKIJLLFM": []
  },
  {
    "id": 958,
    "detailIdList": [95801],
    "pauseGame": true,
    "CODAHKPAIMH": [],
    "MBCCKIJLLFM": []
  },
  {
    "id": 959,
    "detailIdList": [95901],
    "pauseGame": true,
    "CODAHKPAIMH": [],
    "MBCCKIJLLFM": []
  },
  {
    "id": 960,
    "detailIdList": [96001, 96002],
    "pauseGame": true,
    "CODAHKPAIMH": [],
    "MBCCKIJLLFM": []
  },
  {
    "id": 961,
    "detailIdList": [96101, 96102, 96103, 96104, 96105],
    "pauseGame": true,
    "CODAHKPAIMH": [],
    "MBCCKIJLLFM": []
  },
  {
    "id": 962,
    "detailIdList": [96201, 96202, 96203],
    "pauseGame": true,
    "CODAHKPAIMH": [],
    "MBCCKIJLLFM": []
  },
  {
    "id": 963,
    "detailIdList": [96301, 96302, 96303, 96304],
    "pauseGame": true,
    "CODAHKPAIMH": [],
    "MBCCKIJLLFM": []
  },
  {
    "id": 964,
    "detailIdList": [96401],
    "pauseGame": true,
    "CODAHKPAIMH": [],
    "MBCCKIJLLFM": []
  },
  {
    "id": 965,
    "detailIdList": [96501, 96502],
    "pauseGame": true,
    "CODAHKPAIMH": [],
    "MBCCKIJLLFM": []
  },
  {
    "id": 966,
    "detailIdList": [96601],
    "pauseGame": true,
    "CODAHKPAIMH": [],
    "MBCCKIJLLFM": []
  },
  {
    "id": 967,
    "detailIdList": [96701],
    "pauseGame": true,
    "CODAHKPAIMH": [],
    "MBCCKIJLLFM": []
  },
  {
    "id": 968,
    "detailIdList": [96801],
    "pauseGame": true,
    "CODAHKPAIMH": [],
    "MBCCKIJLLFM": []
  },
  {
    "id": 969,
    "detailIdList": [96901],
    "pauseGame": true,
    "CODAHKPAIMH": [],
    "MBCCKIJLLFM": []
  },
  {
    "id": 970,
    "detailIdList": [97001],
    "pauseGame": true,
    "CODAHKPAIMH": [],
    "MBCCKIJLLFM": []
  },
  {
    "id": 1000,
    "detailIdList": [100001, 100002, 100003],
    "pauseGame": true,
    "CODAHKPAIMH": [],
    "MBCCKIJLLFM": []
  },
  {
    "id": 1001,
    "detailIdList": [100004, 100005, 100006],
    "pauseGame": true,
    "CODAHKPAIMH": [],
    "MBCCKIJLLFM": []
  },
  {
    "id": 1002,
    "detailIdList": [100007, 100008, 100009],
    "pauseGame": true,
    "CODAHKPAIMH": [],
    "MBCCKIJLLFM": []
  },
  {
    "id": 1003,
    "detailIdList": [100010, 100011, 100012],
    "pauseGame": true,
    "CODAHKPAIMH": [],
    "MBCCKIJLLFM": []
  },
  {
    "id": 1004,
    "detailIdList": [100013, 100014, 100015],
    "pauseGame": true,
    "CODAHKPAIMH": [],
    "MBCCKIJLLFM": []
  },
  {
    "id": 1005,
    "detailIdList": [100016, 100017, 100018],
    "pauseGame": true,
    "CODAHKPAIMH": [],
    "MBCCKIJLLFM": []
  },
  {
    "id": 1006,
    "detailIdList": [100019, 100020, 100021, 100022],
    "pauseGame": true,
    "CODAHKPAIMH": [],
    "MBCCKIJLLFM": []
  },
  {
    "id": 1007,
    "detailIdList": [100023, 100024, 100025],
    "pauseGame": true,
    "CODAHKPAIMH": [],
    "MBCCKIJLLFM": []
  },
  {
    "id": 1020,
    "detailIdList": [10404],
    "pauseGame": true,
    "CODAHKPAIMH": [],
    "MBCCKIJLLFM": []
  },
  {
    "id": 1021,
    "detailIdList": [100026, 100027, 100028, 100029],
    "pauseGame": true,
    "CODAHKPAIMH": [],
    "MBCCKIJLLFM": []
  },
  {
    "id": 1022,
    "detailIdList": [102201],
    "pauseGame": true,
    "CODAHKPAIMH": [],
    "MBCCKIJLLFM": []
  },
  {
    "id": 1023,
    "detailIdList": [102301],
    "pauseGame": true,
    "CODAHKPAIMH": [],
    "MBCCKIJLLFM": []
  },
  {
    "id": 1024,
    "detailIdList": [102401],
    "pauseGame": true,
    "CODAHKPAIMH": [],
    "MBCCKIJLLFM": []
  },
  {
    "id": 1025,
    "detailIdList": [102501],
    "pauseGame": true,
    "CODAHKPAIMH": [],
    "MBCCKIJLLFM": []
  },
  {
    "id": 1026,
    "detailIdList": [102601],
    "pauseGame": true,
    "CODAHKPAIMH": [],
    "MBCCKIJLLFM": []
  },
  {
    "id": 1027,
    "detailIdList": [102701],
    "pauseGame": true,
    "CODAHKPAIMH": [],
    "MBCCKIJLLFM": []
  },
  {
    "id": 1028,
    "detailIdList": [102801],
    "pauseGame": true,
    "CODAHKPAIMH": [],
    "MBCCKIJLLFM": []
  },
  {
    "id": 1029,
    "detailIdList": [102901, 102902],
    "pauseGame": true,
    "CODAHKPAIMH": [],
    "MBCCKIJLLFM": []
  },
  {
    "id": 1030,
    "detailIdList": [
      100030, 100031, 100032, 100033, 100034, 100035, 100036, 100037
    ],
    "pauseGame": true,
    "CODAHKPAIMH": [],
    "MBCCKIJLLFM": []
  },
  {
    "id": 2009,
    "detailIdList": [200901],
    "pauseGame": true,
    "CODAHKPAIMH": [],
    "MBCCKIJLLFM": []
  },
  {
    "id": 2010,
    "detailIdList": [201001],
    "pauseGame": true,
    "CODAHKPAIMH": [],
    "MBCCKIJLLFM": []
  },
  {
    "id": 2012,
    "detailIdList": [201201],
    "pauseGame": true,
    "CODAHKPAIMH": [],
    "MBCCKIJLLFM": []
  },
  {
    "id": 2013,
    "detailIdList": [201301],
    "pauseGame": true,
    "CODAHKPAIMH": [],
    "MBCCKIJLLFM": []
  },
  {
    "id": 2014,
    "detailIdList": [201401],
    "pauseGame": true,
    "CODAHKPAIMH": [],
    "MBCCKIJLLFM": []
  },
  {
    "id": 2015,
    "detailIdList": [201501],
    "pauseGame": true,
    "CODAHKPAIMH": [],
    "MBCCKIJLLFM": []
  },
  {
    "id": 1032,
    "detailIdList": [103201, 103202],
    "pauseGame": true,
    "CODAHKPAIMH": [],
    "MBCCKIJLLFM": []
  },
  {
    "id": 1033,
    "detailIdList": [103301, 103302, 103303],
    "pauseGame": true,
    "CODAHKPAIMH": [],
    "MBCCKIJLLFM": []
  },
  {
    "id": 1034,
    "detailIdList": [103401, 103402, 103403, 103404, 103406, 103405],
    "pauseGame": true,
    "CODAHKPAIMH": [],
    "MBCCKIJLLFM": []
  },
  {
    "id": 1035,
    "detailIdList": [100038, 100039, 100040],
    "pauseGame": true,
    "CODAHKPAIMH": [],
    "MBCCKIJLLFM": []
  },
  {
    "id": 1036,
    "detailIdList": [103601, 103602, 103603],
    "pauseGame": true,
    "CODAHKPAIMH": [],
    "MBCCKIJLLFM": []
  },
  {
    "id": 1037,
    "detailIdList": [103701, 103702, 103703, 103704, 103705, 103706, 103707],
    "pauseGame": true,
    "CODAHKPAIMH": [],
    "MBCCKIJLLFM": []
  },
  {
    "id": 1038,
    "detailIdList": [103801, 103802],
    "pauseGame": true,
    "CODAHKPAIMH": [],
    "MBCCKIJLLFM": []
  },
  {
    "id": 1101,
    "detailIdList": [110101, 110102],
    "pauseGame": true,
    "CODAHKPAIMH": [],
    "MBCCKIJLLFM": []
  },
  {
    "id": 1102,
    "detailIdList": [110201, 110202, 110203, 110204, 110205, 110206, 110207],
    "pauseGame": true,
    "CODAHKPAIMH": [],
    "MBCCKIJLLFM": []
  },
  {
    "id": 1103,
    "detailIdList": [110301],
    "pauseGame": true,
    "CODAHKPAIMH": [],
    "MBCCKIJLLFM": []
  },
  {
    "id": 1104,
    "detailIdList": [
      110201, 110202, 110203, 110204, 110205, 110206, 110207, 110301
    ],
    "pauseGame": true,
    "CODAHKPAIMH": [],
    "MBCCKIJLLFM": []
  },
  {
    "id": 1105,
    "detailIdList": [110202],
    "pauseGame": true,
    "CODAHKPAIMH": [],
    "MBCCKIJLLFM": []
  },
  {
    "id": 1106,
    "detailIdList": [111601, 111602],
    "pauseGame": true,
    "CODAHKPAIMH": [],
    "MBCCKIJLLFM": []
  },
  {
    "id": 1107,
    "detailIdList": [111601, 111602, 111603],
    "pauseGame": true,
    "CODAHKPAIMH": [],
    "MBCCKIJLLFM": []
  },
  {
    "id": 1108,
    "detailIdList": [111601, 111602, 111603, 111604],
    "pauseGame": true,
    "CODAHKPAIMH": [],
    "MBCCKIJLLFM": []
  },
  {
    "id": 1109,
    "detailIdList": [111601, 111602, 111603, 111604, 111605],
    "pauseGame": true,
    "CODAHKPAIMH": [],
    "MBCCKIJLLFM": []
  },
  {
    "id": 1110,
    "detailIdList": [110501],
    "pauseGame": true,
    "CODAHKPAIMH": [],
    "MBCCKIJLLFM": []
  },
  {
    "id": 1111,
    "detailIdList": [110601, 110602],
    "pauseGame": true,
    "CODAHKPAIMH": [],
    "MBCCKIJLLFM": []
  },
  {
    "id": 1112,
    "detailIdList": [110701, 110702],
    "pauseGame": true,
    "CODAHKPAIMH": [],
    "MBCCKIJLLFM": []
  },
  {
    "id": 1113,
    "detailIdList": [110703, 110704],
    "pauseGame": true,
    "CODAHKPAIMH": [],
    "MBCCKIJLLFM": []
  },
  {
    "id": 1114,
    "detailIdList": [110705, 110706],
    "pauseGame": true,
    "CODAHKPAIMH": [],
    "MBCCKIJLLFM": []
  },
  {
    "id": 1115,
    "detailIdList": [110707, 110708],
    "pauseGame": true,
    "CODAHKPAIMH": [],
    "MBCCKIJLLFM": []
  },
  {
    "id": 1116,
    "detailIdList": [111603],
    "pauseGame": true,
    "CODAHKPAIMH": [],
    "MBCCKIJLLFM": []
  },
  {
    "id": 1117,
    "detailIdList": [111604],
    "pauseGame": true,
    "CODAHKPAIMH": [],
    "MBCCKIJLLFM": []
  },
  {
    "id": 1118,
    "detailIdList": [111605],
    "pauseGame": true,
    "CODAHKPAIMH": [],
    "MBCCKIJLLFM": []
  },
  {
    "id": 1119,
    "detailIdList": [111901, 111904, 111905],
    "pauseGame": true,
    "CODAHKPAIMH": [],
    "MBCCKIJLLFM": []
  },
  {
    "id": 1120,
    "detailIdList": [111901, 111903, 111905],
    "pauseGame": true,
    "CODAHKPAIMH": [],
    "MBCCKIJLLFM": []
  },
  {
    "id": 1121,
    "detailIdList": [111901, 111902, 111905],
    "pauseGame": true,
    "CODAHKPAIMH": [],
    "MBCCKIJLLFM": []
  },
  {
    "id": 1122,
    "detailIdList": [112201],
    "pauseGame": true,
    "CODAHKPAIMH": [],
    "MBCCKIJLLFM": []
  },
  {
    "id": 1123,
    "detailIdList": [111601, 111602],
    "pauseGame": true,
    "CODAHKPAIMH": [],
    "MBCCKIJLLFM": []
  },
  {
    "id": 1124,
    "detailIdList": [112401],
    "CODAHKPAIMH": [],
    "MBCCKIJLLFM": []
  },
  {
    "id": 1125,
    "detailIdList": [110801, 110802],
    "pauseGame": true,
    "CODAHKPAIMH": [],
    "MBCCKIJLLFM": []
  },
  {
    "id": 1126,
    "detailIdList": [112001, 112002, 112003],
    "pauseGame": true,
    "CODAHKPAIMH": [],
    "MBCCKIJLLFM": []
  },
  {
    "id": 1127,
    "detailIdList": [112701],
    "pauseGame": true,
    "CODAHKPAIMH": [],
    "MBCCKIJLLFM": []
  },
  {
    "id": 1128,
    "detailIdList": [112801],
    "pauseGame": true,
    "CODAHKPAIMH": [],
    "MBCCKIJLLFM": []
  },
  {
    "id": 1129,
    "detailIdList": [112902],
    "pauseGame": true,
    "CODAHKPAIMH": [],
    "MBCCKIJLLFM": []
  },
  {
    "id": 1130,
    "detailIdList": [110901, 110902],
    "pauseGame": true,
    "CODAHKPAIMH": [],
    "MBCCKIJLLFM": []
  },
  {
    "id": 1131,
    "detailIdList": [113101, 113102],
    "pauseGame": true,
    "CODAHKPAIMH": [],
    "MBCCKIJLLFM": []
  },
  {
    "id": 1132,
    "detailIdList": [113201, 113202],
    "pauseGame": true,
    "CODAHKPAIMH": [],
    "MBCCKIJLLFM": []
  },
  {
    "id": 1133,
    "detailIdList": [113301],
    "pauseGame": true,
    "CODAHKPAIMH": [],
    "MBCCKIJLLFM": []
  },
  {
    "id": 1134,
    "detailIdList": [113401],
    "pauseGame": true,
    "CODAHKPAIMH": [],
    "MBCCKIJLLFM": []
  },
  {
    "id": 1135,
    "detailIdList": [113501],
    "pauseGame": true,
    "CODAHKPAIMH": [],
    "MBCCKIJLLFM": []
  },
  {
    "id": 1136,
    "detailIdList": [113601, 113602, 113603, 113605, 113604],
    "pauseGame": true,
    "CODAHKPAIMH": [],
    "MBCCKIJLLFM": []
  },
  {
    "id": 1137,
    "detailIdList": [113701, 113702, 113703],
    "pauseGame": true,
    "CODAHKPAIMH": [],
    "MBCCKIJLLFM": []
  },
  {
    "id": 1138,
    "detailIdList": [113801, 113802, 113803],
    "pauseGame": true,
    "CODAHKPAIMH": [],
    "MBCCKIJLLFM": []
  },
  {
    "id": 1139,
    "detailIdList": [113902],
    "pauseGame": true,
    "KAFAGGOGLAH": true,
    "CODAHKPAIMH": [113901],
    "MBCCKIJLLFM": [113903]
  },
  {
    "id": 1140,
    "detailIdList": [114001],
    "pauseGame": true,
    "CODAHKPAIMH": [],
    "MBCCKIJLLFM": []
  },
  {
    "id": 1141,
    "detailIdList": [114101],
    "pauseGame": true,
    "CODAHKPAIMH": [],
    "MBCCKIJLLFM": []
  },
  {
    "id": 1142,
    "detailIdList": [114201],
    "pauseGame": true,
    "CODAHKPAIMH": [],
    "MBCCKIJLLFM": []
  },
  {
    "id": 1143,
    "detailIdList": [110911, 110912],
    "pauseGame": true,
    "CODAHKPAIMH": [],
    "MBCCKIJLLFM": []
  },
  {
    "id": 1144,
    "detailIdList": [114401, 114402, 114403, 114404],
    "pauseGame": true,
    "CODAHKPAIMH": [],
    "MBCCKIJLLFM": []
  },
  {
    "id": 1145,
    "detailIdList": [114401, 114402, 114501, 114404],
    "pauseGame": true,
    "CODAHKPAIMH": [],
    "MBCCKIJLLFM": []
  },
  {
    "id": 1146,
    "detailIdList": [114401, 114402, 114601, 114404],
    "pauseGame": true,
    "CODAHKPAIMH": [],
    "MBCCKIJLLFM": []
  },
  {
    "id": 1147,
    "detailIdList": [114401, 114402, 114701, 114404],
    "pauseGame": true,
    "CODAHKPAIMH": [],
    "MBCCKIJLLFM": []
  },
  {
    "id": 1148,
    "detailIdList": [114401],
    "pauseGame": true,
    "CODAHKPAIMH": [],
    "MBCCKIJLLFM": []
  },
  {
    "id": 1149,
    "detailIdList": [114901, 114902],
    "pauseGame": true,
    "CODAHKPAIMH": [],
    "MBCCKIJLLFM": []
  },
  {
    "id": 1150,
    "detailIdList": [114903, 114904],
    "pauseGame": true,
    "CODAHKPAIMH": [],
    "MBCCKIJLLFM": []
  },
  {
    "id": 1151,
    "detailIdList": [114905, 114906],
    "pauseGame": true,
    "CODAHKPAIMH": [],
    "MBCCKIJLLFM": []
  },
  {
    "id": 1152,
    "detailIdList": [114907],
    "pauseGame": true,
    "CODAHKPAIMH": [],
    "MBCCKIJLLFM": []
  },
  {
    "id": 1153,
    "detailIdList": [114908],
    "pauseGame": true,
    "CODAHKPAIMH": [],
    "MBCCKIJLLFM": []
  },
  {
    "id": 1154,
    "detailIdList": [114901, 114902, 114903, 114904],
    "pauseGame": true,
    "CODAHKPAIMH": [],
    "MBCCKIJLLFM": []
  },
  {
    "id": 1155,
    "detailIdList": [114901, 114902, 114903, 114904, 114905, 114906],
    "pauseGame": true,
    "CODAHKPAIMH": [],
    "MBCCKIJLLFM": []
  },
  {
    "id": 1156,
    "detailIdList": [114901, 114902, 114903, 114904, 114905, 114906, 114907],
    "pauseGame": true,
    "CODAHKPAIMH": [],
    "MBCCKIJLLFM": []
  },
  {
    "id": 1157,
    "detailIdList": [
      114901, 114902, 114903, 114904, 114905, 114906, 114907, 114908
    ],
    "pauseGame": true,
    "CODAHKPAIMH": [],
    "MBCCKIJLLFM": []
  },
  {
    "id": 1159,
    "detailIdList": [115901, 115902],
    "pauseGame": true,
    "CODAHKPAIMH": [],
    "MBCCKIJLLFM": []
  },
  {
    "id": 1160,
    "detailIdList": [116001],
    "pauseGame": true,
    "CODAHKPAIMH": [],
    "MBCCKIJLLFM": []
  },
  {
    "id": 1161,
    "detailIdList": [114403],
    "pauseGame": true,
    "CODAHKPAIMH": [],
    "MBCCKIJLLFM": []
  },
  {
    "id": 1162,
    "detailIdList": [114501],
    "pauseGame": true,
    "CODAHKPAIMH": [],
    "MBCCKIJLLFM": []
  },
  {
    "id": 1163,
    "detailIdList": [114601],
    "pauseGame": true,
    "CODAHKPAIMH": [],
    "MBCCKIJLLFM": []
  },
  {
    "id": 1164,
    "detailIdList": [114701],
    "pauseGame": true,
    "CODAHKPAIMH": [],
    "MBCCKIJLLFM": []
  },
  {
    "id": 1165,
    "detailIdList": [116501],
    "pauseGame": true,
    "CODAHKPAIMH": [],
    "MBCCKIJLLFM": []
  },
  {
    "id": 1166,
    "detailIdList": [115903, 115904],
    "pauseGame": true,
    "CODAHKPAIMH": [],
    "MBCCKIJLLFM": []
  },
  {
    "id": 1167,
    "detailIdList": [116701, 116702, 116703],
    "pauseGame": true,
    "CODAHKPAIMH": [],
    "MBCCKIJLLFM": []
  },
  {
    "id": 1168,
    "detailIdList": [116801],
    "pauseGame": true,
    "CODAHKPAIMH": [],
    "MBCCKIJLLFM": []
  },
  {
    "id": 1169,
    "detailIdList": [116901, 116902],
    "pauseGame": true,
    "CODAHKPAIMH": [],
    "MBCCKIJLLFM": []
  },
  {
    "id": 1170,
    "detailIdList": [117001, 117002, 117003],
    "pauseGame": true,
    "CODAHKPAIMH": [],
    "MBCCKIJLLFM": []
  },
  {
    "id": 1171,
    "detailIdList": [117101, 117102],
    "pauseGame": true,
    "CODAHKPAIMH": [],
    "MBCCKIJLLFM": []
  },
  {
    "id": 1172,
    "detailIdList": [117201, 117202, 1172003],
    "pauseGame": true,
    "CODAHKPAIMH": [],
    "MBCCKIJLLFM": []
  },
  {
    "id": 1173,
    "detailIdList": [117320, 117301, 117302, 117303, 117318],
    "pauseGame": true,
    "CODAHKPAIMH": [],
    "MBCCKIJLLFM": []
  },
  {
    "id": 1174,
    "detailIdList": [117320, 117301, 117302],
    "pauseGame": true,
    "CODAHKPAIMH": [],
    "MBCCKIJLLFM": []
  },
  {
    "id": 1175,
    "detailIdList": [117303, 117318],
    "pauseGame": true,
    "CODAHKPAIMH": [],
    "MBCCKIJLLFM": []
  },
  {
    "id": 1176,
    "detailIdList": [117304, 117305, 117306, 117307],
    "pauseGame": true,
    "CODAHKPAIMH": [],
    "MBCCKIJLLFM": []
  },
  {
    "id": 1177,
    "detailIdList": [117701, 117702],
    "pauseGame": true,
    "CODAHKPAIMH": [],
    "MBCCKIJLLFM": []
  },
  {
    "id": 1178,
    "detailIdList": [117801, 117802, 117803, 117804],
    "pauseGame": true,
    "CODAHKPAIMH": [],
    "MBCCKIJLLFM": []
  },
  {
    "id": 1179,
    "detailIdList": [117901, 117902],
    "pauseGame": true,
    "CODAHKPAIMH": [],
    "MBCCKIJLLFM": []
  },
  {
    "id": 1181,
    "detailIdList": [118101, 118102],
    "pauseGame": true,
    "CODAHKPAIMH": [],
    "MBCCKIJLLFM": []
  },
  {
    "id": 1182,
    "detailIdList": [118201, 118202],
    "pauseGame": true,
    "CODAHKPAIMH": [],
    "MBCCKIJLLFM": []
  },
  {
    "id": 1183,
    "detailIdList": [118301],
    "pauseGame": true,
    "CODAHKPAIMH": [],
    "MBCCKIJLLFM": []
  },
  {
    "id": 1184,
    "detailIdList": [118401, 118402, 118403, 118404, 118405],
    "pauseGame": true,
    "CODAHKPAIMH": [],
    "MBCCKIJLLFM": []
  },
  {
    "id": 1185,
    "detailIdList": [118501, 118502],
    "pauseGame": true,
    "CODAHKPAIMH": [],
    "MBCCKIJLLFM": []
  },
  {
    "id": 1186,
    "detailIdList": [117308, 117309],
    "pauseGame": true,
    "CODAHKPAIMH": [],
    "MBCCKIJLLFM": []
  },
  {
    "id": 1187,
    "detailIdList": [117310, 117311],
    "pauseGame": true,
    "CODAHKPAIMH": [],
    "MBCCKIJLLFM": []
  },
  {
    "id": 1188,
    "detailIdList": [117312, 117313, 117319],
    "pauseGame": true,
    "CODAHKPAIMH": [],
    "MBCCKIJLLFM": []
  },
  {
    "id": 1189,
    "detailIdList": [117314, 117315],
    "pauseGame": true,
    "CODAHKPAIMH": [],
    "MBCCKIJLLFM": []
  },
  {
    "id": 1190,
    "detailIdList": [117316, 117317],
    "pauseGame": true,
    "CODAHKPAIMH": [],
    "MBCCKIJLLFM": []
  },
  {
    "id": 1193,
    "detailIdList": [119301],
    "pauseGame": true,
    "CODAHKPAIMH": [],
    "MBCCKIJLLFM": []
  },
  {
    "id": 1194,
    "detailIdList": [119401],
    "pauseGame": true,
    "CODAHKPAIMH": [],
    "MBCCKIJLLFM": []
  },
  {
    "id": 1195,
    "detailIdList": [119501],
    "pauseGame": true,
    "CODAHKPAIMH": [],
    "MBCCKIJLLFM": []
  },
  {
    "id": 1196,
    "detailIdList": [119601],
    "pauseGame": true,
    "CODAHKPAIMH": [],
    "MBCCKIJLLFM": []
  },
  {
    "id": 1197,
    "detailIdList": [119701],
    "pauseGame": true,
    "CODAHKPAIMH": [],
    "MBCCKIJLLFM": []
  },
  {
    "id": 1198,
    "detailIdList": [119801],
    "pauseGame": true,
    "CODAHKPAIMH": [],
    "MBCCKIJLLFM": []
  },
  {
    "id": 1201,
    "detailIdList": [120101],
    "pauseGame": true,
    "CODAHKPAIMH": [],
    "MBCCKIJLLFM": []
  },
  {
    "id": 1204,
    "detailIdList": [120401],
    "pauseGame": true,
    "CODAHKPAIMH": [],
    "MBCCKIJLLFM": []
  },
  {
    "id": 1205,
    "detailIdList": [120501],
    "pauseGame": true,
    "CODAHKPAIMH": [],
    "MBCCKIJLLFM": []
  },
  {
    "id": 1206,
    "detailIdList": [120601],
    "pauseGame": true,
    "CODAHKPAIMH": [],
    "MBCCKIJLLFM": []
  },
  {
    "id": 1207,
    "detailIdList": [120701],
    "pauseGame": true,
    "CODAHKPAIMH": [],
    "MBCCKIJLLFM": []
  },
  {
    "id": 1208,
    "detailIdList": [120801],
    "pauseGame": true,
    "CODAHKPAIMH": [],
    "MBCCKIJLLFM": []
  },
  {
    "id": 1209,
    "detailIdList": [120901],
    "pauseGame": true,
    "CODAHKPAIMH": [],
    "MBCCKIJLLFM": []
  },
  {
    "id": 1210,
    "detailIdList": [121001],
    "pauseGame": true,
    "CODAHKPAIMH": [],
    "MBCCKIJLLFM": []
  },
  {
    "id": 1211,
    "detailIdList": [121101],
    "pauseGame": true,
    "CODAHKPAIMH": [],
    "MBCCKIJLLFM": []
  },
  {
    "id": 1212,
    "detailIdList": [121201, 121202, 121203, 121204],
    "pauseGame": true,
    "CODAHKPAIMH": [],
    "MBCCKIJLLFM": []
  },
  {
    "id": 1213,
    "detailIdList": [121301],
    "pauseGame": true,
    "CODAHKPAIMH": [],
    "MBCCKIJLLFM": []
  },
  {
    "id": 1214,
    "detailIdList": [121401, 121402, 121403, 121404],
    "pauseGame": true,
    "CODAHKPAIMH": [],
    "MBCCKIJLLFM": []
  },
  {
    "id": 1215,
    "detailIdList": [121501],
    "pauseGame": true,
    "CODAHKPAIMH": [],
    "MBCCKIJLLFM": []
  },
  {
    "id": 1216,
    "detailIdList": [121601, 121602],
    "pauseGame": true,
    "CODAHKPAIMH": [],
    "MBCCKIJLLFM": []
  },
  {
    "id": 1191,
    "detailIdList": [118601, 118602, 118603],
    "CODAHKPAIMH": [],
    "MBCCKIJLLFM": []
  },
  {
    "id": 1192,
    "detailIdList": [118702, 118703, 118705, 118707],
    "KAFAGGOGLAH": true,
    "CODAHKPAIMH": [118701, 118703, 118704, 118707],
    "MBCCKIJLLFM": [118702, 118703, 118706, 118707]
  },
  {
    "id": 1217,
    "detailIdList": [121701],
    "pauseGame": true,
    "CODAHKPAIMH": [],
    "MBCCKIJLLFM": []
  },
  {
    "id": 1218,
    "detailIdList": [121801],
    "pauseGame": true,
    "CODAHKPAIMH": [],
    "MBCCKIJLLFM": []
  },
  {
    "id": 1219,
    "detailIdList": [121901],
    "pauseGame": true,
    "CODAHKPAIMH": [],
    "MBCCKIJLLFM": []
  },
  {
    "id": 1220,
    "detailIdList": [122001],
    "pauseGame": true,
    "CODAHKPAIMH": [],
    "MBCCKIJLLFM": []
  },
  {
    "id": 1221,
    "detailIdList": [122101],
    "pauseGame": true,
    "CODAHKPAIMH": [],
    "MBCCKIJLLFM": []
  },
  {
    "id": 1222,
    "detailIdList": [122201],
    "pauseGame": true,
    "CODAHKPAIMH": [],
    "MBCCKIJLLFM": []
  },
  {
    "id": 1223,
    "detailIdList": [122301],
    "pauseGame": true,
    "CODAHKPAIMH": [],
    "MBCCKIJLLFM": []
  },
  {
    "id": 1224,
    "detailIdList": [122401],
    "pauseGame": true,
    "CODAHKPAIMH": [],
    "MBCCKIJLLFM": []
  },
  {
    "id": 1225,
    "detailIdList": [122501, 122502, 122503],
    "pauseGame": true,
    "CODAHKPAIMH": [],
    "MBCCKIJLLFM": []
  },
  {
    "id": 1226,
    "detailIdList": [122601, 122602],
    "pauseGame": true,
    "CODAHKPAIMH": [],
    "MBCCKIJLLFM": []
  },
  {
    "id": 1227,
    "detailIdList": [122701, 122702, 122703, 122704, 122705],
    "pauseGame": true,
    "CODAHKPAIMH": [],
    "MBCCKIJLLFM": []
  },
  {
    "id": 1228,
    "detailIdList": [122801, 122802],
    "pauseGame": true,
    "CODAHKPAIMH": [],
    "MBCCKIJLLFM": []
  },
  {
    "id": 1229,
    "detailIdList": [122901],
    "pauseGame": true,
    "CODAHKPAIMH": [],
    "MBCCKIJLLFM": []
  },
  {
    "id": 1230,
    "detailIdList": [123001, 123002],
    "pauseGame": true,
    "CODAHKPAIMH": [],
    "MBCCKIJLLFM": []
  },
  {
    "id": 1231,
    "detailIdList": [123101],
    "pauseGame": true,
    "CODAHKPAIMH": [],
    "MBCCKIJLLFM": []
  },
  {
    "id": 1232,
    "detailIdList": [123201],
    "pauseGame": true,
    "CODAHKPAIMH": [],
    "MBCCKIJLLFM": []
  },
  {
    "id": 1233,
    "detailIdList": [123301, 123302],
    "pauseGame": true,
    "CODAHKPAIMH": [],
    "MBCCKIJLLFM": []
  },
  {
    "id": 1234,
    "detailIdList": [123401],
    "pauseGame": true,
    "CODAHKPAIMH": [],
    "MBCCKIJLLFM": []
  },
  {
    "id": 1235,
    "detailIdList": [123501],
    "pauseGame": true,
    "CODAHKPAIMH": [],
    "MBCCKIJLLFM": []
  },
  {
    "id": 1236,
    "detailIdList": [123601],
    "pauseGame": true,
    "CODAHKPAIMH": [],
    "MBCCKIJLLFM": []
  },
  {
    "id": 1237,
    "detailIdList": [123701],
    "pauseGame": true,
    "CODAHKPAIMH": [],
    "MBCCKIJLLFM": []
  },
  {
    "id": 1238,
    "detailIdList": [123801],
    "pauseGame": true,
    "CODAHKPAIMH": [],
    "MBCCKIJLLFM": []
  },
  {
    "id": 1239,
    "detailIdList": [123901],
    "pauseGame": true,
    "CODAHKPAIMH": [],
    "MBCCKIJLLFM": []
  },
  {
    "id": 1240,
    "detailIdList": [124001],
    "pauseGame": true,
    "CODAHKPAIMH": [],
    "MBCCKIJLLFM": []
  },
  {
    "id": 1241,
    "detailIdList": [124101, 124102],
    "pauseGame": true,
    "CODAHKPAIMH": [],
    "MBCCKIJLLFM": []
  },
  {
    "id": 1242,
    "detailIdList": [124201],
    "pauseGame": true,
    "CODAHKPAIMH": [],
    "MBCCKIJLLFM": []
  },
  {
    "id": 1243,
    "detailIdList": [124301],
    "pauseGame": true,
    "CODAHKPAIMH": [],
    "MBCCKIJLLFM": []
  },
  {
    "id": 1244,
    "detailIdList": [124401, 124402, 124403],
    "pauseGame": true,
    "CODAHKPAIMH": [],
    "MBCCKIJLLFM": []
  },
  {
    "id": 1245,
    "detailIdList": [124501],
    "pauseGame": true,
    "CODAHKPAIMH": [],
    "MBCCKIJLLFM": []
  },
  {
    "id": 1246,
    "detailIdList": [124601],
    "pauseGame": true,
    "CODAHKPAIMH": [],
    "MBCCKIJLLFM": []
  },
  {
    "id": 1247,
    "detailIdList": [124701],
    "pauseGame": true,
    "CODAHKPAIMH": [],
    "MBCCKIJLLFM": []
  },
  {
    "id": 1248,
    "detailIdList": [124801],
    "CODAHKPAIMH": [],
    "MBCCKIJLLFM": []
  },
  {
    "id": 1249,
    "detailIdList": [124901],
    "CODAHKPAIMH": [],
    "MBCCKIJLLFM": []
  },
  {
    "id": 1250,
    "detailIdList": [125001],
    "CODAHKPAIMH": [],
    "MBCCKIJLLFM": []
  },
  {
    "id": 1251,
    "detailIdList": [125101, 125102, 125103, 125104],
    "pauseGame": true,
    "CODAHKPAIMH": [],
    "MBCCKIJLLFM": []
  },
  {
    "id": 1252,
    "detailIdList": [125201, 125202, 125203],
    "pauseGame": true,
    "CODAHKPAIMH": [],
    "MBCCKIJLLFM": []
  },
  {
    "id": 1253,
    "detailIdList": [125301, 125302, 125303],
    "pauseGame": true,
    "CODAHKPAIMH": [],
    "MBCCKIJLLFM": []
  },
  {
    "id": 1254,
    "detailIdList": [125301, 125302, 125303, 125401, 128801],
    "pauseGame": true,
    "CODAHKPAIMH": [],
    "MBCCKIJLLFM": []
  },
  {
    "id": 1255,
    "detailIdList": [125301, 125302, 125303, 125501, 128801],
    "pauseGame": true,
    "CODAHKPAIMH": [],
    "MBCCKIJLLFM": []
  },
  {
    "id": 1256,
    "detailIdList": [125601, 125605, 125603, 125604, 125602],
    "CODAHKPAIMH": [],
    "MBCCKIJLLFM": []
  },
  {
    "id": 1257,
    "detailIdList": [125701],
    "CODAHKPAIMH": [],
    "MBCCKIJLLFM": []
  },
  {
    "id": 1258,
    "detailIdList": [125801, 125802],
    "pauseGame": true,
    "CODAHKPAIMH": [],
    "MBCCKIJLLFM": []
  },
  {
    "id": 1259,
    "detailIdList": [125901],
    "pauseGame": true,
    "CODAHKPAIMH": [],
    "MBCCKIJLLFM": []
  },
  {
    "id": 1260,
    "detailIdList": [126001, 126002],
    "pauseGame": true,
    "CODAHKPAIMH": [],
    "MBCCKIJLLFM": []
  },
  {
    "id": 1261,
    "detailIdList": [126101],
    "pauseGame": true,
    "CODAHKPAIMH": [],
    "MBCCKIJLLFM": []
  },
  {
    "id": 1262,
    "detailIdList": [126201],
    "pauseGame": true,
    "CODAHKPAIMH": [],
    "MBCCKIJLLFM": []
  },
  {
    "id": 1263,
    "detailIdList": [126301],
    "pauseGame": true,
    "CODAHKPAIMH": [],
    "MBCCKIJLLFM": []
  },
  {
    "id": 1264,
    "detailIdList": [126401, 126402, 126403],
    "pauseGame": true,
    "CODAHKPAIMH": [],
    "MBCCKIJLLFM": []
  },
  {
    "id": 1265,
    "detailIdList": [126501],
    "pauseGame": true,
    "CODAHKPAIMH": [],
    "MBCCKIJLLFM": []
  },
  {
    "id": 1266,
    "detailIdList": [126601, 126602],
    "pauseGame": true,
    "CODAHKPAIMH": [],
    "MBCCKIJLLFM": []
  },
  {
    "id": 1267,
    "detailIdList": [126701, 126702],
    "pauseGame": true,
    "CODAHKPAIMH": [],
    "MBCCKIJLLFM": []
  },
  {
    "id": 1268,
    "detailIdList": [126801],
    "pauseGame": true,
    "CODAHKPAIMH": [],
    "MBCCKIJLLFM": []
  },
  {
    "id": 1269,
    "detailIdList": [126901],
    "pauseGame": true,
    "CODAHKPAIMH": [],
    "MBCCKIJLLFM": []
  },
  {
    "id": 1270,
    "detailIdList": [127001],
    "pauseGame": true,
    "CODAHKPAIMH": [],
    "MBCCKIJLLFM": []
  },
  {
    "id": 1271,
    "detailIdList": [127101],
    "pauseGame": true,
    "CODAHKPAIMH": [],
    "MBCCKIJLLFM": []
  },
  {
    "id": 1272,
    "detailIdList": [127201],
    "pauseGame": true,
    "CODAHKPAIMH": [],
    "MBCCKIJLLFM": []
  },
  {
    "id": 1273,
    "detailIdList": [127301],
    "CODAHKPAIMH": [],
    "MBCCKIJLLFM": []
  },
  {
    "id": 1274,
    "detailIdList": [127401],
    "pauseGame": true,
    "CODAHKPAIMH": [],
    "MBCCKIJLLFM": []
  },
  {
    "id": 1275,
    "detailIdList": [127501],
    "pauseGame": true,
    "CODAHKPAIMH": [],
    "MBCCKIJLLFM": []
  },
  {
    "id": 1276,
    "detailIdList": [127601],
    "pauseGame": true,
    "CODAHKPAIMH": [],
    "MBCCKIJLLFM": []
  },
  {
    "id": 1277,
    "detailIdList": [127701, 127702],
    "pauseGame": true,
    "CODAHKPAIMH": [],
    "MBCCKIJLLFM": []
  },
  {
    "id": 1278,
    "detailIdList": [127801],
    "pauseGame": true,
    "CODAHKPAIMH": [],
    "MBCCKIJLLFM": []
  },
  {
    "id": 1279,
    "detailIdList": [127701, 127702, 127801],
    "pauseGame": true,
    "CODAHKPAIMH": [],
    "MBCCKIJLLFM": []
  },
  {
    "id": 1280,
    "detailIdList": [128001],
    "pauseGame": true,
    "CODAHKPAIMH": [],
    "MBCCKIJLLFM": []
  },
  {
    "id": 1281,
    "detailIdList": [125301, 125302, 125303, 125401, 125501],
    "pauseGame": true,
    "CODAHKPAIMH": [],
    "MBCCKIJLLFM": []
  },
  {
    "id": 1282,
    "detailIdList": [128201],
    "pauseGame": true,
    "CODAHKPAIMH": [],
    "MBCCKIJLLFM": []
  },
  {
    "id": 1283,
    "detailIdList": [127702],
    "pauseGame": true,
    "CODAHKPAIMH": [],
    "MBCCKIJLLFM": []
  },
  {
    "id": 1284,
    "detailIdList": [128401, 128402, 128403],
    "pauseGame": true,
    "CODAHKPAIMH": [],
    "MBCCKIJLLFM": []
  },
  {
    "id": 1285,
    "detailIdList": [128501],
    "CODAHKPAIMH": [],
    "MBCCKIJLLFM": []
  },
  {
    "id": 1286,
    "detailIdList": [128601, 128602, 128603],
    "pauseGame": true,
    "CODAHKPAIMH": [],
    "MBCCKIJLLFM": []
  },
  {
    "id": 1287,
    "detailIdList": [128701],
    "CODAHKPAIMH": [],
    "MBCCKIJLLFM": []
  },
  {
    "id": 1288,
    "detailIdList": [128801],
    "pauseGame": true,
    "CODAHKPAIMH": [],
    "MBCCKIJLLFM": []
  },
  {
    "id": 1289,
    "detailIdList": [128901, 128902, 128903, 128904],
    "pauseGame": true,
    "CODAHKPAIMH": [],
    "MBCCKIJLLFM": []
  },
  {
    "id": 1290,
    "detailIdList": [125606],
    "CODAHKPAIMH": [],
    "MBCCKIJLLFM": []
  },
  {
    "id": 1291,
    "detailIdList": [125205],
    "pauseGame": true,
    "CODAHKPAIMH": [],
    "MBCCKIJLLFM": []
  },
  {
    "id": 1292,
    "detailIdList": [125204],
    "pauseGame": true,
    "CODAHKPAIMH": [],
    "MBCCKIJLLFM": []
  },
  {
    "id": 1293,
    "detailIdList": [125201, 125202, 125203, 125204, 125205],
    "pauseGame": true,
    "CODAHKPAIMH": [],
    "MBCCKIJLLFM": []
  },
  {
    "id": 1294,
    "detailIdList": [129401],
    "pauseGame": true,
    "CODAHKPAIMH": [],
    "MBCCKIJLLFM": []
  },
  {
    "id": 1295,
    "detailIdList": [129501],
    "pauseGame": true,
    "CODAHKPAIMH": [],
    "MBCCKIJLLFM": []
  },
  {
    "id": 1296,
    "detailIdList": [129601],
    "pauseGame": true,
    "CODAHKPAIMH": [],
    "MBCCKIJLLFM": []
  },
  {
    "id": 1297,
    "detailIdList": [128502],
    "CODAHKPAIMH": [],
    "MBCCKIJLLFM": []
  },
  {
    "id": 1301,
    "detailIdList": [130101, 130102, 130103, 130104],
    "pauseGame": true,
    "CODAHKPAIMH": [],
    "MBCCKIJLLFM": []
  },
  {
    "id": 1302,
    "detailIdList": [130201, 130202, 130203, 130204, 130205],
    "pauseGame": true,
    "CODAHKPAIMH": [],
    "MBCCKIJLLFM": []
  },
  {
    "id": 1303,
    "detailIdList": [130301, 130302, 130303, 130304, 130305, 130306, 130307],
    "pauseGame": true,
    "CODAHKPAIMH": [],
    "MBCCKIJLLFM": []
  },
  {
    "id": 1304,
    "detailIdList": [130301, 130302],
    "CODAHKPAIMH": [],
    "MBCCKIJLLFM": []
  },
  {
    "id": 1305,
    "detailIdList": [130303],
    "CODAHKPAIMH": [],
    "MBCCKIJLLFM": []
  },
  {
    "id": 1306,
    "detailIdList": [130304],
    "CODAHKPAIMH": [],
    "MBCCKIJLLFM": []
  },
  {
    "id": 1307,
    "detailIdList": [130305],
    "CODAHKPAIMH": [],
    "MBCCKIJLLFM": []
  },
  {
    "id": 1308,
    "detailIdList": [130306],
    "CODAHKPAIMH": [],
    "MBCCKIJLLFM": []
  },
  {
    "id": 1309,
    "detailIdList": [130307],
    "CODAHKPAIMH": [],
    "MBCCKIJLLFM": []
  },
  {
    "id": 1311,
    "detailIdList": [131101, 131102, 131103, 131104, 131105],
    "pauseGame": true,
    "CODAHKPAIMH": [],
    "MBCCKIJLLFM": []
  },
  {
    "id": 1314,
    "detailIdList": [131401],
    "pauseGame": true,
    "CODAHKPAIMH": [],
    "MBCCKIJLLFM": []
  },
  {
    "id": 1315,
    "detailIdList": [131501],
    "pauseGame": true,
    "CODAHKPAIMH": [],
    "MBCCKIJLLFM": []
  },
  {
    "id": 1316,
    "detailIdList": [131501, 131502, 131503, 131504],
    "pauseGame": true,
    "CODAHKPAIMH": [],
    "MBCCKIJLLFM": []
  },
  {
    "id": 1317,
    "detailIdList": [131501, 131502, 131503, 131504, 131505],
    "pauseGame": true,
    "CODAHKPAIMH": [],
    "MBCCKIJLLFM": []
  },
  {
    "id": 1318,
    "detailIdList": [131801, 131802],
    "pauseGame": true,
    "CODAHKPAIMH": [],
    "MBCCKIJLLFM": []
  },
  {
    "id": 1319,
    "detailIdList": [131901],
    "pauseGame": true,
    "CODAHKPAIMH": [],
    "MBCCKIJLLFM": []
  },
  {
    "id": 1320,
    "detailIdList": [131506, 131523],
    "pauseGame": true,
    "CODAHKPAIMH": [],
    "MBCCKIJLLFM": []
  },
  {
    "id": 1321,
    "detailIdList": [131507],
    "pauseGame": true,
    "CODAHKPAIMH": [],
    "MBCCKIJLLFM": []
  },
  {
    "id": 1322,
    "detailIdList": [131508],
    "pauseGame": true,
    "CODAHKPAIMH": [],
    "MBCCKIJLLFM": []
  },
  {
    "id": 1323,
    "detailIdList": [131509],
    "pauseGame": true,
    "CODAHKPAIMH": [],
    "MBCCKIJLLFM": []
  },
  {
    "id": 1324,
    "detailIdList": [131510, 131524],
    "pauseGame": true,
    "CODAHKPAIMH": [],
    "MBCCKIJLLFM": []
  },
  {
    "id": 1325,
    "detailIdList": [131511],
    "pauseGame": true,
    "CODAHKPAIMH": [],
    "MBCCKIJLLFM": []
  },
  {
    "id": 1326,
    "detailIdList": [131512],
    "pauseGame": true,
    "CODAHKPAIMH": [],
    "MBCCKIJLLFM": []
  },
  {
    "id": 1327,
    "detailIdList": [131513],
    "pauseGame": true,
    "CODAHKPAIMH": [],
    "MBCCKIJLLFM": []
  },
  {
    "id": 1328,
    "detailIdList": [131514, 131530],
    "pauseGame": true,
    "CODAHKPAIMH": [],
    "MBCCKIJLLFM": []
  },
  {
    "id": 1329,
    "detailIdList": [131515, 131531],
    "pauseGame": true,
    "CODAHKPAIMH": [],
    "MBCCKIJLLFM": []
  },
  {
    "id": 1330,
    "detailIdList": [131516],
    "pauseGame": true,
    "CODAHKPAIMH": [],
    "MBCCKIJLLFM": []
  },
  {
    "id": 1331,
    "detailIdList": [131517],
    "pauseGame": true,
    "CODAHKPAIMH": [],
    "MBCCKIJLLFM": []
  },
  {
    "id": 1332,
    "detailIdList": [131519],
    "pauseGame": true,
    "CODAHKPAIMH": [],
    "MBCCKIJLLFM": []
  },
  {
    "id": 1333,
    "detailIdList": [131520],
    "pauseGame": true,
    "CODAHKPAIMH": [],
    "MBCCKIJLLFM": []
  },
  {
    "id": 1334,
    "detailIdList": [131521],
    "pauseGame": true,
    "CODAHKPAIMH": [],
    "MBCCKIJLLFM": []
  },
  {
    "id": 1335,
    "detailIdList": [131522],
    "pauseGame": true,
    "CODAHKPAIMH": [],
    "MBCCKIJLLFM": []
  },
  {
    "id": 1336,
    "detailIdList": [131525],
    "pauseGame": true,
    "CODAHKPAIMH": [],
    "MBCCKIJLLFM": []
  },
  {
    "id": 1337,
    "detailIdList": [131526, 131527, 131528],
    "pauseGame": true,
    "CODAHKPAIMH": [],
    "MBCCKIJLLFM": []
  },
  {
    "id": 1338,
    "detailIdList": [131529],
    "pauseGame": true,
    "CODAHKPAIMH": [],
    "MBCCKIJLLFM": []
  },
  {
    "id": 1339,
    "detailIdList": [131518],
    "pauseGame": true,
    "CODAHKPAIMH": [],
    "MBCCKIJLLFM": []
  },
  {
    "id": 1340,
    "detailIdList": [134001],
    "pauseGame": true,
    "CODAHKPAIMH": [],
    "MBCCKIJLLFM": []
  },
  {
    "id": 1341,
    "detailIdList": [134101, 134102, 134103],
    "pauseGame": true,
    "CODAHKPAIMH": [],
    "MBCCKIJLLFM": []
  },
  {
    "id": 1342,
    "detailIdList": [131532, 131533],
    "pauseGame": true,
    "CODAHKPAIMH": [],
    "MBCCKIJLLFM": []
  },
  {
    "id": 1343,
    "detailIdList": [134301, 134302],
    "pauseGame": true,
    "CODAHKPAIMH": [],
    "MBCCKIJLLFM": []
  },
  {
    "id": 1344,
    "detailIdList": [134401],
    "pauseGame": true,
    "CODAHKPAIMH": [],
    "MBCCKIJLLFM": []
  },
  {
    "id": 1345,
    "detailIdList": [134501],
    "pauseGame": true,
    "CODAHKPAIMH": [],
    "MBCCKIJLLFM": []
  },
  {
    "id": 1346,
    "detailIdList": [134601],
    "pauseGame": true,
    "CODAHKPAIMH": [],
    "MBCCKIJLLFM": []
  },
  {
    "id": 1347,
    "detailIdList": [134701, 134711, 134721, 134731, 134741],
    "pauseGame": true,
    "KAFAGGOGLAH": true,
    "CODAHKPAIMH": [134701, 134712, 134721, 134731, 134741],
    "MBCCKIJLLFM": [134701, 134713, 134721, 134731, 134741]
  },
  {
    "id": 1348,
    "detailIdList": [134801, 134802],
    "pauseGame": true,
    "CODAHKPAIMH": [],
    "MBCCKIJLLFM": []
  },
  {
    "id": 1349,
    "detailIdList": [134901, 134902, 134903],
    "pauseGame": true,
    "CODAHKPAIMH": [],
    "MBCCKIJLLFM": []
  },
  {
    "id": 1350,
    "detailIdList": [135001],
    "pauseGame": true,
    "CODAHKPAIMH": [],
    "MBCCKIJLLFM": []
  },
  {
    "id": 1351,
    "detailIdList": [135101, 135102],
    "pauseGame": true,
    "CODAHKPAIMH": [],
    "MBCCKIJLLFM": []
  },
  {
    "id": 1352,
    "detailIdList": [135201, 135202, 135203],
    "pauseGame": true,
    "CODAHKPAIMH": [],
    "MBCCKIJLLFM": []
  },
  {
    "id": 1353,
    "detailIdList": [135301, 135302, 135303],
    "pauseGame": true,
    "CODAHKPAIMH": [],
    "MBCCKIJLLFM": []
  },
  {
    "id": 1354,
    "detailIdList": [135401, 135402, 135403],
    "pauseGame": true,
    "CODAHKPAIMH": [],
    "MBCCKIJLLFM": []
  },
  {
    "id": 1355,
    "detailIdList": [135501],
    "pauseGame": true,
    "CODAHKPAIMH": [],
    "MBCCKIJLLFM": []
  },
  {
    "id": 1356,
    "detailIdList": [136101, 136112],
    "pauseGame": true,
    "CODAHKPAIMH": [],
    "MBCCKIJLLFM": []
  },
  {
    "id": 1357,
    "detailIdList": [136102],
    "pauseGame": true,
    "CODAHKPAIMH": [],
    "MBCCKIJLLFM": []
  },
  {
    "id": 1359,
    "detailIdList": [136104],
    "pauseGame": true,
    "CODAHKPAIMH": [],
    "MBCCKIJLLFM": []
  },
  {
    "id": 1360,
    "detailIdList": [136105],
    "pauseGame": true,
    "CODAHKPAIMH": [],
    "MBCCKIJLLFM": []
  },
  {
    "id": 1361,
    "detailIdList": [136106],
    "pauseGame": true,
    "CODAHKPAIMH": [],
    "MBCCKIJLLFM": []
  },
  {
    "id": 1362,
    "detailIdList": [136107, 136108],
    "pauseGame": true,
    "CODAHKPAIMH": [],
    "MBCCKIJLLFM": []
  },
  {
    "id": 1363,
    "detailIdList": [136109],
    "pauseGame": true,
    "CODAHKPAIMH": [],
    "MBCCKIJLLFM": []
  },
  {
    "id": 1364,
    "detailIdList": [136110, 136111],
    "pauseGame": true,
    "CODAHKPAIMH": [],
    "MBCCKIJLLFM": []
  },
  {
    "id": 1365,
    "detailIdList": [136113, 136114, 136115, 136116],
    "pauseGame": true,
    "CODAHKPAIMH": [],
    "MBCCKIJLLFM": []
  },
  {
    "id": 1366,
    "detailIdList": [136117, 136118],
    "pauseGame": true,
    "CODAHKPAIMH": [],
    "MBCCKIJLLFM": []
  },
  {
    "id": 1367,
    "detailIdList": [136119],
    "pauseGame": true,
    "CODAHKPAIMH": [],
    "MBCCKIJLLFM": []
  },
  {
    "id": 1368,
    "detailIdList": [136120, 136121, 136122],
    "pauseGame": true,
    "CODAHKPAIMH": [],
    "MBCCKIJLLFM": []
  },
  {
    "id": 1369,
    "detailIdList": [136123, 136124],
    "pauseGame": true,
    "CODAHKPAIMH": [],
    "MBCCKIJLLFM": []
  },
  {
    "id": 1370,
    "detailIdList": [137001, 137002],
    "pauseGame": true,
    "CODAHKPAIMH": [],
    "MBCCKIJLLFM": []
  },
  {
    "id": 1371,
    "detailIdList": [136125],
    "pauseGame": true,
    "CODAHKPAIMH": [],
    "MBCCKIJLLFM": []
  },
  {
    "id": 1372,
    "detailIdList": [136138, 136139],
    "pauseGame": true,
    "CODAHKPAIMH": [],
    "MBCCKIJLLFM": []
  },
  {
    "id": 1373,
    "detailIdList": [136140],
    "pauseGame": true,
    "CODAHKPAIMH": [],
    "MBCCKIJLLFM": []
  },
  {
    "id": 1374,
    "detailIdList": [136126, 136127, 136128],
    "pauseGame": true,
    "CODAHKPAIMH": [],
    "MBCCKIJLLFM": []
  },
  {
    "id": 1375,
    "detailIdList": [136129, 136130],
    "pauseGame": true,
    "CODAHKPAIMH": [],
    "MBCCKIJLLFM": []
  },
  {
    "id": 1376,
    "detailIdList": [136131],
    "pauseGame": true,
    "CODAHKPAIMH": [],
    "MBCCKIJLLFM": []
  },
  {
    "id": 1377,
    "detailIdList": [136134, 136146, 136135],
    "pauseGame": true,
    "CODAHKPAIMH": [],
    "MBCCKIJLLFM": []
  },
  {
    "id": 1378,
    "detailIdList": [136136],
    "pauseGame": true,
    "CODAHKPAIMH": [],
    "MBCCKIJLLFM": []
  },
  {
    "id": 1379,
    "detailIdList": [136137],
    "pauseGame": true,
    "CODAHKPAIMH": [],
    "MBCCKIJLLFM": []
  },
  {
    "id": 1380,
    "detailIdList": [136141, 136142, 136143],
    "pauseGame": true,
    "CODAHKPAIMH": [],
    "MBCCKIJLLFM": []
  },
  {
    "id": 1381,
    "detailIdList": [136134, 136135],
    "pauseGame": true,
    "CODAHKPAIMH": [],
    "MBCCKIJLLFM": []
  },
  {
    "id": 1382,
    "detailIdList": [136144],
    "pauseGame": true,
    "CODAHKPAIMH": [],
    "MBCCKIJLLFM": []
  },
  {
    "id": 1386,
    "detailIdList": [136145],
    "pauseGame": true,
    "CODAHKPAIMH": [],
    "MBCCKIJLLFM": []
  },
  {
    "id": 1387,
    "detailIdList": [136147],
    "pauseGame": true,
    "CODAHKPAIMH": [],
    "MBCCKIJLLFM": []
  },
  {
    "id": 1388,
    "detailIdList": [136148],
    "pauseGame": true,
    "CODAHKPAIMH": [],
    "MBCCKIJLLFM": []
  },
  {
    "id": 1389,
    "detailIdList": [136149],
    "pauseGame": true,
    "CODAHKPAIMH": [],
    "MBCCKIJLLFM": []
  }
]
