[
  {
    "EHCKJNIEMCK": 1,
    "JFHPKHBLDNH": 2000,
    "AGAODIMCBBM": 3,
    "CNBPDFBGEGG": [100, 100, 100],
    "OGMNKKKGKMM": [
      {
        "defaultValue": 20,
        "DDCFPBBLBLA": 500
      },
      {
        "defaultValue": 15,
        "DDCFPBBLBLA": 500
      },
      {
        "defaultValue": 10,
        "DDCFPBBLBLA": 500
      }
    ],
    "PCPDDKJJIHF": 3931122181,
    "BELABMCMHLI": [833571511, 2507487669, 1234017216],
    "npcId": 30234,
    "HAFBGGJIFMA": 3681755849567640162
  },
  {
    "EHCKJNIEMCK": 2,
    "JFHPKHBLDNH": 2000,
    "AGAODIMCBBM": 3,
    "CNBPDFBGEGG": [100, 100, 100],
    "OGMNKKKGKMM": [
      {
        "defaultValue": 120,
        "DDCFPBBLBLA": 500
      },
      {
        "defaultValue": 200,
        "DDCFPBBLBLA": 500
      },
      {
        "defaultValue": 150,
        "DDCFPBBLBLA": 500
      }
    ],
    "PCPDDKJJIHF": 2426017909,
    "BELABMCMHLI": [4257948575, 2433865285, 3670388896],
    "npcId": 30243,
    "HAFBGGJIFMA": 109779913656167470
  },
  {
    "EHCKJNIEMCK": 3,
    "JFHPKHBLDNH": 2000,
    "AGAODIMCBBM": 3,
    "CNBPDFBGEGG": [100, 100, 100],
    "OGMNKKKGKMM": [
      {
        "defaultValue": 150,
        "DDCFPBBLBLA": 500
      },
      {
        "defaultValue": 120,
        "DDCFPBBLBLA": 500
      },
      {
        "defaultValue": 200,
        "DDCFPBBLBLA": 500
      }
    ],
    "PCPDDKJJIHF": 965439277,
    "BELABMCMHLI": [3404896991, 3606190245, 3998551280],
    "npcId": 30244,
    "HAFBGGJIFMA": 11040926829591897538
  }
]
