[
  ////////////////////////////////////////////////////////////////
  //
  // StateControl
  //
  ////////////////////////////////////////////////////////////////
  {
    "Default": {
      "$type": "ConfigAbility",
      "abilityName": "Monster_Chrysopelea_Eremite_Grass_StateControl",
      "abilityMixins": [
        {
          "$type": "AttachToStateIDMixin",
          "stateIDs": ["Alert"],
          "modifierName": "Monster_Chrysopelea_Eremite_Grass_Alert"
        },
        {
          "$type": "AttachToPoseIDMixin",
          "poseIDs": [1, 102],
          "modifierName": "Monster_Chrysopelea_Eremite_Grass_Disappear"
        },
        {
          "$type": "AttachToNormalizedTimeMixin",
          "stateID": "Alert",
          "normalizeStart": 0,
          "normalizeEnd": 0.35,
          "modifierName": "Monster_Chrysopelea_Eremite_Grass_Visable"
        }
      ],
      "onAdded": [
        {
          "$type": "AttachModifier",
          "modifierName": "Monster_Chrysopelea_Eremite_Grass_StateControl"
        },
        {
          "$type": "ApplyModifier",
          "modifierName": "Monster_Chrysopelea_Eremite_Grass_BaseStateHeadle"
        }
      ],
      "modifiers": {
        "Monster_Chrysopelea_Eremite_Grass_Alert": {
          "onAdded": [
            {
              "$type": "CreateGadget",
              "gadgetID": 42550004,
              "campID": 4001,
              "born": {
                "$type": "ConfigBornBySelf",
                "offset": {
                  "x": 0.1,
                  "y": 2.77,
                  "z": -5
                }
              }
            }
          ],
          "onRemoved": [
            //删除材质切片区域
            {
              "$type": "KillSelf",
              "otherTargets": {
                "$type": "SelectTargetsByChildren",
                "configID": 42560004,
                "sortType": "Default"
              }
            },
            {
              "$type": "RemoveModifier",
              "modifierName": "Monster_Chrysopelea_Eremite_Grass_StateControl"
            },
            {
              "$type": "ApplyModifier",
              "modifierName": "Monster_Chrysopelea_Eremite_Grass_DefenseDown_EEffect"
            }
          ]
        },
        "Monster_Chrysopelea_Eremite_Grass_DefenseDown_EEffect": {
          "onAdded": [
            {
              "$type": "AttachEffect",
              "effectPattern": "Eff_Avatar_Properties_Defense_Down"
            } //低抗性特效
          ]
        },
        "Monster_Chrysopelea_Eremite_Grass_Disappear": {
          "state": "DenyLockOn",
          "properties": {
            "Actor_PhysicalSubHurtDelta": 2.0,
            "Actor_FireSubHurtDelta": 2.0,
            "Actor_ElecSubHurtDelta": 2.0,
            "Actor_WaterSubHurtDelta": 2.0,
            "Actor_GrassSubHurtDelta": 2.0,
            "Actor_WindSubHurtDelta": 2.0,
            "Actor_IceSubHurtDelta": 2.0,
            "Actor_RockSubHurtDelta": 2.0
          },
          "modifierMixins": [
            {
              "$type": "AttachActionToModifierMixin",
              "onAdded": [
                //显示模型
                {
                  "$type": "TriggerSetVisible",
                  "target": "Self",
                  "visible": false
                },
                //隐藏血条
                {
                  "$type": "HideUIBillBoard",
                  "hide": true
                },
                //关闭Hitbos
                {
                  "$type": "EnableHitBoxByName",
                  "hitBoxNames": ["HitBox"],
                  "setEnable": false
                },
                //关闭collider
                {
                  "$type": "EnablePushColliderName",
                  "pushColliderNames": ["PushCollider"],
                  "setEnable": false
                },
                {
                  "$type": "EnableHDMesh",
                  "enable": false,
                  "hdMeshKey": "Default",
                  "canBeHandledOnRecover": true
                }
              ],
              "onRemoved": [
                //显示模型
                {
                  "$type": "TriggerSetVisible",
                  "target": "Self",
                  "visible": true
                },
                //开启hitbox
                {
                  "$type": "EnableHitBoxByName",
                  "hitBoxNames": ["HitBox"],
                  "setEnable": true
                },
                //开启collider
                {
                  "$type": "EnablePushColliderName",
                  "pushColliderNames": ["PushCollider"],
                  "setEnable": true
                },
                //显示血条
                {
                  "$type": "HideUIBillBoard",
                  "hide": false
                },
                {
                  "$type": "EnableHDMesh",
                  "enable": true,
                  "hdMeshKey": "Default"
                }
              ]
            }
          ],
          "onAdded": [
            //显示模型
            {
              "$type": "TriggerSetVisible",
              "target": "Self",
              "visible": false
            },
            //隐藏血条
            {
              "$type": "HideUIBillBoard",
              "hide": true
            },
            //关闭Hitbos
            {
              "$type": "EnableHitBoxByName",
              "hitBoxNames": ["HitBox"],
              "setEnable": false
            },
            //关闭collider
            {
              "$type": "EnablePushColliderName",
              "pushColliderNames": ["PushCollider"],
              "setEnable": false
            },
            {
              "$type": "EnableHDMesh",
              "enable": false,
              "hdMeshKey": "Default",
              "canBeHandledOnRecover": true
            }
          ],
          "onRemoved": [
            //显示模型
            {
              "$type": "TriggerSetVisible",
              "target": "Self",
              "visible": true
            },
            //开启hitbox
            {
              "$type": "EnableHitBoxByName",
              "hitBoxNames": ["HitBox"],
              "setEnable": true
            },
            //开启collider
            {
              "$type": "EnablePushColliderName",
              "pushColliderNames": ["PushCollider"],
              "setEnable": true
            },
            //显示血条
            {
              "$type": "HideUIBillBoard",
              "hide": false
            },
            {
              "$type": "EnableHDMesh",
              "enable": true,
              "hdMeshKey": "Default"
            },
            {
              "$type": "RemoveModifier",
              "modifierName": "Monster_Chrysopelea_Eremite_Grass_StateControl"
            }
          ]
        },
        "Monster_Chrysopelea_Eremite_Grass_Visable": {
          "onRemoved": [
            {
              "$type": "TriggerSetVisible",
              "target": "Self",
              "visible": true,
              "canBeHandledOnRecover": true
            }
          ]
        },
        "Monster_Chrysopelea_Eremite_Grass_StateControl": {
          "onAdded": [
            {
              "$type": "SetPoseBool",
              "boolID": "IsAppear",
              "value": false,
              "canBeHandledOnRecover": true
            }
          ],
          "onRemoved": [
            {
              "$type": "SetPoseBool",
              "boolID": "IsAppear",
              "value": true,
              "canBeHandledOnRecover": true
            }
          ],
          "onReconnect": [
            {
              "$type": "SetPoseBool",
              "boolID": "IsAppear",
              "value": true
            }
          ],
          "onChangeAuthority": [
            {
              "$type": "SetPoseBool",
              "boolID": "IsAppear",
              "value": true
            },
            {
              "$type": "TriggerSetVisible",
              "target": "Self",
              "visible": true,
              "canBeHandledOnRecover": true
            }
          ]
        },
        "Monster_Chrysopelea_Eremite_Grass_BaseStateHeadle": {
          "duration": 1,
          "onAdded": [
            {
              "$type": "TriggerSetVisible",
              "target": "Self",
              "visible": false
            },
            {
              "$type": "HideUIBillBoard",
              "hide": true
            },
            {
              "$type": "EnableHitBoxByName",
              "hitBoxNames": ["HitBox"],
              "setEnable": false
            },
            {
              "$type": "EnablePushColliderName",
              "pushColliderNames": ["PushCollider"],
              "setEnable": false
            },
            {
              "$type": "EnableHDMesh",
              "enable": false,
              "hdMeshKey": "Default",
              "canBeHandledOnRecover": true,
              "doOffStage": true
            }
          ],
          "onReconnect": [
            {
              "$type": "TriggerSetVisible",
              "target": "Self",
              "visible": true
            },
            {
              "$type": "HideUIBillBoard",
              "hide": false
            },
            {
              "$type": "EnableHitBoxByName",
              "hitBoxNames": ["HitBox", "HitBox_Sky"],
              "setEnable": true
            },
            {
              "$type": "EnablePushColliderName",
              "pushColliderNames": ["PushCollider"],
              "setEnable": true
            },
            {
              "$type": "EnableHDMesh",
              "enable": true,
              "hdMeshKey": "Default"
            }
          ],
          "onChangeAuthority": [
            {
              "$type": "TriggerSetVisible",
              "target": "Self",
              "visible": true
            },
            {
              "$type": "HideUIBillBoard",
              "hide": false
            },
            {
              "$type": "EnableHitBoxByName",
              "hitBoxNames": ["HitBox"],
              "setEnable": true
            },
            {
              "$type": "EnablePushColliderName",
              "pushColliderNames": ["PushCollider"],
              "setEnable": true
            },
            {
              "$type": "EnableHDMesh",
              "enable": true,
              "hdMeshKey": "Default"
            }
          ]
        }
      }
    }
  },
  {
    "Default": {
      "$type": "ConfigAbility",
      "abilityName": "Monster_Chrysopelea_Eremite_Grass_ShaderCut",
      "onAdded": [
        {
          "$type": "ApplyModifier",
          "modifierName": "ChargeEndPos_ShaderCut"
        }
      ],
      "modifiers": {
        "ChargeEndPos_ShaderCut": {
          "duration": 3,
          "modifierMixins": [
            {
              "$type": "SendPostionToShaderCutMixin",
              "sendTarget": "Owner",
              "sendRadius": 10,
              "scale": {
                "x": 5,
                "y": 5,
                "z": 5
              },
              "offset": {
                "x": 0,
                "y": 0,
                "z": 0
              }
            }
          ]
        }
      }
    }
  },
  ////////////////////////////////////////////////////////////////
  //
  // StreeControl
  //
  ////////////////////////////////////////////////////////////////
  {
    "Default": {
      "$type": "ConfigAbility",
      "abilityName": "Monster_Chrysopelea_Eremite_Grass_StreeControl",
      "abilityMixins": [
        {
          "$type": "SteerAttackMixin",
          "steerStateIDs": ["Turn"],
          "startNormalizedTime": 0,
          "endNormalizedTime": 99,
          "angularSpeed": 180,
          "attackTrigger": "",
          "attackDistance": 2
        },
        {
          "$type": "SteerAttackMixin",
          "steerStateIDs": ["NormalAttack01"],
          "startNormalizedTime": 0,
          "endNormalizedTime": 0.2,
          "angularSpeed": 180,
          "attackTrigger": "",
          "attackDistance": 2
        },
        {
          "$type": "SteerAttackMixin",
          "steerStateIDs": ["NormalAttack01"],
          "startNormalizedTime": 0.33,
          "endNormalizedTime": 0.61,
          "angularSpeed": 180,
          "attackTrigger": "",
          "attackDistance": 2
        },
        {
          "$type": "SteerAttackMixin",
          "steerStateIDs": ["MeleeAttack01"],
          "startNormalizedTime": 0,
          "endNormalizedTime": 0.41,
          "angularSpeed": 150,
          "attackTrigger": "",
          "attackDistance": 2
        },
        {
          "$type": "SteerAttackMixin",
          "steerStateIDs": ["ComboAttack01"],
          "startNormalizedTime": 0,
          "endNormalizedTime": 0.2,
          "angularSpeed": 125,
          "attackTrigger": "",
          "attackDistance": 2
        },
        {
          "$type": "SteerAttackMixin",
          "steerStateIDs": ["RangeAttack01"],
          "startNormalizedTime": 0,
          "endNormalizedTime": 0.5,
          "angularSpeed": 180,
          "attackTrigger": "",
          "attackDistance": 2
        },
        {
          "$type": "SteerAttackMixin",
          "steerStateIDs": ["Alert"],
          "startNormalizedTime": 0.64,
          "endNormalizedTime": 0.81,
          "angularSpeed": 180,
          "attackTrigger": "",
          "attackDistance": 2
        }
      ]
    }
  },
  ////////////////////////////////////////////////////////////////
  //
  // NormalAttack01 & 02
  // 近战攻击
  //
  ////////////////////////////////////////////////////////////////
  {
    "Default": {
      "$type": "ConfigAbility",
      "abilityName": "Monster_Chrysopelea_Eremite_Grass_NormalAttack01_01",
      "abilityMixins": [
        {
          "$type": "AttachToNormalizedTimeMixin",
          "stateID": "NormalAttack01",
          "normalizeStart": 0.0,
          "normalizeEnd": 0.31,
          "modifierName": "Monster_Chrysopelea_Eremite_Grass_NormalAttack01_Effect"
        }
      ],
      "modifiers": {
        "Monster_Chrysopelea_Eremite_Grass_NormalAttack01_Damage": {
          "duration": 1,
          "onAdded": [
            {
              "$type": "FireEffect",
              "effectPattern": "Eff_Monster_Chrysopelea_Eremite_Grass_NormalAttack01_01_Damage",
              "born": {
                "$type": "ConfigBornBySelf",
                "offset": {
                  "x": 0,
                  "y": 1,
                  "z": 2
                }
              }
            },
            {
              "$type": "TriggerAttackEvent",
              "targetType": "Enemy",
              "attackEvent": {
                "attackPattern": {
                  "$type": "ConfigAttackSphere",
                  "radius": 2,
                  "triggerType": "TriggerOnce",
                  "born": {
                    "$type": "ConfigBornBySelf",
                    "offset": {
                      "x": 0,
                      "y": 1,
                      "z": 2
                    }
                  }
                },
                "attackInfo": {
                  "attackProperty": {
                    "damagePercentage": 0.6,
                    "strikeType": "Blunt",
                    "elementType": "Grass",
                    "enBreak": 100,
                    "elementDurability": 25
                  },
                  "hitPattern": {
                    "onHitEffectName": "default",
                    "hitImpulseType": "LV4",
                    "muteHitText": false
                  }
                }
              }
            }
          ]
        },
        "Monster_Chrysopelea_Eremite_Grass_NormalAttack01_Effect": {
          "onAdded": [
            {
              "$type": "AttachEffect",
              "effectPattern": "Eff_Monster_Chrysopelea_Eremite_Grass_NormalAttack01_01_BS"
            }
          ]
        }
      },
      "onAbilityStart": [
        {
          "$type": "ApplyModifier",
          "modifierName": "Monster_Chrysopelea_Eremite_Grass_NormalAttack01_Damage"
        }
      ]
    }
  },
  {
    "Default": {
      "$type": "ConfigAbility",
      "abilityName": "Monster_Chrysopelea_Eremite_Grass_NormalAttack01_02",
      "abilityMixins": [],
      "onAbilityStart": [
        {
          "$type": "ApplyModifier",
          "modifierName": "Monster_Chrysopelea_Eremite_Grass_NormalAttack01_02_Damage"
        }
      ],
      "modifiers": {
        "Monster_Chrysopelea_Eremite_Grass_NormalAttack01_02_Damage": {
          "duration": 1,
          "onAdded": [
            {
              "$type": "TriggerAttackEvent",
              "targetType": "Enemy",
              "attackEvent": {
                "attackPattern": {
                  "$type": "ConfigAttackCircle",
                  "triggerType": "TriggerNoRepeat",
                  "height": 3,
                  "fanAngle": 70,
                  "radius": 9,
                  "innerRadius": -6,
                  "born": {
                    "$type": "ConfigBornBySelf",
                    "offset": {
                      "x": 0.0,
                      "y": 0.0,
                      "z": -6
                    },
                    "direction": {
                      "$type": "ConfigDirectionByEntity",
                      "angleOffset": {
                        "x": 0,
                        "y": -30,
                        "z": 0
                      }
                    }
                  }
                },
                "attackInfo": {
                  "attackProperty": {
                    "damagePercentage": 0.7,
                    "strikeType": "Blunt",
                    "elementType": "Grass",
                    "elementDurability": 25,
                    "enBreak": 200
                  },
                  "hitPattern": {
                    "onHitEffectName": "default",
                    "hitImpulseType": "LV5",
                    "hitHaltTime": 0.0,
                    "hitHaltTimeScale": 0.01,
                    "muteHitText": false
                  }
                }
              }
            }
          ]
        }
      }
    }
  },
  ////////////////////////////////////////////////////////////////
  //
  // Ring Effect Hendle
  // 近战攻击
  //
  ////////////////////////////////////////////////////////////////
  {
    "Default": {
      "$type": "ConfigAbility",
      "abilityName": "Monster_Chrysopelea_Eremite_Grass_RingEffect_Open",
      "abilityMixins": [
        {
          "$type": "AttachModifierToSelfGlobalValueMixin",
          "globalValueKey": "_CHRYSOPELEA_OPEN_RINGEFFECT_",
          "valueSteps": [-0.5, 0.5, 1.5],
          "removeAppliedModifier": true,
          "modifierNameSteps": ["Closed_RingEffect", "Open_RingEffect"]
        }
      ],
      "onAdded": [
        {
          "$type": "SetGlobalValue",
          "key": "_CHRYSOPELEA_OPEN_RINGEFFECT_",
          "value": 0,
          "maxValue": 1,
          "minValue": 0,
          "useLimitRange": true
        }
      ],
      "onAbilityStart": [
        {
          "$type": "AttachModifier",
          "modifierName": "UNIQUE_Chrysopelea_RingEffect"
        }
      ],
      "modifiers": {
        "Closed_RingEffect": {
          "onAdded": [
            {
              "$type": "SendEffectTrigger",
              "effectPattern": "Eff_Monster_Chrysopelea_Eremite_Grass_Ring",
              "type": "Bool",
              "parameter": "ON",
              "value": 0
            }
          ]
        },
        "Open_RingEffect": {
          "onAdded": [
            {
              "$type": "SendEffectTrigger",
              "effectPattern": "Eff_Monster_Chrysopelea_Eremite_Grass_Ring",
              "type": "Bool",
              "parameter": "ON",
              "value": 1
            }
          ]
        },
        "UNIQUE_Chrysopelea_RingEffect": {
          "isUnique": true,
          "stacking": "Unique",
          "onAdded": [
            {
              "$type": "AttachEffect",
              "effectPattern": "Eff_Monster_Chrysopelea_Eremite_Grass_Ring"
            },
            {
              "$type": "AddGlobalValue",
              "key": "_CHRYSOPELEA_OPEN_RINGEFFECT_",
              "value": 1,
              "maxValue": 1,
              "minValue": 0,
              "useLimitRange": true
            }
          ],
          "onRemoved": [
            {
              "$type": "AddGlobalValue",
              "key": "_CHRYSOPELEA_OPEN_RINGEFFECT_",
              "value": -10,
              "maxValue": 1,
              "minValue": 0,
              "useLimitRange": true
            }
          ]
        }
      }
    }
  },
  {
    "Default": {
      "$type": "ConfigAbility",
      "abilityName": "Monster_Chrysopelea_Eremite_Grass_RingEffect_Closed",
      "abilityMixins": [
        {
          "$type": "AttachToStateIDMixin",
          "stateIDs": [
            "NormalAttack01",
            "MeleeAttack01",
            "RangeAttack01",
            "ComboAttack01"
          ],
          "modifierName": "Remove_RingEffect"
        }
      ],
      "onAbilityStart": [
        {
          "$type": "RemoveUniqueModifier",
          "modifierName": "UNIQUE_Chrysopelea_RingEffect"
        }
      ],
      "modifiers": {
        "Remove_RingEffect": {
          "onRemoved": [
            {
              "$type": "RemoveUniqueModifier",
              "modifierName": "UNIQUE_Chrysopelea_RingEffect"
            }
          ]
        }
      }
    }
  },
  ////////////////////////////////////////////////////////////////
  //
  // MeleeAttack01
  // 弹起来插地
  //
  ////////////////////////////////////////////////////////////////
  {
    "Default": {
      "$type": "ConfigAbility",
      "abilityName": "Monster_Chrysopelea_Eremite_Grass_MeleeAttack01",
      "abilityMixins": [
        {
          "$type": "AttachToNormalizedTimeMixin",
          "modifierName": "PushCollider_Handle",
          "normalizeEnd": 0.6,
          "normalizeStart": 0.08,
          "stateID": "MeleeAttack01"
        }
      ],
      "onAbilityStart": [
        {
          "$type": "ApplyModifier",
          "modifierName": "Monster_Chrysopelea_Eremite_Grass_MeleeAttack01_BlinkHandle"
        }
      ],
      "modifiers": {
        "Monster_Chrysopelea_Eremite_Grass_MeleeAttack01_BlinkHandle": {
          "duration": 0.15,
          "onAdded": [
            //找到玩家当前位置
            {
              "$type": "TryFindBlinkPoint",
              "target": "SelfAttackTarget"
            },
            {
              "$type": "StartDither",
              "duration": 0.15
            }
          ],
          "onRemoved": [
            {
              "$type": "ApplyModifier",
              "modifierName": "Visable_Handle"
            },
            {
              "$type": "ApplyModifier",
              "modifierName": "Monster_Chrysopelea_Eremite_Grass_MeleeAttack01_Alert"
            }
          ]
        },
        "PushCollider_Handle": {
          "modifierMixins": [
            {
              "$type": "AttachActionToModifierMixin",
              "onAdded": [
                {
                  "$type": "EnablePushColliderName",
                  "pushColliderNames": ["PushCollider"],
                  "setEnable": false
                }
              ],
              "onRemoved": [
                {
                  "$type": "EnablePushColliderName",
                  "pushColliderNames": ["PushCollider"],
                  "setEnable": true
                }
              ]
            }
          ],
          "onAdded": [
            {
              "$type": "EnablePushColliderName",
              "pushColliderNames": ["PushCollider"],
              "setEnable": false
            }
          ],
          "onRemoved": [
            {
              "$type": "EnablePushColliderName",
              "pushColliderNames": ["PushCollider"],
              "setEnable": true
            }
          ],
          "onChangeAuthority": [
            {
              "$type": "EnablePushColliderName",
              "pushColliderNames": ["PushCollider"],
              "setEnable": true
            } //开启碰撞盒
          ],
          "onReconnect": [
            {
              "$type": "EnablePushColliderName",
              "pushColliderNames": ["PushCollider"],
              "setEnable": true
            } //开启碰撞盒
          ]
        },
        "Visable_Handle": {
          "duration": 0.4,
          "onAdded": [
            {
              "$type": "TriggerSetVisible",
              "target": "Self",
              "visible": false
            },
            {
              "$type": "HideUIBillBoard",
              "hide": true
            },
            {
              "$type": "EnableHitBoxByName",
              "hitBoxNames": ["HitBox"],
              "setEnable": false
            },
            {
              "$type": "EnableHDMesh",
              "enable": false,
              "hdMeshKey": "Default",
              "canBeHandledOnRecover": true
            }
          ],
          "onRemoved": [
            {
              "$type": "TriggerSetVisible",
              "target": "Self",
              "visible": true
            },
            {
              "$type": "EnableHitBoxByName",
              "hitBoxNames": ["HitBox"],
              "setEnable": true
            },
            {
              "$type": "HideUIBillBoard",
              "hide": false
            },
            {
              "$type": "EnableHDMesh",
              "enable": true,
              "hdMeshKey": "Default"
            }
          ]
        },
        "Monster_Chrysopelea_Eremite_Grass_MeleeAttack01_Alert": {
          "duration": 0.25,
          "onRemoved": [
            {
              "$type": "DoBlink"
            },
            {
              "$type": "FireEffect",
              "effectPattern": "Eff_Monster_Chrysopelea_Eremite_Grass_MeleeAttack01_Alert",
              "born": {
                "$type": "ConfigBornByTargetLinearPoint",
                "onGround": true
              }
            }
          ]
        }
      }
    }
  },
  {
    "Default": {
      "$type": "ConfigAbility",
      "abilityName": "Monster_Chrysopelea_Eremite_Grass_MeleeAttack01_Damage",
      "onAbilityStart": [
        {
          "$type": "ApplyModifier",
          "modifierName": "Monster_Chrysopelea_Eremite_Grass_MeleeAttack01_Damage"
        }
      ],
      "modifiers": {
        "Monster_Chrysopelea_Eremite_Grass_MeleeAttack01_Damage": {
          "duration": 0.55,
          "onAdded": [
            {
              "$type": "FireEffect",
              "effectPattern": "Eff_Monster_Chrysopelea_Eremite_Grass_MeleeAttack01_Damage", //Eff_Monster_Eremite_Male_Strong_Katar_Rock_SlamAtk01_Damage
              "born": {
                "$type": "ConfigBornByTargetLinearPoint",
                "onGround": true
              }
            },
            {
              "$type": "TriggerAttackEvent",
              "targetType": "Enemy",
              "attackEvent": {
                "attackPattern": {
                  "$type": "ConfigAttackCircle",
                  "triggerType": "TriggerNoRepeat",
                  "height": 2,
                  "fanAngle": 360,
                  "radius": 3,
                  "born": {
                    "$type": "ConfigBornByTargetLinearPoint",
                    "onGround": true
                  }
                },
                "attackInfo": {
                  "attackProperty": {
                    "damagePercentage": 0.8,
                    "strikeType": "Blunt",
                    "enBreak": 100.0,
                    "elementDurability": 25,
                    "elementType": "Grass"
                  },
                  "hitPattern": {
                    "onHitEffectName": "default",
                    "hitImpulseType": "LV5",
                    "retreatType": "ByHitDirection",
                    "hitHaltTime": 0.0,
                    "hitHaltTimeScale": 0.01,
                    "muteHitText": false
                  },
                  "forceCameraShake": true,
                  "cameraShake": {
                    "shakeRange": 0.25,
                    "shakeTime": 1,
                    "shakeDistance": 20,
                    "shakeType": "Center",
                    "shakeDir": {
                      "x": 0,
                      "y": 2,
                      "z": 0
                    },
                    "extension": {
                      "baseOnCamera": true,
                      "rangeAttenuation": 0.0
                    }
                  }
                }
              }
            }
          ]
        }
      }
    }
  },
  ////////////////////////////////////////////////////////////////
  //
  // ComboAttack01
  // 协同攻击
  //
  ////////////////////////////////////////////////////////////////
  {
    "Default": {
      "$type": "ConfigAbility",
      "abilityName": "Monster_Chrysopelea_Eremite_Grass_ComboAttack01",
      "abilityMixins": [
        {
          "$type": "AttachToStateIDMixin",
          "modifierName": "Kill_Gadget",
          "stateIDs": ["ComboAttack01"]
        },
        {
          "$type": "AttachToStateIDMixin",
          "modifierName": "ComboAttack_Trigger",
          "target": "Owner",
          "stateIDs": ["ComboAttack01"]
        }
      ],
      "onAbilityStart": [
        {
          "$type": "ApplyModifier",
          "modifierName": "Monster_Chrysopelea_Eremite_Grass_ComboAttack01_TriggerBullet"
        }
      ],
      "modifiers": {
        "Monster_Chrysopelea_Eremite_Grass_ComboAttack01_TriggerBullet": {
          "duration": 1,
          "onAdded": [
            {
              "$type": "TriggerBullet",
              "bulletID": 42560005,
              "target": "SelfAttackTarget",
              "trackTarget": "SelfAttackTarget",
              "lifeByOwnerV2": true,
              "born": {
                "$type": "ConfigBornByTarget"
              }
            }
          ]
        },
        "ComboAttack_Trigger": {
          "onAdded": [
            {
              "$type": "SetAnimatorTrigger",
              "triggerID": "ComboTrigger"
            }
          ]
        },
        "Kill_Gadget": {
          "onChangeAuthority": [
            {
              "$type": "ApplyModifier",
              "modifierName": "Kill_Self",
              "otherTargets": {
                "$type": "SelectTargetsByChildren",
                "configID": 42560005,
                "sortType": "Default"
              }
            }
          ]
        },
        "Kill_Self": {
          "duration": 1,
          "onAdded": [
            {
              "$type": "KillSelf"
            }
          ]
        }
      }
    }
  },
  {
    "Default": {
      "$type": "ConfigAbility",
      "abilityName": "Monster_Chrysopelea_Eremite_Grass_ComboAttack01_Damage",
      "onAbilityStart": [
        {
          "$type": "FireEffect",
          "effectPattern": "Eff_Monster_Chrysopelea_Eremite_Grass_ComboAttack01_Damage",
          "born": {
            "$type": "ConfigBornByCollisionPoint",
            "onGround": true
          }
        },
        {
          "$type": "TriggerAttackEvent",
          "targetType": "Enemy",
          "attackEvent": {
            "attackPattern": {
              "$type": "ConfigAttackCircle",
              "triggerType": "TriggerNoRepeat",
              "height": 2,
              "fanAngle": 360,
              "radius": 1.8,
              "born": {
                "$type": "ConfigBornByCollisionPoint",
                "onGround": true
              }
            },
            "attackInfo": {
              "canBeModifiedBy": "OriginOwner",
              "attackProperty": {
                "damagePercentage": 0.25,
                "strikeType": "Default",
                "elementType": "Grass",
                "elementDurability": 10,
                "enBreak": 100
              },
              "hitPattern": {
                "hitImpulseType": "LV2",
                "hitHaltTime": 0.0,
                "hitHaltTimeScale": 0.05,
                "muteHitText": false
              }
            }
          }
        }
      ]
    }
  },
  ////////////////////////////////////////////////////////////////
  //
  // RangeAttack01
  // 远程攻击
  //
  ////////////////////////////////////////////////////////////////
  {
    "Default": {
      "$type": "ConfigAbility",
      "abilityName": "Monster_Chrysopelea_Eremite_Grass_RangeAttack01",
      "abilityMixins": [
        {
          "$type": "AttachToNormalizedTimeMixin",
          "stateID": "RangeAttack01",
          "normalizeStart": 0,
          "normalizeEnd": 0.5,
          "modifierName": "Monster_Chrysopelea_Eremite_Grass_RangeAttack01_Effect"
        }
      ],
      "onAbilityStart": [
        {
          "$type": "ApplyModifier",
          "modifierName": "Monster_Chrysopelea_Eremite_Grass_RangeAttack01_TriggerBullet"
        }
      ],
      "modifiers": {
        "Monster_Chrysopelea_Eremite_Grass_RangeAttack01_TriggerBullet": {
          "duration": 1,
          "onAdded": [
            {
              "$type": "FireEffect",
              "effectPattern": "Eff_Monster_Chrysopelea_Eremite_Grass_RangeAttack01_Fire"
            },
            {
              "$type": "TriggerBullet",
              "bulletID": 42560006,
              "born": {
                "$type": "ConfigBornByAttachPoint",
                "attachPointName": "RingCore",
                "direction": {
                  "$type": "ConfigDirectionByAttackTarget"
                }
              }
            }
          ]
        },
        "Monster_Chrysopelea_Eremite_Grass_RangeAttack01_Effect": {
          "onAdded": [
            {
              "$type": "AttachEffect",
              "effectPattern": "Eff_Monster_Chrysopelea_Eremite_Grass_RangeAttack01_BS"
            }
          ]
        }
      }
    }
  },
  {
    "Default": {
      "$type": "ConfigAbility",
      "abilityName": "Monster_Chrysopelea_Eremite_Grass_RangeAttack01_Bullet",
      "onAdded": [
        {
          "$type": "AttachModifier",
          "modifierName": "Monster_Chrysopelea_Eremite_Grass_RangeAttack01_Bullet_Effect"
        }
      ],
      "onAbilityStart": [
        {
          "$type": "FireHitEffect",
          "hitScene": {
            "defaultEffect": "Eff_Monster_Chrysopelea_Eremite_Grass_RangeAttack01_Damage_Ground",
            "$type": "ConfigHitScene"
          }
        },
        {
          "$type": "Predicated",
          "target": "Target",
          "targetPredicates": [
            {
              "$type": "ByEntityTypes",
              "entityTypes": ["Avatar", "Monster", "Gadget", "Bullet"]
            }
          ],
          "successActions": [
            {
              "$type": "FireEffect",
              "effectPattern": "Eff_Monster_Chrysopelea_Eremite_Grass_RangeAttack01_Damage",
              "born": {
                "$type": "ConfigBornByCollisionPoint"
              }
            }
          ]
        },
        {
          "$type": "TriggerAttackEvent",
          "targetType": "Enemy",
          "attackEvent": {
            "attackPattern": {
              "$type": "ConfigAttackSphere",
              "triggerType": "TriggerNoRepeat",
              "radius": 2,
              "born": {
                "$type": "ConfigBornByCollisionPoint",
                "offset": {
                  "x": 0,
                  "y": 0,
                  "z": 0
                }
              }
            },
            "attackInfo": {
              "attackProperty": {
                "damagePercentage": 0.8,
                "strikeType": "Default",
                "elementType": "Grass",
                "elementDurability": 25,
                "enBreak": 200
              },
              "hitPattern": {
                "hitImpulseType": "LV5",
                "hitHaltTime": 0.0,
                "hitHaltTimeScale": 0.05,
                "muteHitText": false
              },
              "forceCameraShake": true,
              "cameraShake": {
                "shakeType": "Center",
                "shakeRange": 0.3,
                "shakeTime": 0.5,
                "shakeDistance": 20
              }
            }
          }
        },
        {
          "$type": "KillSelf"
        }
      ],
      "modifiers": {
        "Monster_Chrysopelea_Eremite_Grass_RangeAttack01_Bullet_Effect": {
          "onAdded": [
            //本体
            {
              "$type": "AttachEffect",
              "effectPattern": "Eff_Monster_Chrysopelea_Eremite_Grass_RangeAttack01_Bullet"
            },
            //激光拖尾
            {
              "$type": "AttachEffect",
              "effectPattern": "Eff_Monster_Chrysopelea_Eremite_Grass_RangeAttack01_Bullet_Tail"
            }
          ]
        }
      }
    }
  },
  ////////////////////////////////////////////////////////////////
  //
  // Die
  // 死亡
  //
  ////////////////////////////////////////////////////////////////
  {
    "Default": {
      "$type": "ConfigAbility",
      "abilityName": "Monster_Chrysopelea_Eremite_Grass_Die",
      "onAdded": [
        {
          "$type": "SetGlobalValue",
          "key": "_EREMITE_SLAVE_RETURNTOBORN_",
          "value": 0,
          "maxValue": 1,
          "minValue": 0,
          "useLimitRange": true
        } //给本体设置_EREMITE_SLAVE_RETURNTOBORN_，不是重生是才对本体造成伤害
      ],
      "onAbilityStart": [
        {
          "$type": "ApplyModifier",
          "modifierName": "Monster_Chrysopelea_Eremite_Grass_Die",
          "target": "Owner",
          "predicates": [
            {
              "$type": "ByTargetGlobalValue",
              "key": "_EREMITE_SLAVE_RETURNTOBORN_",
              "target": "Self",
              "value": 0
            }
          ]
        }
      ],
      "modifiers": {
        "Empty_Modifier": {},
        "Monster_Chrysopelea_Eremite_Grass_Die": {
          "duration": 1,
          "onAdded": [
            {
              "$type": "SetGlobalValue",
              "key": "_EREMITE_SLAVE_DIE_",
              "value": 1,
              "maxValue": 1,
              "useLimitRange": true,
              "minValue": 0
            } //给本体置GV，清除护盾
          ]
        }
      }
    }
  }
]
