[
  ////////////////////////////////////////////////////////////////
  //
  // StateControl
  //
  ////////////////////////////////////////////////////////////////
  {
    "Default": {
      "$type": "ConfigAbility",
      "abilityName": "Monster_Scorpion_Eremite_Fire_StateControl",
      "abilityMixins": [
        {
          "$type": "AttachToStateIDMixin",
          "stateIDs": ["Alert"],
          "modifierName": "Monster_Scorpion_Eremite_Fire_Alert"
        },
        {
          "$type": "AttachToPoseIDMixin",
          "poseIDs": [1, 102],
          "modifierName": "Monster_Scorpion_Eremite_Fire_Disappear"
        },
        {
          "$type": "AttachToNormalizedTimeMixin",
          "stateID": "Alert",
          "normalizeStart": 0,
          "normalizeEnd": 0.35,
          "modifierName": "Monster_Scorpion_Eremite_Fire_Visable"
        }
      ],
      "onAdded": [
        {
          "$type": "AttachModifier",
          "modifierName": "Monster_Scorpion_Eremite_Fire_StateControl"
        },
        {
          "$type": "ApplyModifier",
          "modifierName": "Monster_Scorpion_Eremite_Fire_BaseStateHeadle"
        }
      ],
      "modifiers": {
        "Monster_Scorpion_Eremite_Fire_Alert": {
          "onAdded": [
            {
              "$type": "CreateGadget",
              "gadgetID": 42570005,
              "campID": 4001,
              "born": {
                "$type": "ConfigBornBySelf",
                "offset": {
                  "x": 0.1,
                  "y": 2.77,
                  "z": -5
                }
              }
            }
          ],
          "onRemoved": [
            //删除材质切片区域
            {
              "$type": "KillSelf",
              "otherTargets": {
                "$type": "SelectTargetsByChildren",
                "configID": 42570005,
                "sortType": "Default"
              }
            },
            {
              "$type": "RemoveModifier",
              "modifierName": "Monster_Scorpion_Eremite_Fire_StateControl"
            },
            {
              "$type": "ApplyModifier",
              "modifierName": "Monster_Scorpion_Eremite_Fire_DefenseDown_EEffect"
            }
          ]
        },
        "Monster_Scorpion_Eremite_Fire_DefenseDown_EEffect": {
          "onAdded": [
            {
              "$type": "AttachEffect",
              "effectPattern": "Eff_Avatar_Properties_Defense_Down"
            } //低抗性特效
          ]
        },
        "Monster_Scorpion_Eremite_Fire_Disappear": {
          "state": "DenyLockOn",
          "properties": {
            "Actor_PhysicalSubHurtDelta": 2.0,
            "Actor_FireSubHurtDelta": 2.0,
            "Actor_ElecSubHurtDelta": 2.0,
            "Actor_WaterSubHurtDelta": 2.0,
            "Actor_GrassSubHurtDelta": 2.0,
            "Actor_WindSubHurtDelta": 2.0,
            "Actor_IceSubHurtDelta": 2.0,
            "Actor_RockSubHurtDelta": 2.0
          },
          "modifierMixins": [
            {
              "$type": "AttachActionToModifierMixin",
              "onAdded": [
                //显示模型
                {
                  "$type": "TriggerSetVisible",
                  "target": "Self",
                  "visible": false
                },
                //隐藏血条
                {
                  "$type": "HideUIBillBoard",
                  "hide": true
                },
                //关闭Hitbos
                {
                  "$type": "EnableHitBoxByName",
                  "hitBoxNames": ["HitBox", "HitBox_R", "HitBox_L"],
                  "setEnable": false
                },
                //关闭collider
                {
                  "$type": "EnablePushColliderName",
                  "pushColliderNames": [
                    "PushCollider",
                    "PushCollider_R",
                    "PushCollider_L"
                  ],
                  "setEnable": false
                },
                {
                  "$type": "EnableHDMesh",
                  "enable": false,
                  "hdMeshKey": "Default",
                  "canBeHandledOnRecover": true
                }
              ],
              "onRemoved": [
                //显示模型
                {
                  "$type": "TriggerSetVisible",
                  "target": "Self",
                  "visible": true
                },
                //开启hitbox
                {
                  "$type": "EnableHitBoxByName",
                  "hitBoxNames": ["HitBox", "HitBox_R", "HitBox_L"],
                  "setEnable": true
                },
                //开启collider
                {
                  "$type": "EnablePushColliderName",
                  "pushColliderNames": [
                    "PushCollider",
                    "PushCollider_R",
                    "PushCollider_L"
                  ],
                  "setEnable": true
                },
                //显示血条
                {
                  "$type": "HideUIBillBoard",
                  "hide": false
                },
                {
                  "$type": "EnableHDMesh",
                  "enable": true,
                  "hdMeshKey": "Default"
                }
              ]
            }
          ],
          "onAdded": [
            //显示模型
            {
              "$type": "TriggerSetVisible",
              "target": "Self",
              "visible": false
            },
            //隐藏血条
            {
              "$type": "HideUIBillBoard",
              "hide": true
            },
            //关闭Hitbos
            {
              "$type": "EnableHitBoxByName",
              "hitBoxNames": ["HitBox", "HitBox_R", "HitBox_L"],
              "setEnable": false
            },
            //关闭collider
            {
              "$type": "EnablePushColliderName",
              "pushColliderNames": [
                "PushCollider",
                "PushCollider_R",
                "PushCollider_L"
              ],
              "setEnable": false
            },
            {
              "$type": "EnableHDMesh",
              "enable": false,
              "hdMeshKey": "Default",
              "canBeHandledOnRecover": true
            }
          ],
          "onRemoved": [
            //显示模型
            {
              "$type": "TriggerSetVisible",
              "target": "Self",
              "visible": true
            },
            //开启hitbox
            {
              "$type": "EnableHitBoxByName",
              "hitBoxNames": ["HitBox", "HitBox_R", "HitBox_L"],
              "setEnable": true
            },
            //开启collider
            {
              "$type": "EnablePushColliderName",
              "pushColliderNames": [
                "PushCollider",
                "PushCollider_R",
                "PushCollider_L"
              ],
              "setEnable": true
            },
            //显示血条
            {
              "$type": "HideUIBillBoard",
              "hide": false
            },
            {
              "$type": "EnableHDMesh",
              "enable": true,
              "hdMeshKey": "Default"
            },
            {
              "$type": "RemoveModifier",
              "modifierName": "Monster_Scorpion_Eremite_Fire_StateControl"
            }
          ]
        },
        "Monster_Scorpion_Eremite_Fire_Visable": {
          "onRemoved": [
            {
              "$type": "TriggerSetVisible",
              "target": "Self",
              "visible": true,
              "canBeHandledOnRecover": true
            }
          ]
        },
        "Monster_Scorpion_Eremite_Fire_StateControl": {
          "onAdded": [
            {
              "$type": "SetPoseBool",
              "boolID": "IsAppear",
              "value": false,
              "canBeHandledOnRecover": true
            }
          ],
          "onRemoved": [
            {
              "$type": "SetPoseBool",
              "boolID": "IsAppear",
              "value": true,
              "canBeHandledOnRecover": true
            }
          ],
          "onReconnect": [
            {
              "$type": "SetPoseBool",
              "boolID": "IsAppear",
              "value": true
            }
          ],
          "onChangeAuthority": [
            {
              "$type": "SetPoseBool",
              "boolID": "IsAppear",
              "value": true
            },
            {
              "$type": "TriggerSetVisible",
              "target": "Self",
              "visible": true,
              "canBeHandledOnRecover": true
            }
          ]
        },
        "Monster_Scorpion_Eremite_Fire_BaseStateHeadle": {
          "duration": 1,
          "onAdded": [
            {
              "$type": "TriggerSetVisible",
              "target": "Self",
              "visible": false
            },
            {
              "$type": "HideUIBillBoard",
              "hide": true
            },
            {
              "$type": "EnableHitBoxByName",
              "hitBoxNames": ["HitBox", "HitBox_R", "HitBox_L"],
              "setEnable": false
            },
            {
              "$type": "EnablePushColliderName",
              "pushColliderNames": [
                "PushCollider",
                "PushCollider_R",
                "PushCollider_L"
              ],
              "setEnable": false
            },
            {
              "$type": "EnableHDMesh",
              "enable": false,
              "hdMeshKey": "Default",
              "canBeHandledOnRecover": true,
              "doOffStage": true
            }
          ],
          "onReconnect": [
            {
              "$type": "TriggerSetVisible",
              "target": "Self",
              "visible": true
            },
            {
              "$type": "HideUIBillBoard",
              "hide": false
            },
            {
              "$type": "EnableHitBoxByName",
              "hitBoxNames": ["HitBox", "HitBox_R", "HitBox_L"],
              "setEnable": true
            },
            {
              "$type": "EnablePushColliderName",
              "pushColliderNames": [
                "PushCollider",
                "PushCollider_R",
                "PushCollider_L"
              ],
              "setEnable": true
            },
            {
              "$type": "EnableHDMesh",
              "enable": true,
              "hdMeshKey": "Default"
            }
          ],
          "onChangeAuthority": [
            {
              "$type": "TriggerSetVisible",
              "target": "Self",
              "visible": true
            },
            {
              "$type": "HideUIBillBoard",
              "hide": false
            },
            {
              "$type": "EnableHitBoxByName",
              "hitBoxNames": ["HitBox", "HitBox_R", "HitBox_L"],
              "setEnable": true
            },
            {
              "$type": "EnablePushColliderName",
              "pushColliderNames": [
                "PushCollider",
                "PushCollider_R",
                "PushCollider_L"
              ],
              "setEnable": true
            },
            {
              "$type": "EnableHDMesh",
              "enable": true,
              "hdMeshKey": "Default"
            }
          ]
        }
      }
    }
  },
  {
    "Default": {
      "$type": "ConfigAbility",
      "abilityName": "Monster_Scorpion_Eremite_Fire_ShaderCut",
      "onAdded": [
        {
          "$type": "ApplyModifier",
          "modifierName": "ChargeEndPos_ShaderCut"
        }
      ],
      "modifiers": {
        "ChargeEndPos_ShaderCut": {
          "duration": 1,
          "modifierMixins": [
            {
              "$type": "SendPostionToShaderCutMixin",
              "sendTarget": "Owner",
              "sendRadius": 10,
              "scale": {
                "x": 5,
                "y": 5,
                "z": 5
              },
              "offset": {
                "x": 0,
                "y": 0,
                "z": 0
              }
            }
          ]
        }
      }
    }
  },
  ////////////////////////////////////////////////////////////////
  //
  // StreeControl
  //
  ////////////////////////////////////////////////////////////////
  {
    "Default": {
      "$type": "ConfigAbility",
      "abilityName": "Monster_Scorpion_Eremite_Fire_StreeControl",
      "abilityMixins": [
        {
          "$type": "SteerAttackMixin",
          "steerStateIDs": ["Turn"],
          "startNormalizedTime": 0,
          "endNormalizedTime": 1,
          "angularSpeed": 150,
          "attackTrigger": "",
          "attackDistance": 2
        },
        {
          "$type": "SteerAttackMixin",
          "steerStateIDs": ["NormalAttack01_01"],
          "startNormalizedTime": 0,
          "endNormalizedTime": 0.45,
          "angularSpeed": 180,
          "attackTrigger": "",
          "attackDistance": 2
        },
        {
          "$type": "SteerAttackMixin",
          "steerStateIDs": ["NormalAttack01_02"],
          "startNormalizedTime": 0,
          "endNormalizedTime": 0.27,
          "angularSpeed": 180,
          "attackTrigger": "",
          "attackDistance": 2
        },
        {
          "$type": "SteerAttackMixin",
          "steerStateIDs": ["RangeAttack01"],
          "startNormalizedTime": 0,
          "endNormalizedTime": 0.32,
          "angularSpeed": 150,
          "attackTrigger": "",
          "attackDistance": 2
        },
        {
          "$type": "SteerAttackMixin",
          "steerStateIDs": ["ComboAttack_BS", "MeleeAttack01_BS"],
          "startNormalizedTime": 0,
          "endNormalizedTime": 0.9,
          "angularSpeed": 150,
          "attackTrigger": "",
          "attackDistance": 2
        }
      ]
    }
  },
  ////////////////////////////////////////////////////////////////
  //
  // NormalAttack01 & 02
  // 近战攻击
  //
  ////////////////////////////////////////////////////////////////
  {
    "Default": {
      "$type": "ConfigAbility",
      "abilityName": "Monster_Scorpion_Eremite_Fire_NormalAttack01_01",
      "abilityMixins": [
        {
          "$type": "AttachToNormalizedTimeMixin",
          "stateID": "NormalAttack01_01",
          "normalizeStart": 0.036,
          "normalizeEnd": 0.87,
          "modifierName": "Monster_Scorpion_Eremite_Fire_NormalAttack01_Effect"
        },
        {
          "$type": "AttachToNormalizedTimeMixin",
          "stateID": "NormalAttack01_01",
          "normalizeStart": 0.31,
          "normalizeEnd": 0.87,
          "modifierName": "Monster_Scorpion_Eremite_Fire_NormalAttack01_Damage"
        }
      ],
      "modifiers": {
        "Monster_Scorpion_Eremite_Fire_NormalAttack01_Damage": {
          "onAdded": [
            {
              "$type": "TriggerBullet",
              "bulletID": 42570007,
              "trackTarget": "Self",
              "born": {
                "$type": "ConfigBornByAttachPoint",
                "attachPointName": "RootNode"
              }
            },
            {
              "$type": "EnablePushColliderName",
              "pushColliderNames": ["PushCollider_L", "PushCollider_R"],
              "setEnable": false
            }
          ],
          "onRemoved": [
            {
              "$type": "KillSelf",
              "otherTargets": {
                "$type": "SelectTargetsByChildren",
                "configID": 42570007,
                "sortType": "Default"
              }
            },
            {
              "$type": "EnablePushColliderName",
              "pushColliderNames": ["PushCollider_L", "PushCollider_R"],
              "setEnable": true
            }
          ],
          "onReconnect": [
            {
              "$type": "EnablePushColliderName",
              "pushColliderNames": ["PushCollider_L", "PushCollider_R"],
              "setEnable": true
            }
          ]
        },
        "Monster_Scorpion_Eremite_Fire_NormalAttack01_Effect": {
          "onAdded": [
            {
              "$type": "AttachEffect",
              "effectPattern": "Eff_Monster_Scorpion_Eremite_Fire_NormalAttack01_01_BS"
            }
          ]
        }
      }
    }
  },
  {
    "Default": {
      "$type": "ConfigAbility",
      "abilityName": "Monster_Scorpion_Eremite_Fire_NormalAttack01_02",
      "abilityMixins": [
        {
          "$type": "AttachToNormalizedTimeMixin",
          "stateID": "NormalAttack01_02",
          "normalizeStart": 0,
          "normalizeEnd": 1,
          "modifierName": "Monster_Scorpion_Eremite_Fire_NormalAttack01_02_Effect"
        },
        {
          "$type": "AttachToNormalizedTimeMixin",
          "stateID": "NormalAttack01_02",
          "normalizeStart": 0.137,
          "normalizeEnd": 1,
          "modifierName": "Monster_Scorpion_Eremite_Fire_NormalAttack01_02_Effect02"
        }
      ],
      "onAbilityStart": [
        {
          "$type": "ApplyModifier",
          "modifierName": "Monster_Scorpion_Eremite_Fire_NormalAttack01_02_Damage"
        }
      ],
      "modifiers": {
        "Monster_Scorpion_Eremite_Fire_NormalAttack01_02_Effect": {
          "onAdded": [
            {
              "$type": "AttachEffect",
              "effectPattern": "Eff_Monster_Scorpion_Eremite_Fire_NormalAttack01_02_BS"
            }
          ]
        },
        "Monster_Scorpion_Eremite_Fire_NormalAttack01_02_Effect02": {
          "onAdded": [
            {
              "$type": "AttachEffect",
              "effectPattern": "Eff_Monster_Scorpion_Eremite_Fire_NormalAttack01_02_BS02"
            }
          ]
        },
        "Monster_Scorpion_Eremite_Fire_NormalAttack01_02_Damage": {
          "duration": 1,
          "onAdded": [
            {
              "$type": "FireEffect",
              "effectPattern": "Eff_Monster_Scorpion_Eremite_Fire_NormalAttack01_02_Damage",
              "born": {
                "$type": "ConfigBornBySelf",
                "onGround": true,
                "offset": {
                  "x": 0,
                  "y": 0,
                  "z": 3
                }
              }
            },
            {
              "$type": "TriggerAttackEvent",
              "targetType": "Enemy",
              "attackEvent": {
                "attackPattern": {
                  "$type": "ConfigAttackCircle",
                  "triggerType": "TriggerNoRepeat",
                  "height": 1.2,
                  "fanAngle": 360,
                  "radius": 3,
                  "born": {
                    "$type": "ConfigBornBySelf",
                    "offset": {
                      "x": 0.0,
                      "y": 0.0,
                      "z": 3
                    },
                    "direction": {
                      "$type": "ConfigDirectionByEntity"
                    }
                  }
                },
                "attackInfo": {
                  "attackProperty": {
                    "damagePercentage": 0.7,
                    "strikeType": "Blunt",
                    "elementType": "Fire",
                    "elementDurability": 25,
                    "enBreak": 100
                  },
                  "hitPattern": {
                    "onHitEffectName": "default",
                    "hitImpulseType": "LV4",
                    "hitHaltTime": 0.0,
                    "hitHaltTimeScale": 0.01,
                    "muteHitText": false
                  }
                }
              }
            }
          ]
        }
      }
    }
  },
  ////////////////////////////////////////////////////////////////
  //
  // MeleeAttack01
  // 钻地攻击
  //
  ////////////////////////////////////////////////////////////////
  //前摇
  {
    "Default": {
      "$type": "ConfigAbility",
      "abilityName": "Monster_Scorpion_Eremite_Fire_MeleeAttack01_BS",
      "abilityMixins": [
        {
          "$type": "AttachToNormalizedTimeMixin",
          "stateID": "MeleeAttack01_BS",
          "modifierName": "Monster_Scorpion_Eremite_Fire_MeleeAttack01_BS_Effect",
          "normalizeStart": 0,
          "normalizeEnd": 1
        },
        {
          "$type": "AttachToStateIDMixin",
          "stateIDs": [
            "MeleeAttack01_UnderGroud",
            "ComboAttack_UnderGroud02",
            "ComboAttack_UnderGroud01",
            "ComboAttack_Damage01",
            "MeleeAttack01_AS",
            "ComboAttack_InAir"
          ],
          "modifierName": "Monster_Scorpion_Eremite_Fire_MeleeAttack01_ColliderHandle"
        },
        {
          "$type": "AttachToStateIDMixin",
          "stateIDs": [
            "MeleeAttack01_UnderGroud",
            "ComboAttack_UnderGroud02",
            "ComboAttack_UnderGroud01",
            "ComboAttack_InAir"
          ],
          "modifierName": "Monster_Scorpion_Eremite_Fire_MeleeAttack01_StateHandle"
        }
      ],
      "onAbilityStart": [
        {
          "$type": "FireEffect",
          "effectPattern": "Eff_Monster_Scorpion_Eremite_Fire_MeleeAttack01_01_UnderGround",
          "born": {
            "$type": "ConfigBornBySelf",
            "offset": {
              "x": 0,
              "y": 0,
              "z": 0
            },
            "onGround": true
          }
        },
        {
          "$type": "TriggerAttackEvent",
          "targetType": "Enemy",
          "attackEvent": {
            "attackPattern": {
              "$type": "ConfigAttackCircle",
              "triggerType": "TriggerNoRepeat",
              "height": 1.4,
              "fanAngle": 360,
              "radius": 1.5,
              "born": {
                "$type": "ConfigBornBySelf",
                "offset": {
                  "x": 0,
                  "y": 0,
                  "z": 1.5
                },
                "onGround": true,
                "alongGround": true
              }
            },
            "attackInfo": {
              "attackProperty": {
                "damagePercentage": 0.35,
                "strikeType": "Blunt",
                "enBreak": 100.0,
                "elementDurability": 25,
                "elementType": "Rock"
              },
              "hitPattern": {
                "onHitEffectName": "default",
                "hitImpulseType": "LV3",
                "retreatType": "ByHitDirection",
                "hitHaltTime": 0.0,
                "hitHaltTimeScale": 0.01,
                "muteHitText": false
              },
              "forceCameraShake": true,
              "cameraShake": {
                "shakeRange": 0.1,
                "shakeTime": 1,
                "shakeDistance": 20,
                "shakeType": "CustomVector",
                "shakeDir": {
                  "x": 0,
                  "y": 0,
                  "z": 0
                },
                "extension": {
                  "baseOnCamera": true,
                  "rangeAttenuation": 0.0
                }
              }
            }
          }
        }
      ],
      "modifiers": {
        "Monster_Scorpion_Eremite_Fire_MeleeAttack01_BS_Effect": {
          "onAdded": [
            {
              "$type": "AttachEffect",
              "effectPattern": "Eff_Monster_Scorpion_Eremite_Fire_MeleeAttack01_01_BS"
            }
          ]
        },
        "Monster_Scorpion_Eremite_Fire_MeleeAttack01_ColliderHandle": {
          "onAdded": [
            {
              "$type": "EnablePushColliderName",
              "setEnable": false,
              "pushColliderNames": [
                "PushCollider_L",
                "PushCollider_R",
                "PushCollider"
              ]
            }
          ],
          "onRemoved": [
            {
              "$type": "EnablePushColliderName",
              "setEnable": true,
              "pushColliderNames": [
                "PushCollider_L",
                "PushCollider_R",
                "PushCollider"
              ]
            }
          ]
        },
        "Monster_Scorpion_Eremite_Fire_MeleeAttack01_StateHandle": {
          "onAdded": [
            {
              "$type": "EnableHitBoxByName",
              "setEnable": false,
              "hitBoxNames": ["HitBox", "HitBox_R", "HitBox_L"]
            },
            {
              "$type": "HideUIBillBoard",
              "hide": true
            },
            {
              "$type": "TriggerSetVisible",
              "target": "Self",
              "visible": false
            }
          ],
          "onRemoved": [
            {
              "$type": "EnableHitBoxByName",
              "setEnable": true,
              "hitBoxNames": ["HitBox", "HitBox_R", "HitBox_L"]
            },
            {
              "$type": "HideUIBillBoard",
              "hide": false
            },
            {
              "$type": "TriggerSetVisible",
              "target": "Self",
              "visible": true
            }
          ]
        }
      }
    }
  },
  //找到钻出位置
  {
    "Default": {
      "$type": "ConfigAbility",
      "abilityName": "Monster_Scorpion_Eremite_Fire_MeleeAttack_FindBlinkPoint",
      "onAbilityStart": [
        {
          "$type": "ApplyModifier",
          "modifierName": "Monster_Scorpion_Eremite_Fire_MeleeAttack_FindBlinkPoint"
        }
      ],
      "modifiers": {
        "Monster_Scorpion_Eremite_Fire_MeleeAttack_FindBlinkPoint": {
          "duration": 1,
          "onAdded": [
            //找到一个传送位置
            {
              "$type": "TryFindBlinkPointByBorn",
              "target": "SelfAttackTarget",
              "hitSceneTest": true,
              "hitSceneType": "BlinkHitSceneTestByThreeSegments",
              "limitY": 2,
              "born": {
                "$type": "ConfigBornByTargetLinearPoint",
                "linearOffset": -4,
                "baseOnTarget": true,
                "linearXZ": true,
                "linearMax": 50,
                "offset": {
                  "x": 0.0,
                  "y": 0.0,
                  "z": 0.0
                },
                "onGround": true
              },
              "ignoreWater": true
            },
            // 优先以玩家连线后撤，如果找点失败则随机找点
            {
              "$type": "Predicated",
              "target": "Self",
              "targetPredicates": [
                {
                  "$type": "ByFindBlinkPointSuccess",
                  "findPointSuccess": false
                }
              ],
              "successActions": [
                {
                  "$type": "TryFindBlinkPointByBorn",
                  "hitSceneTest": true,
                  "hitSceneType": "BlinkHitSceneTestByThreeSegments",
                  "target": "Self",
                  "born": {
                    "$type": "ConfigBornByTarget",
                    "bornRandom": {
                      "$type": "BornRandomFromCenter",
                      "maxRandomRange": 4,
                      "minRandomRange": 3.5
                    },
                    "onGround": true
                  },
                  "ignoreWater": true
                }
              ]
            }
          ]
        }
      }
    }
  },
  //传送
  {
    "Default": {
      "$type": "ConfigAbility",
      "abilityName": "Monster_Scorpion_Eremite_Fire_MeleeAttack_DoBlink",
      "onAbilityStart": [
        {
          "$type": "DoBlink"
        },
        {
          "$type": "FireEffect",
          "effectPattern": "Eff_Monster_Scorpion_Eremite_Fire_MeleeAttack01_01_Alert",
          "born": {
            "$type": "ConfigBornBySelf",
            "onGround": true
          }
        },
        {
          "$type": "TurnDirectionToPos",
          "target": "SelfAttackTarget",
          "toPos": {
            "$type": "ConfigBornByTarget"
          }
        }
      ]
    }
  },
  //出现攻击
  {
    "Default": {
      "$type": "ConfigAbility",
      "abilityName": "Monster_Scorpion_Eremite_Fire_MeleeAttack_Damage",
      "abilityMixins": [
        {
          "$type": "AttachToNormalizedTimeMixin",
          "stateID": "MeleeAttack01_AS",
          "modifierName": "Monster_Scorpion_Eremite_Fire_MeleeAttack_Damage",
          "normalizeEnd": 0.8,
          "normalizeStart": 0.1
        },
        {
          "$type": "AttachToNormalizedTimeMixin",
          "stateID": "ComboAttack_Damage01",
          "modifierName": "Monster_Scorpion_Eremite_Fire_MeleeAttack_Damage",
          "normalizeEnd": 0.8,
          "normalizeStart": 0.1
        },
        {
          "$type": "AttachToNormalizedTimeMixin",
          "stateID": "MeleeAttack01_AS",
          "modifierName": "Monster_Scorpion_Eremite_Fire_MeleeAttack_DropEffect",
          "normalizeEnd": 1,
          "normalizeStart": 0
        },
        {
          "$type": "AttachToNormalizedTimeMixin",
          "stateID": "ComboAttack_Damage01",
          "modifierName": "Monster_Scorpion_Eremite_Fire_MeleeAttack_DropEffect",
          "normalizeEnd": 1,
          "normalizeStart": 0
        }
      ],
      "modifiers": {
        "Monster_Scorpion_Eremite_Fire_MeleeAttack_DropEffect": {
          "onAdded": [
            {
              "$type": "AttachEffect",
              "effectPattern": "Eff_Monster_Scorpion_Eremite_Fire_MeleeAttack01_01_DropEffect",
              "born": {
                "$type": "ConfigBornBySelf",
                "onGround": true
              }
            },
            {
              "$type": "TriggerBullet",
              "bulletID": 42570007,
              "trackTarget": "Self",
              "born": {
                "$type": "ConfigBornByAttachPoint",
                "attachPointName": "RootNode"
              }
            }
          ],
          "onRemoved": [
            {
              "$type": "KillSelf",
              "otherTargets": {
                "$type": "SelectTargetsByChildren",
                "configID": 42570007,
                "sortType": "Default"
              }
            }
          ]
        },
        "Monster_Scorpion_Eremite_Fire_MeleeAttack_Damage": {
          "onAdded": [
            {
              "$type": "AttachEffect",
              "effectPattern": "Eff_Monster_Scorpion_Eremite_Fire_MeleeAttack01_01_Damage"
            }
          ]
        }
      },
      "onAbilityStart": [
        {
          "$type": "FireEffect",
          "effectPattern": "Eff_Monster_Scorpion_Eremite_Fire_NormalAttack01_02_Damage",
          "born": {
            "$type": "ConfigBornBySelf",
            "onGround": true,
            "offset": {
              "x": 0,
              "y": 0,
              "z": 0
            }
          }
        },
        {
          "$type": "TriggerAttackEvent",
          "targetType": "Enemy",
          "attackEvent": {
            "attackPattern": {
              "$type": "ConfigAttackCircle",
              "triggerType": "TriggerNoRepeat",
              "height": 1.2,
              "fanAngle": 360,
              "radius": 3,
              "born": {
                "$type": "ConfigBornBySelf",
                "offset": {
                  "x": 0.0,
                  "y": 0.0,
                  "z": 0.0
                },
                "direction": {
                  "$type": "ConfigDirectionByEntity"
                }
              }
            },
            "attackInfo": {
              "attackProperty": {
                "damagePercentage": 0.7,
                "strikeType": "Blunt",
                "elementType": "Fire",
                "elementDurability": 25,
                "enBreak": 100
              },
              "hitPattern": {
                "onHitEffectName": "default",
                "hitImpulseType": "LV4",
                "hitHaltTime": 0.0,
                "hitHaltTimeScale": 0.01,
                "muteHitText": false
              }
            }
          }
        }
      ]
    }
  },
  //攻击伤害判定
  {
    "Default": {
      "$type": "ConfigAbility",
      "abilityName": "Monster_Scorpion_Eremite_Fire_MeleeAttack_BulletHendle",
      "onAbilityStart": [
        {
          "$type": "TriggerAttackEvent",
          "targetType": "Enemy",
          "attackEvent": {
            "attackPattern": {
              "$type": "ConfigAttackSphere",
              "triggerType": "TriggerNoRepeat",
              "radius": 0.5,
              "born": {
                "$type": "ConfigBornByCollisionPoint"
              }
            },
            "attackInfo": {
              "canBeModifiedBy": "OriginOwner",
              "attackProperty": {
                "damagePercentage": 0.6,
                "strikeType": "Blunt",
                "enBreak": 100.0,
                "elementDurability": 25,
                "elementType": "Fire"
              },
              "hitPattern": {
                "onHitEffectName": "default",
                "hitImpulseType": "LV4",
                "retreatType": "ByAttacker",
                "hitHaltTime": 0.0,
                "hitHaltTimeScale": 0.01,
                "muteHitText": false
              }
            }
          }
        }
      ]
    }
  },
  ////////////////////////////////////////////////////////////////
  //
  // ComboAttack01
  // 协同攻击
  //
  ////////////////////////////////////////////////////////////////
  {
    "Default": {
      "$type": "ConfigAbility",
      "abilityName": "Monster_Scorpion_Eremite_Fire_ComboAttack01_Trigger",
      "onAbilityStart": [
        {
          "$type": "ApplyModifier",
          "modifierName": "Monster_Scorpion_Eremite_Fire_ComboTrigger",
          "target": "Owner"
        }
      ],
      "modifiers": {
        "Monster_Scorpion_Eremite_Fire_ComboTrigger": {
          "duration": 5,
          "onAdded": [
            {
              "$type": "SetAnimatorTrigger",
              "triggerID": "ComboTrigger"
            }
          ]
        }
      }
    }
  },
  {
    "Default": {
      "$type": "ConfigAbility",
      "abilityName": "Monster_Scorpion_Eremite_Fire_ComboAttack01",
      "abilityMixins": [
        {
          "$type": "AttachToNormalizedTimeMixin",
          "modifierName": "Monster_Scorpion_Eremite_Fire_ComboAttack01_Alert",
          "normalizeEnd": 1,
          "normalizeStart": 0.1,
          "stateID": "ComboAttack_InAir"
        },
        {
          "$type": "AttachToNormalizedTimeMixin",
          "modifierName": "Monster_Scorpion_Eremite_Fire_DoBlink_To_SelfAttackTarget",
          "normalizeEnd": 0.1,
          "normalizeStart": 0,
          "stateID": "ComboAttack_InAir"
        }
      ],
      "onAbilityStart": [
        {
          "$type": "ApplyModifier",
          "modifierName": "Monster_Scorpion_Eremite_Fire_ComboAttack01_BreakGadget"
        },
        {
          "$type": "ApplyModifier",
          "modifierName": "Monster_Scorpion_Eremite_Fire_ComboAttack01_Damage"
        }
      ],
      "modifiers": {
        "Monster_Scorpion_Eremite_Fire_ComboAttack01_Alert": {
          "onAdded": [
            {
              "$type": "FireEffect",
              "effectPattern": "Eff_Monster_Scorpion_Eremite_Fire_ComboAttack01_Alert",
              "born": {
                "$type": "ConfigBornBySelf",
                "onGround": true
              }
            }
          ]
        },
        "Monster_Scorpion_Eremite_Fire_ComboAttack01_BreakGadget": {
          "duration": 0.5,
          "onAttackLanded": [
            {
              "$type": "ApplyModifier",
              "modifierName": "Kill_Summon_Gadget",
              "target": "Target",
              "predicates": [
                {
                  "$type": "ByTargetGlobalValue",
                  "key": "_COMMON_GADGET_ISSUMMON",
                  "value": 0,
                  "compareType": "MoreThan"
                }
              ]
            }
          ]
        },
        "Monster_Scorpion_Eremite_Fire_ComboAttack01_Damage": {
          "duration": 3,
          "onAdded": [
            {
              "$type": "FireEffect",
              "effectPattern": "Eff_Monster_Scorpion_Eremite_Fire_ComboAttack01_Damage",
              "born": { "$type": "ConfigBornBySelf", "onGround": true }
            },
            {
              "$type": "TriggerAttackEvent",
              "targetType": "Enemy",
              "attackEvent": {
                "attackPattern": {
                  "$type": "ConfigAttackCircle",
                  "triggerType": "TriggerNoRepeat",
                  "height": 1.8,
                  "fanAngle": 360,
                  "radius": 7.5,
                  "born": {
                    "$type": "ConfigBornBySelf",
                    "offset": {
                      "x": 0,
                      "y": 0,
                      "z": 0
                    },
                    "onGround": true,
                    "alongGround": true
                  }
                },
                "attackInfo": {
                  "attackProperty": {
                    "damagePercentage": 1,
                    "strikeType": "Blunt",
                    "enBreak": 10000.0,
                    "elementDurability": 25,
                    "elementType": "Fire"
                  },
                  "hitPattern": {
                    "onHitEffectName": "default",
                    "hitImpulseType": "LV5",
                    "retreatType": "ByHitDirection",
                    "hitHaltTime": 0.0,
                    "hitHaltTimeScale": 0.01,
                    "muteHitText": false
                  },
                  "forceCameraShake": true,
                  "cameraShake": {
                    "shakeRange": 0.25,
                    "shakeTime": 1,
                    "shakeDistance": 20,
                    "shakeType": "Center",
                    "shakeDir": {
                      "x": 0,
                      "y": 2,
                      "z": 0
                    },
                    "extension": {
                      "baseOnCamera": true,
                      "rangeAttenuation": 0.0
                    }
                  }
                }
              }
            }
          ]
        },
        "Kill_Summon_Gadget": {
          "onAdded": [
            {
              "$type": "KillSelf"
            }
          ]
        },
        "Monster_Scorpion_Eremite_Fire_DoBlink_To_SelfAttackTarget": {
          "duration": 0.1,
          "onAdded": [
            {
              "$type": "TryFindBlinkPoint",
              "otherTargets": {
                "$type": "SelectTargetsByShape",
                "topLimit": 1,
                "shapeName": "CircleR50",
                "centerBasedOn": "Self",
                "campTargetType": "AllExceptSelf",
                "campBasedOn": "Self",
                "sortType": "Nearest"
              },
              "predicates": [
                {
                  "$type": "ByTargetGlobalValue",
                  "key": "IS_COMBOATTACK_POS_",
                  "value": 1,
                  "compareType": "Equal"
                }
              ]
            }
          ],
          "onRemoved": [
            {
              "$type": "DoBlink"
            }
          ]
        }
      }
    }
  },
  ////////////////////////////////////////////////////////////////
  //
  // RangeAttack01
  // 远程攻击
  //
  ////////////////////////////////////////////////////////////////
  {
    "Default": {
      "$type": "ConfigAbility",
      "abilityName": "Monster_Scorpion_Eremite_Fire_RangeAttack01",
      "abilityMixins": [
        {
          "$type": "AttachToNormalizedTimeMixin",
          "stateID": "RangeAttack01",
          "normalizeStart": 0,
          "normalizeEnd": 0.5,
          "modifierName": "Monster_Scorpion_Eremite_Fire_RangeAttack01_Effect"
        }
      ],
      "onAbilityStart": [
        {
          "$type": "ApplyModifier",
          "modifierName": "Monster_Chrysopelea_Eremite_Grass_RangeAttack01_TriggerBullet"
        }
      ],
      "modifiers": {
        "Monster_Chrysopelea_Eremite_Grass_RangeAttack01_TriggerBullet": {
          "duration": 1,
          "onAdded": [
            {
              "$type": "FireEffect",
              "effectPattern": "Eff_Monster_Scorpion_Eremite_Fire_RangeAttack01_Fire"
            },
            {
              "$type": "TriggerBullet",
              "bulletID": 42570006,
              "born": {
                "$type": "ConfigBornByAttachPoint",
                "attachPointName": "Tail_Top",
                "direction": {
                  "$type": "ConfigDirectionByAttachPoint"
                }
              }
            }
          ]
        },
        "Monster_Scorpion_Eremite_Fire_RangeAttack01_Effect": {
          "onAdded": [
            {
              "$type": "AttachEffect",
              "effectPattern": "Eff_Monster_Scorpion_Eremite_Fire_RangeAttack01_BS"
            }
          ]
        }
      }
    }
  },
  {
    "Default": {
      "$type": "ConfigAbility",
      "abilityName": "Monster_Scorpion_Eremite_Fire_RangeAttack01_Bullet",
      "onAdded": [
        {
          "$type": "AttachModifier",
          "modifierName": "Monster_Scorpion_Eremite_Fire_Bullet_Effect"
        }
      ],
      "onAbilityStart": [
        {
          "$type": "FireEffect",
          "effectPattern": "Eff_Monster_Scorpion_Eremite_Fire_RangeAttack01_Damage", //Eff_Monster_Invoker_Deacon_Fire_RangeAtk01_Explosion
          "born": {
            "$type": "ConfigBornByCollisionPoint"
          }
        },
        {
          "$type": "TriggerAttackEvent",
          "targetType": "Enemy",
          "attackEvent": {
            "attackPattern": {
              "$type": "ConfigAttackSphere",
              "triggerType": "TriggerNoRepeat",
              "radius": 3,
              "born": {
                "$type": "ConfigBornByCollisionPoint",
                "offset": {
                  "x": 0,
                  "y": 0,
                  "z": 0
                }
              }
            },
            "attackInfo": {
              "attackProperty": {
                "damagePercentage": 0.666,
                "strikeType": "Default",
                "elementType": "Fire",
                "elementDurability": 25,
                "enBreak": 200
              },
              "hitPattern": {
                "hitImpulseType": "LV4",
                "hitHaltTime": 0.0,
                "hitHaltTimeScale": 0.05,
                "muteHitText": false
              }
            }
          }
        },
        {
          "$type": "RemoveModifier",
          "modifierName": "Monster_Scorpion_Eremite_Fire_Bullet_Effect"
        }
      ],
      "modifiers": {
        "Monster_Scorpion_Eremite_Fire_Bullet_Effect": {
          "onAdded": [
            //本体
            {
              "$type": "AttachEffect",
              "effectPattern": "Eff_Monster_Scorpion_Eremite_Fire_RangeAttack01_Bullet"
            }
          ]
        }
      }
    }
  },
  ////////////////////////////////////////////////////////////////
  //
  // Die
  // 死亡
  //
  ////////////////////////////////////////////////////////////////
  {
    "Default": {
      "$type": "ConfigAbility",
      "abilityName": "Monster_Scorpion_Eremite_Fire_Die",
      "onAdded": [
        {
          "$type": "SetGlobalValue",
          "key": "_EREMITE_SLAVE_RETURNTOBORN_",
          "value": 0,
          "maxValue": 1,
          "minValue": 0,
          "useLimitRange": true
        } //给本体设置_EREMITE_SLAVE_RETURNTOBORN_，不是重生是才对本体造成伤害
      ],
      "abilityMixins": [],
      "onAbilityStart": [
        {
          "$type": "ApplyModifier",
          "modifierName": "Monster_Scorpion_Eremite_Fire_Die",
          "target": "Owner",
          "predicates": [
            {
              "$type": "ByTargetGlobalValue",
              "key": "_EREMITE_SLAVE_RETURNTOBORN_",
              "target": "Self",
              "value": 0
            }
          ]
        }
      ],
      "modifiers": {
        "Empty_Modifier": {},
        "Monster_Scorpion_Eremite_Fire_Die": {
          "duration": 1,
          "onAdded": [
            {
              "$type": "SetGlobalValue",
              "key": "_EREMITE_SLAVE_DIE_",
              "value": 1,
              "maxValue": 1,
              "useLimitRange": true,
              "minValue": 0
            } //给本体置GV，清除护盾
          ]
        }
      }
    }
  }
]
