[
  ////////////////////////////////////////////////////////////////
  //
  //  SteerAttack
  //
  ////////////////////////////////////////////////////////////////
  {
    "Default": {
      "$type": "ConfigAbility",
      "abilityName": "Monster_Vulture_Sacred_SteerAttack",
      "onAdded": [
        {
          "$type": "SetGlobalValue",
          "key": "Monster_Vulture_Sacred",
          "value": 1,
          "target": "Self"
        }
      ],
      "abilityMixins": [
        {
          "$type": "SteerAttackMixin",
          "steerStateIDs": ["Turn"],
          "startNormalizedTime": 0.23,
          "endNormalizedTime": 0.5,
          "angularSpeed": 180,
          "attackTrigger": ""
        },
        {
          "$type": "SteerAttackMixin",
          "steerStateIDs": ["Sacred_Turn"],
          "startNormalizedTime": 0.23,
          "endNormalizedTime": 0.5,
          "angularSpeed": 180,
          "attackTrigger": ""
        },
        {
          "$type": "SteerAttackMixin",
          "steerStateIDs": ["Sacred_Attack01"],
          "startNormalizedTime": 0.07,
          "endNormalizedTime": 0.12,
          "angularSpeed": 120,
          "attackTrigger": ""
        },
        {
          "$type": "SteerAttackMixin",
          "steerStateIDs": ["Sacred_Attack01"],
          "startNormalizedTime": 0.17,
          "endNormalizedTime": 0.24,
          "angularSpeed": 120,
          "attackTrigger": ""
        },
        {
          "$type": "SteerAttackMixin",
          "steerStateIDs": ["Sacred_Attack01"],
          "startNormalizedTime": 0.33,
          "endNormalizedTime": 0.37,
          "angularSpeed": 120,
          "attackTrigger": ""
        },
        {
          "$type": "SteerAttackMixin",
          "steerStateIDs": ["Sacred_Attack01"],
          "startNormalizedTime": 0.5,
          "endNormalizedTime": 0.62,
          "angularSpeed": 120,
          "attackTrigger": ""
        },
        {
          "$type": "SteerAttackMixin",
          "steerStateIDs": ["Sacred_Attack02_BS"],
          "startNormalizedTime": 0.04,
          "endNormalizedTime": 0.15,
          "angularSpeed": 120,
          "attackTrigger": ""
        },
        {
          "$type": "SteerAttackMixin",
          "steerStateIDs": ["Sacred_Attack02_BS"],
          "startNormalizedTime": 0.68,
          "endNormalizedTime": 1.0,
          "angularSpeed": 120,
          "attackTrigger": ""
        },
        {
          "$type": "SteerAttackMixin",
          "steerStateIDs": ["Sacred_Attack02_BS"],
          "startNormalizedTime": 0.04,
          "endNormalizedTime": 0.15,
          "angularSpeed": 120,
          "attackTrigger": ""
        },
        {
          "$type": "SteerAttackMixin",
          "steerStateIDs": ["Sacred_Attack02_AS"],
          "startNormalizedTime": 0.0,
          "endNormalizedTime": 0.05,
          "angularSpeed": 360,
          "attackTrigger": ""
        },
        {
          "$type": "SteerAttackMixin",
          "steerStateIDs": ["Sacred_Attack03"],
          "startNormalizedTime": 0.02,
          "endNormalizedTime": 0.05,
          "angularSpeed": 120,
          "attackTrigger": ""
        },
        {
          "$type": "SteerAttackMixin",
          "steerStateIDs": ["Sacred_Attack03"],
          "startNormalizedTime": 0.12,
          "endNormalizedTime": 0.23,
          "angularSpeed": 120,
          "attackTrigger": ""
        },
        {
          "$type": "SteerAttackMixin",
          "steerStateIDs": ["Sacred_Attack03"],
          "startNormalizedTime": 0.28,
          "endNormalizedTime": 0.37,
          "angularSpeed": 120,
          "attackTrigger": ""
        },
        {
          "$type": "SteerAttackMixin",
          "steerStateIDs": ["Sacred_Attack03"],
          "startNormalizedTime": 0.48,
          "endNormalizedTime": 0.6,
          "angularSpeed": 120,
          "attackTrigger": ""
        },
        {
          "$type": "SteerAttackMixin",
          "steerStateIDs": ["Sacred_Attack04_BS"],
          "startNormalizedTime": 0.05,
          "endNormalizedTime": 0.13,
          "angularSpeed": 120,
          "attackTrigger": ""
        },
        {
          "$type": "SteerAttackMixin",
          "steerStateIDs": ["Sacred_Attack04_BS"],
          "startNormalizedTime": 0.18,
          "endNormalizedTime": 0.25,
          "angularSpeed": 120,
          "attackTrigger": ""
        },
        {
          "$type": "SteerAttackMixin",
          "steerStateIDs": ["Sacred_Attack04_BS"],
          "startNormalizedTime": 0.71,
          "endNormalizedTime": 1.0,
          "angularSpeed": 240,
          "attackTrigger": ""
        },
        {
          "$type": "SteerAttackMixin",
          "steerStateIDs": ["Sacred_Attack04_Loop"],
          "startNormalizedTime": 0.0,
          "endNormalizedTime": 10.0,
          "angularSpeed": 10,
          "attackTrigger": "LoopFlyTurn",
          "attackDistance": 100,
          "attackAngle": 90
        },
        {
          "$type": "SteerAttackMixin",
          "steerStateIDs": ["Sacred_Attack04_AS"],
          "startNormalizedTime": 0.0,
          "endNormalizedTime": 0.23,
          "angularSpeed": 240,
          "attackTrigger": ""
        },
        {
          "$type": "SteerAttackMixin",
          "steerStateIDs": ["Sacred_Attack05"],
          "startNormalizedTime": 0.17,
          "endNormalizedTime": 0.45,
          "angularSpeed": 120,
          "attackTrigger": ""
        }
      ]
    }
  },
  ////////////////////////////////////////////////////////////////
  //
  //  Sacred_Attack03
  //
  ////////////////////////////////////////////////////////////////
  {
    "Default": {
      "$type": "ConfigAbility",
      "abilityName": "Monster_Vulture_Sacred_Attack03",
      "abilityMixins": [
        {
          "$type": "AttachToStateIDMixin",
          "stateIDs": ["Sacred_Attack03"],
          "modifierName": "SacredAttack03EndCheck"
        }
      ],
      "modifiers": {
        "SacredAttack03EndCheck": {
          "thinkInterval": 0.1,
          "onThinkInterval": [
            {
              "$type": "Predicated",
              "target": "SelfAttackTarget",
              "targetPredicates": [
                {
                  "$type": "ByTargetPositionToSelfPosition",
                  "compareType": "XZ",
                  "value": 8,
                  "logic": "Greater"
                }
              ],
              "successActions": [
                {
                  "$type": "SetAnimatorBool",
                  "boolID": "SacredAttack03End",
                  "value": true
                }
              ],
              "failActions": [
                {
                  "$type": "SetAnimatorBool",
                  "boolID": "SacredAttack03End",
                  "value": false
                }
              ]
            }
          ]
        }
      }
    }
  },
  ////////////////////////////////////////////////////////////////
  //
  //  Sacred_Attack02
  //
  ////////////////////////////////////////////////////////////////
  {
    "Default": {
      "$type": "ConfigAbility",
      "abilityName": "Monster_Vulture_Sacred_Attack02_Collider",
      "abilityMixins": [
        {
          "$type": "AttachToStateIDMixin",
          "modifierName": "LoopRushMove",
          "stateIDs": ["Sacred_Attack02_Loop"]
        }
      ],
      "onAbilityStart": [
        {
          "$type": "ApplyModifier",
          "modifierName": "StateControl"
        }
      ],
      "modifiers": {
        "LoopRushMove": {
          "duration": 0.5,
          "onAdded": [
            {
              "$type": "FixedMonsterRushMove",
              "animatorStateIDs": ["Sacred_Attack02_Loop"],
              "target": "SelfAttackTarget",
              "timeRange": 0.3,
              "toPos": {
                "$type": "ConfigBornByTarget",
                "offset": {
                  "x": 0,
                  "y": 10.0,
                  "z": 0
                },
                "bornRandom": {
                  "$type": "BornRandomFromCenter",
                  "maxRandomRange": 0.15,
                  "minRandomRange": 0.05
                }
              }
            }
          ]
        },
        "StateControl": {
          "duration": 1.216,
          "modifierMixins": [
            {
              "$type": "AttachActionToModifierMixin",
              "onAdded": [
                {
                  "$type": "HideUIBillBoard",
                  "hide": true
                },
                {
                  "$type": "ApplyModifier",
                  "modifierName": "UnderGround_Invincible"
                },
                {
                  "$type": "ApplyModifier",
                  "modifierName": "UnderGround_DenyLockOn"
                },
                {
                  "$type": "EnablePushColliderName",
                  "pushColliderNames": ["PushCollider"],
                  "setEnable": false
                }
              ],
              "onRemoved": [
                {
                  "$type": "HideUIBillBoard",
                  "hide": false
                },
                {
                  "$type": "RemoveModifier",
                  "modifierName": "UnderGround_Invincible"
                },
                {
                  "$type": "RemoveModifier",
                  "modifierName": "UnderGround_DenyLockOn"
                },
                {
                  "$type": "EnablePushColliderName",
                  "pushColliderNames": ["PushCollider"],
                  "setEnable": true
                }
              ]
            }
          ]
        },
        "UnderGround_Invincible": {
          "state": "Invincible"
        },
        "UnderGround_DenyLockOn": {
          "state": "DenyLockOn"
        }
      }
    }
  },
  {
    "Default": {
      "$type": "ConfigAbility",
      "abilityName": "Monster_Vulture_Sacred_Attack02_Find",
      "onAbilityStart": [
        {
          "$type": "TryFindBlinkPointByBorn",
          "target": "SelfAttackTarget",
          "hitSceneTest": true,
          "hitSceneType": "BlinkHitSceneTestByThreeSegments",
          "limitY": 15.0,
          "born": {
            "$type": "ConfigBornByTargetLinearPoint",
            "linearOffset": 0.0,
            "baseOnTarget": true,
            "linearXZ": true,
            "linearMin": 0.0,
            "linearMax": 25.0,
            "onGround": false,
            "offset": {
              "x": 0,
              "y": 10.0,
              "z": 0
            },
            "bornRandom": {
              "$type": "BornRandomFromCenter",
              "maxRandomRange": 0.15,
              "minRandomRange": 0.05
            }
          }
        },
        {
          "$type": "FireEffect",
          "effectPattern": "Eff_Monster_Vulture_Sacred_SacredAttack02_Warning",
          "born": {
            "$type": "ConfigBornByTeleportToPoint",
            "onGround": true
          }
        }
      ]
    }
  },
  {
    "Default": {
      "$type": "ConfigAbility",
      "abilityName": "Monster_Vulture_Sacred_Attack02_Blink",
      "onAbilityStart": [
        {
          "$type": "DoBlink"
        }
      ]
    }
  },
  ////////////////////////////////////////////////////////////////
  //
  //  Sacred_Attack04
  //
  ////////////////////////////////////////////////////////////////
  {
    "Default": {
      "$type": "ConfigAbility",
      "abilityName": "Monster_Vulture_Sacred_Attack04",
      "abilityMixins": [
        {
          "$type": "AttachToStateIDMixin",
          "modifierName": "FlyLoopCount",
          "stateIDs": ["Sacred_Attack04_Loop"]
        },
        {
          "$type": "AttachToStateIDMixin",
          "modifierName": "BulletShoot",
          "stateIDs": ["Sacred_Attack04_Loop", "Sacred_Attack04_Loop_Extra"]
        },
        {
          "$type": "AttachToStateIDMixin",
          "modifierName": "LoopEffect",
          "stateIDs": ["Sacred_Attack04_Loop", "Sacred_Attack04_Loop_Extra"]
        },
        {
          "$type": "AttachToStateIDMixin",
          "stateIDs": ["Sacred_Attack04_AS", "Sacred_Attack04_BS"],
          "modifierName": "ParamReset"
        },
        {
          "$type": "AttachModifierToSelfGlobalValueMixin",
          "globalValueKey": "FlyLoopTimes",
          "valueSteps": [0.5, 1.5],
          "removeAppliedModifier": true,
          "modifierNameSteps": ["FlyLoopEnd"]
        }
      ],
      "abilitySpecials": {
        "MultiFactor": -1,
        "WingFactor": 1
      },
      "modifiers": {
        "LoopEffect": {
          "onAdded": [
            {
              "$type": "AttachEffect",
              "effectPattern": "Eff_Monster_Vulture_Sacred_SacredAttack04_Loop"
            },
            {
              "$type": "AttachEffect",
              "effectPattern": "Eff_Monster_Vulture_Sacred_SacredAttack04_Loop_WingL"
            },
            {
              "$type": "AttachEffect",
              "effectPattern": "Eff_Monster_Vulture_Sacred_SacredAttack04_Loop_WingR"
            }
          ]
        },
        "BulletShoot": {
          "thinkInterval": 0.3,
          "onThinkInterval": [
            {
              "$type": "TriggerBullet",
              "bulletID": 42406201,
              "born": {
                "$type": "ConfigBornBySelf",
                "offset": {
                  "x": "-2.5*%WingFactor",
                  "y": 3.6,
                  "z": 1.5
                },
                "direction": {
                  "$type": "ConfigDirectionByDefault",
                  "angleOffset": {
                    "x": 90.0,
                    "y": 0.0,
                    "z": 0.0
                  }
                }
              }
            },
            {
              "$type": "SetOverrideMapValue",
              "value": "%WingFactor*%MultiFactor",
              "overrideMapKey": "WingFactor"
            }
          ],
          "onAdded": [
            {
              "$type": "EnablePushColliderName",
              "pushColliderNames": ["PushCollider"],
              "setEnable": false
            }
          ],
          "onRemoved": [
            {
              "$type": "EnablePushColliderName",
              "pushColliderNames": ["PushCollider"],
              "setEnable": true
            }
          ]
        },
        "FlyLoopEnd": {
          "onAdded": [
            {
              "$type": "SetAnimatorBool",
              "boolID": "LoopFlyEnd",
              "value": true
            }
          ]
        },
        "FlyLoopCount": {
          "onAdded": [
            {
              "$type": "AddGlobalValue",
              "key": "FlyLoopTimes",
              "target": "Self",
              "value": 1,
              "useLimitRange": true,
              "maxValue": 1,
              "minValue": 0
            }
          ]
        },
        "ParamReset": {
          "duration": 0.5,
          "onRemoved": [
            {
              "$type": "ResetAnimatorTrigger",
              "triggerID": "LoopFlyTurn"
            },
            {
              "$type": "SetAnimatorBool",
              "boolID": "LoopFlyEnd",
              "value": false
            },
            {
              "$type": "SetGlobalValue",
              "key": "FlyLoopTimes",
              "target": "Self",
              "value": 0
            }
          ]
        }
      }
    }
  },
  {
    "Default": {
      "$type": "ConfigAbility",
      "abilityName": "Monster_Vulture_Sacred_Attack04_Bullet",
      "onAdded": [
        {
          "$type": "AttachModifier",
          "modifierName": "Attack04_Bullet",
          "target": "Self"
        }
      ],
      "onAbilityStart": [
        {
          "$type": "RemoveModifier",
          "modifierName": "Attack04_Bullet"
        },
        {
          "$type": "FireEffect",
          "effectPattern": "Eff_Monster_Vulture_Sacred_SacredAttack04_BulletExplode",
          "born": {
            "$type": "ConfigBornByAttachPoint",
            "attachPointName": "RootNode"
          }
        },
        {
          "$type": "TriggerAttackEvent",
          "targetType": "Enemy",
          "attackEvent": {
            "attackPattern": {
              "$type": "ConfigAttackSphere",
              "triggerType": "TriggerNoRepeat",
              "radius": 3,
              "born": {
                "$type": "ConfigBornBySelf",
                "offset": {
                  "x": 0.0,
                  "y": 0.0,
                  "z": 0.0
                }
              }
            },
            "attackInfo": {
              "canBeModifiedBy": "OriginOwner",
              "attackProperty": {
                "damagePercentage": 0.8,
                "strikeType": "Default",
                "attackType": "Range",
                "elementType": "Fire",
                "elementDurability": 30,
                "enBreak": 200.0
              },
              "hitPattern": {
                "onHitEffectName": "",
                "hitImpulseType": "LV5",
                "reboundRatio": 0,
                "hitHaltTime": 0.0,
                "hitHaltTimeScale": 0.05,
                "muteHitText": false
              }
            }
          }
        }
      ],
      "modifiers": {
        "Attack04_Bullet": {
          "onAdded": [
            {
              "$type": "AttachEffect",
              "effectPattern": "Eff_Monster_Vulture_Sacred_SacredAttack04_Bullet"
            },
            {
              "$type": "FireEffect",
              "effectPattern": "Eff_Monster_Vulture_Sacred_SacredAttack04_Bullet_Trail"
            }
          ]
        }
      }
    }
  },
  ////////////////////////////////////////////////////////////////
  //
  //  Sacred_Attack05
  //
  ////////////////////////////////////////////////////////////////
  {
    "Default": {
      "$type": "ConfigAbility",
      "abilityName": "Monster_Vulture_Sacred_Attack05_Bullet",
      "onAbilityStart": [
        {
          "$type": "TriggerBullet",
          "bulletID": 42406202,
          "trackTarget": "SelfAttackTarget",
          "born": {
            "$type": "ConfigBornByAttachPoint",
            "attachPointName": "Root",
            "offset": {
              "x": 0.0,
              "y": 0.0,
              "z": 0.0
            }
          }
        }
      ]
    }
  },
  {
    "Default": {
      "$type": "ConfigAbility",
      "abilityName": "Monster_Vulture_Sacred_Attack05_BulletExplode",
      "onAbilityStart": [
        {
          "$type": "TriggerAttackEvent",
          "targetType": "Enemy",
          "attackEvent": {
            "attackPattern": {
              "$type": "ConfigAttackSphere",
              "triggerType": "TriggerNoRepeat",
              "radius": 2.0,
              "born": {
                "$type": "ConfigBornByCollisionPoint"
              }
            },
            "attackInfo": {
              "canBeModifiedBy": "OriginOwner",
              "attenuationGroup": "Fafnir_Air_ChestAtk",
              "attenuationTag": "Fafnir_Air_ChestAtk",
              "attackProperty": {
                "damagePercentage": 0.5,
                "strikeType": "Default",
                "enBreak": 50.0,
                "elementDurability": 50,
                "elementType": "Fire"
              },
              "hitPattern": {
                "hitImpulseType": "LV3",
                "hitHaltTime": 0.0,
                "hitHaltTimeScale": 0.01,
                "muteHitText": false
              }
            }
          }
        },
        {
          "$type": "FireSubEmitterEffect",
          "effectPattern": "Eff_Monster_Vulture_Sacred_SacredAttack05_BulletExplode",
          "born": {
            "$type": "ConfigBornByCollisionPoint"
          }
        }
      ]
    }
  },
  ////////////////////////////////////////////////////////////////
  //
  //  SacredEnergy
  //
  ////////////////////////////////////////////////////////////////
  {
    "Default": {
      "$type": "ConfigAbility",
      "abilityName": "Monster_Vulture_Sacred_SacredEnergy_Accum"
    }
  },
  {
    "Default": {
      "$type": "ConfigAbility",
      "abilityName": "Monster_Vulture_Sacred_SacredEnergy_Accum_Create",
      "onAbilityStart": [
        {
          "$type": "SetSelfAttackTarget",
          "otherTargets": {
            "$type": "SelectTargetsByShape",
            "shapeName": "CircleR50",
            "centerBasedOn": "Self",
            "campTargetType": "All",
            "campBasedOn": "Self",
            "sortType": "Nearest",
            "entityTypePriority": ["Gadget"]
          },
          "predicates": [
            {
              "$type": "ByTargetGlobalValue",
              "key": "Vulture_SacredEnergy_Gadget",
              "value": 1,
              "compareType": "Equal"
            }
          ]
        },
        {
          "$type": "TriggerBullet",
          "bulletID": 42406206,
          "target": "SelfAttackTarget",
          "born": {
            "$type": "ConfigBornBySelf"
          }
        },
        {
          "$type": "ResetAIAttackTarget"
        }
      ]
    }
  },
  {
    "Default": {
      "$type": "ConfigAbility",
      "abilityName": "Monster_Vulture_Sacred_SacredEnergy_Detect",
      "onAbilityStart": [
        {
          "$type": "TriggerBullet",
          "bulletID": 42406205,
          "lifeByOwnerIsAlive": true,
          "born": {
            "$type": "ConfigBornBySelf",
            "offset": {
              "x": 0,
              "y": 1.0,
              "z": 2.0
            },
            "direction": {
              "$type": "ConfigDirectionByDefault",
              "angleOffset": {
                "x": 0,
                "y": 0,
                "z": 0
              }
            }
          }
        }
      ]
    }
  },
  {
    "Default": {
      "$type": "ConfigAbility",
      "abilityName": "Monster_Vulture_Sacred_SacredEnergy_Create",
      "onAbilityStart": [
        {
          "$type": "CreateGadget",
          "gadgetID": 42406203,
          "campID": 4001,
          "byServer": true,
          "born": {
            "$type": "ConfigBornByCollisionPoint",
            "onGround": true,
            "alongGround": true
          }
        },
        {
          "$type": "KillSelf"
        }
      ]
    }
  },
  {
    "Default": {
      "$type": "ConfigAbility",
      "abilityName": "Monster_Vulture_Sacred_SacredEnergy_CreateO",
      "onAbilityStart": [
        {
          "$type": "CreateGadget",
          "gadgetID": 42406203,
          "campID": 4001,
          "byServer": true,
          "born": {
            "$type": "ConfigBornBySelf",
            "onGround": true,
            "alongGround": true
          }
        },
        {
          "$type": "KillSelf"
        }
      ]
    }
  },
  {
    "Default": {
      "$type": "ConfigAbility",
      "abilityName": "Monster_Vulture_Sacred_SacredEnergy_Gadget",
      "onAdded": [
        {
          "$type": "ApplyModifier",
          "modifierName": "DarkHoundGadget_DelayHandler"
        },
        {
          "$type": "ApplyModifier",
          "modifierName": "DarkHoundGadget_DelayHandler_Effect"
        },
        {
          "$type": "SetGlobalValue",
          "key": "_CHARGEBAR_VALUE",
          "value": 0
        },
        {
          "$type": "SetGlobalValue",
          "key": "Vulture_SacredEnergy_Gadget",
          "value": 1
        },
        {
          "$type": "EnablePushColliderName",
          "pushColliderNames": ["PushCollider_Occluder"],
          "setEnable": true
        },
        {
          "$type": "EnablePushColliderName",
          "pushColliderNames": ["PushCollider"],
          "setEnable": false
        }
      ],
      "modifiers": {
        "DarkHoundGadget_DelayHandler_Effect": {
          "duration": 1.35,
          "onRemoved": [
            {
              "$type": "FireEffect",
              "effectPattern": "Eff_Monster_Vulture_Sacred_SacredAttack05_SacredEnergy_Hit"
            }
          ]
        },
        "DarkHoundGadget_DelayHandler": {
          "duration": 1.4,
          "onRemoved": [
            {
              "$type": "ApplyModifier",
              "modifierName": "DarkHoundGadget_ChargeState"
            },
            {
              "$type": "EnablePushColliderName",
              "pushColliderNames": ["PushCollider"],
              "setEnable": true
            }
          ]
        },
        "DarkHoundGadget_ChargeState": {
          "duration": 10.0,
          "modifierMixins": [
            {
              "$type": "ChargeBarMixin",
              "chargeBarElementType": "Fire",
              "chargeBarIconID": 1,
              "initialValue": 0,
              "maxValue": 10
            },
            {
              "$type": "AttachModifierToSelfGlobalValueMixin",
              "globalValueKey": "_CHARGEBAR_VALUE",
              "valueSteps": [9.5, 10.5],
              "removeAppliedModifier": true,
              "modifierNameSteps": ["DarkHoundGadget_ChargeEnd"]
            }
          ],
          "onAdded": [
            {
              "$type": "AttachEffect",
              "effectPattern": "Eff_Monster_Vulture_Sacred_SacredEnergy"
            },
            {
              "$type": "AttachEffect",
              "effectPattern": "Eff_Monster_Vulture_Sacred_SacredSmoke"
            }
          ],
          "onBeingHit": [
            {
              "$type": "SetSelfAttackTarget",
              "target": "Target"
            },
            {
              "$type": "FireEffect",
              "effectPattern": "Eff_Monster_Vulture_Sacred_SacredEnergyBeHit",
              "born": {
                "$type": "ConfigBornByHitPoint",
                "offset": {
                  "x": 0.0,
                  "y": 0.0,
                  "z": 0.0
                }
              }
            },
            {
              "$type": "AddChargeBarValue",
              "value": 5,
              "predicates": [
                {
                  "$type": "ByAny",
                  "predicates": [
                    {
                      "$type": "ByHitElement",
                      "element": "Fire"
                    }
                  ]
                }
              ]
            },
            {
              "$type": "AddChargeBarValue",
              "value": 1.25,
              "predicates": [
                {
                  "$type": "ByAny",
                  "predicates": [
                    {
                      "$type": "ByHitElement",
                      "element": "Wind"
                    },
                    {
                      "$type": "ByHitElement",
                      "element": "Water"
                    },
                    {
                      "$type": "ByHitElement",
                      "element": "Ice"
                    },
                    {
                      "$type": "ByHitElement",
                      "element": "Electric"
                    },
                    {
                      "$type": "ByHitElement",
                      "element": "Grass"
                    },
                    {
                      "$type": "ByHitElement",
                      "element": "Rock"
                    }
                  ]
                }
              ]
            }
          ],
          "onRemoved": [
            {
              "$type": "EnableHitBoxByName",
              "hitBoxNames": ["HitBox"],
              "setEnable": false
            },
            {
              "$type": "FireEffect",
              "effectPattern": "Eff_Monster_Vulture_Sacred_SacredEnergyDisappear",
              "predicates": [
                {
                  "$type": "ByTargetGlobalValue",
                  "compareType": "LessAndEqual",
                  "key": "_CHARGEBAR_VALUE",
                  "target": "Self",
                  "value": 9
                }
              ]
            },
            {
              "$type": "TriggerBullet",
              "target": "OriginOwner",
              "bulletID": 42406207,
              "trackTarget": "Target",
              "born": {
                "$type": "ConfigBornByAttachPoint",
                "attachPointName": "RootNode",
                "attachPointTargetType": "Self",
                "offset": {
                  "x": 0.0,
                  "y": 0.0,
                  "z": 0.0
                },
                "direction": {
                  "$type": "ConfigDirectionByAttachPoint",
                  "attachPointName": "RootNode",
                  "attachPointTargetType": "Self",
                  "angleOffset": {
                    "x": 0.0,
                    "y": 0.0,
                    "z": 0.0
                  }
                }
              },
              "predicates": [
                {
                  "$type": "ByTargetGlobalValue",
                  "compareType": "LessAndEqual",
                  "key": "_CHARGEBAR_VALUE",
                  "target": "Self",
                  "value": 9
                }
              ]
            },
            {
              "$type": "KillSelf",
              "duration": 0.2
            }
          ]
        },
        "DarkHoundGadget_ChargeEnd": {
          "onAdded": [
            {
              "$type": "ApplyModifier",
              "modifierName": "FireHolyHound_Timer"
            },
            {
              "$type": "ApplyModifier",
              "target": "OriginOwner",
              "modifierName": "SacredEnergy_Recover_CountDown"
            },
            {
              "$type": "EnableHitBoxByName",
              "hitBoxNames": ["HitBox"],
              "setEnable": false
            },
            {
              "$type": "RemoveModifier",
              "modifierName": "DarkHoundGadget_ChargeState"
            }
          ]
        },
        "SacredEnergy_Recover_CountDown": {
          "stacking": "Refresh",
          "duration": 13,
          "onRemoved": [
            {
              "$type": "SetGlobalValue",
              "target": "Self",
              "key": "SacredEnergy_Recover_Vulture",
              "value": 1,
              "predicates": [
                {
                  "$type": "ByAnimatorBool",
                  "target": "Self",
                  "parameter": "EnhanceSkin",
                  "logic": "Equal",
                  "value": false
                }
              ]
            }
          ]
        },
        "FireHolyHound_Timer": {
          "duration": 0.65,
          "onAdded": [
            {
              "$type": "FireEffect",
              "effectPattern": "Eff_Monster_Vulture_Sacred_SacredEnergyTransform"
            },
            {
              "$type": "Predicated",
              "target": "Other",
              "otherTargets": {
                "$type": "SelectTargetsByShape",
                "shapeName": "CircleR50",
                "centerBasedOn": "Self",
                "campTargetType": "Enemy",
                "campBasedOn": "Self",
                "topLimit": 1,
                "entityTypePriority": ["Avatar"],
                "sortType": "Nearest"
              },
              "successActions": [
                {
                  "$type": "ApplyModifier",
                  "target": "TargetTeam",
                  "modifierName": "Vulture_SacredEnergy_TargetTeam"
                },
                {
                  "$type": "TriggerBullet",
                  "target": "Target",
                  "bulletID": 42406204,
                  "trackTarget": "Target",
                  "born": {
                    "$type": "ConfigBornByAttachPoint",
                    "attachPointName": "RootNode",
                    "attachPointTargetType": "Self",
                    "offset": {
                      "x": 0.0,
                      "y": 0.0,
                      "z": 0.0
                    },
                    "direction": {
                      "$type": "ConfigDirectionByAttachPoint",
                      "attachPointName": "RootNode",
                      "attachPointTargetType": "Self",
                      "angleOffset": {
                        "x": 0.0,
                        "y": 0.0,
                        "z": 0.0
                      }
                    }
                  }
                }
              ]
            }
          ]
        },
        //给team上标记
        "Vulture_SacredEnergy_TargetTeam": {
          "duration": 10,
          "modifierMixins": [
            {
              "$type": "CurLocalAvatarMixinV2",
              "modifierName": "Vulture_SacredEnergy_Target"
            }
          ]
        },
        "Vulture_SacredEnergy_Target": {
          "onAdded": [
            {
              "$type": "SetGlobalValue",
              "target": "Self",
              "value": 1,
              "key": "SacredEnergy_Target_Vulture"
            }
          ],
          "onRemoved": [
            {
              "$type": "SetGlobalValue",
              "target": "Self",
              "value": 0,
              "key": "SacredEnergy_Target_Vulture"
            }
          ]
        }
      }
    }
  },
  {
    "Default": {
      "$type": "ConfigAbility",
      "abilityName": "Monster_Vulture_Sacred_SacredEnergy_Bullet",
      "onAdded": [
        {
          "$type": "ApplyModifier",
          "modifierName": "HolyHoundBullet_Effect"
        }
      ],
      "onAbilityStart": [
        {
          "$type": "Predicated",
          "target": "Target",
          "targetPredicates": [
            {
              "$type": "ByTargetGlobalValue",
              "key": "SacredEnergy_Target_Vulture",
              "value": 1,
              "compareType": "Equal"
            }
          ],
          "successActions": [
            {
              "$type": "ApplyModifier",
              "target": "TargetTeam",
              "modifierName": "Have_Vulture_SacredEnergy_Team"
            },
            {
              "$type": "FireEffect",
              "target": "Target",
              "effectPattern": "Eff_Monster_Vulture_Sacred_SacredEnergyHitPlayer",
              "born": {
                "$type": "ConfigBornByAttachPoint",
                "attachPointName": "RootNode"
              }
            },
            {
              "$type": "RemoveModifier",
              "modifierName": "HolyHoundBullet_Effect"
            },
            {
              "$type": "KillSelf",
              "target": "Self"
            }
          ]
        }
      ],
      "modifiers": {
        "HolyHoundBullet_Effect": {
          "onAdded": [
            {
              "$type": "AttachEffect",
              "effectPattern": "Eff_Monster_Vulture_Sacred_SacredEnergyBullet"
            }
          ]
        },
        "Have_Vulture_SacredEnergy_Team": {
          "duration": 10,
          "modifierMixins": [
            {
              "$type": "CurLocalAvatarMixinV2",
              "modifierName": "Have_Vulture_SacredEnergy"
            }
          ]
        },
        "Have_Vulture_SacredEnergy": {
          "onAdded": [
            {
              "$type": "SetGlobalValue",
              "target": "Self",
              "value": 1,
              "key": "SacredEnergy_Vulture"
            },
            {
              "$type": "AttachEffect",
              "effectPattern": "Eff_Monster_Vulture_Sacred_SacredEnergyOnPlayer"
            }
          ],
          "onRemoved": [
            {
              "$type": "SetGlobalValue",
              "target": "Self",
              "value": 0,
              "key": "SacredEnergy_Vulture"
            }
          ],
          "onAttackLanded": [
            {
              "$type": "Predicated",
              "target": "Other",
              "targetPredicates": [
                {
                  "$type": "ByTargetGlobalValue",
                  "compareType": "Equal",
                  "key": "Monster_Vulture_Sacred",
                  "value": 1
                },
                // {
                //     "$type": "ByTargetType",
                //     "targetType": "CasterOriginOwner",
                // },
                {
                  "$type": "ByEntityTypes",
                  "entityTypes": ["Monster"]
                },
                {
                  "$type": "ByAttackTags",
                  "attackTags": [
                    "NormalAttack_01",
                    "NormalAttack_02",
                    "NormalAttack_03",
                    "NormalAttack_04",
                    "NormalAttack_05",
                    "NormalAttack_06",
                    "ExtraAttack",
                    "FallingAttack",
                    "Elemental_Art",
                    "Elemental_Art_Hold",
                    "Elemental_Art_Extra",
                    "Elemental_Burst"
                  ]
                },
                {
                  "$type": "ByTargetGlobalValue",
                  "target": "Self",
                  "key": "SacredEnergy_Vulture",
                  "value": 1,
                  "compareType": "Equal"
                }
              ],
              "successActions": [
                {
                  "$type": "SetAnimatorTrigger",
                  "target": "Other",
                  "triggerID": "WeakTrigger"
                },
                {
                  "$type": "FireEffect",
                  "effectPattern": "Eff_Monster_Vulture_Sacred_ScaredBeHit",
                  "target": "Other"
                },
                {
                  "$type": "RemoveModifier",
                  "target": "Team",
                  "modifierName": "Have_Vulture_SacredEnergy_Team"
                }
              ]
            }
          ]
        }
      }
    }
  },
  {
    "Default": {
      "$type": "ConfigAbility",
      "abilityName": "Monster_Vulture_Sacred_SacredEnergy_Bullet_ToMonster",
      "onAdded": [
        {
          "$type": "ApplyModifier",
          "modifierName": "HolyHoundBullet_Effect"
        }
      ],
      "onAbilityStart": [
        {
          "$type": "Predicated",
          "target": "Target",
          "targetPredicates": [
            {
              "$type": "ByTargetGlobalValue",
              "key": "Monster_Vulture_Sacred",
              "value": 1,
              "compareType": "Equal"
            },
            {
              "$type": "ByTargetGlobalValue",
              "key": "_SACRED_ENTITY_ALERTNESS_TAG_",
              "value": 1,
              "compareType": "Equal"
            }
          ],
          "successActions": [
            {
              "$type": "SetGlobalValue",
              "target": "Target",
              "key": "SacredEnergy_Recover_Vulture",
              "value": 1
            },
            {
              "$type": "FireEffect",
              "target": "Target",
              "effectPattern": "Eff_Monster_Vulture_Sacred_SacredEnergyHitMonster"
            },
            {
              "$type": "KillSelf",
              "target": "Self"
            }
          ]
        }
      ],
      "modifiers": {
        "HolyHoundBullet_Effect": {
          "onAdded": [
            {
              "$type": "AttachEffect",
              "effectPattern": "Eff_Monster_Vulture_Sacred_SacredEnergyBullet"
            }
          ]
        }
      }
    }
  },
  ////////////////////////////////////////////////////////////////
  //
  //  EnhanceDefence
  //
  ////////////////////////////////////////////////////////////////
  {
    "Default": {
      "$type": "ConfigAbility",
      "abilityName": "Monster_Vulture_Sacred_EnhanceDefence",
      "abilityMixins": [
        {
          "$type": "AttachToPoseIDMixin",
          "poseIDs": [1, 2, 3, 101, 102, 103, 201, 202],
          "modifierName": "Vulture_Sacred_EnhanceDefence"
        }
      ],
      "modifiers": {
        "Vulture_Sacred_EnhanceDefence": {
          "properties": {
            "Actor_PhysicalSubHurtDelta": 0.3,
            "Actor_FireSubHurtDelta": 0.6,
            "Actor_ElecSubHurtDelta": 0.3,
            "Actor_WaterSubHurtDelta": 0.3,
            "Actor_GrassSubHurtDelta": 0.3,
            "Actor_WindSubHurtDelta": 0.3,
            "Actor_IceSubHurtDelta": 0.3,
            "Actor_RockSubHurtDelta": 0.3
          }
        }
      }
    }
  }
]
