[
  ////////////////////////////////////////////////////////////////
  //
  //  3.4连线挑战关卡1角色buff
  //
  ////////////////////////////////////////////////////////////////
  {
    "Default": {
      "$type": "ConfigAbility",
      "abilityName": "Activity_ActivityTeamChain_TeamControlBuff",
      "isDynamicAbility": true,
      "abilitySpecials": {
        "AvatarBuffDuration": 0,
        "CJBDamageRatio": 0,
        "CJBCD": 0
      },
      "onAdded": [
        {
          "$type": "SetSystemValueToOverrideMap",
          "key": "DamageSystemValue",
          "type": "ElementLevelCo"
        }
      ],
      "abilityMixins": [
        {
          "$type": "AttachModifierToSelfGlobalValueMixin",
          "globalValueKey": "_GO_CJB_TRIGGER",
          "valueSteps": [-0.5, 0.5, 1.5],
          "modifierNameSteps": ["No_CJB_Trigger", "Has_CJB_Trigger"]
        }
      ],
      "modifiers": {
        "No_CJB_Trigger": {},
        "Has_CJB_Trigger": {
          "onAdded": [
            {
              "$type": "ApplyModifier",
              "modifierName": "Activity_ActivityTeamChain_AvatarCJBBuff"
            },
            {
              "$type": "SetGlobalValue",
              "key": "_GO_CJB_TRIGGER",
              "value": 0
            }
          ]
        },
        "Activity_ActivityTeamChain_AvatarCJBBuff": {
          "duration": "%AvatarBuffDuration",
          "modifierMixins": [
            {
              "$type": "CurLocalAvatarMixinV2",
              "modifierName": "Activity_ActivityTeamChain_AvatarCJBBuff_OnBattle"
            }
          ]
        },
        "CJB_DAMAGE_INCD": {
          "duration": "%CJBCD",
          "onAdded": [
            {
              "$type": "SetGlobalValue",
              "key": "_CJB_IN_CD",
              "value": 1
            }
          ],
          "onRemoved": [
            {
              "$type": "SetGlobalValue",
              "key": "_CJB_IN_CD",
              "value": 0
            }
          ]
        },
        "Activity_ActivityTeamChain_AvatarCJBBuff_OnBattle": {
          "onAttackLanded": [
            {
              "$type": "Predicated",
              "target": "Other",
              "targetPredicates": [
                {
                  "$type": "ByEntityTypes",
                  "entityTypes": ["Monster"]
                },
                {
                  "$type": "ByTargetGlobalValue",
                  "key": "_CJB_IN_CD",
                  "value": 0,
                  "compareType": "NoneOrEqual"
                }
              ],
              "successActions": [
                {
                  "$type": "FireEffect",
                  "effectPattern": "Eff_EnergyDisk_ElementalBurst_Wave_R40",
                  "born": {
                    "$type": "ConfigBornByTarget"
                  }
                },
                {
                  "$type": "TriggerAttackEvent",
                  "doOffStage": false,
                  "target": "CurLocalAvatar",
                  "targetType": "Enemy",
                  "attackEvent": {
                    "attackPattern": {
                      "$type": "ConfigAttackSphere",
                      "triggerType": "TriggerNoRepeat",
                      "radius": 4,
                      "born": {
                        "$type": "ConfigBornBySelf"
                      }
                    },
                    "attackInfo": {
                      "attackProperty": {
                        "damageExtra": "%CJB_DamageRatio*%DamageSystemValue",
                        "ignoreAttackerProperty": true,
                        "ignoreModifyDamage": true,
                        "trueDamage": true,
                        "attackType": "Melee",
                        "elementType": "None",
                        "elementDurability": 0,
                        "enBreak": 25
                      },
                      "hitPattern": {
                        "onHitEffectName": "default",
                        "hitImpulseType": "LV2",
                        "canBeDefenceHalt": false,
                        "hitHaltTime": 0,
                        "hitHaltTimeScale": 0.02,
                        "muteHitText": false
                      }
                    }
                  }
                },
                {
                  "$type": "ApplyModifier",
                  "modifierName": "CJB_DAMAGE_INCD"
                }
              ]
            }
          ]
        }
      }
    }
  },
  ////////////////////////////////////////////////////////////////
  //
  //  3.4连线挑战关卡2 潮汐buff
  //
  ////////////////////////////////////////////////////////////////
  {
    "Default": {
      "$type": "ConfigAbility",
      "abilityName": "Activity_ActivityTeamChainV3.4_TideBuff",
      "isDynamicAbility": true,
      "abilitySpecials": {
        "DamageUp": 0
      },
      "abilityMixins": [
        {
          "$type": "AttachModifierToGlobalValueMixin",
          "globalValueTarget": "Team",
          "globalValueKey": "_IN_HIGH_TIDE_V3.4",
          "valueSteps": [-0.5, 0.5, 1.5],
          "modifierNameSteps": ["Crazy_In_Peace", "Crazy_DamageUp"]
        }
      ],
      "modifiers": {
        "Crazy_In_Peace": {},
        "Crazy_DamageUp": {
          "onAdded": [
            {
              "$type": "AttachModifier",
              "target": "AllPlayerAvatars",
              "modifierName": "Crazy_DamageUp_TeamChainV3.4"
            }
          ],
          "modifierMixins": [
            {
              "$type": "CurLocalAvatarMixinV2",
              "modifierName": "Crazy_DamageUp_TeamChainV3.4_Eff"
            }
          ]
        },
        "Crazy_DamageUp_TeamChainV3.4": {
          "properties": {
            "Actor_FireAddHurtDelta": "%DamageUp",
            "Actor_ElecAddHurtDelta": "%DamageUp",
            "Actor_WaterAddHurtDelta": "%DamageUp",
            "Actor_GrassAddHurtDelta": "%DamageUp",
            "Actor_WindAddHurtDelta": "%DamageUp",
            "Actor_IceAddHurtDelta": "%DamageUp",
            "Actor_RockAddHurtDelta": "%DamageUp",
            "Actor_PhysicalAddHurtDelta": "%DamageUp"
          }
        },
        "Crazy_DamageUp_TeamChainV3.4_Eff": {
          "onAdded": [
            {
              "$type": "DungeonFogEffects",
              "enable": true,
              "muteRemoteAction": true,
              "cameraFogEffectName": "Eff_Animal_Boar_03_ThrowSnowBall_ScreenEffect"
            }
          ],
          "onRemoved": [
            {
              "$type": "DungeonFogEffects",
              "enable": false
            }
          ]
        }
      }
    }
  },
  //////////////////////////////////////////////////////////////////////////////////////////////////
  //
  //  3.4 连线地城  被锁住的角色获得的BUFF
  //
  //////////////////////////////////////////////////////////////////////////////////////////////////

  //造成的伤害提升X%，并且在后台时每秒恢复X点能量
  {
    "Default": {
      "$type": "ConfigAbility",
      "abilityName": "Activity_TeamChain_LockedAvatar",
      "isDynamicAbility": true,
      "abilitySpecials": {
        "DamageUpRatio": 0,
        "OffStageInterval": 0,
        "Energy": 0
      },
      "onAdded": [
        {
          "$type": "AttachModifier",
          "modifierName": "UNIQUE_TeamChain_LockedAvatar"
        },
        {
          "$type": "AttachModifier",
          "modifierName": "UNIQUE_TeamChain_LockedAvatar_OffStage",
          "doOffStage": true
        }
      ],
      "modifiers": {
        "UNIQUE_TeamChain_LockedAvatar": {
          "isUnique": true,
          "modifierMixins": [
            {
              "$type": "ModifyDamageMixin",
              "ignoreEventInfo": true,
              "damagePercentageRatio": "%DamageUpRatio"
            }
          ]
        },
        "UNIQUE_TeamChain_LockedAvatar_OffStage": {
          "isUnique": true,
          "stacking": "Unique",
          "thinkInterval": "%OffStageInterval",
          "onThinkInterval": [
            {
              "$type": "Predicated",
              "target": "Self",
              "doOffStage": true,
              "targetPredicates": [
                {
                  "$type": "ByIsLocalAvatar",
                  "target": "Self"
                },
                {
                  "$type": "ByIsCombat"
                }
              ],
              "failActions": [
                {
                  "$type": "ReviveElemEnergy",
                  "value": "%Energy",
                  "doOffStage": true
                }
              ]
            }
          ]
        } //后台角色
      }
    }
  },

  //////////////////////////////////////////////////////////////////////////////////////////////////
  //
  //  3.4 连线地城  角色选择BUFF
  //
  //////////////////////////////////////////////////////////////////////////////////////////////////

  //1.扩散反应造成的伤害提高X%
  {
    "Default": {
      "$type": "ConfigAbility",
      "abilityName": "Activity_TeamChain_ElementAddHurt_Swirl",
      "isDynamicAbility": true,
      "abilitySpecials": {
        "ElementAddHurt_Swirl": 0
      },
      "onAdded": [
        {
          "$type": "AttachModifier",
          "modifierName": "UNIQUE_TeamChain_ElementAddHurt_Swirl",
          "target": "Self"
        }
      ],
      "modifiers": {
        "UNIQUE_TeamChain_ElementAddHurt_Swirl": {
          "isLimitedProperties": true,
          "stacking": "Unique",
          "isUnique": true,
          "properties": {
            "Actor_ElemReactSwirlFireDelta": "%ElementAddHurt_Swirl",
            "Actor_ElemReactSwirlWaterDelta": "%ElementAddHurt_Swirl",
            "Actor_ElemReactSwirlIceDelta": "%ElementAddHurt_Swirl",
            "Actor_ElemReactSwirlElectricDelta": "%ElementAddHurt_Swirl"
          }
        }
      }
    }
  },

  //2.角色攻击处于冻结状态下的敌人时，造成伤害提升X%
  {
    "Default": {
      "$type": "ConfigAbility",
      "abilityName": "Activity_TeamChain_Frozen_PercentageRatio",
      "isDynamicAbility": true,
      "abilitySpecials": {
        "damagePercentageRatio": 0
      },
      "onAdded": [
        {
          "$type": "AttachModifier",
          "modifierName": "Activity_TeamChain_Frozen_PercentageRatio"
        }
      ],
      "modifiers": {
        //对冰冻中的敌人伤害提升
        "Activity_TeamChain_Frozen_PercentageRatio": {
          "modifierMixins": [
            {
              "$type": "ModifyDamageMixin",
              "ignoreEventInfo": true,
              "damagePercentageRatio": "%damagePercentageRatio",
              "predicates": [
                {
                  "$type": "ByHasAbilityState",
                  "abilityState": "ElementFrozen",
                  "target": "Target"
                }
              ]
            }
          ]
        }
      }
    }
  },

  //3.元素爆发造成的伤害提升X%,冷却缩减提升X%
  {
    "Default": {
      "$type": "ConfigAbility",
      "abilityName": "Activity_TeamChain_BurstDamageUp_ReduceCD",
      "isDynamicAbility": true,
      "abilitySpecials": {
        "ElementalBurst_Rate": 0,
        "Actor_SkillCDMinusRatio": 0
      },
      "onAdded": [
        {
          "$type": "AttachModifier",
          "modifierName": "UNIQUE_TeamChain_BurstDamageUp_ReduceCD"
        }
      ],
      "modifiers": {
        "UNIQUE_TeamChain_BurstDamageUp_ReduceCD": {
          "isUnique": true,
          "properties": {
            "Actor_SkillCDMinusRatio": "%Actor_SkillCDMinusRatio"
          },
          "modifierMixins": [
            {
              "$type": "ModifyDamageMixin",
              "damagePercentageRatio": "%ElementalBurst_Rate",
              "attackTags": ["Elemental_Burst"]
            }
          ]
        }
      }
    }
  },

  //4.施放元素爆发后，每X秒为自身恢复X点元素能量，持续X秒
  {
    "Default": {
      "$type": "ConfigAbility",
      "abilityName": "Activity_TeamChain_UltGainEnergy",
      "isDynamicAbility": true,
      "abilitySpecials": {
        "Duration": 0,
        "Interval": 0,
        "Energy": 0
      },
      "onAdded": [
        {
          "$type": "AttachModifier",
          "modifierName": "UNIQUE_Activity_TeamChain_UltGainEnergy_Handler",
          "doOffStage": true
        }
      ],
      "modifiers": {
        "UNIQUE_Activity_TeamChain_UltGainEnergy_Handler": {
          "isUnique": true,
          "modifierMixins": [
            {
              "$type": "OnAvatarUseSkillMixin",
              "clearSkillIdDelay": 0.2,
              "onTriggerUltimateSkill": [
                {
                  "$type": "ApplyModifier",
                  "target": "Self",
                  "doOffStage": true,
                  "modifierName": "UNIQUE_Activity_TeamChain_UltGainEnergy_Effect"
                }
              ]
            }
          ]
        },
        "UNIQUE_Activity_TeamChain_UltGainEnergy_Effect": {
          "duration": "%Duration",
          "isUnique": true,
          "stacking": "Refresh",
          "thinkInterval": "%Interval",
          "onThinkInterval": [
            {
              "$type": "ReviveElemEnergy",
              "value": "%Energy",
              "doOffStage": true
            }
          ]
        }
      }
    }
  },

  //5.每次触发草元素相关反应时，全队元素精通提升X点，持续X秒，至多叠加4层，独立计时
  {
    "Default": {
      "$type": "ConfigAbility",
      "abilityName": "Activity_TeamChain_GrassReaction_ElemMasteryDelta",
      "isDynamicAbility": true,
      "abilitySpecials": {
        "GrassReaction_ElemMasteryDelta": 0,
        "BuffTime": 0,
        "BuffMaxLevel": 0,
        "Multiple_CdTime": 0
      },
      "onAdded": [
        {
          "$type": "AttachModifier",
          "modifierName": "UNIQUE_TeamChain_GrassReaction_ElemMasteryDelta_Handler",
          "doOffStage": true
        }
      ],
      "modifiers": {
        "UNIQUE_TeamChain_GrassReaction_ElemMasteryDelta_Handler": {
          "isUnique": true,
          "modifierMixins": [
            {
              "$type": "DoActionByElementReactionMixin",
              "range": 20,
              "doOffStage": true,
              "entityTypes": ["Monster"],
              "reactionTypes": [
                "Burning",
                "Overdose",
                "Overgrow",
                "OverdoseGrass", //蔓激化
                "OverdoseElectric", //雷激化
                "OvergrowMushroomElectric", //雷蔓生
                "OvergrowMushroomFire"
              ],
              "actions": [
                {
                  "$type": "ApplyModifier",
                  "modifierName": "UNIQUE_TeamChain_GrassReaction_ElemMasteryDelta_Multiple_Handler",
                  "target": "Team", //叠层不能叠太快，有cd
                  "doOffStage": true
                }
              ]
            }
          ]
        },
        "UNIQUE_TeamChain_GrassReaction_ElemMasteryDelta_Multiple_Handler": {
          "isUnique": true,
          "stacking": "Unique",
          "duration": "%Multiple_CdTime",
          "onAdded": [
            {
              "$type": "ApplyModifier",
              "modifierName": "UNIQUE_TeamChain_GrassReaction_ElemMasteryDelta_MultipleEffect",
              "target": "CurTeamAvatars",
              "doOffStage": true
            }
          ]
        },
        "UNIQUE_TeamChain_GrassReaction_ElemMasteryDelta_MultipleEffect": {
          "isUnique": true,
          "duration": "%BuffTime",
          "state": "AttackUp",
          "stacking": "MultipleRefreshNoRemove",
          "properties": {
            "Actor_ElemMasteryDelta": "%GrassReaction_ElemMasteryDelta"
          },
          "stackingOption": {
            "maxModifierNumForMultipleType": "%BuffMaxLevel",
            "enableMixedUnique": true
          }
        }
      }
    }
  },
  //6.队伍中所有角色普攻造成的伤害提升A%,元素战技造成的伤害提升B%
  {
    "Default": {
      "$type": "ConfigAbility",
      "abilityName": "Activity_TeamChain_NormalAttackAndElementalArt_DamageUp",
      "isDynamicAbility": true,
      "abilitySpecials": {
        "NormalAttackRate": 0,
        "ElementalArtRate": 0
      },
      "onAdded": [
        {
          "$type": "ApplyModifier",
          "modifierName": "UNIQUE_TeamChain_NormalAttackAndElementalArt_DamageUp"
        }
      ],
      "modifiers": {
        "UNIQUE_TeamChain_NormalAttackAndElementalArt_DamageUp": {
          "isUnique": true,
          "modifierMixins": [
            {
              "$type": "ModifyDamageMixin",
              "damagePercentageRatio": "%NormalAttackRate",
              "attackTags": [
                "NormalAttack_01",
                "NormalAttack_02",
                "NormalAttack_03",
                "NormalAttack_04",
                "NormalAttack_05",
                "NormalAttack_06"
              ]
            },
            {
              "$type": "ModifyDamageMixin",
              "damagePercentageRatio": "%ElementalArtRate",
              "attackTags": [
                "Elemental_Art",
                "Elemental_Art_Hold",
                "Elemental_Art_Extra"
              ]
            }
          ]
        }
      }
    }
  },
  //7.下落攻击伤害提高xx%，且在下落攻击命中时触发风眼
  {
    "Default": {
      "$type": "ConfigAbility",
      "abilityName": "Activity_TeamChain_FallingWindZone",
      "isDynamicAbility": true,
      "abilitySpecials": {
        "FallingDamageUp": 0,
        "WindZone_CD": 0
      },
      "onAdded": [
        {
          "$type": "AttachModifier",
          "modifierName": "UNIQUE_TeamChain_FallingWindZone_Handler",
          "target": "Self"
        }
      ],
      "modifiers": {
        "UNIQUE_TeamChain_FallingWindZone_Handler": {
          "isUnique": true,
          "modifierMixins": [
            {
              "$type": "ModifyDamageMixin", //伤害调整
              "attackTags": ["FallingAttack"],
              "damagePercentageRatio": "%FallingDamageUp"
            }
          ],
          "onAttackLanded": [
            {
              "$type": "Predicated",
              "target": "Other",
              "targetPredicates": [
                {
                  "$type": "ByEntityTypes",
                  "entityTypes": ["Monster"]
                },
                {
                  "$type": "ByTargetGlobalValue",
                  "target": "Team",
                  "key": "RogueV2_FallingWindZone_CD",
                  "value": 0,
                  "compareType": "NoneOrEqual"
                },
                {
                  "$type": "ByAttackTags",
                  "target": "Self",
                  "attackTags": ["FallingAttack"]
                } //下落攻击
              ],
              "successActions": [
                {
                  "$type": "ApplyModifier",
                  "modifierName": "TeamChain_FallingWindZone_WindZoneEffect",
                  "doOffStage": true
                }
              ]
            }
          ]
        },
        "TeamChain_FallingWindZone_WindZoneEffect": {
          "duration": 0.2, //表现上做了个延迟
          "onAdded": [],
          "onRemoved": [
            //产生风场
            {
              "$type": "CreateGadget",
              "gadgetID": 44000428,
              "doOffStage": true,
              "campID": 1001,
              "campTargetType": "Enemy",
              "born": {
                "$type": "ConfigBornBySelf",
                "offset": {
                  "x": 0.0,
                  "y": 0.5,
                  "z": 0.0
                }
              }
            },
            //进CD
            {
              "$type": "ApplyModifier",
              "modifierName": "UNIQUE_TeamChain_FallingWindZone_WindZone_CD",
              "target": "Team",
              "doOffStage": true
            }
          ]
        },
        "UNIQUE_TeamChain_FallingWindZone_WindZone_CD": {
          "isUnique": true,
          "stacking": "Unique",
          "duration": "%WindZone_CD",
          "onAdded": [
            {
              "$type": "SetGlobalValue",
              "key": "RogueV2_FallingWindZone_CD",
              "value": -1
            }
          ],
          "onRemoved": [
            {
              "$type": "SetGlobalValue",
              "key": "RogueV2_FallingWindZone_CD",
              "value": 0
            }
          ]
        }
      }
    }
  },

  //8.对敌人触发扩散反应时，全队造成伤害提升X%，持续X秒，重复触发刷新时间
  {
    "Default": {
      "$type": "ConfigAbility",
      "abilityName": "Activity_TeamChain_Mastery_DamageUp",
      "isDynamicAbility": true,
      "abilitySpecials": {
        "DamageUpTime": 0,
        "DamageUpRatio": 0
      },
      "onAdded": [
        {
          "$type": "AttachModifier",
          "modifierName": "UNIQUE_TeamChain_Mastery_DamageUp",
          "target": "Self",
          "doOffStage": true
        }
      ],
      "modifiers": {
        "UNIQUE_TeamChain_Mastery_DamageUp": {
          "isUnique": true,
          "modifierMixins": [
            {
              "$type": "DoActionByElementReactionMixin",
              "range": 20,
              "entityTypes": ["Monster"],
              "reactionTypes": [
                "SwirlFire",
                "SwirlElectric",
                "SwirlWater",
                "SwirlIce"
              ],
              "actions": [
                {
                  "$type": "AttachModifier",
                  "target": "CurTeamAvatars",
                  "modifierName": "TeamChain_Mastery_BuffEffect",
                  "doOffStage": true
                }
              ]
            }
          ]
        }, //判断是否发生了扩散反应
        "TeamChain_Mastery_BuffEffect": {
          "stacking": "Refresh",
          "duration": "%DamageUpTime",
          "modifierMixins": [
            {
              "$type": "ModifyDamageMixin",
              "ignoreEventInfo": true,
              "damagePercentageRatio": "%DamageUpRatio"
            }
          ]
        }
      }
    }
  },
  //9.普通攻击速度提升X%
  {
    "Default": {
      "$type": "ConfigAbility",
      "abilityName": "Activity_TeamChain_AttackSpeedRatio",
      "isDynamicAbility": true,
      "abilitySpecials": {
        "AttackSpeedRatio": 0
      },
      "onAdded": [
        {
          "$type": "AttachModifier",
          "modifierName": "UNIQUE_Activity_TeamChain_AttackSpeedRatio",
          "target": "Self"
        }
      ],
      "modifiers": {
        "UNIQUE_Activity_TeamChain_AttackSpeedRatio": {
          "isLimitedProperties": true,
          "stacking": "Unique",
          "isUnique": true,
          "properties": {
            "Animator_AttackSpeedRatio": "%AttackSpeedRatio"
          }
        }
      }
    }
  },
  //10.角色普通攻击造成的伤害提升
  {
    "Default": {
      "$type": "ConfigAbility",
      "abilityName": "Activity_TeamChain_NormalAttackDamageUp",
      "isDynamicAbility": true,
      "abilitySpecials": {
        "Rate": 0
      },
      "onAdded": [
        {
          "$type": "ApplyModifier",
          "modifierName": "UNIQUE_TeamChain_NormalAttackDamageUp"
        }
      ],
      "modifiers": {
        "UNIQUE_TeamChain_NormalAttackDamageUp": {
          "isUnique": true,
          "modifierMixins": [
            {
              "$type": "ModifyDamageMixin",
              "damagePercentageRatio": "%Rate",
              "attackTags": [
                "NormalAttack_01",
                "NormalAttack_02",
                "NormalAttack_03",
                "NormalAttack_04",
                "NormalAttack_05",
                "NormalAttack_06"
              ]
            }
          ]
        }
      }
    }
  },
  //11.所有角色攻击力提升X%
  {
    "Default": {
      "$type": "ConfigAbility",
      "abilityName": "Activity_TeamChain_AttackRatio",
      "isDynamicAbility": true,
      "abilitySpecials": {
        "AttackRatio": 0
      },
      "onAdded": [
        {
          "$type": "AttachModifier",
          "modifierName": "UNIQUE_Activity_TeamChain_AttackRatio",
          "target": "Self"
        }
      ],
      "modifiers": {
        "UNIQUE_Activity_TeamChain_AttackRatio": {
          "isLimitedProperties": true,
          "stacking": "Unique",
          "isUnique": true,
          "properties": {
            "Actor_AttackRatio": "%AttackRatio"
          }
        }
      }
    }
  },
  //12.所有角色暴击伤害提升X%
  {
    "Default": {
      "$type": "ConfigAbility",
      "abilityName": "Activity_TeamChain_CriticalHurtDelta",
      "isDynamicAbility": true,
      "abilitySpecials": {
        "CriticalHurt": 0
      },
      "onAdded": [
        {
          "$type": "AttachModifier",
          "modifierName": "UNIQUE_Activity_TeamChain_CriticalHurtDelta",
          "target": "Self"
        }
      ],
      "modifiers": {
        "UNIQUE_Activity_TeamChain_CriticalHurtDelta": {
          "isLimitedProperties": true,
          "stacking": "Unique",
          "isUnique": true,
          "properties": {
            "Actor_CriticalHurtDelta": "%CriticalHurt"
          }
        }
      }
    }
  },
  //13.所有角色元素精通提升XX点
  {
    "Default": {
      "$type": "ConfigAbility",
      "abilityName": "Activity_TeamChain_ElemMasteryDeltaUp",
      "isDynamicAbility": true,
      "abilitySpecials": {
        "ElemMasteryDelta": 0
      },
      "onAdded": [
        {
          "$type": "AttachModifier",
          "modifierName": "UNIQUE_Activity_TeamChain_ElemMasteryDeltaUp",
          "target": "Self"
        }
      ],
      "modifiers": {
        "UNIQUE_Activity_TeamChain_ElemMasteryDeltaUp": {
          "isLimitedProperties": true,
          "stacking": "Unique",
          "isUnique": true,
          "properties": {
            "Actor_ElemMasteryDelta": "%ElemMasteryDelta"
          }
        }
      }
    }
  },
  //14.队伍中所有角色元素爆发造成的伤害提升
  {
    "Default": {
      "$type": "ConfigAbility",
      "abilityName": "Activity_TeamChain_BurstDamageUp",
      "isDynamicAbility": true,
      "abilitySpecials": {
        "Rate": 0
      },
      "onAdded": [
        {
          "$type": "ApplyModifier",
          "modifierName": "UNIQUE_TeamChain_BurstDamageUp"
        }
      ],
      "modifiers": {
        "UNIQUE_TeamChain_BurstDamageUp": {
          "isUnique": true,
          "modifierMixins": [
            {
              "$type": "ModifyDamageMixin",
              "damagePercentageRatio": "%Rate",
              "attackTags": ["Elemental_Burst"]
            }
          ]
        }
      }
    }
  },

  //15.风元素增伤
  {
    "Default": {
      "$type": "ConfigAbility",
      "abilityName": "Activity_TeamChain_ElementAddHurt_Wind",
      "isDynamicAbility": true,
      "abilitySpecials": {
        "ElementAddHurt": 0
      },
      "onAdded": [
        {
          "$type": "AttachModifier",
          "modifierName": "UNIQUE_Activity_TeamChain_ElementAddHurt_Wind",
          "target": "Self"
        }
      ],
      "modifiers": {
        "UNIQUE_Activity_TeamChain_ElementAddHurt_Wind": {
          "isLimitedProperties": true,
          "stacking": "Unique",
          "isUnique": true,
          "properties": {
            "Actor_WindAddHurtDelta": "%ElementAddHurt"
          }
        }
      }
    }
  },

  //16.火元素增伤
  {
    "Default": {
      "$type": "ConfigAbility",
      "abilityName": "Activity_TeamChain_ElementAddHurt_Fire",
      "isDynamicAbility": true,
      "abilitySpecials": {
        "ElementAddHurt": 0
      },
      "onAdded": [
        {
          "$type": "AttachModifier",
          "modifierName": "UNIQUE_Activity_TeamChain_ElementAddHurt_Fire",
          "target": "Self"
        }
      ],
      "modifiers": {
        "UNIQUE_Activity_TeamChain_ElementAddHurt_Fire": {
          "isLimitedProperties": true,
          "stacking": "Unique",
          "isUnique": true,
          "properties": {
            "Actor_FireAddHurtDelta": "%ElementAddHurt"
          }
        }
      }
    }
  },

  //17.雷元素增伤
  {
    "Default": {
      "$type": "ConfigAbility",
      "abilityName": "Activity_TeamChain_ElementAddHurt_Elec",
      "isDynamicAbility": true,
      "abilitySpecials": {
        "ElementAddHurt": 0
      },
      "onAdded": [
        {
          "$type": "AttachModifier",
          "modifierName": "UNIQUE_Activity_TeamChain_ElementAddHurt_Elec",
          "target": "Self"
        }
      ],
      "modifiers": {
        "UNIQUE_Activity_TeamChain_ElementAddHurt_Elec": {
          "isLimitedProperties": true,
          "stacking": "Unique",
          "isUnique": true,
          "properties": {
            "Actor_ElecAddHurtDelta": "%ElementAddHurt"
          }
        }
      }
    }
  },

  //18.水元素增伤
  {
    "Default": {
      "$type": "ConfigAbility",
      "abilityName": "Activity_TeamChain_ElementAddHurt_Water",
      "isDynamicAbility": true,
      "abilitySpecials": {
        "ElementAddHurt": 0
      },
      "onAdded": [
        {
          "$type": "AttachModifier",
          "modifierName": "UNIQUE_Activity_TeamChain_ElementAddHurt_Water",
          "target": "Self"
        }
      ],
      "modifiers": {
        "UNIQUE_Activity_TeamChain_ElementAddHurt_Water": {
          "isLimitedProperties": true,
          "stacking": "Unique",
          "isUnique": true,
          "properties": {
            "Actor_WaterAddHurtDelta": "%ElementAddHurt"
          }
        }
      }
    }
  },

  //19.草元素增伤
  {
    "Default": {
      "$type": "ConfigAbility",
      "abilityName": "Activity_TeamChain_ElementAddHurt_Grass",
      "isDynamicAbility": true,
      "abilitySpecials": {
        "ElementAddHurt": 0
      },
      "onAdded": [
        {
          "$type": "AttachModifier",
          "modifierName": "UNIQUE_Activity_TeamChain_ElementAddHurt_Grass",
          "target": "Self"
        }
      ],
      "modifiers": {
        "UNIQUE_Activity_TeamChain_ElementAddHurt_Grass": {
          "isLimitedProperties": true,
          "stacking": "Unique",
          "isUnique": true,
          "properties": {
            "Actor_GrassAddHurtDelta": "%ElementAddHurt"
          }
        }
      }
    }
  },

  //20.冰元素增伤
  {
    "Default": {
      "$type": "ConfigAbility",
      "abilityName": "Activity_TeamChain_ElementAddHurt_Ice",
      "isDynamicAbility": true,
      "abilitySpecials": {
        "ElementAddHurt": 0
      },
      "onAdded": [
        {
          "$type": "AttachModifier",
          "modifierName": "UNIQUE_Activity_TeamChain_ElementAddHurt_Ice",
          "target": "Self"
        }
      ],
      "modifiers": {
        "UNIQUE_Activity_TeamChain_ElementAddHurt_Ice": {
          "isLimitedProperties": true,
          "stacking": "Unique",
          "isUnique": true,
          "properties": {
            "Actor_IceAddHurtDelta": "%ElementAddHurt"
          }
        }
      }
    }
  }
]
