{
  "$type": "ConfigMonster",
  "common": {
    "mass": 9999999.0,
    "scale": 1.0,
    "affectedByWorld": true,
    "checkInSurface": true,
    "height": 1,
    "effectAttachShape": {
      "$type": "ConfigEffectAttachSkinnedMesh",
      "mesh": "EffectMesh"
    },
    "useGrassDisplacement": true,
    "clearAnimatorOnSetLightDeactive": true,
    "clearAIOnSetLightDeactive": true,
    "disableTickDistance": 1000
  },
  "dither": {
    "showDitherDuration": 1.0
  },
  "model": {
    "canBakeMesh": false
  },
  "combat": {
    "property": {
      "weight": 110,
      "endureType": "Monster_Demiboss_Other"
    },
    "combatLock": {
      "denyLockOn": false,
      "lockType": "Avatar&Monster_Lv4"
    },
    "beHit": {
      "hitBloodEffect": "",
      "muteAllHit": false,
      "muteAllHitEffect": false,
      "muteAllHitText": false
    },
    "die": {
      "dieDisappearEffect": "",
      "dieEndTime": 2.4,
      "dieForceDisappearTime": 5,
      "useRagDoll": false
    },
    "animEvents": {
      "MeleeAttack1": {
        "attackPattern": {
          "$type": "ConfigAttackCircle",
          "triggerType": "TriggerNoRepeat",
          "radius": 4,
          "fanAngle": 180,
          "height": 5,
          "born": {
            "$type": "ConfigBornBySelf",
            "offset": {
              "x": 0.0,
              "y": -1,
              "z": 1
            }
          }
        },
        "attackInfo": {
          "attackProperty": {
            "damagePercentage": 0.5,
            "strikeType": "Blunt",
            "overrideByWeapon": false,
            "attackType": "Melee",
            "elementType": "None",
            "elementDurability": 50,
            "enBreak": 101
          },
          "hitPattern": {
            "onHitEffectName": "default",
            "hitImpulseType": "LV2",
            "canBeDefenceHalt": true,
            "muteHitText": false,
            "retreatType": "ByHitDirection"
          }
        }
      },
      "MeleeAttack2": {
        "attackPattern": {
          "$type": "ConfigAttackBox",
          "triggerType": "TriggerNoRepeat",
          "size": {
            "x": 2,
            "y": 5,
            "z": 4
          },
          "born": {
            "$type": "ConfigBornBySelf",
            "offset": {
              "x": 0.0,
              "y": 2.3,
              "z": 0
            }
          }
        },
        "attackInfo": {
          "attackProperty": {
            "damagePercentage": 0.5,
            "strikeType": "Blunt",
            "overrideByWeapon": false,
            "attackType": "Melee",
            "elementType": "None",
            "elementDurability": 50,
            "enBreak": 101
          },
          "hitPattern": {
            "onHitEffectName": "default",
            "hitImpulseType": "LV2",
            "canBeDefenceHalt": true,
            "muteHitText": false,
            "retreatType": "ByHitDirection"
          }
        }
      },
      "MeleeAttack3": {
        "attackPattern": {
          "$type": "ConfigAttackCircle",
          "triggerType": "TriggerNoRepeat",
          "radius": 6,
          "height": 5,
          "born": {
            "$type": "ConfigBornBySelf",
            "offset": {
              "x": 0.0,
              "y": -1,
              "z": 1.5
            }
          }
        },
        "attackInfo": {
          "attackProperty": {
            "damagePercentage": 0.35,
            "strikeType": "Blunt",
            "overrideByWeapon": false,
            "attackType": "Melee",
            "elementType": "None",
            "elementDurability": 50,
            "enBreak": 101
          },
          "hitPattern": {
            "onHitEffectName": "default",
            "hitImpulseType": "LV3",
            "canBeDefenceHalt": true,
            "muteHitText": false,
            "retreatType": "ByHitDirection"
          }
        }
      },
      "DodgeCameraShake": {
        "attackPattern": {
          "$type": "ConfigAttackBox",
          "triggerType": "TriggerNoRepeat",
          "size": {
            "x": 0.1,
            "y": 0.1,
            "z": 0.1
          },
          "born": {
            "$type": "ConfigBornBySelf"
          },
          "ignoreMassive": true
        },
        "attackInfo": {
          "attackProperty": {
            "damagePercentage": 0,
            "elementDurability": 0
          },
          "hitPattern": {
            "onHitEffectName": "none",
            "hitImpulseType": "LV0",
            "reboundRatio": 0,
            "hitHaltTime": 0.0,
            "hitHaltTimeScale": 0.05,
            "muteHitText": false
          },
          "forceCameraShake": true,
          "cameraShake": {
            "shakeRange": 0.125,
            "shakeTime": 1.0,
            "shakeDistance": 35,
            "shakeType": "CustomVector",
            "shakeDir": {
              "x": 0,
              "y": 1,
              "z": 0
            },
            "extension": {
              "baseOnCamera": true,
              "rangeAttenuation": 0.0
            }
          }
        }
      },
      "RushAtk": {
        "attackPattern": {
          "$type": "ConfigAttackCircle",
          "triggerType": "TriggerNoRepeat",
          "radius": 3,
          "height": 5,
          "born": {
            "$type": "ConfigBornBySelf",
            "offset": {
              "x": 0.0,
              "y": -1,
              "z": 1
            }
          }
        },
        "attackInfo": {
          "attackTag": "Monster_BladeMaster_BeBlockAttack",
          "attackProperty": {
            "damagePercentage": 0.3,
            "strikeType": "Blunt",
            "overrideByWeapon": false,
            "attackType": "Melee",
            "elementType": "None",
            "elementDurability": 50,
            "enBreak": 101
          },
          "hitPattern": {
            "onHitEffectName": "default",
            "hitImpulseType": "LV3",
            "canBeDefenceHalt": true,
            "muteHitText": false,
            "retreatType": "ByHitDirection"
          }
        }
      },
      "RushAtkFinal": {
        "attackPattern": {
          "$type": "ConfigAttackCircle",
          "triggerType": "TriggerNoRepeat",
          "radius": 4,
          "height": 5,
          "born": {
            "$type": "ConfigBornBySelf",
            "offset": {
              "x": 0.0,
              "y": -1,
              "z": -1
            }
          }
        },
        "attackInfo": {
          "attackTag": "Monster_BladeMaster_BeBlockAttack",
          "attackProperty": {
            "damagePercentage": 1,
            "strikeType": "Blunt",
            "overrideByWeapon": false,
            "attackType": "Melee",
            "elementType": "None",
            "elementDurability": 50,
            "enBreak": 101
          },
          "hitPattern": {
            "onHitEffectName": "default",
            "hitImpulseType": "LV3",
            "canBeDefenceHalt": true,
            "muteHitText": false,
            "retreatType": "ByHitDirection"
          }
        }
      }
    }
  },
  "billboard": {
    "$type": "ConfigCombatBillboard",
    "offset": {
      "x": 0.0,
      "y": 0.8,
      "z": 0
    },
    "radiusOffset": 0.2,
    "showHPBar": true,
    "size": "Normal"
  },
  "stateLayers": {
    "defaultLayer": {
      "$type": "ConfigNormalStateLayer",
      "stateIDs": {
        "Born": {
          "$type": "ConfigMonsterStateIDInfo",
          "animatorStates": {
            "Born": [""]
          },
          "resetAnimatorTriggerOnExit": ["DoSkill"]
        },
        "NormalIdle": {
          "$type": "ConfigMonsterStateIDInfo",
          "animatorStates": {
            "Standby": [""],
            "Sit": [""]
          },
          "canDoSkill": true,
          "canSyncMove": true,
          "resetAnimatorTriggerOnExit": ["DoSkill"]
        },
        "NormalMove": {
          "$type": "ConfigMonsterStateIDInfo",
          "animatorStates": {
            "Walk": ["Audio_Monster_Inu_Walk"],
            "Run": ["Audio_Monster_Inu_Walk"]
          },
          "canDoSkill": true,
          "canSteer": true,
          "canSyncMove": true,
          "resetAnimatorTriggerOnExit": ["DoSkill"]
        },
        "Alert": {
          "$type": "ConfigMonsterStateIDInfo",
          "animatorStates": {
            "Alert": ["", "Audio_Monster_Inu_Alert"]
          },

          "resetAnimatorTriggerOnExit": ["BeHit", "DoSkill", "AlertHitTrigger"]
        },
        "Alert_ToBeBig": {
          "$type": "ConfigMonsterStateIDInfo",
          "animatorStates": {
            "Alert_ToBeBig": [
              "Animal_Inu_Shihandai_ToBig",
              "Audio_Monster_Inu_Alert_ToBeBig"
            ]
          },

          "resetAnimatorTriggerOnExit": ["BeHit", "DoSkill", "AlertHitTrigger"]
        },
        "Die": {
          "$type": "ConfigMonsterStateIDInfo",
          "animatorStates": {
            "Die": ["Animal_Inu_Shihandai_Die", "Audio_Monster_Inu_Die"]
          },
          "canDoSkill": false,
          "canSteer": true,
          "canSyncMove": true,
          "resetAnimatorTriggerOnExit": ["DoSkill"]
        },
        "Blink_BS": {
          "$type": "ConfigMonsterStateIDInfo",
          "animatorStates": {
            "Blink_BS": [
              "Animal_Inu_Shihandai_BossBlinkBS",
              "Audio_Tanuki_Blink_BS"
            ]
          },
          "canSteer": true,
          "autoSteer": false,
          "resetAnimatorTriggerOnExit": ["BeHit", "DoSkill"]
        },
        "Blink_During": {
          "$type": "ConfigMonsterStateIDInfo",
          "animatorStates": {
            "Blink_During": ["", "Audio_Tanuki_Blink_BS"]
          },
          "canSteer": true,
          "autoSteer": false,
          "resetAnimatorTriggerOnExit": ["BeHit", "DoSkill"]
        },
        "Blink_AS": {
          "$type": "ConfigMonsterStateIDInfo",
          "animatorStates": {
            "Blink_AS": ["", "Audio_Monster_Inu_HappyBink_AS"]
          },
          "canSteer": true,
          "autoSteer": false,
          "resetAnimatorTriggerOnExit": ["BeHit", "DoSkill"]
        },
        "OutOfBattle": {
          "$type": "ConfigMonsterStateIDInfo",
          "animatorStates": {
            "OutOfBattle": ["", "Audio_Monster_Inu_OutBattle"]
          },
          "canSteer": true,
          "autoSteer": false,
          "resetAnimatorTriggerOnExit": ["BeHit", "DoSkill"]
        },
        "JumpAttack_ComboBS": {
          "$type": "ConfigMonsterStateIDInfo",
          "animatorStates": {
            "JumpAttack_ComboBS": []
          },
          "canSteer": true,
          "canDoSkill": false,
          "autoSteer": false,
          "addEndure": 0,
          "cullingModelAlwaysAnimate": true,
          "resetAnimatorTriggerOnExit": ["BeHit", "DoSkill"]
        },
        "JumpAttack_BS": {
          "$type": "ConfigMonsterStateIDInfo",
          "animatorStates": {
            "JumpAttack_BS": [
              "Animal_Inu_Shihandai_JumpAttack_BS",
              "Audio_Monster_Inu_Jump_BS"
            ]
          },
          "canSteer": true,
          "canDoSkill": false,
          "autoSteer": false,
          "addEndure": 0,
          "cullingModelAlwaysAnimate": true,
          "resetAnimatorTriggerOnExit": ["BeHit", "DoSkill"]
        },
        "JumpAttack_During": {
          "$type": "ConfigMonsterStateIDInfo",
          "animatorStates": {
            "JumpAttack_During": ["", "Audio_Tanuki_Blink_BS"]
          },
          "canSteer": true,
          "canDoSkill": false,
          "autoSteer": false,
          "addEndure": 0,
          "cullingModelAlwaysAnimate": true,
          "resetAnimatorTriggerOnExit": ["BeHit", "DoSkill"]
        },
        "JumpAttack_AS": {
          "$type": "ConfigMonsterStateIDInfo",
          "animatorStates": {
            "JumpAttack_AS": [
              "Monster_Inu_Shihandai_JumpAttackSP",
              "Animal_Inu_Shihandai_JumpAttackBig",
              "Audio_Monster_Inu_Jump_AS"
            ]
          },
          "canSteer": true,
          "canDoSkill": false,
          "autoSteer": false,
          "addEndure": 0,
          "resetAnimatorTriggerOnExit": ["BeHit", "DoSkill"]
        },
        "RangeAttack": {
          "$type": "ConfigMonsterStateIDInfo",
          "animatorStates": {
            "RangeAttack": [
              "Animal_Inu_Shihandai_RangeCounterBig",
              "Audio_Tanuki_Blink_BS"
            ]
          },
          "canSteer": true,
          "canDoSkill": false,
          "autoSteer": false,
          "resetAnimatorTriggerOnExit": ["BeHit", "DoSkill"]
        },
        "CounterAttack": {
          "$type": "ConfigMonsterStateIDInfo",
          "animatorStates": {
            "CounterAttack": [
              "Animal_Inu_Shihandai_RangeCounterBig",
              "Audio_Monster_Inu_Bink_Attack"
            ]
          },
          "canSteer": true,
          "canDoSkill": false,
          "autoSteer": false,
          "resetAnimatorTriggerOnExit": ["BeHit", "DoSkill"]
        },
        "RangeBlade": {
          "$type": "ConfigMonsterStateIDInfo",
          "animatorStates": {
            "RangeBlade": [
              "Animal_Inu_Shihandai_RangeBlade",
              "Animal_Inu_Shihandai_RangeBlade_ChargeBig",
              "Audio_Monster_Inu_RangeBlade"
            ]
          },
          "canSteer": true,
          "canDoSkill": false,
          "autoSteer": false,
          "resetAnimatorTriggerOnExit": ["BeHit", "DoSkill"]
        },
        "Break_BS": {
          "$type": "ConfigMonsterStateIDInfo",
          "animatorStates": {
            "Break_BS": ["", "Audio_Monster_Inu_BeCaptured_BS"]
          },
          "canSteer": true,
          "canDoSkill": false,
          "autoSteer": false,
          "resetAnimatorTriggerOnExit": ["BeHit", "DoSkill"]
        },
        "Break_Loop": {
          "$type": "ConfigMonsterStateIDInfo",
          "animatorStates": {
            "Break_Loop": ["", "Audio_Tanuki_Blink_BS"]
          },
          "canSteer": true,
          "canDoSkill": false,
          "autoSteer": false,
          "resetAnimatorTriggerOnExit": ["BeHit", "DoSkill"]
        },
        "Break_AS": {
          "$type": "ConfigMonsterStateIDInfo",
          "animatorStates": {
            "Break_AS": ["", "Audio_Monster_Inu_BeCaptured_AS"]
          },
          "canSteer": true,
          "canDoSkill": false,
          "autoSteer": false,
          "resetAnimatorTriggerOnExit": ["BeHit", "DoSkill"]
        },
        "MeleeAttack_1": {
          "$type": "ConfigMonsterStateIDInfo",
          "animatorStates": {
            "MeleeAttack1": [
              "Animal_Inu_Shihandai_MeleeAttack1",
              "Animal_Inu_Shihandai_MeleeAttackCharge",
              "Audio_Monster_Inu_MeleeAttack"
            ]
          },
          "canSteer": true,
          "canDoSkill": false,
          "autoSteer": false,
          "resetAnimatorTriggerOnExit": ["BeHit", "DoSkill"]
        },
        "MeleeAttack_2": {
          "$type": "ConfigMonsterStateIDInfo",
          "animatorStates": {
            "MeleeAttack2": [
              "Animal_Inu_Shihandai_MeleeAttack2",
              "Audio_Monster_Inu_MeleeAttack2"
            ]
          },
          "canSteer": true,
          "canDoSkill": false,
          "autoSteer": false,
          "resetAnimatorTriggerOnExit": ["BeHit", "DoSkill"]
        },
        "MeleeAttack_3": {
          "$type": "ConfigMonsterStateIDInfo",
          "animatorStates": {
            "MeleeAttack3": [
              "Animal_Inu_Shihandai_MeleeAttack3",
              "Audio_Monster_Inu_MeleeAttack3"
            ]
          },
          "canSteer": true,
          "canDoSkill": false,
          "autoSteer": false,
          "resetAnimatorTriggerOnExit": ["BeHit", "DoSkill"]
        },
        "MeleeAttack_4": {
          "$type": "ConfigMonsterStateIDInfo",
          "animatorStates": {
            "MeleeAttack4": [
              "Animal_Inu_Shihandai_MeleeAttack1",
              "Animal_Inu_Shihandai_MeleeAttackCharge",
              "Audio_Monster_Inu_MeleeAttack"
            ]
          },
          "canSteer": true,
          "canDoSkill": false,
          "autoSteer": false,
          "resetAnimatorTriggerOnExit": ["BeHit", "DoSkill"]
        },
        "Block": {
          "$type": "ConfigMonsterStateIDInfo",
          "animatorStates": {
            "Block1": [
              "Animal_Inu_Shihandai_BladeMaster_Block",
              "Audio_Monster_Homeworld_Inu_Dodge01"
            ],
            "Block2": [
              "Animal_Inu_Shihandai_BladeMaster_Block",
              "Audio_Monster_Homeworld_Inu_Dodge02"
            ],
            "Block3": [
              "Animal_Inu_Shihandai_BladeMaster_Block",
              "Audio_Monster_Homeworld_Inu_Dodge03"
            ]
          },
          "canSteer": false,
          "canDoSkill": false,
          "autoSteer": false,
          "resetAnimatorTriggerOnExit": ["BeHit", "DoSkill"]
        },
        "RushAtk_Prepare": {
          "$type": "ConfigMonsterStateIDInfo",
          "animatorStates": {
            "RushAtk_Prepare": [
              "Animal_Inu_Shihandai_BladeMaster_Rush_Prepare",
              "Audio_Monster_Inu_Alert"
            ]
          },
          "canSteer": true,
          "canDoSkill": false,
          "autoSteer": false,
          "resetAnimatorTriggerOnExit": ["BeHit", "DoSkill"]
        },
        "RushAttack_BS": {
          "$type": "ConfigMonsterStateIDInfo",
          "animatorStates": {
            "RushAttack_BS": [
              "Animal_Inu_Shihandai_RushBS",
              "Audio_Tanuki_Blink_BS"
            ]
          },
          "canSteer": true,
          "canDoSkill": false,
          "autoSteer": false,
          "resetAnimatorTriggerOnExit": ["BeHit", "DoSkill"]
        },
        "RushAttack_Loop": {
          "$type": "ConfigMonsterStateIDInfo",
          "animatorStates": {
            "RushAttack_Loop": [
              "Animal_Inu_Shihandai_BladeMaster_RushAtk",
              "Audio_Monster_Inu_RushAttack_Loop"
            ]
          },
          "canSteer": true,
          "canDoSkill": false,
          "autoSteer": false,
          "resetAnimatorTriggerOnExit": ["BeHit", "DoSkill"]
        },
        "RushAttack_AS": {
          "$type": "ConfigMonsterStateIDInfo",
          "animatorStates": {
            "RushAttack_AS": [
              "Animal_Inu_Shihandai_BladeMaster_RushHint",
              "Animal_Inu_Shihandai_RushAS_Effect",
              "Audio_Monster_Inu_RushAttack_AS"
            ]
          },
          "canSteer": true,
          "canDoSkill": false,
          "autoSteer": false,
          "resetAnimatorTriggerOnExit": ["BeHit", "DoSkill"]
        },
        "RushBreak_BS": {
          "$type": "ConfigMonsterStateIDInfo",
          "animatorStates": {
            "RushBreak_BS": ["", "Audio_Monster_Inu_BeCaptured_BS"]
          },
          "canSteer": false,
          "canDoSkill": false,
          "autoSteer": false,
          "resetAnimatorTriggerOnExit": ["BeHit", "DoSkill"]
        },
        "RushBreak_Loop": {
          "$type": "ConfigMonsterStateIDInfo",
          "animatorStates": {
            "RushBreak_Loop": ["", "Audio_Tanuki_Blink_BS"]
          },
          "canSteer": false,
          "canDoSkill": false,
          "autoSteer": false,
          "resetAnimatorTriggerOnExit": ["BeHit", "DoSkill"],
          "resetAnimatorTriggerOnEnter": ["RushHit"]
        },
        "RushBreak_AS": {
          "$type": "ConfigMonsterStateIDInfo",
          "animatorStates": {
            "RushBreak_AS": ["", "Audio_Monster_Inu_BeCaptured_AS"]
          },
          "canSteer": false,
          "canDoSkill": false,
          "autoSteer": false,
          "resetAnimatorTriggerOnExit": ["BeHit", "DoSkill"]
        }
      }
    }
  },
  "abilities": [
    {
      "abilityName": "Animal_Inu_Shihandai_Steer"
    },
    {
      "abilityName": "Animal_Inu_Shihandai_BladeMaster2_JumpAttack"
    },
    // {
    // 	"abilityName": "Animal_Inu_Shihandai_BossBuff"
    // },
    // {
    // 	"abilityName": "Animal_Inu_Shihandai_TrickDog"
    // },
    {
      "abilityName": "Animal_Inu_Shihandai_BossBlinkAttack"
    },
    {
      "abilityName": "Animal_Inu_Shihandai_AlertToBeBig"
    },
    {
      "abilityName": "Animal_Inu_Shihandai_Blink_FireRangeBlade"
    },
    {
      "abilityName": "Animal_Inu_Shihandai_RushAtk"
    },
    // {
    // 	"abilityName": "Animal_Inu_Shihandai_CounterAttackBig"
    // },
    {
      "abilityName": "Animal_Inu_Shihandai_RangeBlade_ChargeBig"
    },
    {
      "abilityName": "Animal_Inu_Shihandai_RushAtkAS_Charge"
    },
    {
      "abilityName": "Animal_Inu_Shihandai_JumpAttack_BladeEffectBig"
    },
    {
      "abilityName": "Animal_Inu_Shihandai_MeleeAttackCharge"
    },
    {
      "abilityName": "Animal_Inu_Shihandai_BossWeak"
    },
    {
      "abilityName": "Animal_Inu_Shihandai_BladeHintEffect"
    },
    {
      "abilityName": "Animal_Inu_Shihandai_ResistFrozen"
    },
    {
      "abilityName": "Animal_Inu_Shihandai_BladeMaster2_BlockDown"
    },
    {
      "abilityName": "Animal_Inu_Shihandai_BladeMaster_Block"
    },
    {
      "abilityName": "Animal_Inu_Shihandai_BladeMaster_ShakeCamera"
    },
    {
      "abilityName": "Animal_Inu_Shihandai_BladeMaster2_JumpAtkCombo"
    }
  ],
  "initialPoses": {
    "Default": {
      "initialPoseID": 0
    }
  },
  "aibeta": {
    "enable": true,
    //"friendliness": 1,
    "skillGCD": 2,
    //"decisionArchetype": "Animal",
    "sensing": {
      "settings": {
        "DefaultSetting": {
          "horizontalFov": 90,
          "verticalFov": 120,
          "viewRange": 15,
          "feelRange": 15,
          "useEyeTransformRotation": true
        },
        "LowAlert": {
          "horizontalFov": 30,
          "verticalFov": 45,
          "viewRange": 0,
          "feelRange": 0,
          "useEyeTransformRotation": true
        }
      },
      "templates": {
        "DefaultTemplate": {
          "DefaultPoses": "DefaultSetting",
          "1001": "DefaultSetting",
          "9001": "LowAlert"
        }
      }
    },
    "neurons": {
      "DefaultSetting": ["HIT"]
    },
    "defendArea": {
      "defendRange": 50
    },
    "threat": {
      "clearThreatEdgeDistance": 50,
      "clearThreatTargetDistance": 100,
      "clearThreatTimerByDistance": 10,
      "viewThreatGrow": 500,
      "feelThreatGrow": 500,
      "threatDecreaseSpeed": 500
    },
    "returnToBornTactic": {
      "enable": true,
      "defaultSetting": {
        "speedLevel": 0,
        "fadeoutBeginTime": 1.0,
        "fadeoutEndTime": 5
      }
    },
    "ui": {
      "hasDirectionIndicator": true
    },
    "wanderTactic": {
      "enable": false,
      "condition": {
        "pose": [2]
      },
      "defaultSetting": {
        "speedLevel": 1,
        "turnSpeedOverride": 0.75,
        "cdMin": 7.5,
        "cdMax": 7.5,
        "distanceFromBorn": 50,
        "distanceFromCurrentMin": 4,
        "distanceFromCurrentMax": 5
      }
    },
    "meleeChargeTactic": {
      "enable": true,
      "condition": {
        "pose": [101]
      },
      "defaultSetting": {
        "speedLevel": 1,
        "turnSpeedOverride": 10,
        "stopDistance": 7,
        "startDistanceMin": 7,
        "startDistanceMax": 50
      }
    },
    "skillGroupCDConfigs": [
      {
        "skillGroupCDID": 100,
        "skillGroupCDTime": 0.0
      }
    ],
    "skillSetting": {
      "skillEliteSet": {
        "1": [401, 501, 101],
        "2": [401, 301, 102],
        "3": [301, 102]
      }
    },
    "skills": {
      // Alert skills
      "1": {
        "priority": 1,
        "name": "OnAlert",
        "stateIDs": ["Alert"],
        "skillType": "OnAlert",
        "skillQueryingTime": 3,
        "triggerGCD": false,
        "ignoreGCD": true,
        "flagTargetReachable": "11",
        "flagTargetInZone": "11"
      },
      "101": {
        "cd": 10,
        "priority": 3,
        "cdUpperRange": 10,
        "initialCD": 5,
        "name": "JumpAttack",
        "ignoreGCD": false,
        "stateIDs": [
          "JumpAttack_BS",
          "JumpAttack_ComboBS",
          "JumpAttack_During",
          "JumpAttack_AS"
        ],
        "skillType": "Combat",
        //"faceTarget": true,
        "flagTargetReachable": "11",
        "flagTargetInZone": "11",
        "castCondition": {
          "pose": [101],
          "needReInitCD": true
        }
      },
      "102": {
        "cd": 0,
        "priority": 1,
        "name": "JumpAttack",
        "ignoreGCD": false,
        "stateIDs": [
          "JumpAttack_BS",
          "JumpAttack_ComboBS",
          "JumpAttack_During",
          "JumpAttack_AS"
        ],
        "skillType": "Combat",
        //"faceTarget": true,
        "flagTargetReachable": "11",
        "flagSelfInZone": "01",
        "flagTargetInZone": "11",
        "castCondition": {
          "pose": [101],
          "needReInitCD": true
        }
      },
      "301": {
        "cd": 10,
        "cdUpperRange": 5,
        "initialCD": 5,
        "priority": 3,
        "name": "RangeAttack",
        "stateIDs": ["RangeBlade"],
        "skillType": "Combat",
        //"faceTarget": true,
        "flagTargetReachable": "11",
        "flagTargetInZone": "11",
        "castCondition": {
          "pickRangeMax": 30,
          "pickRangeMin": 0,
          "pose": [101]
        }
      },
      "401": {
        "cd": 15,
        "cdUpperRange": 10,
        "initialCD": 5,
        "priority": 1,
        "name": "RushAttack",
        "stateIDs": [
          "RushAtk_Prepare",
          "RushAttack_BS",
          "RushAttack_Loop",
          "RushAttack_AS",
          "RushBreak_BS",
          "RushBreak_Loop",
          "RushBreak_AS"
        ],
        "skillType": "Combat",
        "flagTargetReachable": "11",
        "flagTargetInZone": "11",
        "castCondition": {
          "pickRangeMax": 50,
          "pickRangeMin": 5,
          "pose": [101]
        }
      },
      "501": {
        "cd": 2,
        "cdUpperRange": 1,
        "initialCD": 5,
        "priority": 2,
        "name": "MeleeAttack",
        "stateIDs": ["MeleeAttack1", "MeleeAttack2", "MeleeAttack3"],
        "skillType": "Combat",
        "enableSkillPrepare": true,
        "skillPrepareGiveUp": false,
        "skillPrepareTimeout": 3,
        "castCondition": {
          "pickRangeMax": 10,
          "pickRangeMin": 0,
          "castRangeMax": 3,
          "pose": [101]
        }
      }
      // "99999":
      // {
      // 	"cd": 15,
      // 	"priority": 1,
      // 	"ignoreGCD": true,
      // 	"triggerGCD": false,
      // 	"initialCD": 99999999,
      // 	"name": "Roar",
      // 	"stateIDs": ["ProtectBuff_BS","ProtectBuff_AS"],
      // 	"skillType": "Combat",
      // 	//"faceTarget": true,
      // 	"flagTargetReachable": "11",
      // 	"flagTargetInZone": "11",
      // 	"castCondition":
      // 	{
      // 		"pose": [101],
      // 	},
      // }
    }
  },
  "inputKeys": [
    //1
    {
      "keyID": 102,
      "inputKeyCode": 257
    },
    //2
    {
      "keyID": 2,
      "inputKeyCode": 258
    },
    //3
    {
      "keyID": 301,
      "inputKeyCode": 259
    },
    //4
    {
      "keyID": 401,
      "inputKeyCode": 260
    },
    //5
    {
      "keyID": 501,
      "inputKeyCode": 261
    },
    //6
    {
      "keyID": 99999,
      "inputKeyCode": 262
    }
  ]
}
