{
  "$type": "ConfigMonster",
  "common": {
    "mass": 10000.0,
    "affectedByWorld": true,
    "checkInSurface": true,
    "scale": 2.2,
    "viewSize": 1.5,
    "height": 2.3,
    "effectAttachShape": {
      "$type": "ConfigEffectAttachSkinnedMesh",
      "mesh": "EffectMesh"
    },
    "useGrassDisplacement": true,
    "clearAIOnSetLightDeactive": true,
    "reconnectSupport": true,
    "recoverByInitPose": true
  },
  "dither": {
    "showDitherDuration": 2.0
  },
  "move": {
    "$type": "ConfigAnimatorMove",
    "facingMove": "FourDirection",
    "monsterSizeType": "OtherType",
    "yawSpeedRatio": 1.0
  },
  "billboard": {
    "$type": "ConfigCombatBillboard",
    "offsetType": "Character",
    "offset": {
      "x": 0,
      "y": 0,
      "z": 0
    },
    "radiusOffset": 1.0,
    "enableSelfAdapt": false,
    "showHPBar": true,
    "size": "Big"
  },
  "model": {
    "canBakeMesh": false
  },
  "specialPoint": {
    "bulletAim": "Head"
  },
  "combat": {
    "property": {
      "weight": 150, //weightLevel = 3
      "endureType": "Monster_Demiboss_Other"
    },
    "combatLock": {
      "denyLockOn": false,
      "lockType": "Avatar&Monster_Lv4"
    },
    "beHit": {
      "hitBloodEffect": "",
      "muteAllHit": false,
      "muteAllHitEffect": false,
      "muteAllHitText": false,
      "hitAutoRedirect": false
    },
    "die": {
      "hasAnimatorDie": true,
      "dieShaderData": "None",
      "dieDisappearEffect": "Eff_Monster_Scorpion_Eremite_Fire_Die",
      "dieDisappearEffectDelay": 0.15,
      "dieEndTime": 0.15,
      "dieForceDisappearTime": 0.2,
      "muteHitBox": true,
      "dieDenyLockOn": true,
      "dieIsGhostToEnemy": true,
      "dieIgnoreTriggerBullet": true,
      "muteBillboard": true,
      "mutePushCollider": true
    },
    "animEvents": {
      "AtkNo": {
        "attackPattern": {
          "$type": "ConfigAttackCircle",
          "triggerType": "TriggerNoRepeat",
          "fanAngle": 60.0,
          "radius": 1.5,
          "born": {
            "$type": "ConfigBornBySelf",
            "offset": {
              "x": 0.0,
              "y": 0.0,
              "z": -0.5
            }
          }
        },
        "attackInfo": {
          "attackProperty": {
            "damagePercentage": 0.5,
            "strikeType": "Blunt",
            "attackType": "Melee"
          },
          "hitPattern": {
            "onHitEffectName": "default",
            "hitImpulseType": "LV2",
            "reboundRatio": 0,
            "hitHaltTime": 0.0,
            "hitHaltTimeScale": 0.01,
            "muteHitText": false
          }
        }
      },
      "Atk01_1": {
        "attackPattern": {
          "$type": "ConfigAttackCircle",
          "triggerType": "TriggerNoRepeat",
          "fanAngle": 90.0,
          "radius": 4.0,
          "height": 3,
          "born": {
            "$type": "ConfigBornBySelf",
            "offset": {
              "x": 0.0,
              "y": 0.0,
              "z": 0.0
            }
          }
        },
        "attackInfo": {
          "attackProperty": {
            "damagePercentage": 0.6,
            "strikeType": "Blunt",
            "attackType": "Melee",
            "enBreak": 100,
            "elementType": "Electric",
            "elementDurability": 30
          },
          "hitPattern": {
            "onHitEffectName": "default",
            "hitImpulseType": "LV3",
            "reboundRatio": 0,
            "hitHaltTime": 0.0,
            "hitHaltTimeScale": 0.01,
            "muteHitText": false
          }
        }
      },
      "Atk01_2": {
        "attackPattern": {
          "$type": "ConfigAttackCircle",
          "triggerType": "TriggerNoRepeat",
          "fanAngle": 90.0,
          "radius": 4.0,
          "height": 3,
          "born": {
            "$type": "ConfigBornBySelf",
            "offset": {
              "x": 0.0,
              "y": 0.0,
              "z": 0.0
            }
          }
        },
        "attackInfo": {
          "attackProperty": {
            "damagePercentage": 0.4,
            "strikeType": "Blunt",
            "attackType": "Melee",
            "enBreak": 100,
            "elementType": "Electric",
            "elementDurability": 30
          },
          "hitPattern": {
            "onHitEffectName": "default",
            "hitImpulseType": "LV3",
            "reboundRatio": 0,
            "hitHaltTime": 0.0,
            "hitHaltTimeScale": 0.01,
            "muteHitText": false
          }
        }
      },
      "SacredAttack01_Hit1": {
        "attackPattern": {
          "$type": "ConfigAttackBox",
          "triggerType": "TriggerNoRepeat",
          "size": {
            "x": 2,
            "y": 3,
            "z": 4
          },
          "born": {
            "$type": "ConfigBornBySelf",
            "offset": {
              "x": 1.0,
              "y": 0.0,
              "z": 4.0
            },
            "direction": {
              "$type": "ConfigDirectionByDefault",
              "angleOffset": {
                "x": 0,
                "y": -135,
                "z": 0
              }
            }
          }
        },
        "attackInfo": {
          "attackProperty": {
            "damagePercentage": 1.0,
            "strikeType": "Blunt",
            "attackType": "Melee",
            "enBreak": 200,
            "elementType": "Electric",
            "elementDurability": 30
          },
          "hitPattern": {
            "onHitEffectName": "default",
            "hitImpulseType": "LV3",
            "reboundRatio": 0,
            "hitHaltTime": 0.0,
            "hitHaltTimeScale": 0.01
          }
        }
      },
      "SacredAttack01_Hit2": {
        "attackPattern": {
          "$type": "ConfigAttackBox",
          "triggerType": "TriggerNoRepeat",
          "size": {
            "x": 2,
            "y": 3,
            "z": 4
          },
          "born": {
            "$type": "ConfigBornBySelf",
            "offset": {
              "x": 1.0,
              "y": 0.0,
              "z": 3.0
            },
            "direction": {
              "$type": "ConfigDirectionByDefault",
              "angleOffset": {
                "x": 0,
                "y": -45,
                "z": 0
              }
            }
          }
        },
        "attackInfo": {
          "attackProperty": {
            "damagePercentage": 1.0,
            "strikeType": "Blunt",
            "attackType": "Melee",
            "enBreak": 200,
            "elementType": "Electric",
            "elementDurability": 30
          },
          "hitPattern": {
            "onHitEffectName": "default",
            "hitImpulseType": "LV3",
            "reboundRatio": 0,
            "hitHaltTime": 0.0,
            "hitHaltTimeScale": 0.01
          }
        }
      },
      "SacredAttack01_Hit3": {
        "attackPattern": {
          "$type": "ConfigAttackCircle",
          "triggerType": "TriggerNoRepeat",
          "fanAngle": 360.0,
          "radius": 3.0,
          "height": 4,
          "born": {
            "$type": "ConfigBornBySelf",
            "offset": {
              "x": 0.0,
              "y": -1.0,
              "z": 2.0
            }
          }
        },
        "attackInfo": {
          "attackProperty": {
            "damagePercentage": 1.0,
            "strikeType": "Blunt",
            "attackType": "Melee",
            "enBreak": 200,
            "elementType": "Electric",
            "elementDurability": 30
          },
          "hitPattern": {
            "onHitEffectName": "default",
            "hitImpulseType": "LV4",
            "reboundRatio": 0,
            "hitHaltTime": 0.0,
            "hitHaltTimeScale": 0.01
          }
        }
      },
      "SacredAttack02": {
        "attackPattern": {
          "$type": "ConfigAttackCircle",
          "triggerType": "TriggerNoRepeat",
          "fanAngle": 360.0,
          "radius": 6.0,
          "height": 4,
          "born": {
            "$type": "ConfigBornBySelf",
            "offset": {
              "x": 0.0,
              "y": -1.0,
              "z": 0.0
            }
          }
        },
        "attackInfo": {
          "attackProperty": {
            "damagePercentage": 1.0,
            "strikeType": "Blunt",
            "attackType": "Melee",
            "enBreak": 200,
            "elementType": "Electric",
            "elementDurability": 30
          },
          "hitPattern": {
            "onHitEffectName": "default",
            "hitImpulseType": "LV5",
            "reboundRatio": 0,
            "hitHaltTime": 0.0,
            "hitHaltTimeScale": 0.01
          },
          "cameraShake": {
            "shakeType": "CustomVector",
            "shakeRange": 1,
            "shakeTime": 0.3,
            "shakeDistance": 30,
            "shakeDir": {
              "x": 0,
              "y": -1,
              "z": 0
            }
          }
        }
      },
      "SacredAttack03_Hit1": {
        "attackPattern": {
          "$type": "ConfigAttackCircle",
          "triggerType": "TriggerNoRepeat",
          "fanAngle": 360.0,
          "radius": 2.5,
          "height": 4,
          "born": {
            "$type": "ConfigBornBySelf",
            "offset": {
              "x": 0.0,
              "y": -1.0,
              "z": 3.5
            }
          }
        },
        "attackInfo": {
          "attackProperty": {
            "damagePercentage": 1.0,
            "strikeType": "Blunt",
            "attackType": "Melee",
            "enBreak": 200,
            "elementType": "Electric",
            "elementDurability": 30
          },
          "hitPattern": {
            "onHitEffectName": "default",
            "hitImpulseType": "LV4",
            "reboundRatio": 0,
            "hitHaltTime": 0.0,
            "hitHaltTimeScale": 0.01
          }
        }
      },
      "SacredAttack03_Hit2_1": {
        "attackPattern": {
          "$type": "ConfigAttackBox",
          "triggerType": "TriggerNoRepeat",
          "size": {
            "x": 2,
            "y": 3,
            "z": 3
          },
          "born": {
            "$type": "ConfigBornBySelf",
            "offset": {
              "x": 0.5,
              "y": 0.0,
              "z": 1.5
            }
          }
        },
        "attackInfo": {
          "attackProperty": {
            "damagePercentage": 1.0,
            "strikeType": "Blunt",
            "attackType": "Melee",
            "enBreak": 200,
            "elementType": "Electric",
            "elementDurability": 30
          },
          "hitPattern": {
            "onHitEffectName": "default",
            "hitImpulseType": "LV3",
            "reboundRatio": 0,
            "hitHaltTime": 0.0,
            "hitHaltTimeScale": 0.01
          }
        }
      },
      "SacredAttack03_Hit2_2": {
        "attackPattern": {
          "$type": "ConfigAttackBox",
          "triggerType": "TriggerNoRepeat",
          "size": {
            "x": 2,
            "y": 3,
            "z": 3
          },
          "born": {
            "$type": "ConfigBornBySelf",
            "offset": {
              "x": -0.5,
              "y": 0.0,
              "z": 1.5
            }
          }
        },
        "attackInfo": {
          "attackProperty": {
            "damagePercentage": 1.0,
            "strikeType": "Blunt",
            "attackType": "Melee",
            "enBreak": 200,
            "elementType": "Electric",
            "elementDurability": 30
          },
          "hitPattern": {
            "onHitEffectName": "default",
            "hitImpulseType": "LV3",
            "reboundRatio": 0,
            "hitHaltTime": 0.0,
            "hitHaltTimeScale": 0.01
          }
        }
      },
      "SacredAttack03_Hit2_3": {
        "attackPattern": {
          "$type": "ConfigAttackBox",
          "triggerType": "TriggerNoRepeat",
          "size": {
            "x": 2,
            "y": 3,
            "z": 3
          },
          "born": {
            "$type": "ConfigBornBySelf",
            "offset": {
              "x": 0.5,
              "y": 0.0,
              "z": 1.5
            }
          }
        },
        "attackInfo": {
          "attackProperty": {
            "damagePercentage": 1.0,
            "strikeType": "Blunt",
            "attackType": "Melee",
            "enBreak": 200,
            "elementType": "Electric",
            "elementDurability": 30
          },
          "hitPattern": {
            "onHitEffectName": "default",
            "hitImpulseType": "LV3",
            "reboundRatio": 0,
            "hitHaltTime": 0.0,
            "hitHaltTimeScale": 0.01
          }
        }
      },
      "SacredAttack03_Hit2_4": {
        "attackPattern": {
          "$type": "ConfigAttackBox",
          "triggerType": "TriggerNoRepeat",
          "size": {
            "x": 2,
            "y": 3,
            "z": 3
          },
          "born": {
            "$type": "ConfigBornBySelf",
            "offset": {
              "x": -0.5,
              "y": 0.0,
              "z": 1.5
            }
          }
        },
        "attackInfo": {
          "attackProperty": {
            "damagePercentage": 1.0,
            "strikeType": "Blunt",
            "attackType": "Melee",
            "enBreak": 200,
            "elementType": "Electric",
            "elementDurability": 30
          },
          "hitPattern": {
            "onHitEffectName": "default",
            "hitImpulseType": "LV3",
            "reboundRatio": 0,
            "hitHaltTime": 0.0,
            "hitHaltTimeScale": 0.01
          }
        }
      },
      "SacredAttack03_Hit3": {
        "attackPattern": {
          "$type": "ConfigAttackBox",
          "triggerType": "TriggerNoRepeat",
          "size": {
            "x": 4,
            "y": 3,
            "z": 4
          },
          "born": {
            "$type": "ConfigBornBySelf",
            "offset": {
              "x": 0.0,
              "y": 0.0,
              "z": 1.0
            }
          }
        },
        "attackInfo": {
          "attackProperty": {
            "damagePercentage": 1.0,
            "strikeType": "Blunt",
            "attackType": "Melee",
            "enBreak": 200,
            "elementType": "Electric",
            "elementDurability": 30
          },
          "hitPattern": {
            "onHitEffectName": "default",
            "hitImpulseType": "LV4",
            "reboundRatio": 0,
            "hitHaltTime": 0.0,
            "hitHaltTimeScale": 0.01
          }
        }
      },
      "SacredAttack03_Hit4": {
        "attackPattern": {
          "$type": "ConfigAttackCircle",
          "triggerType": "TriggerNoRepeat",
          "fanAngle": 360.0,
          "radius": 3.5,
          "height": 4,
          "born": {
            "$type": "ConfigBornBySelf",
            "offset": {
              "x": 0.0,
              "y": -1.0,
              "z": 6.5
            }
          }
        },
        "attackInfo": {
          "attackProperty": {
            "damagePercentage": 1.0,
            "strikeType": "Blunt",
            "attackType": "Melee",
            "enBreak": 200,
            "elementType": "Electric",
            "elementDurability": 30
          },
          "hitPattern": {
            "onHitEffectName": "default",
            "hitImpulseType": "LV5",
            "reboundRatio": 0,
            "hitHaltTime": 0.0,
            "hitHaltTimeScale": 0.01
          },
          "cameraShake": {
            "shakeType": "CustomVector",
            "shakeRange": 1,
            "shakeTime": 0.2,
            "shakeDistance": 30,
            "shakeDir": {
              "x": 0,
              "y": -1,
              "z": 0
            }
          }
        }
      },
      "SacredAttack05": {
        "attackPattern": {
          "$type": "ConfigAttackCircle",
          "triggerType": "TriggerNoRepeat",
          "fanAngle": 360.0,
          "radius": 3.5,
          "height": 4,
          "born": {
            "$type": "ConfigBornBySelf",
            "offset": {
              "x": 0.0,
              "y": -1.0,
              "z": 0.0
            },
            "direction": {
              "$type": "ConfigDirectionByDefault",
              "angleOffset": {
                "x": 0,
                "y": -45,
                "z": 0
              }
            }
          }
        },
        "attackInfo": {
          "attackProperty": {
            "damagePercentage": 1.0,
            "strikeType": "Blunt",
            "attackType": "Melee",
            "enBreak": 200,
            "elementType": "Electric",
            "elementDurability": 30
          },
          "hitPattern": {
            "onHitEffectName": "default",
            "hitImpulseType": "LV4",
            "reboundRatio": 0,
            "hitHaltTime": 0.0,
            "hitHaltTimeScale": 0.01
          }
        }
      },
      "SacredAttack05_LastHit": {
        "attackPattern": {
          "$type": "ConfigAttackCircle",
          "triggerType": "TriggerNoRepeat",
          "fanAngle": 360.0,
          "radius": 3.0,
          "height": 4,
          "born": {
            "$type": "ConfigBornBySelf",
            "offset": {
              "x": 0.0,
              "y": -1.0,
              "z": 2.0
            }
          }
        },
        "attackInfo": {
          "attackProperty": {
            "damagePercentage": 1.0,
            "strikeType": "Blunt",
            "attackType": "Melee",
            "enBreak": 200,
            "elementType": "Electric",
            "elementDurability": 30
          },
          "hitPattern": {
            "onHitEffectName": "default",
            "hitImpulseType": "LV4",
            "reboundRatio": 0,
            "hitHaltTime": 0.0,
            "hitHaltTimeScale": 0.01
          },
          "cameraShake": {
            "shakeType": "CustomVector",
            "shakeRange": 1,
            "shakeTime": 0.2,
            "shakeDistance": 30,
            "shakeDir": {
              "x": 0,
              "y": -1,
              "z": 0
            }
          }
        }
      }
    }
  },
  "stateLayers": {
    "defaultLayer": {
      "$type": "ConfigNormalStateLayer",
      "stateIDs": {
        "NormalIdle": {
          "$type": "ConfigMonsterStateIDInfo",
          "animatorStates": {
            "Standby": [],
            "Born": []
          },
          "combatMove": true,
          "canDoSkill": true,
          "canSyncMove": true,
          "resetAnimatorTriggerOnExit": ["DoSkill"]
        },
        "Run": {
          "$type": "ConfigMonsterStateIDInfo",
          "animatorStates": {
            "Run": [""]
          },
          "combatMove": true,
          "canDoSkill": true,
          "canSteer": true,
          "canSyncMove": true,
          "resetAnimatorTriggerOnExit": ["DoSkill"]
        },
        "WalkForward": {
          "$type": "ConfigMonsterStateIDInfo",
          "animatorStates": {
            "WalkForward": [""]
          },
          "combatMove": true,
          "canDoSkill": true,
          "canSteer": true,
          "canSyncMove": true,
          "resetAnimatorTriggerOnExit": ["DoSkill"]
        },
        "WalkBack": {
          "$type": "ConfigMonsterStateIDInfo",
          "animatorStates": {
            "WalkBack": [""]
          },
          "combatMove": true,
          "canDoSkill": true,
          "canSteer": true,
          "canSyncMove": true,
          "resetAnimatorTriggerOnExit": ["DoSkill"]
        },
        "WalkLeft": {
          "$type": "ConfigMonsterStateIDInfo",
          "animatorStates": {
            "WalkLeft": [""]
          },
          "combatMove": true,
          "canDoSkill": true,
          "canSteer": true,
          "canSyncMove": true,
          "resetAnimatorTriggerOnExit": ["DoSkill"]
        },
        "WalkRight": {
          "$type": "ConfigMonsterStateIDInfo",
          "animatorStates": {
            "WalkRight": [""]
          },
          "combatMove": true,
          "canDoSkill": true,
          "canSteer": true,
          "canSyncMove": true,
          "resetAnimatorTriggerOnExit": ["DoSkill"]
        },
        "Turn": {
          "$type": "ConfigMonsterStateIDInfo",
          "animatorStates": {
            "Turn": [""]
          },
          "combatMove": true,
          "canSteer": true,
          "canSyncMove": true,
          "canDoSkill": true,
          "resetAnimatorTriggerOnExit": ["DoSkill"]
        },
        "BeHit": {
          "$type": "ConfigMonsterStateIDInfo",
          "animatorStates": {
            "Hit_L": [""]
          },
          "resetAnimatorTriggerOnEnter": ["BeHit"],
          "resetAnimatorTriggerOnExit": ["DoSkill"]
        },
        "Die": {
          "$type": "ConfigMonsterStateIDInfo",
          "animatorStates": {
            "Die": ["Monster_Scorpion_Eremite_Fire_Die"]
          }
        },
        "Alert": {
          "$type": "ConfigMonsterStateIDInfo",
          "animatorStates": {
            "Alert": ["Monster_Scorpion_Eremite_Fire_Alert"]
          },
          "resetAnimatorTriggerOnExit": ["BeHit", "DoSkill"]
        },
        "NormalAttack01_01": {
          "$type": "ConfigMonsterStateIDInfo",
          "animatorStates": {
            "NormalAttack01_01": [
              "Monster_Scorpion_Eremite_Fire_NormalAttack01_01"
            ]
          },
          "canSyncMove": true,
          "canSteer": true,
          "cullingModelAlwaysAnimate": true,
          "resetAnimatorTriggerOnExit": ["BeHit", "DoSkill"]
        },
        "NormalAttack01_02": {
          "$type": "ConfigMonsterStateIDInfo",
          "animatorStates": {
            "NormalAttack01_02": [
              "Monster_Scorpion_Eremite_Fire_NormalAttack01_02"
            ]
          },
          "canSyncMove": true,
          "canSteer": true,
          "cullingModelAlwaysAnimate": true,
          "resetAnimatorTriggerOnExit": ["BeHit", "DoSkill"]
        },
        "RangeAttack01": {
          "$type": "ConfigMonsterStateIDInfo",
          "animatorStates": {
            "RangeAttack01": ["Monster_Scorpion_Eremite_Fire_RangeAttack01"]
          },
          "canSyncMove": true,
          "canSteer": true,
          "cullingModelAlwaysAnimate": true,
          "resetAnimatorTriggerOnExit": ["BeHit", "DoSkill"]
        },
        "MeleeAttack01_BS": {
          "$type": "ConfigMonsterStateIDInfo",
          "animatorStates": {
            "MeleeAttack01_BS": [
              "Monster_Scorpion_Eremite_Fire_MeleeAttack01_BS"
            ]
          },
          "canSyncMove": true,
          "canSteer": true,
          "cullingModelAlwaysAnimate": true,
          "resetAnimatorTriggerOnExit": ["BeHit", "DoSkill"]
        },
        "MeleeAttack01_UnderGroud": {
          "$type": "ConfigMonsterStateIDInfo",
          "animatorStates": {
            "MeleeAttack01_UnderGroud": [
              "Monster_Scorpion_Eremite_Fire_MeleeAttack01_UnderGround"
            ]
          },
          "canSyncMove": true,
          "canSteer": true,
          "cullingModelAlwaysAnimate": true,
          "resetAnimatorTriggerOnExit": ["BeHit", "DoSkill"]
        },
        "MeleeAttack01_AS": {
          "$type": "ConfigMonsterStateIDInfo",
          "animatorStates": {
            "MeleeAttack01_AS": [
              "Monster_Scorpion_Eremite_Fire_MeleeAttack01_DropDamage",
              "Monster_Scorpion_Eremite_Fire_MeleeAttack01_AS"
            ]
          },
          "canSyncMove": true,
          "canSteer": true,
          "cullingModelAlwaysAnimate": true,
          "resetAnimatorTriggerOnExit": ["BeHit", "DoSkill"]
        },
        "ComboAttack_BS": {
          "$type": "ConfigMonsterStateIDInfo",
          "animatorStates": {
            "ComboAttack_BS": ["Monster_Scorpion_Eremite_Fire_MeleeAttack01_BS"]
          },
          "canSyncMove": true,
          "canSteer": true,
          "cullingModelAlwaysAnimate": true,
          "resetAnimatorTriggerOnExit": ["BeHit", "DoSkill"]
        },
        "ComboAttack_Damage01": {
          "$type": "ConfigMonsterStateIDInfo",
          "animatorStates": {
            "ComboAttack_Damage01": [
              "Monster_Scorpion_Eremite_Fire_MeleeAttack01_DropDamage",
              "Monster_Scorpion_Eremite_Fire_MeleeAttack01_BS"
            ]
          },
          "canSyncMove": true,
          "canSteer": true,
          "cullingModelAlwaysAnimate": true,
          "resetAnimatorTriggerOnExit": ["BeHit", "DoSkill"]
        },
        "ComboAttack_UnderGroud01": {
          "$type": "ConfigMonsterStateIDInfo",
          "animatorStates": {
            "ComboAttack_UnderGroud01": [
              "Monster_Scorpion_Eremite_Fire_MeleeAttack01_UnderGround",
              "Monster_Scorpion_Eremite_Fire_ComboAttack01_Trigger"
            ]
          },
          "canSyncMove": true,
          "canSteer": true,
          "cullingModelAlwaysAnimate": true,
          "resetAnimatorTriggerOnExit": ["BeHit", "DoSkill"]
        },
        "ComboAttack_UnderGroud02": {
          "$type": "ConfigMonsterStateIDInfo",
          "animatorStates": {
            "ComboAttack_UnderGroud02": []
          },
          "canSyncMove": true,
          "canSteer": true,
          "cullingModelAlwaysAnimate": true,
          "resetAnimatorTriggerOnExit": ["BeHit", "DoSkill"]
        },
        "ComboAttack_InAir": {
          "$type": "ConfigMonsterStateIDInfo",
          "animatorStates": {
            "ComboAttack_InAir": []
          },
          "canSyncMove": true,
          "canSteer": true,
          "cullingModelAlwaysAnimate": true,
          "resetAnimatorTriggerOnExit": ["BeHit", "DoSkill"]
        },
        "ComboAttack_Damage02": {
          "$type": "ConfigMonsterStateIDInfo",
          "animatorStates": {
            "ComboAttack_Damage02": [
              "Monster_Scorpion_Eremite_Fire_ComboAttack01"
            ]
          },
          "canSyncMove": true,
          "canSteer": true,
          "cullingModelAlwaysAnimate": true,
          "resetAnimatorTriggerOnExit": ["BeHit", "DoSkill"]
        }
      }
    }
  },
  "abilities": [
    {
      "abilityID": "StateControl",
      "abilityName": "Monster_Scorpion_Eremite_Fire_StateControl"
    },
    {
      "abilityID": "StreeControl",
      "abilityName": "Monster_Scorpion_Eremite_Fire_StreeControl"
    },
    {
      "abilityID": "NormalAttack01_01",
      "abilityName": "Monster_Scorpion_Eremite_Fire_NormalAttack01_01"
    },
    {
      "abilityID": "NormalAttack01_02",
      "abilityName": "Monster_Scorpion_Eremite_Fire_NormalAttack01_02"
    },
    {
      "abilityID": "MeleeAttack01_BS",
      "abilityName": "Monster_Scorpion_Eremite_Fire_MeleeAttack01_BS"
    },
    {
      "abilityID": "FindBlinkPoint",
      "abilityName": "Monster_Scorpion_Eremite_Fire_MeleeAttack_FindBlinkPoint"
    },
    {
      "abilityID": "MeleeAttack_DoBlink",
      "abilityName": "Monster_Scorpion_Eremite_Fire_MeleeAttack_DoBlink"
    },
    {
      "abilityID": "MeleeAttack_Damage",
      "abilityName": "Monster_Scorpion_Eremite_Fire_MeleeAttack_Damage"
    },
    {
      "abilityID": "RangeAttack01",
      "abilityName": "Monster_Scorpion_Eremite_Fire_RangeAttack01"
    },
    {
      "abilityID": "RangeAttack01",
      "abilityName": "Monster_Scorpion_Eremite_Fire_ComboAttack01"
    },
    {
      "abilityID": "ComboAttack01_Trigger",
      "abilityName": "Monster_Scorpion_Eremite_Fire_ComboAttack01_Trigger"
    },
    {
      "abilityID": "Die",
      "abilityName": "Monster_Scorpion_Eremite_Fire_Die"
    }
  ],
  "initialPoses": {
    "Default": {
      "initialPoseID": 1
    }
  },
  "inputKeys": [
    {
      "keyID": 201,
      "inputKeyCode": 257
    },
    {
      "keyID": 211,
      "inputKeyCode": 258
    },
    {
      "keyID": 221,
      "inputKeyCode": 259
    },
    {
      "keyID": 231,
      "inputKeyCode": 260
    },
    {
      "keyID": 241,
      "inputKeyCode": 261
    }
  ],
  "aibeta": {
    "enable": true,
    "skillGCD": 2.0,
    "moveSetting": {
      "moveCategory": "Land"
    },
    "skillGroupCDConfigs": [
      {
        "skillGroupCDID": 2,
        "skillGroupCDTime": 20
      },
      {
        "skillGroupCDID": 3,
        "skillGroupCDTime": 2
      }
    ],
    "sensing": {
      "settings": {
        "DefaultSetting": {
          "viewRange": 40.0,
          "feelRange": 10.0
        }
      },
      "templates": {
        "DefaultTemplate": {
          "DefaultPoses": "DefaultSetting"
        }
      }
    },
    "defendArea": {
      "enable": true,
      "defendRange": 50
    },
    "threat": {
      "clearThreatEdgeDistance": 2,
      "clearThreatByLostPath": true,
      "clearThreatTimerByLostPath": 10,
      "viewAttenuation": [
        { "x": 10.0, "y": 2.0 },
        { "x": 15.0, "y": 0.8 },
        { "x": 20.0, "y": 0.5 },
        { "x": 25.0, "y": 0.3 },
        { "x": 30.0, "y": 0.2 }
      ],
      "resistTauntLevel": "Monster_TauntLevel_3"
    },
    "returnToBornTactic": {
      "enable": true,
      "defaultSetting": {
        "speedLevel": 2
      }
    },
    "wanderTactic": {
      "enable": false
    },
    "meleeChargeTactic": {
      "enable": true,
      "condition": {
        "pose": [101]
      },
      "defaultSetting": {
        "speedLevel": 2,
        "speedLevelInner": 1,
        "innerDistance": 7,
        "stopDistance": 4,
        "startDistanceMin": 12.0,
        "startDistanceMax": 50,
        "turnSpeedOverride": 1.0
      }
    },
    "facingMoveTactic": {
      "enable": true,
      "condition": {
        "pose": [101]
      },
      "defaultSetting": {
        "speedLevel": 1,
        "rangeMin": 3.0,
        "rangeMax": 8.0,
        "facingMoveWeight": {
          "stop": 0.2,
          "forward": 0.4,
          "back": 0.4,
          "left": 1.0,
          "right": 1.0
        },
        "facingMoveTurnInterval": 1.5,
        "restTimeMax": 2.0,
        "restTimeMin": 3.0
      }
    },
    "skills": {
      "101": {
        "name": "OnAlert",
        "stateIDs": ["Alert"],
        "skillType": "OnAlert",
        "triggerGCD": false,
        "ignoreGCD": true
      },
      "201": {
        "cd": 4.0,
        "cdUpperRange": 2.0,
        "combatSkillType": "MeleeAttack",
        "name": "NormalAttack01",
        "stateIDs": ["NormalAttack01_01", "NormalAttack01_02"],
        "triggerGCD": true,
        "ignoreGCD": false,
        "skillGroupCDID": 3,
        "flagSelfInZone": "11",
        "flagTargetReachable": "11",
        "flagSelfOnTemplateCollider": "11",
        "castCondition": {
          "pickRangeMin": 0.0,
          "pickRangeMax": 8.0,
          "castRangeMax": 4.0,
          "pose": [101]
        }
      },
      "211": {
        "cd": 15,
        "cdUpperRange": 2.0,
        "combatSkillType": "MeleeAttack",
        "name": "MeleeAttack01",
        "triggerGCD": true,
        "ignoreGCD": false,
        "stateIDs": [
          "MeleeAttack01_BS",
          "MeleeAttack01_UnderGroud",
          "MeleeAttack01_AS"
        ],
        "castCondition": {
          "pickRangeMin": 12.0,
          "pickRangeMax": 20.0,
          "pose": [101]
        }
      },
      "221": {
        "cd": 4.0,
        "cdUpperRange": 3.0,
        "combatSkillType": "RangedAttack",
        "name": "RangeAttack01",
        "triggerGCD": true,
        "ignoreGCD": false,
        "skillGroupCDID": 3,
        "stateIDs": ["RangeAttack01"],
        "flagSelfInZone": "11",
        "flagTargetReachable": "11",
        "flagSelfOnTemplateCollider": "11",
        "castCondition": {
          "pickRangeMin": 0.0,
          "pickRangeMax": 20.0,
          "pose": [101]
        }
      },
      "231": {
        "cd": 27,
        "cdUpperRange": 5,
        "initialCD": 5,
        "priority": 1,
        "combatSkillType": "RangedAttack",
        "triggerGCD": true,
        "ignoreGCD": false,
        "name": "ComboAttack01",
        "publicCDGroup": "Eremite_ComboAttack",
        "stateIDs": [
          "ComboAttack_BS",
          "ComboAttack_UnderGroud01",
          "ComboAttack_Damage01",
          "ComboAttack_UnderGroud02",
          "ComboAttack_InAir",
          "ComboAttack_Damage02"
        ],
        "flagSelfInZone": "11",
        "flagTargetReachable": "11",
        "flagSelfOnTemplateCollider": "11",
        "castCondition": {
          "pickRangeMin": 0.0,
          "pickRangeMax": 20.0,
          "pose": [101]
        }
      }
    }
  }
}
