{
  "$type": "ConfigMonster",
  "headControl": {
    "$type": "ConfigHeadControl",
    "useHeadControl": true,
    "maxYawDegree": 20,
    "maxPitchDegree": 5,
    "animStates": [
      "NormalIdle/Standby",
      "NormalMove/WalkForward",
      "NormalMove/WalkBack",
      "NormalMove/WalkRight",
      "NormalMove/WalkLeft",
      "NormalMove/Run",
      "TurnLeft/TurnLeft",
      "TurnRight/TurnRight"
    ]
  },
  "common": {
    "effectAttachShape": {
      "$type": "ConfigEffectAttachSkinnedMesh",
      "mesh": "EffectMesh"
    },
    "mass": 10000.0,
    "height": 2.6,
    "modelHeight": 2.6,
    "viewSize": 1.7,
    "scale": 1.17,
    "useGrassDisplacement": true,
    "affectedByWorld": true,
    "checkInSurface": true,
    "clearAIOnSetLightDeactive": true,
    "recoverByInitPose": true,
    "reconnectSupport": true
  },
  "move": {
    "$type": "ConfigAnimatorMove",
    "facingMove": "FourDirection",
    "moveOnWater": false,
    "monsterSizeType": "NormalHumanoidType",
    "positionModifyState": "Walk",
    "yawSpeedRatio": 1.6
  },
  "model": {
    "bornEffect": "Eff_Monster_Common_Born",
    "canBakeMesh": false
  },
  "dither": {
    "showDitherDuration": 1.0
  },
  "equipController": {
    "attachPoints": {
      "equip01": "WeaponR",
      "equip02": "WeaponL"
    },
    "sheathPoint": ""
  },
  "billboard": {
    "$type": "ConfigCombatBillboard",
    "offsetType": "Character",
    "offset": {
      "x": 0,
      "y": -0.75,
      "z": 0
    },
    "radiusOffset": 0.0,
    "showHPBar": true,
    "size": "Big"
  },
  "combat": {
    "property": {
      "weight": 150,
      "endureType": "Monster_Demiboss_Humanoid"
    },
    "combatLock": {
      "denyLockOn": false,
      "lockType": "Avatar&Monster_Lv4"
    },
    "beHit": {
      "hitBloodEffect": "",
      "muteAllHit": false,
      "muteAllHitEffect": false,
      "muteAllHitText": false
    },
    "die": {
      "hasAnimatorDie": true,
      "dieDisappearEffect": "Eff_Death_Abyss_Common",
      "dieDisappearEffectDelay": 0.0,
      "dieEndTime": 2.5,
      "dieForceDisappearTime": 2.5,
      "dieShaderData": "MonsterDie",
      "muteHitBox": true,
      "dieDenyLockOn": true,
      "dieIsGhostToEnemy": true,
      "dieIgnoreTriggerBullet": true,
      "muteBillboard": true,
      "mutePushCollider": true,
      "ragDollDieEndTimeDelay": 0.0
    },
    "animEvents": {
      // //
      // d8b   db  .d88b.  d8888b. .88b  d88.  .d8b.  db
      // 888o  88 .8P  Y8. 88  `8D 88'YbdP`88 d8' `8b 88
      // 88V8o 88 88    88 88oobY' 88  88  88 88ooo88 88
      // 88 V8o88 88    88 88`8b   88  88  88 88~~~88 88
      // 88  V888 `8b  d8' 88 `88. 88  88  88 88   88 88booo.
      // VP   V8P  `Y88P'  88   YD YP  YP  YP YP   YP Y88888P
      "AE_NormalAttack_01": {
        "attackPattern": {
          "$type": "ConfigAttackBox",
          "triggerType": "TriggerNoRepeat",
          "size": {
            "x": 2.5,
            "y": 3,
            "z": 4.2
          },
          "born": {
            "$type": "ConfigBornBySelf",
            "offset": {
              "x": -0.5,
              "y": 1.5,
              "z": 0.3
            }
          }
        },
        "attackInfo": {
          "attackProperty": {
            "damagePercentage": 0.7,
            "strikeType": "Blunt",
            "enBreak": 100
          },
          "attackTag": "Darkwraith_Rock_Normal",
          "hitPattern": {
            "hitImpulseType": "LV3",
            "hitHaltTime": 0.07,
            "hitHaltTimeScale": 0.05
          },
          "forceCameraShake": true,
          "cameraShake": {
            "shakeType": "CustomVector",
            "shakeDir": {
              "x": 0,
              "y": 1,
              "z": 0
            },
            "shakeRange": 0.4,
            "shakeTime": 0.05
          }
        }
      },
      "AE_NormalAttack_02": {
        "attackPattern": {
          "$type": "ConfigAttackCircle",
          "triggerType": "TriggerNoRepeat",
          "height": 2,
          "fanAngle": 200.0,
          "radius": 4.3,
          "born": {
            "$type": "ConfigBornBySelf",
            "offset": {
              "x": 0,
              "y": 0,
              "z": 0.5
            }
          }
        },
        "attackInfo": {
          "attackProperty": {
            "damagePercentage": 0.85,
            "strikeType": "Blunt",
            "enBreak": 150
          },
          "attackTag": "Darkwraith_Rock_Normal",
          "hitPattern": {
            "hitImpulseType": "LV4",
            "hitHaltTime": 0.07,
            "hitHaltTimeScale": 0.05
          }
        }
      },
      "AE_NormalAttack_03": {
        "attackPattern": {
          "$type": "ConfigAttackBox",
          "triggerType": "TriggerNoRepeat",
          "size": {
            "x": 3.6,
            "y": 3,
            "z": 3.95
          },
          "born": {
            "$type": "ConfigBornBySelf",
            "offset": {
              "x": 0,
              "y": 1.5,
              "z": 0.3
            }
          }
        },
        "attackInfo": {
          "attackProperty": {
            "damagePercentage": 1,
            "strikeType": "Blunt",
            "enBreak": 200
          },
          "attackTag": "Darkwraith_Rock_Normal",
          "hitPattern": {
            "hitImpulseType": "LV5",
            "retreatType": "ByAttackerForward"
          },
          "forceCameraShake": true,
          "cameraShake": {
            "shakeType": "CustomVector",
            "shakeDir": {
              "x": 0,
              "y": 1,
              "z": 0
            },
            "shakeRange": 0.6,
            "shakeTime": 0.07
          }
        }
      },
      // //
      // .d8888. db   db d888888b d88888b db      d8888b.
      // 88'  YP 88   88   `88'   88'     88      88  `8D
      // `8bo.   88ooo88    88    88ooooo 88      88   88
      //   `Y8b. 88~~~88    88    88~~~~~ 88      88   88
      // db   8D 88   88   .88.   88.     88booo. 88  .8D
      // `8888Y' YP   YP Y888888P Y88888P Y88888P Y8888D'
      "AE_ShieldAttack": {
        "attackPattern": {
          "$type": "ConfigAttackBox",
          "triggerType": "TriggerNoRepeat",
          "size": {
            "x": 3,
            "y": 3,
            "z": 3.8
          },
          "born": {
            "$type": "ConfigBornBySelf",
            "offset": {
              "x": 0,
              "y": 1.5,
              "z": -0.5
            }
          }
        },
        "attackInfo": {
          "attackProperty": {
            "damagePercentage": 1,
            "strikeType": "Blunt",
            "enBreak": 200,
            "attackType": "Melee"
          },
          "attackTag": "Darkwraith_Rock_Normal",
          "hitPattern": {
            "hitImpulseType": "LV5",
            "retreatType": "ByAttackerForward"
          },
          "forceCameraShake": false,
          "cameraShake": {
            "shakeType": "CustomVector",
            "shakeDir": {
              "x": 0,
              "y": 0,
              "z": 1
            },
            "extension": {
              "baseCycle": 0.36
            },
            "shakeRange": 1.5,
            "shakeTime": 0.25
          }
        }
      },
      // //
      // db   d8b   db db   db d888888b d8888b. db
      // 88   I8I   88 88   88   `88'   88  `8D 88
      // 88   I8I   88 88ooo88    88    88oobY' 88
      // Y8   I8I   88 88~~~88    88    88`8b   88
      // `8b d8'8b d8' 88   88   .88.   88 `88. 88booo.
      //  `8b8' `8d8'  YP   YP Y888888P 88   YD Y88888P
      "AE_WhirlAttack_01": {
        "attackPattern": {
          "$type": "ConfigAttackCircle",
          "triggerType": "TriggerNoRepeat",
          "height": 2.2,
          "fanAngle": 270,
          "radius": 4.15,
          "born": {
            "$type": "ConfigBornBySelf"
          }
        },
        "attackInfo": {
          "attackProperty": {
            "damagePercentage": 0.75,
            "strikeType": "Blunt",
            "enBreak": 100,
            "attackType": "Melee"
          },
          "attackTag": "Darkwraith_Rock_Normal",
          "hitPattern": {
            "hitImpulseType": "LV3"
          }
        }
      },
      "AE_WhirlAttack_02": {
        "attackPattern": {
          "$type": "ConfigAttackCircle",
          "triggerType": "TriggerNoRepeat",
          "height": 2.2,
          "fanAngle": 270,
          "radius": 5.05,
          "born": {
            "$type": "ConfigBornBySelf",
            "offset": {
              "x": -0.45,
              "z": -0.5
            }
          }
        },
        "attackInfo": {
          "attackProperty": {
            "damagePercentage": 0.85,
            "strikeType": "Blunt",
            "enBreak": 200,
            "attackType": "Melee"
          },
          "attackTag": "Darkwraith_Rock_Normal",
          "hitPattern": {
            "hitImpulseType": "LV4"
          }
        }
      },

      // Rage

      "AE_RageAttack01": {
        "attackPattern": {
          "$type": "ConfigAttackCircle",
          "triggerType": "TriggerNoRepeat",
          "height": 2.2,
          "fanAngle": 270,
          "radius": 4.2,
          "born": {
            "$type": "ConfigBornBySelf"
          }
        },
        "attackInfo": {
          "attackProperty": {
            "damagePercentage": 1,
            "strikeType": "Blunt",
            "enBreak": 200,
            "attackType": "Melee",
            "elementType": "Rock",
            "elementDurability": 50
          },
          "hitPattern": {
            "hitImpulseType": "LV6"
          }
        }
      },
      "AE_RageAttack02": {
        "attackPattern": {
          "$type": "ConfigAttackBox",
          "triggerType": "TriggerNoRepeat",
          "size": {
            "x": 3.6,
            "y": 3,
            "z": 4.2
          },
          "born": {
            "$type": "ConfigBornBySelf",
            "offset": {
              "x": 0,
              "y": 1.5,
              "z": 0.3
            }
          }
        },
        "attackInfo": {
          "attackProperty": {
            "damagePercentage": 1,
            "strikeType": "Blunt",
            "enBreak": 200,
            "attackType": "Melee",
            "elementType": "Rock",
            "elementDurability": 50
          },
          "hitPattern": {
            "hitImpulseType": "LV5"
          }
        }
      }
    }
  },
  "stateLayers": {
    "defaultLayer": {
      "$type": "ConfigNormalStateLayer",
      "stateIDs": {
        "NormalIdle": {
          "$type": "ConfigMonsterStateIDInfo",
          "animatorStates": {
            "Standby": [],
            "Born": []
          },
          "canDoSkill": true,
          "canSyncMove": true,
          "resetAnimatorTriggerOnExit": ["DoSkill"]
        },
        "NormalMove": {
          "$type": "ConfigMonsterStateIDInfo",
          "animatorStates": {
            "WalkForward": [],
            "WalkBack": [],
            "WalkRight": [],
            "WalkLeft": [],
            "ShieldWalkForward": [],
            "ShieldWalkBack": [],
            "ShieldWalkRight": [],
            "ShieldWalkLeft": [],
            "Run": []
          },
          "canDoSkill": true,
          "canSteer": true,
          "canSyncMove": true,
          "resetAnimatorTriggerOnExit": ["DoSkill"]
        },
        "Turn": {
          "$type": "ConfigMonsterStateIDInfo",
          "animatorStates": {
            "TurnLeft": [],
            "TurnRight": []
          },
          "canDoSkill": true,
          "canSyncMove": true,
          "canSteer": true,
          "resetAnimatorTriggerOnExit": ["DoSkill"]
        },
        "BeHit": {
          "$type": "ConfigMonsterStateIDInfo",
          "animatorStates": {
            "Hit_L": [],
            "Hit_H": []
          },
          "resetAnimatorTriggerOnEnter": ["BeHit"],
          "resetAnimatorTriggerOnExit": ["DoSkill"]
        },
        "BeHitThrow": {
          "$type": "ConfigMonsterStateIDInfo",
          "animatorStates": {
            "HitThrow": [],
            "HitThrowDrop": [],
            "HitThrowToGround": []
          },
          "resetAnimatorTriggerOnEnter": ["BeHit", "HitAir2HitDrop"],
          "resetAnimatorTriggerOnExit": ["DoSkill"]
        },
        "Struggle": {
          "$type": "ConfigMonsterStateIDInfo",
          "animatorStates": {
            "Struggle": []
          },
          "resetAnimatorTriggerOnEnter": ["BeHit", "HitAir2HitDrop"],
          "resetAnimatorTriggerOnExit": ["DoSkill"]
        },
        "Die": {
          "$type": "ConfigMonsterStateIDInfo",
          "animatorStates": {
            "Die": [],
            "ShieldDie": [],
            "SwimDie": [],
            "AirDie": []
          }
        },
        "Alert": {
          "$type": "ConfigMonsterStateIDInfo",
          "animatorStates": {
            "Alert": []
          }
        },

        "Personality_9001": {
          "$type": "ConfigMonsterStateIDInfo",
          "animatorStates": {
            "Personality_9001": []
          },
          "canDoSkill": true
        },
        "Personality_9002": {
          "$type": "ConfigMonsterStateIDInfo",
          "animatorStates": {
            "Personality_9002": []
          },
          "canDoSkill": true
        },

        // //
        //     .d8888. db   d8b   db d888888b d888888b  .o88b. db   db
        //     88'  YP 88   I8I   88   `88'   `~~88~~' d8P  Y8 88   88
        //     `8bo.   88   I8I   88    88       88    8P      88ooo88
        //       `Y8b. Y8   I8I   88    88       88    8b      88~~~88
        //     db   8D `8b d8'8b d8'   .88.      88    Y8b  d8 88   88
        //     `8888Y'  `8b8' `8d8'  Y888888P    YP     `Y88P' YP   YP
        // 护盾展开 动作
        "SwitchToShield": {
          "$type": "ConfigMonsterStateIDInfo",
          "animatorStates": {
            "RunToShield_AS": ["Monster_Darkwraith_Fat_Rock_SwitchToShield"],
            "SwitchToShieldInPlace": [
              "Monster_Darkwraith_Fat_Rock_SwitchToShieldInPlace"
            ]
          },
          "canSteer": true,
          "resetAnimatorTriggerOnExit": ["BeHit", "DoSkill"]
        },
        // 援护战术过程中
        "RunToShield": {
          "$type": "ConfigMonsterStateIDInfo",
          "animatorStates": {
            "RunToShield_BS": ["Monster_Darkwraith_Fat_Rock_SwitchToShield_BS"],
            "RunToShield_BS_Run": [],
            "RunToShield_Loop": []
          },
          "canSteer": true,
          "resetAnimatorTriggerOnExit": ["BeHit", "DoSkill"]
        },
        // 切换为双斧
        "SwitchToDualWielding": {
          "$type": "ConfigMonsterStateIDInfo",
          "animatorStates": {
            "ExitToDualWielding": [
              "Monster_Darkwraith_Fat_Rock_SwitchToDualWielding"
            ],
            "SwitchToDualWielding": [
              "Monster_Darkwraith_Fat_Rock_SwitchToDualWielding"
            ]
          }
        },
        ////
        //      d8b   db  .d88b.  d8888b. .88b  d88.  .d8b.  db            .d8b.  d888888b d888888b  .d8b.   .o88b. db   dD
        //      888o  88 .8P  Y8. 88  `8D 88'YbdP`88 d8' `8b 88           d8' `8b `~~88~~' `~~88~~' d8' `8b d8P  Y8 88 ,8P'
        //      88V8o 88 88    88 88oobY' 88  88  88 88ooo88 88           88ooo88    88       88    88ooo88 8P      88,8P
        //      88 V8o88 88    88 88`8b   88  88  88 88~~~88 88           88~~~88    88       88    88~~~88 8b      88`8b
        //      88  V888 `8b  d8' 88 `88. 88  88  88 88   88 88booo.      88   88    88       88    88   88 Y8b  d8 88 `88.
        //      VP   V8P  `Y88P'  88   YD YP  YP  YP YP   YP Y88888P      YP   YP    YP       YP    YP   YP  `Y88P' YP   YD
        "NormalAttack_01": {
          "$type": "ConfigMonsterStateIDInfo",
          "animatorStates": {
            "NormalAttack_01": ["Monster_Darkwraith_Fat_Rock_NormalAttack_01"]
          },
          "setAnimatorFloat": [
            {
              "name": "WeaponType",
              "value": 2
            }
          ]
        },
        "NormalAttack_02": {
          "$type": "ConfigMonsterStateIDInfo",
          "animatorStates": {
            "NormalAttack_02": ["Monster_Darkwraith_Fat_Rock_NormalAttack_02"],
            "NormalAttack_02_AS": []
          },
          "setAnimatorFloat": [
            {
              "name": "WeaponType",
              "value": 1
            }
          ]
        },
        "NormalAttack_03": {
          "$type": "ConfigMonsterStateIDInfo",
          "animatorStates": {
            "NormalAttack_03": ["Monster_Darkwraith_Fat_Rock_NormalAttack_03"]
          },
          "setAnimatorFloat": [
            {
              "name": "WeaponType",
              "value": 1
            }
          ]
        },
        // //
        // .d8888. db   db d888888b d88888b db      d8888b.  .d8b.  d888888b d888888b  .d8b.   .o88b. db   dD
        // 88'  YP 88   88   `88'   88'     88      88  `8D d8' `8b `~~88~~' `~~88~~' d8' `8b d8P  Y8 88 ,8P'
        // `8bo.   88ooo88    88    88ooooo 88      88   88 88ooo88    88       88    88ooo88 8P      88,8P
        //   `Y8b. 88~~~88    88    88~~~~~ 88      88   88 88~~~88    88       88    88~~~88 8b      88`8b
        // db   8D 88   88   .88.   88.     88booo. 88  .8D 88   88    88       88    88   88 Y8b  d8 88 `88.
        // `8888Y' YP   YP Y888888P Y88888P Y88888P Y8888D' YP   YP    YP       YP    YP   YP  `Y88P' YP   YD
        "ShieldAttack_BS": {
          "$type": "ConfigMonsterStateIDInfo",
          "animatorStates": {
            "ShieldAttack_BS": ["Monster_Darkwraith_Fat_Rock_ShieldAttack_BS"]
          }
        },
        "ShieldAttack": {
          "$type": "ConfigMonsterStateIDInfo",
          "animatorStates": {
            "ShieldAttack": ["Monster_Darkwraith_Fat_Rock_ShieldAttack"],
            "ShieldAttack_AS": ["Monster_Darkwraith_Fat_Rock_ShieldAttack_AS"]
          },
          "resetAnimatorTriggerOnExit": ["BeHit", "DoSkill"],
          "setAnimatorFloat": [
            {
              "name": "WeaponType",
              "value": 2
            }
          ]
        },

        // //
        // db   d8b   db db   db d888888b d8888b. db       .d8b.  d888888b d888888b  .d8b.   .o88b. db   dD
        // 88   I8I   88 88   88   `88'   88  `8D 88      d8' `8b `~~88~~' `~~88~~' d8' `8b d8P  Y8 88 ,8P'
        // 88   I8I   88 88ooo88    88    88oobY' 88      88ooo88    88       88    88ooo88 8P      88,8P
        // Y8   I8I   88 88~~~88    88    88`8b   88      88~~~88    88       88    88~~~88 8b      88`8b
        // `8b d8'8b d8' 88   88   .88.   88 `88. 88booo. 88   88    88       88    88   88 Y8b  d8 88 `88.
        //  `8b8' `8d8'  YP   YP Y888888P 88   YD Y88888P YP   YP    YP       YP    YP   YP  `Y88P' YP   YD
        //
        // 旋风斩！
        "WhirlAttack": {
          "$type": "ConfigMonsterStateIDInfo",
          "animatorStates": {
            "WhirlAttack": [
              "Monster_Darkwraith_Fat_Rock_WhirlAttack",
              "Monster_Darkwraith_Fat_Rock_WhirlAttack_VFX"
            ]
          },
          "setAnimatorFloat": [
            {
              "name": "WeaponType",
              "value": 3
            }
          ],
          // 期间如果打断武器变形会有跳变，所以这里给一个霸体
          "addEndure": 0
        },

        // Float控制弹刀的动作表现
        // 1: 左手弹刀
        // 2: 右手弹刀
        // 3: 双手弹刀
        "HitShield": {
          "$type": "ConfigMonsterStateIDInfo",
          "animatorStates": {
            "HitShieldL": [],
            "HitShieldR": [],
            "HitShieldRage": ["Monster_Darkwraith_Fat_Rock_HitShieldRage"],
            "RageBS": ["Monster_Darkwraith_Fat_Rock_RageBS"]
          },
          "resetAnimatorTriggerOnExit": ["BeHit", "DoSkill", "HitShield"],
          // 此处需要霸体，否则可能会打断
          "addEndure": 0
        },

        // 狂暴状态下的State，不包含旋转
        "RageAttack": {
          "$type": "ConfigMonsterStateIDInfo",
          "animatorStates": {
            "RageAttack01_Trans": [],
            "RageAttack01_SelfTrans": [],
            "RageAttack02_Trans": []
          },
          "resetAnimatorTriggerOnExit": ["BeHit", "DoSkill"]
        },
        "RageAttack01_BS": {
          "$type": "ConfigMonsterStateIDInfo",
          "animatorStates": {
            "RageAttack01_BS": ["Monster_Darkwraith_Fat_Rock_RageAttack01_01"]
          }
        },
        "RageAttack01_Loop": {
          "$type": "ConfigMonsterStateIDInfo",
          "animatorStates": {
            "RageAttack01_Loop": ["Monster_Darkwraith_Fat_Rock_RageAttack01_02"]
          }
        },
        "RageAttack01_AS": {
          "$type": "ConfigMonsterStateIDInfo",
          "animatorStates": {
            "RageAttack01_AS1": ["Monster_Darkwraith_Fat_Rock_RageAttack01_03"]
          }
        },
        "RageAttack02": {
          "$type": "ConfigMonsterStateIDInfo",
          "animatorStates": {
            "RageAttack02": [
              "Monster_Darkwraith_Fat_Rock_RageAttack02",
              "Monster_Darkwraith_Fat_Rock_RageAttack02_VFX"
            ]
          }
        },
        "RageAttack_Exit": {
          "$type": "ConfigMonsterStateIDInfo",
          "animatorStates": {
            "RageAttack01_AS2": ["Monster_Darkwraith_Fat_Rock_RageAttack01_AS"],
            "RageAttack02_AS": []
          }
        }
      }
    }
  },
  "abilities": [
    { "abilityName": "Darkwraith_Fat_Rock_Steer" }, // 旋转
    { "abilityName": "Darkwraith_Fat_Rock_Distance_Calc" }, // 距离计算
    { "abilityName": "Darkwraith_Fat_Rock_Rampage_Controller" }, // 狂暴逻辑管理
    { "abilityName": "Darkwraith_Fat_Rock_HitShield" }, // 打到护盾上的逻辑处理 - 弹刀监控
    { "abilityName": "Darkwraith_Fat_Rock_SwitchToShield" }, // 切换成盾牌
    { "abilityName": "Darkwraith_Fat_Rock_SwitchToDualWielding" } // 切换成双持斧
  ],
  "initialPoses": {
    "Default": {
      "initialPoseID": 0
    }
  },
  "aibeta": {
    "enable": true,
    "neurons": {
      "DefaultSetting": ["HIT"]
    },
    "aiCombat": {
      "combatRole": "FIGHTER"
    },
    "sensing": {
      "settings": {
        "DefaultSetting": {
          "viewRange": 25.0,
          "feelRange": 10.0
        }
      }
    },
    "defendArea": {
      "enable": true,
      "defendRange": 50
    },
    "threat": {
      "clearThreatByLostPath": true,
      "clearThreatTimerByLostPath": 20,
      "viewAttenuation": [
        { "x": 10.0, "y": 2.0 },
        { "x": 15.0, "y": 0.8 },
        { "x": 20.0, "y": 0.5 },
        { "x": 25.0, "y": 0.3 },
        { "x": 30.0, "y": 0.2 }
      ],
      "resistTauntLevel": "Monster_TauntLevel_2"
    },
    "buddySetting": {
      "enable": true,
      "buddyFeatureTagIDs": [4014, 4013]
    },
    "returnToBornTactic": {
      "enable": true,
      "defaultSetting": {
        "speedLevel": 1
      }
    },
    // 援护战术
    "aidingTactic": {
      "enable": true,
      "defaultSetting": {
        "speedLevel": 1,
        "aidingSpeedLevel": 2,
        "turnSpeedOverrideRun": 5,
        "turnSpeedOverrideWalk": 0.3,
        "reachingRadius": 1.5,
        "startAidingRadius": 5,
        "distanceFromBuddy": 5.25,
        "exitCoolDown": 21,
        "tacticExit": {
          "minAngleAbs": 80,
          "maxAngleAbs": 180,
          "minDistanceBetween": 4,
          "buddyIsIntrepid": true
        },
        "buddyCondition": {
          "buddyScoring": {
            "distFactor": -1,
            "roleScores": [0, 0.5, 1.0, 1.5]
          }
        }
      }
    },
    "wanderTactic": {
      "enable": true,
      "condition": {
        "pose": [1]
      },
      "defaultSetting": {
        "speedLevel": 1,
        "turnSpeedOverride": 1.0,
        "cdMin": 7,
        "cdMax": 12,
        "distanceFromBorn": 15.0,
        "distanceFromCurrentMin": 4,
        "distanceFromCurrentMax": 6
      }
    },
    "meleeChargeTactic": {
      "enable": true,
      "condition": {
        "pose": [101]
      },
      "defaultSetting": {
        "speedLevel": 2,
        "speedLevelInner": 1,
        "innerDistance": 6,
        "stopDistance": 4.5,
        "startDistanceMin": 10,
        "turnSpeedOverride": 5
      }
    },
    "facingMoveTactic": {
      "enable": true,
      "condition": {
        "pose": [101]
      },
      "defaultSetting": {
        "rangeMin": 2,
        "rangeMax": 5,
        "facingMoveWeight": {
          "stop": 5.0,
          "forward": 0,
          "back": 0,
          "left": 3,
          "right": 1.5
        },
        "restTimeMin": 0.75,
        "restTimeMax": 1.75
      }
    },
    "skillGroupCDConfigs": [
      {
        "skillGroupCDID": 1, // 30X 双持劈砍
        "skillGroupCDTime": 15
      },
      {
        "skillGroupCDID": 2, // 40X 巨斧旋风斩
        "skillGroupCDTime": 28
      },
      {
        "skillGroupCDID": 3, // 50X 盾冲
        "skillGroupCDTime": 17
      }
    ],
    "skillGCD": 2.5,
    "skills": {
      "101": {
        "name": "OnAlert",
        "stateIDs": ["Alert"],
        "skillType": "OnAlert",
        "skillQueryingTime": 3,
        "faceTarget": true,
        "castCondition": {
          "pose": [1]
        }
      },
      "211": {
        "priority": 1,
        "name": "SwitchToDualWielding",
        "stateIDs": ["SwitchToDualWielding"],
        "triggerGCD": false,
        "ignoreGCD": true,
        "flagSelfInZone": "11",
        "flagTargetInZone": "11",
        "flagSelfOnTemplateCollider": "11",
        "castCondition": {
          "pose": [200]
        }
      },
      // 双持劈砍
      "301": {
        "cd": 15.0,
        "priority": 2,
        "name": "NormalAttack",
        "stateIDs": ["NormalAttack_01", "NormalAttack_02", "NormalAttack_03"],
        "combatSkillType": "MeleeAttack",
        "flagSelfInZone": "11",
        "flagTargetInZone": "11",
        "flagSelfOnTemplateCollider": "11",
        "castCondition": {
          "maxTargetAngleXZ": 90,
          "pickRangeMin": 0,
          "pickRangeMax": 4.75,
          "pose": [101]
        },
        "skillGroupCDID": 1
      },
      // 双持劈砍：奔跑Pick
      "302": {
        "cd": 15.0,
        "priority": 3,
        "name": "NormalAttack",
        "stateIDs": ["NormalAttack_01", "NormalAttack_02", "NormalAttack_03"],
        "combatSkillType": "MeleeAttack",
        "flagSelfInZone": "11",
        "flagTargetInZone": "11",
        "flagSelfOnTemplateCollider": "11",
        "castCondition": {
          "castRangeMax": 2.7,
          "pickRangeMin": 5,
          "pickRangeMax": 15,
          "pose": [101]
        },
        "skillGroupCDID": 1,
        "enableSkillPrepare": true,
        "skillPrepareGiveUp": true,
        "skillPrepareTimeout": 4
      },
      // 大斧旋风斩！
      "401": {
        "cd": 28.0,
        "cdUpperRange": 6,
        "initialCD": 7,
        "priority": 2,
        "name": "RushAttack",
        "stateIDs": ["WhirlAttack", "WhirlAttack_Attack"],
        "combatSkillType": "MeleeAttack",
        "flagSelfInZone": "11",
        "flagTargetInZone": "11",
        "flagSelfOnTemplateCollider": "11",
        "castCondition": {
          "pickRangeMin": 0,
          "pickRangeMax": 5,
          "pose": [101]
        },
        "skillGroupCDID": 2
      },
      "402": {
        "cd": 28.0,
        "cdUpperRange": 6,
        "initialCD": 7,
        "priority": 3,
        "name": "RushAttack",
        "stateIDs": ["WhirlAttack", "WhirlAttack_Attack"],
        "combatSkillType": "MeleeAttack",
        "flagSelfInZone": "11",
        "flagTargetInZone": "11",
        "flagSelfOnTemplateCollider": "11",
        "castCondition": {
          "castRangeMax": 2.7,
          "pickRangeMin": 5,
          "pickRangeMax": 15,
          "pose": [101]
        },
        "skillGroupCDID": 2,
        "enableSkillPrepare": true,
        "skillPrepareGiveUp": true,
        "skillPrepareTimeout": 4
      },
      // 盾冲
      "501": {
        "cd": 17.0,
        "priority": 2,
        "name": "ShieldAttack",
        "stateIDs": ["ShieldAttack_BS", "ShieldAttack"],
        "combatSkillType": "MeleeAttack",
        "flagSelfInZone": "11",
        "flagTargetInZone": "11",
        "flagSelfOnTemplateCollider": "11",
        "castCondition": {
          "maxTargetAngleXZ": 90,
          "pickRangeMin": 0,
          "pickRangeMax": 4.75,
          "pose": [101]
        },
        "skillGroupCDID": 3
      },
      "502": {
        "cd": 17.0,
        "priority": 3,
        "name": "ShieldAttack",
        "stateIDs": ["ShieldAttack_BS", "ShieldAttack"],
        "combatSkillType": "MeleeAttack",
        "flagSelfInZone": "11",
        "flagTargetInZone": "11",
        "flagSelfOnTemplateCollider": "11",
        "castCondition": {
          "castRangeMax": 2.7,
          "pickRangeMin": 5,
          "pickRangeMax": 15,
          "pose": [101]
        },
        "skillGroupCDID": 3,
        "enableSkillPrepare": true,
        "skillPrepareGiveUp": true,
        "skillPrepareTimeout": 4
      },
      // //
      // d88888b d8888b. d88888b d88888b      d8888b.  .d88b.  .d8888. d88888b
      // 88'     88  `8D 88'     88'          88  `8D .8P  Y8. 88'  YP 88'
      // 88ooo   88oobY' 88ooooo 88ooooo      88oodD' 88    88 `8bo.   88ooooo
      // 88~~~   88`8b   88~~~~~ 88~~~~~      88~~~   88    88   `Y8b. 88~~~~~
      // 88      88 `88. 88.     88.          88      `8b  d8' db   8D 88.
      // YP      88   YD Y88888P Y88888P      88       `Y88P'  `8888Y' Y88888P
      "9001": {
        // 检视武器
        "initialCD": 2,
        "initialCDUpperRange": 5,
        "ignoreGCD": true,
        "triggerGCD": false,
        "skillGroupCDID": 1,
        "skillType": "Free",
        "name": "Personality_9001",
        "stateIDs": ["Personality_9001"],
        "castCondition": {
          "pose": [1]
        }
      },
      "9002": {
        // 环顾四周
        "initialCD": 2,
        "initialCDUpperRange": 5,
        "ignoreGCD": true,
        "triggerGCD": false,
        "skillGroupCDID": 1,
        "skillType": "Free",
        "name": "Personality_9002",
        "stateIDs": ["Personality_9002"],
        "castCondition": {
          "pose": [1]
        }
      }
    }
  },
  "inputKeys": [
    {
      "keyID": 201, // 架盾
      "inputKeyCode": 257 // 1
    },
    {
      "keyID": 211, // 拆盾
      "inputKeyCode": 258 // 2
    },
    {
      "keyID": 301, // 普攻三连击
      "inputKeyCode": 259 // 3
    },
    {
      "keyID": 401, // 旋风斩
      "inputKeyCode": 260 // 4
    },
    {
      "keyID": 501, // 盾冲
      "inputKeyCode": 261 // 5
    }
  ]
}
